xxxxxxxxxxxxxxxxxxxxxxxxxxxxxxxxxxxxxxxxxxxxxxxxxxxxxxxxxxx
                 Starting BigCrush
                 Version: TestU01 1.2.3
xxxxxxxxxxxxxxxxxxxxxxxxxxxxxxxxxxxxxxxxxxxxxxxxxxxxxxxxxxx


***********************************************************
Test smarsa_SerialOver calling smultin_MultinomialOver

***********************************************************
HOST = ru01, Linux

MersenneTwiter


smultin_MultinomialOver test:
-----------------------------------------------
   N =  1,  n = 1000000000,  r =  0,   d =  256,   t =  3,
       Sparse =  FALSE

       GenerCell = smultin_GenerCellSerial
       Number of cells = d^t =           16777216
       Expected number per cell =   59.604645
       Hashing =  FALSE

   For Delta > -1, we use the ChiSquare approximation
   Correction factor of the ChiSquare: 
       Delta =     1,    Mu =   0.0083558402,    Sigma =          1

-----------------------------------------------
Test Results for Delta =   1.0000

Number of degrees of freedom          : 16711680
Value of the statistic                : 1.67e+7
p-value of test                       :    0.54


-----------------------------------------------
CPU time used                    :  00:02:41.99

Generator state:




***********************************************************
Test smarsa_SerialOver calling smultin_MultinomialOver

***********************************************************
HOST = ru01, Linux

MersenneTwiter


smultin_MultinomialOver test:
-----------------------------------------------
   N =  1,  n = 1000000000,  r = 22,   d =  256,   t =  3,
       Sparse =  FALSE

       GenerCell = smultin_GenerCellSerial
       Number of cells = d^t =           16777216
       Expected number per cell =   59.604645
       Hashing =  FALSE

   For Delta > -1, we use the ChiSquare approximation
   Correction factor of the ChiSquare: 
       Delta =     1,    Mu =   0.0083558402,    Sigma =          1

-----------------------------------------------
Test Results for Delta =   1.0000

Number of degrees of freedom          : 16711680
Value of the statistic                : 1.67e+7
p-value of test                       :    0.06


-----------------------------------------------
CPU time used                    :  00:02:43.18

Generator state:




***********************************************************
Test smarsa_CollisionOver calling smultin_MultinomialOver

***********************************************************
HOST = ru01, Linux

MersenneTwiter


smultin_MultinomialOver test:
-----------------------------------------------
   N = 30,  n = 20000000,  r =  0,   d = 2097152,   t =  2,
       Sparse =   TRUE

       GenerCell = smultin_GenerCellSerial
       Number of cells = d^t =      4398046511104
       Expected number per cell =  1 /  219902.33
       EColl = n^2 / (2k) =  45.47473509
       Hashing =   TRUE

       Collision test

       CollisionOver:   density = n / k =  1 /  219902.33
       Expected number of collisions = Mu =      45.47


-----------------------------------------------
Results of CollisionOver test:

POISSON approximation                 :
Expected number of collisions = N*Mu  :     1364.24
Observed number of collisions         :     1397
p-value of test                       :    0.19

-----------------------------
Total number of cells containing j balls

  j =  0                              :  131940795334517
  j =  1                              :        599997206
  j =  2                              :             1397
  j =  3                              :                0
  j =  4                              :                0
  j =  5                              :                0

-----------------------------------------------
CPU time used                    :  00:07:50.62

Generator state:




***********************************************************
Test smarsa_CollisionOver calling smultin_MultinomialOver

***********************************************************
HOST = ru01, Linux

MersenneTwiter


smultin_MultinomialOver test:
-----------------------------------------------
   N = 30,  n = 20000000,  r =  9,   d = 2097152,   t =  2,
       Sparse =   TRUE

       GenerCell = smultin_GenerCellSerial
       Number of cells = d^t =      4398046511104
       Expected number per cell =  1 /  219902.33
       EColl = n^2 / (2k) =  45.47473509
       Hashing =   TRUE

       Collision test

       CollisionOver:   density = n / k =  1 /  219902.33
       Expected number of collisions = Mu =      45.47


-----------------------------------------------
Results of CollisionOver test:

POISSON approximation                 :
Expected number of collisions = N*Mu  :     1364.24
Observed number of collisions         :     1377
p-value of test                       :    0.37

-----------------------------
Total number of cells containing j balls

  j =  0                              :  131940795334497
  j =  1                              :        599997246
  j =  2                              :             1377
  j =  3                              :                0
  j =  4                              :                0
  j =  5                              :                0

-----------------------------------------------
CPU time used                    :  00:07:46.08

Generator state:




***********************************************************
Test smarsa_CollisionOver calling smultin_MultinomialOver

***********************************************************
HOST = ru01, Linux

MersenneTwiter


smultin_MultinomialOver test:
-----------------------------------------------
   N = 30,  n = 20000000,  r =  0,   d = 16384,   t =  3,
       Sparse =   TRUE

       GenerCell = smultin_GenerCellSerial
       Number of cells = d^t =      4398046511104
       Expected number per cell =  1 /  219902.33
       EColl = n^2 / (2k) =  45.47473509
       Hashing =   TRUE

       Collision test

       CollisionOver:   density = n / k =  1 /  219902.33
       Expected number of collisions = Mu =      45.47


-----------------------------------------------
Results of CollisionOver test:

POISSON approximation                 :
Expected number of collisions = N*Mu  :     1364.24
Observed number of collisions         :     1358
p-value of test                       :    0.56

-----------------------------
Total number of cells containing j balls

  j =  0                              :  131940795334478
  j =  1                              :        599997284
  j =  2                              :             1358
  j =  3                              :                0
  j =  4                              :                0
  j =  5                              :                0

-----------------------------------------------
CPU time used                    :  00:10:41.74

Generator state:




***********************************************************
Test smarsa_CollisionOver calling smultin_MultinomialOver

***********************************************************
HOST = ru01, Linux

MersenneTwiter


smultin_MultinomialOver test:
-----------------------------------------------
   N = 30,  n = 20000000,  r = 16,   d = 16384,   t =  3,
       Sparse =   TRUE

       GenerCell = smultin_GenerCellSerial
       Number of cells = d^t =      4398046511104
       Expected number per cell =  1 /  219902.33
       EColl = n^2 / (2k) =  45.47473509
       Hashing =   TRUE

       Collision test

       CollisionOver:   density = n / k =  1 /  219902.33
       Expected number of collisions = Mu =      45.47


-----------------------------------------------
Results of CollisionOver test:

POISSON approximation                 :
Expected number of collisions = N*Mu  :     1364.24
Observed number of collisions         :     1309
p-value of test                       :    0.93

-----------------------------
Total number of cells containing j balls

  j =  0                              :  131940795334429
  j =  1                              :        599997382
  j =  2                              :             1309
  j =  3                              :                0
  j =  4                              :                0
  j =  5                              :                0

-----------------------------------------------
CPU time used                    :  00:10:45.92

Generator state:




***********************************************************
Test smarsa_CollisionOver calling smultin_MultinomialOver

***********************************************************
HOST = ru01, Linux

MersenneTwiter


smultin_MultinomialOver test:
-----------------------------------------------
   N = 30,  n = 20000000,  r =  0,   d =   64,   t =  7,
       Sparse =   TRUE

       GenerCell = smultin_GenerCellSerial
       Number of cells = d^t =      4398046511104
       Expected number per cell =  1 /  219902.33
       EColl = n^2 / (2k) =  45.47473509
       Hashing =   TRUE

       Collision test

       CollisionOver:   density = n / k =  1 /  219902.33
       Expected number of collisions = Mu =      45.47


-----------------------------------------------
Results of CollisionOver test:

POISSON approximation                 :
Expected number of collisions = N*Mu  :     1364.24
Observed number of collisions         :     1419
p-value of test                       :    0.07

-----------------------------
Total number of cells containing j balls

  j =  0                              :  131940795334539
  j =  1                              :        599997162
  j =  2                              :             1419
  j =  3                              :                0
  j =  4                              :                0
  j =  5                              :                0

-----------------------------------------------
CPU time used                    :  00:10:48.48

Generator state:




***********************************************************
Test smarsa_CollisionOver calling smultin_MultinomialOver

***********************************************************
HOST = ru01, Linux

MersenneTwiter


smultin_MultinomialOver test:
-----------------------------------------------
   N = 30,  n = 20000000,  r = 24,   d =   64,   t =  7,
       Sparse =   TRUE

       GenerCell = smultin_GenerCellSerial
       Number of cells = d^t =      4398046511104
       Expected number per cell =  1 /  219902.33
       EColl = n^2 / (2k) =  45.47473509
       Hashing =   TRUE

       Collision test

       CollisionOver:   density = n / k =  1 /  219902.33
       Expected number of collisions = Mu =      45.47


-----------------------------------------------
Results of CollisionOver test:

POISSON approximation                 :
Expected number of collisions = N*Mu  :     1364.24
Observed number of collisions         :     1391
p-value of test                       :    0.24

-----------------------------
Total number of cells containing j balls

  j =  0                              :  131940795334511
  j =  1                              :        599997218
  j =  2                              :             1391
  j =  3                              :                0
  j =  4                              :                0
  j =  5                              :                0

-----------------------------------------------
CPU time used                    :  00:10:50.94

Generator state:




***********************************************************
Test smarsa_CollisionOver calling smultin_MultinomialOver

***********************************************************
HOST = ru01, Linux

MersenneTwiter


smultin_MultinomialOver test:
-----------------------------------------------
   N = 30,  n = 20000000,  r =  0,   d =    8,   t = 14,
       Sparse =   TRUE

       GenerCell = smultin_GenerCellSerial
       Number of cells = d^t =      4398046511104
       Expected number per cell =  1 /  219902.33
       EColl = n^2 / (2k) =  45.47473509
       Hashing =   TRUE

       Collision test

       CollisionOver:   density = n / k =  1 /  219902.33
       Expected number of collisions = Mu =      45.47


-----------------------------------------------
Results of CollisionOver test:

POISSON approximation                 :
Expected number of collisions = N*Mu  :     1364.24
Observed number of collisions         :     1348
p-value of test                       :    0.66

-----------------------------
Total number of cells containing j balls

  j =  0                              :  131940795334468
  j =  1                              :        599997304
  j =  2                              :             1348
  j =  3                              :                0
  j =  4                              :                0
  j =  5                              :                0

-----------------------------------------------
CPU time used                    :  00:10:53.85

Generator state:




***********************************************************
Test smarsa_CollisionOver calling smultin_MultinomialOver

***********************************************************
HOST = ru01, Linux

MersenneTwiter


smultin_MultinomialOver test:
-----------------------------------------------
   N = 30,  n = 20000000,  r = 27,   d =    8,   t = 14,
       Sparse =   TRUE

       GenerCell = smultin_GenerCellSerial
       Number of cells = d^t =      4398046511104
       Expected number per cell =  1 /  219902.33
       EColl = n^2 / (2k) =  45.47473509
       Hashing =   TRUE

       Collision test

       CollisionOver:   density = n / k =  1 /  219902.33
       Expected number of collisions = Mu =      45.47


-----------------------------------------------
Results of CollisionOver test:

POISSON approximation                 :
Expected number of collisions = N*Mu  :     1364.24
Observed number of collisions         :     1338
p-value of test                       :    0.76

-----------------------------
Total number of cells containing j balls

  j =  0                              :  131940795334458
  j =  1                              :        599997324
  j =  2                              :             1338
  j =  3                              :                0
  j =  4                              :                0
  j =  5                              :                0

-----------------------------------------------
CPU time used                    :  00:10:50.14

Generator state:




***********************************************************
Test smarsa_CollisionOver calling smultin_MultinomialOver

***********************************************************
HOST = ru01, Linux

MersenneTwiter


smultin_MultinomialOver test:
-----------------------------------------------
   N = 30,  n = 20000000,  r =  0,   d =    4,   t = 21,
       Sparse =   TRUE

       GenerCell = smultin_GenerCellSerial
       Number of cells = d^t =      4398046511104
       Expected number per cell =  1 /  219902.33
       EColl = n^2 / (2k) =  45.47473509
       Hashing =   TRUE

       Collision test

       CollisionOver:   density = n / k =  1 /  219902.33
       Expected number of collisions = Mu =      45.47


-----------------------------------------------
Results of CollisionOver test:

POISSON approximation                 :
Expected number of collisions = N*Mu  :     1364.24
Observed number of collisions         :     1393
p-value of test                       :    0.22

-----------------------------
Total number of cells containing j balls

  j =  0                              :  131940795334513
  j =  1                              :        599997214
  j =  2                              :             1393
  j =  3                              :                0
  j =  4                              :                0
  j =  5                              :                0

-----------------------------------------------
CPU time used                    :  00:10:48.86

Generator state:




***********************************************************
Test smarsa_CollisionOver calling smultin_MultinomialOver

***********************************************************
HOST = ru01, Linux

MersenneTwiter


smultin_MultinomialOver test:
-----------------------------------------------
   N = 30,  n = 20000000,  r = 28,   d =    4,   t = 21,
       Sparse =   TRUE

       GenerCell = smultin_GenerCellSerial
       Number of cells = d^t =      4398046511104
       Expected number per cell =  1 /  219902.33
       EColl = n^2 / (2k) =  45.47473509
       Hashing =   TRUE

       Collision test

       CollisionOver:   density = n / k =  1 /  219902.33
       Expected number of collisions = Mu =      45.47


-----------------------------------------------
Results of CollisionOver test:

POISSON approximation                 :
Expected number of collisions = N*Mu  :     1364.24
Observed number of collisions         :     1402
p-value of test                       :    0.16

-----------------------------
Total number of cells containing j balls

  j =  0                              :  131940795334522
  j =  1                              :        599997196
  j =  2                              :             1402
  j =  3                              :                0
  j =  4                              :                0
  j =  5                              :                0

-----------------------------------------------
CPU time used                    :  00:10:46.52

Generator state:




***********************************************************
HOST = ru01, Linux

MersenneTwiter


smarsa_BirthdaySpacings test:
-----------------------------------------------
   N = 100,  n = 10000000,  r =  0,    d = 2147483648,    t = 2,    p = 1


      Number of cells = d^t = 4611686018427387904
      Lambda = Poisson mean =      54.2101


----------------------------------------------------
Total expected number = N*Lambda      :    5421.01
Total observed number                 :    5343
p-value of test                       :    0.85


-----------------------------------------------
CPU time used                    :  00:04:06.93

Generator state:




***********************************************************
HOST = ru01, Linux

MersenneTwiter


smarsa_BirthdaySpacings test:
-----------------------------------------------
   N = 20,  n = 20000000,  r =  0,    d = 2097152,    t = 3,    p = 1


      Number of cells = d^t = 9223372036854775808
      Lambda = Poisson mean =     216.8404


----------------------------------------------------
Total expected number = N*Lambda      :    4336.81
Total observed number                 :    4378
p-value of test                       :    0.27


-----------------------------------------------
CPU time used                    :  00:01:59.18

Generator state:




***********************************************************
HOST = ru01, Linux

MersenneTwiter


smarsa_BirthdaySpacings test:
-----------------------------------------------
   N = 20,  n = 30000000,  r = 14,    d = 65536,    t = 4,    p = 1


      Number of cells = d^t = 18446744073709551616
      Lambda = Poisson mean =     365.9182


----------------------------------------------------
Total expected number = N*Lambda      :    7318.36
Total observed number                 :    7294
p-value of test                       :    0.61


-----------------------------------------------
CPU time used                    :  00:03:15.82

Generator state:




***********************************************************
HOST = ru01, Linux

MersenneTwiter


smarsa_BirthdaySpacings test:
-----------------------------------------------
   N = 20,  n = 20000000,  r =  0,    d = 512,    t = 7,    p = 1


      Number of cells = d^t = 9223372036854775808
      Lambda = Poisson mean =     216.8404


----------------------------------------------------
Total expected number = N*Lambda      :    4336.81
Total observed number                 :    4388
p-value of test                       :    0.22


-----------------------------------------------
CPU time used                    :  00:02:17.43

Generator state:




***********************************************************
HOST = ru01, Linux

MersenneTwiter


smarsa_BirthdaySpacings test:
-----------------------------------------------
   N = 20,  n = 20000000,  r =  7,    d = 512,    t = 7,    p = 1


      Number of cells = d^t = 9223372036854775808
      Lambda = Poisson mean =     216.8404


----------------------------------------------------
Total expected number = N*Lambda      :    4336.81
Total observed number                 :    4483
p-value of test                       :    0.01


-----------------------------------------------
CPU time used                    :  00:02:24.57

Generator state:




***********************************************************
HOST = ru01, Linux

MersenneTwiter


smarsa_BirthdaySpacings test:
-----------------------------------------------
   N = 20,  n = 30000000,  r = 14,    d = 256,    t = 8,    p = 1


      Number of cells = d^t = 18446744073709551616
      Lambda = Poisson mean =     365.9182


----------------------------------------------------
Total expected number = N*Lambda      :    7318.36
Total observed number                 :    7154
p-value of test                       :    0.97


-----------------------------------------------
CPU time used                    :  00:03:48.39

Generator state:




***********************************************************
HOST = ru01, Linux

MersenneTwiter


smarsa_BirthdaySpacings test:
-----------------------------------------------
   N = 20,  n = 30000000,  r = 22,    d = 256,    t = 8,    p = 1


      Number of cells = d^t = 18446744073709551616
      Lambda = Poisson mean =     365.9182


----------------------------------------------------
Total expected number = N*Lambda      :    7318.36
Total observed number                 :    7266
p-value of test                       :    0.73


-----------------------------------------------
CPU time used                    :  00:03:50.60

Generator state:




***********************************************************
HOST = ru01, Linux

MersenneTwiter


smarsa_BirthdaySpacings test:
-----------------------------------------------
   N = 20,  n = 30000000,  r =  0,    d = 16,    t = 16,    p = 1


      Number of cells = d^t = 18446744073709551616
      Lambda = Poisson mean =     365.9182


----------------------------------------------------
Total expected number = N*Lambda      :    7318.36
Total observed number                 :    7487
p-value of test                       :    0.03


-----------------------------------------------
CPU time used                    :  00:04:34.65

Generator state:




***********************************************************
HOST = ru01, Linux

MersenneTwiter


smarsa_BirthdaySpacings test:
-----------------------------------------------
   N = 20,  n = 30000000,  r = 26,    d = 16,    t = 16,    p = 1


      Number of cells = d^t = 18446744073709551616
      Lambda = Poisson mean =     365.9182


----------------------------------------------------
Total expected number = N*Lambda      :    7318.36
Total observed number                 :    7349
p-value of test                       :    0.36


-----------------------------------------------
CPU time used                    :  00:04:51.35

Generator state:




***********************************************************
HOST = ru01, Linux

MersenneTwiter


snpair_ClosePairs test:
-----------------------------------------------
   N = 30,  n = 6000000,  r =  0,  t = 3,  p = 0,  m = 30,  Torus =  TRUE


---------------------------------------
Test based on the 2 nearest points (NP):

Stat. AD on the N values (NP)         :    0.64
p-value of test                       :    0.61


A2 test based on the spacings between the
   successive jump times of process Y_n(t):

A2 test on the values of A2 (m-NP)    :    0.57
p-value of test                       :    0.67

Test on the Nm values of W_{n,i}(mNP1):    0.44
p-value of test                       :    0.81

Test on the jump times of Y
   (superposition of Yn):

Expected number of jumps of Y = mN    :     900
Number of jumps of Y                  :     906
p-value of test                       :    0.43

Stat. AD (mNP2)                       :    0.75
p-value of test                       :    0.52

Stat. AD after spacings (mNP2-S)      :    1.37
p-value of test                       :    0.21

-----------------------------------------------
CPU time used                    :  00:02:57.65

Generator state:




***********************************************************
HOST = ru01, Linux

MersenneTwiter


snpair_ClosePairs test:
-----------------------------------------------
   N = 20,  n = 4000000,  r =  0,  t = 5,  p = 0,  m = 30,  Torus =  TRUE


---------------------------------------
Test based on the 2 nearest points (NP):

Stat. AD on the N values (NP)         :    0.48
p-value of test                       :    0.77


A2 test based on the spacings between the
   successive jump times of process Y_n(t):

A2 test on the values of A2 (m-NP)    :    1.27
p-value of test                       :    0.24

Test on the Nm values of W_{n,i}(mNP1):    2.02
p-value of test                       :    0.09

Test on the jump times of Y
   (superposition of Yn):

Expected number of jumps of Y = mN    :     600
Number of jumps of Y                  :     558
p-value of test                       :    0.96

Stat. AD (mNP2)                       :    0.37
p-value of test                       :    0.88

Stat. AD after spacings (mNP2-S)      :    0.55
p-value of test                       :    0.70

-----------------------------------------------
CPU time used                    :  00:02:01.34

Generator state:




***********************************************************
HOST = ru01, Linux

MersenneTwiter


snpair_ClosePairs test:
-----------------------------------------------
   N = 10,  n = 3000000,  r =  0,  t = 9,  p = 0,  m = 30,  Torus =  TRUE


---------------------------------------
Test based on the 2 nearest points (NP):

Stat. AD on the N values (NP)         :    0.56
p-value of test                       :    0.68


A2 test based on the spacings between the
   successive jump times of process Y_n(t):

A2 test on the values of A2 (m-NP)    :    0.38
p-value of test                       :    0.87

Test on the Nm values of W_{n,i}(mNP1):    1.08
p-value of test                       :    0.32

Test on the jump times of Y
   (superposition of Yn):

Expected number of jumps of Y = mN    :     300
Number of jumps of Y                  :     293
p-value of test                       :    0.64

Stat. AD (mNP2)                       :    0.83
p-value of test                       :    0.46

Stat. AD after spacings (mNP2-S)      :    0.47
p-value of test                       :    0.77

-----------------------------------------------
CPU time used                    :  00:02:57.46

Generator state:




***********************************************************
HOST = ru01, Linux

MersenneTwiter


snpair_ClosePairs test:
-----------------------------------------------
   N =  5,  n = 2000000,  r =  0,  t = 16,  p = 0,  m = 30,  Torus =  TRUE


---------------------------------------
Test based on the 2 nearest points (NP):

Stat. AD on the N values (NP)         :    0.50
p-value of test                       :    0.74


A2 test based on the spacings between the
   successive jump times of process Y_n(t):

A2 test on the values of A2 (m-NP)    :    1.38
p-value of test                       :    0.21

Test on the Nm values of W_{n,i}(mNP1):    0.41
p-value of test                       :    0.84

Test on the jump times of Y
   (superposition of Yn):

Expected number of jumps of Y = mN    :     150
Number of jumps of Y                  :     158
p-value of test                       :    0.27

Stat. AD (mNP2)                       :    0.63
p-value of test                       :    0.62

Stat. AD after spacings (mNP2-S)      :    0.31
p-value of test                       :    0.93

-----------------------------------------------
CPU time used                    :  00:03:18.10

Generator state:




***********************************************************
HOST = ru01, Linux

MersenneTwiter


sknuth_SimpPoker test:
-----------------------------------------------
   N =  1,  n = 400000000,  r =  0,   d =    8,   k =    8


-----------------------------------------------
Number of degrees of freedom          :    7
Chi-square statistic                  :    6.80
p-value of test                       :    0.45

-----------------------------------------------
CPU time used                    :  00:01:01.87

Generator state:




***********************************************************
HOST = ru01, Linux

MersenneTwiter


sknuth_SimpPoker test:
-----------------------------------------------
   N =  1,  n = 400000000,  r = 27,   d =    8,   k =    8


-----------------------------------------------
Number of degrees of freedom          :    7
Chi-square statistic                  :   15.20
p-value of test                       :    0.03

-----------------------------------------------
CPU time used                    :  00:01:17.17

Generator state:




***********************************************************
HOST = ru01, Linux

MersenneTwiter


sknuth_SimpPoker test:
-----------------------------------------------
   N =  1,  n = 100000000,  r =  0,   d =   32,   k =   32


-----------------------------------------------
Number of degrees of freedom          :   18
Chi-square statistic                  :   12.23
p-value of test                       :    0.83

-----------------------------------------------
CPU time used                    :  00:01:07.01

Generator state:




***********************************************************
HOST = ru01, Linux

MersenneTwiter


sknuth_SimpPoker test:
-----------------------------------------------
   N =  1,  n = 100000000,  r = 25,   d =   32,   k =   32


-----------------------------------------------
Number of degrees of freedom          :   18
Chi-square statistic                  :   18.08
p-value of test                       :    0.45

-----------------------------------------------
CPU time used                    :  00:01:26.29

Generator state:




***********************************************************
HOST = ru01, Linux

MersenneTwiter


sknuth_CouponCollector test:
-----------------------------------------------
   N =  1,  n = 200000000,  r =  0,   d =    8


-----------------------------------------------
Number of degrees of freedom          :   54
Chi-square statistic                  :   45.02
p-value of test                       :    0.80

-----------------------------------------------
CPU time used                    :  00:01:21.34

Generator state:




***********************************************************
HOST = ru01, Linux

MersenneTwiter


sknuth_CouponCollector test:
-----------------------------------------------
   N =  1,  n = 200000000,  r = 10,   d =    8


-----------------------------------------------
Number of degrees of freedom          :   54
Chi-square statistic                  :   36.85
p-value of test                       :    0.96

-----------------------------------------------
CPU time used                    :  00:01:40.37

Generator state:




***********************************************************
HOST = ru01, Linux

MersenneTwiter


sknuth_CouponCollector test:
-----------------------------------------------
   N =  1,  n = 200000000,  r = 20,   d =    8


-----------------------------------------------
Number of degrees of freedom          :   54
Chi-square statistic                  :   66.46
p-value of test                       :    0.12

-----------------------------------------------
CPU time used                    :  00:01:40.50

Generator state:




***********************************************************
HOST = ru01, Linux

MersenneTwiter


sknuth_CouponCollector test:
-----------------------------------------------
   N =  1,  n = 200000000,  r = 27,   d =    8


-----------------------------------------------
Number of degrees of freedom          :   54
Chi-square statistic                  :   45.67
p-value of test                       :    0.78

-----------------------------------------------
CPU time used                    :  00:01:40.44

Generator state:




***********************************************************
HOST = ru01, Linux

MersenneTwiter


sknuth_Gap test:
-----------------------------------------------
   N =  1,  n = 500000000,  r =  0,   Alpha =        0,   Beta  =   0.0625


-----------------------------------------------
Number of degrees of freedom          :  232
Chi-square statistic                  :  183.66
p-value of test                       :    0.9916

-----------------------------------------------
CPU time used                    :  00:01:41.80

Generator state:




***********************************************************
HOST = ru01, Linux

MersenneTwiter


sknuth_Gap test:
-----------------------------------------------
   N =  1,  n = 300000000,  r = 25,   Alpha =        0,   Beta  =  0.03125


-----------------------------------------------
Number of degrees of freedom          :  434
Chi-square statistic                  :  420.44
p-value of test                       :    0.67

-----------------------------------------------
CPU time used                    :  00:02:27.07

Generator state:




***********************************************************
HOST = ru01, Linux

MersenneTwiter


sknuth_Gap test:
-----------------------------------------------
   N =  1,  n = 100000000,  r =  0,   Alpha =        0,   Beta  = 0.0078125


-----------------------------------------------
Number of degrees of freedom          : 1437
Chi-square statistic                  : 1342.58
p-value of test                       :    0.96

-----------------------------------------------
CPU time used                    :  00:02:29.85

Generator state:




***********************************************************
HOST = ru01, Linux

MersenneTwiter


sknuth_Gap test:
-----------------------------------------------
   N =  1,  n = 10000000,  r = 20,   Alpha =        0,   Beta  = 0.000976562


-----------------------------------------------
Number of degrees of freedom          : 7046
Chi-square statistic                  : 7058.64
p-value of test                       :    0.46

-----------------------------------------------
CPU time used                    :  00:02:25.56

Generator state:




***********************************************************
HOST = ru01, Linux

MersenneTwiter


sknuth_Run test:
-----------------------------------------------
   N =  5,  n = 1000000000,  r =  0,   Up = FALSE


-----------------------------------------------

Kolmogorov-Smirnov+ statistic = D+    :    0.25
p-value of test                       :    0.46

Kolmogorov-Smirnov- statistic = D-    :    0.17
p-value of test                       :    0.69

Anderson-Darling statistic = A2       :    0.47
p-value of test                       :    0.77

Test on the sum of all N observations
Number of degrees of freedom          :   30
Chi-square statistic                  :   26.04
p-value of test                       :    0.67

-----------------------------------------------
CPU time used                    :  00:01:28.57

Generator state:




***********************************************************
HOST = ru01, Linux

MersenneTwiter


sknuth_Run test:
-----------------------------------------------
   N = 10,  n = 1000000000,  r = 15,   Up =  TRUE


-----------------------------------------------

Kolmogorov-Smirnov+ statistic = D+    :   0.084
p-value of test                       :    0.83

Kolmogorov-Smirnov- statistic = D-    :    0.35
p-value of test                       :    0.07

Anderson-Darling statistic = A2       :    1.27
p-value of test                       :    0.24

Test on the sum of all N observations
Number of degrees of freedom          :   60
Chi-square statistic                  :   72.95
p-value of test                       :    0.12

-----------------------------------------------
CPU time used                    :  00:03:31.48

Generator state:




***********************************************************
Test sknuth_Permutation calling smultin_Multinomial

***********************************************************
HOST = ru01, Linux

MersenneTwiter


smultin_Multinomial test:
-----------------------------------------------
   N =  1,  n = 1000000000,  r =  5,   t =  3,
       Sparse =  FALSE

       GenerCell = smultin_GenerCellPermut
       Number of cells = t! =                  6
       Expected number per cell =  1.6666667e+08
       Hashing =  FALSE

   For Delta > -1, we use the ChiSquare approximation
   Correction factor of the ChiSquare: 
       Delta =     1,    Mu =  2.5000002e-09,    Sigma =          1

-----------------------------------------------
Test Results for Delta =   1.0000

Number of degrees of freedom          :    5
Value of the statistic                :    5.08
p-value of test                       :    0.41


-----------------------------------------------
CPU time used                    :  00:01:02.92

Generator state:




***********************************************************
Test sknuth_Permutation calling smultin_Multinomial

***********************************************************
HOST = ru01, Linux

MersenneTwiter


smultin_Multinomial test:
-----------------------------------------------
   N =  1,  n = 1000000000,  r =  5,   t =  5,
       Sparse =  FALSE

       GenerCell = smultin_GenerCellPermut
       Number of cells = t! =                120
       Expected number per cell =   8333333.3
       Hashing =  FALSE

   For Delta > -1, we use the ChiSquare approximation
   Correction factor of the ChiSquare: 
       Delta =     1,    Mu =  5.9500005e-08,    Sigma =          1

-----------------------------------------------
Test Results for Delta =   1.0000

Number of degrees of freedom          :  119
Value of the statistic                :  115.90
p-value of test                       :    0.56


-----------------------------------------------
CPU time used                    :  00:01:49.55

Generator state:




***********************************************************
Test sknuth_Permutation calling smultin_Multinomial

***********************************************************
HOST = ru01, Linux

MersenneTwiter


smultin_Multinomial test:
-----------------------------------------------
   N =  1,  n = 500000000,  r =  5,   t =  7,
       Sparse =  FALSE

       GenerCell = smultin_GenerCellPermut
       Number of cells = t! =               5040
       Expected number per cell =   99206.349
       Hashing =  FALSE

   For Delta > -1, we use the ChiSquare approximation
   Correction factor of the ChiSquare: 
       Delta =     1,    Mu =  5.0390004e-06,    Sigma =          1

-----------------------------------------------
Test Results for Delta =   1.0000

Number of degrees of freedom          : 5039
Value of the statistic                : 5073.61
p-value of test                       :    0.36


-----------------------------------------------
CPU time used                    :  00:01:22.98

Generator state:




***********************************************************
Test sknuth_Permutation calling smultin_Multinomial

***********************************************************
HOST = ru01, Linux

MersenneTwiter


smultin_Multinomial test:
-----------------------------------------------
   N =  1,  n = 500000000,  r = 10,   t = 10,
       Sparse =  FALSE

       GenerCell = smultin_GenerCellPermut
       Number of cells = t! =            3628800
       Expected number per cell =    137.7866
       Hashing =  FALSE

   For Delta > -1, we use the ChiSquare approximation
   Correction factor of the ChiSquare: 
       Delta =     1,    Mu =   0.0036287993,    Sigma =          1

-----------------------------------------------
Test Results for Delta =   1.0000

Number of degrees of freedom          : 3628799
Value of the statistic                : 3.63e+6
p-value of test                       :    0.41


-----------------------------------------------
CPU time used                    :  00:03:44.37

Generator state:




***********************************************************
Test sknuth_CollisionPermut calling smultin_Multinomial

***********************************************************
HOST = ru01, Linux

MersenneTwiter


smultin_Multinomial test:
-----------------------------------------------
   N = 20,  n = 20000000,  r =  0,   t = 14,
       Sparse =   TRUE

       GenerCell = smultin_GenerCellPermut
       Number of cells = t! =        87178291200
       Expected number per cell =  1 /  4358.9146
       EColl = n^2 / (2k) =   2294.14912
       Hashing =   TRUE

       Collision test,    Mu =      2293.9736,    Sigma =    47.8841

-----------------------------------------------
Test Results for Collisions

For the total number of collisions, we use
      the Poisson approximation:
Expected number of collisions = N*Mu  :    45879.47
Observed number of collisions         :    46047
p-value of test                       :    0.22


-----------------------------
Total number of cells containing j balls

  j =  0                              :    1743165870047
  j =  1                              :        399907908
  j =  2                              :            46043
  j =  3                              :                2
  j =  4                              :                0
  j =  5                              :                0

-----------------------------------------------
CPU time used                    :  00:05:32.57

Generator state:




***********************************************************
Test sknuth_CollisionPermut calling smultin_Multinomial

***********************************************************
HOST = ru01, Linux

MersenneTwiter


smultin_Multinomial test:
-----------------------------------------------
   N = 20,  n = 20000000,  r = 10,   t = 14,
       Sparse =   TRUE

       GenerCell = smultin_GenerCellPermut
       Number of cells = t! =        87178291200
       Expected number per cell =  1 /  4358.9146
       EColl = n^2 / (2k) =   2294.14912
       Hashing =   TRUE

       Collision test,    Mu =      2293.9736,    Sigma =    47.8841

-----------------------------------------------
Test Results for Collisions

For the total number of collisions, we use
      the Poisson approximation:
Expected number of collisions = N*Mu  :    45879.47
Observed number of collisions         :    45819
p-value of test                       :    0.61


-----------------------------
Total number of cells containing j balls

  j =  0                              :    1743165869819
  j =  1                              :        399908366
  j =  2                              :            45811
  j =  3                              :                4
  j =  4                              :                0
  j =  5                              :                0

-----------------------------------------------
CPU time used                    :  00:05:49.29

Generator state:




***********************************************************
HOST = ru01, Linux

MersenneTwiter


sknuth_MaxOft test:
-----------------------------------------------
   N = 40,  n = 10000000,  r =  0,   d = 100000,   t =  8

      Number of categories = 100000
      Expected number per category  = 100.00


-----------------------------------------------
Test results for chi2 with 99999 degrees of freedom:

Kolmogorov-Smirnov+ statistic = D+    :   0.067
p-value of test                       :    0.67

Kolmogorov-Smirnov- statistic = D-    :    0.18
p-value of test                       :    0.07

Anderson-Darling statistic = A2       :    1.41
p-value of test                       :    0.20

Test on the sum of all N observations
Number of degrees of freedom          : 3999960
Chi-square statistic                  : 4.00e+6
p-value of test                       :    0.12


-----------------------------------------------
Test results for Anderson-Darling:

Kolmogorov-Smirnov+ statistic = D+    :   0.077
p-value of test                       :    0.59

Kolmogorov-Smirnov- statistic = D-    :    0.11
p-value of test                       :    0.36

Anderson-Darling statistic = A2       :    0.38
p-value of test                       :    0.87


-----------------------------------------------
CPU time used                    :  00:02:06.45

Generator state:




***********************************************************
HOST = ru01, Linux

MersenneTwiter


sknuth_MaxOft test:
-----------------------------------------------
   N = 30,  n = 10000000,  r =  0,   d = 100000,   t = 16

      Number of categories = 100000
      Expected number per category  = 100.00


-----------------------------------------------
Test results for chi2 with 99999 degrees of freedom:

Kolmogorov-Smirnov+ statistic = D+    :   0.047
p-value of test                       :    0.85

Kolmogorov-Smirnov- statistic = D-    :    0.16
p-value of test                       :    0.19

Anderson-Darling statistic = A2       :    1.16
p-value of test                       :    0.28

Test on the sum of all N observations
Number of degrees of freedom          : 2999970
Chi-square statistic                  : 3.00e+6
p-value of test                       :    0.14


-----------------------------------------------
Test results for Anderson-Darling:

Kolmogorov-Smirnov+ statistic = D+    :    0.19
p-value of test                       :    0.11

Kolmogorov-Smirnov- statistic = D-    :   0.022
p-value of test                       :    0.96

Anderson-Darling statistic = A2       :    2.24
p-value of test                       :    0.07


-----------------------------------------------
CPU time used                    :  00:01:33.26

Generator state:




***********************************************************
HOST = ru01, Linux

MersenneTwiter


sknuth_MaxOft test:
-----------------------------------------------
   N = 20,  n = 10000000,  r =  0,   d = 100000,   t = 24

      Number of categories = 100000
      Expected number per category  = 100.00


-----------------------------------------------
Test results for chi2 with 99999 degrees of freedom:

Kolmogorov-Smirnov+ statistic = D+    :   0.074
p-value of test                       :    0.77

Kolmogorov-Smirnov- statistic = D-    :    0.25
p-value of test                       :    0.06

Anderson-Darling statistic = A2       :    1.89
p-value of test                       :    0.11

Test on the sum of all N observations
Number of degrees of freedom          : 1999980
Chi-square statistic                  : 2.00e+6
p-value of test                       :    0.04


-----------------------------------------------
Test results for Anderson-Darling:

Kolmogorov-Smirnov+ statistic = D+    :   0.089
p-value of test                       :    0.69

Kolmogorov-Smirnov- statistic = D-    :    0.20
p-value of test                       :    0.17

Anderson-Darling statistic = A2       :    0.91
p-value of test                       :    0.41


-----------------------------------------------
CPU time used                    :  00:01:13.89

Generator state:




***********************************************************
HOST = ru01, Linux

MersenneTwiter


sknuth_MaxOft test:
-----------------------------------------------
   N = 20,  n = 10000000,  r =  0,   d = 100000,   t = 32

      Number of categories = 100000
      Expected number per category  = 100.00


-----------------------------------------------
Test results for chi2 with 99999 degrees of freedom:

Kolmogorov-Smirnov+ statistic = D+    :    0.21
p-value of test                       :    0.15

Kolmogorov-Smirnov- statistic = D-    :   0.081
p-value of test                       :    0.73

Anderson-Darling statistic = A2       :    1.50
p-value of test                       :    0.18

Test on the sum of all N observations
Number of degrees of freedom          : 1999980
Chi-square statistic                  : 2.00e+6
p-value of test                       :    0.90


-----------------------------------------------
Test results for Anderson-Darling:

Kolmogorov-Smirnov+ statistic = D+    :   0.099
p-value of test                       :    0.63

Kolmogorov-Smirnov- statistic = D-    :   0.096
p-value of test                       :    0.65

Anderson-Darling statistic = A2       :    0.26
p-value of test                       :    0.97


-----------------------------------------------
CPU time used                    :  00:01:45.40

Generator state:




***********************************************************
HOST = ru01, Linux

MersenneTwiter


svaria_SampleProd test:
-----------------------------------------------
   N = 40,  n = 10000000,  r =  0,   t = 8


-----------------------------------------------

Kolmogorov-Smirnov+ statistic = D+    :   0.019
p-value of test                       :    0.96

Kolmogorov-Smirnov- statistic = D-    :    0.19
p-value of test                       :    0.05

Anderson-Darling statistic = A2       :    1.90
p-value of test                       :    0.11

-----------------------------------------------
CPU time used                    :  00:01:54.45

Generator state:




***********************************************************
HOST = ru01, Linux

MersenneTwiter


svaria_SampleProd test:
-----------------------------------------------
   N = 20,  n = 10000000,  r =  0,   t = 16


-----------------------------------------------

Kolmogorov-Smirnov+ statistic = D+    :   0.079
p-value of test                       :    0.74

Kolmogorov-Smirnov- statistic = D-    :    0.24
p-value of test                       :    0.09

Anderson-Darling statistic = A2       :    1.84
p-value of test                       :    0.11

-----------------------------------------------
CPU time used                    :  00:01:16.97

Generator state:




***********************************************************
HOST = ru01, Linux

MersenneTwiter


svaria_SampleProd test:
-----------------------------------------------
   N = 20,  n = 10000000,  r =  0,   t = 24


-----------------------------------------------

Kolmogorov-Smirnov+ statistic = D+    :    0.32
p-value of test                       :    0.01

Kolmogorov-Smirnov- statistic = D-    :   0.047
p-value of test                       :    0.89

Anderson-Darling statistic = A2       :    3.61
p-value of test                       :    0.01

-----------------------------------------------
CPU time used                    :  00:01:36.80

Generator state:




***********************************************************
HOST = ru01, Linux

MersenneTwiter


svaria_SampleMean test:
-----------------------------------------------
   N = 20000000,  n = 30,  r =  0


-----------------------------------------------

Kolmogorov-Smirnov+ statistic = D+    : 1.05e-4
p-value of test                       :    0.64

Kolmogorov-Smirnov- statistic = D-    : 1.78e-4
p-value of test                       :    0.28

Anderson-Darling statistic = A2       :    0.69
p-value of test                       :    0.57

-----------------------------------------------
CPU time used                    :  00:00:18.20

Generator state:




***********************************************************
HOST = ru01, Linux

MersenneTwiter


svaria_SampleMean test:
-----------------------------------------------
   N = 20000000,  n = 30,  r = 10


-----------------------------------------------

Kolmogorov-Smirnov+ statistic = D+    : 1.27e-4
p-value of test                       :    0.53

Kolmogorov-Smirnov- statistic = D-    : 1.39e-4
p-value of test                       :    0.46

Anderson-Darling statistic = A2       :    0.85
p-value of test                       :    0.44

-----------------------------------------------
CPU time used                    :  00:00:19.67

Generator state:




***********************************************************
HOST = ru01, Linux

MersenneTwiter


svaria_SampleCorr test:
-----------------------------------------------
   N =  1,  n = 2000000000,  r =  0,   k = 1


-----------------------------------------------
Normal statistic                      :    0.71
p-value of test                       :    0.24

-----------------------------------------------
CPU time used                    :  00:00:24.21

Generator state:




***********************************************************
HOST = ru01, Linux

MersenneTwiter


svaria_SampleCorr test:
-----------------------------------------------
   N =  1,  n = 2000000000,  r =  0,   k = 2


-----------------------------------------------
Normal statistic                      :   -0.29
p-value of test                       :    0.61

-----------------------------------------------
CPU time used                    :  00:00:23.46

Generator state:




***********************************************************
HOST = ru01, Linux

MersenneTwiter


svaria_AppearanceSpacings test:
-----------------------------------------------
   N =  1,   Q = 10000000,   K = 1000000000,   r = 0,   s = 3,   L = 15

   Sequences of n = (K + Q)L =  15150000000 bits
   Q = 10000000 initialization blocks
   K = 1000000000 blocks for the test
   the blocks have L = 15 bits



-----------------------------------------------
Normal statistic                      : -3.85e-3
p-value of test                       :    0.50

-----------------------------------------------
CPU time used                    :  00:01:35.29

Generator state:




***********************************************************
HOST = ru01, Linux

MersenneTwiter


svaria_AppearanceSpacings test:
-----------------------------------------------
   N =  1,   Q = 10000000,   K = 1000000000,   r = 27,   s = 3,   L = 15

   Sequences of n = (K + Q)L =  15150000000 bits
   Q = 10000000 initialization blocks
   K = 1000000000 blocks for the test
   the blocks have L = 15 bits



-----------------------------------------------
Normal statistic                      :   -0.36
p-value of test                       :    0.64

-----------------------------------------------
CPU time used                    :  00:01:38.20

Generator state:




***********************************************************
HOST = ru01, Linux

MersenneTwiter


svaria_WeightDistrib test:
-----------------------------------------------
   N =  1,  n = 20000000,  r =  0,  k = 256,  Alpha =      0,  Beta =   0.25


-----------------------------------------------
Number of degrees of freedom          :   67
Chi-square statistic                  :   53.77
p-value of test                       :    0.88

-----------------------------------------------
CPU time used                    :  00:00:58.92

Generator state:




***********************************************************
HOST = ru01, Linux

MersenneTwiter


svaria_WeightDistrib test:
-----------------------------------------------
   N =  1,  n = 20000000,  r = 20,  k = 256,  Alpha =      0,  Beta =   0.25


-----------------------------------------------
Number of degrees of freedom          :   67
Chi-square statistic                  :   62.18
p-value of test                       :    0.64

-----------------------------------------------
CPU time used                    :  00:01:14.25

Generator state:




***********************************************************
HOST = ru01, Linux

MersenneTwiter


svaria_WeightDistrib test:
-----------------------------------------------
   N =  1,  n = 20000000,  r = 28,  k = 256,  Alpha =      0,  Beta =   0.25


-----------------------------------------------
Number of degrees of freedom          :   67
Chi-square statistic                  :   79.90
p-value of test                       :    0.13

-----------------------------------------------
CPU time used                    :  00:01:14.22

Generator state:




***********************************************************
HOST = ru01, Linux

MersenneTwiter


svaria_WeightDistrib test:
-----------------------------------------------
   N =  1,  n = 20000000,  r =  0,  k = 256,  Alpha =      0,  Beta = 0.0625


-----------------------------------------------
Number of degrees of freedom          :   37
Chi-square statistic                  :   34.00
p-value of test                       :    0.61

-----------------------------------------------
CPU time used                    :  00:00:59.57

Generator state:




***********************************************************
HOST = ru01, Linux

MersenneTwiter


svaria_WeightDistrib test:
-----------------------------------------------
   N =  1,  n = 20000000,  r = 10,  k = 256,  Alpha =      0,  Beta = 0.0625


-----------------------------------------------
Number of degrees of freedom          :   37
Chi-square statistic                  :   39.67
p-value of test                       :    0.35

-----------------------------------------------
CPU time used                    :  00:01:12.45

Generator state:




***********************************************************
HOST = ru01, Linux

MersenneTwiter


svaria_WeightDistrib test:
-----------------------------------------------
   N =  1,  n = 20000000,  r = 26,  k = 256,  Alpha =      0,  Beta = 0.0625


-----------------------------------------------
Number of degrees of freedom          :   37
Chi-square statistic                  :   27.33
p-value of test                       :    0.88

-----------------------------------------------
CPU time used                    :  00:01:12.64

Generator state:




***********************************************************
HOST = ru01, Linux

MersenneTwiter


svaria_SumCollector test:
-----------------------------------------------
   N =  1,  n = 500000000,  r =  0,   g = 10


-----------------------------------------------
Number of degrees of freedom          :   29
Chi-square statistic                  :   51.60
p-value of test                       :  6.0e-3

-----------------------------------------------
CPU time used                    :  00:02:08.53

Generator state:




***********************************************************
HOST = ru01, Linux

MersenneTwiter


smarsa_MatrixRank test:
-----------------------------------------------
   N = 10,  n = 1000000,  r =  0,    s = 5,    L = 30,    k = 30


-----------------------------------------------

Kolmogorov-Smirnov+ statistic = D+    :   0.100
p-value of test                       :    0.77

Kolmogorov-Smirnov- statistic = D-    :    0.22
p-value of test                       :    0.35

Anderson-Darling statistic = A2       :    0.88
p-value of test                       :    0.42

Test on the sum of all N observations
Number of degrees of freedom          :   40
Chi-square statistic                  :   46.48
p-value of test                       :    0.22

-----------------------------------------------
CPU time used                    :  00:01:32.97

Generator state:




***********************************************************
HOST = ru01, Linux

MersenneTwiter


smarsa_MatrixRank test:
-----------------------------------------------
   N = 10,  n = 1000000,  r = 25,    s = 5,    L = 30,    k = 30


-----------------------------------------------

Kolmogorov-Smirnov+ statistic = D+    :   0.083
p-value of test                       :    0.83

Kolmogorov-Smirnov- statistic = D-    :    0.18
p-value of test                       :    0.46

Anderson-Darling statistic = A2       :    0.69
p-value of test                       :    0.56

Test on the sum of all N observations
Number of degrees of freedom          :   40
Chi-square statistic                  :   49.58
p-value of test                       :    0.14

-----------------------------------------------
CPU time used                    :  00:01:33.03

Generator state:




***********************************************************
HOST = ru01, Linux

MersenneTwiter


smarsa_MatrixRank test:
-----------------------------------------------
   N =  1,  n = 5000,  r =  0,    s = 4,    L = 1000,    k = 1000


-----------------------------------------------
Number of degrees of freedom          :    3
Chi-square statistic                  :    3.69
p-value of test                       :    0.30

-----------------------------------------------
CPU time used                    :  00:02:31.68

Generator state:




***********************************************************
HOST = ru01, Linux

MersenneTwiter


smarsa_MatrixRank test:
-----------------------------------------------
   N =  1,  n = 5000,  r = 26,    s = 4,    L = 1000,    k = 1000


-----------------------------------------------
Number of degrees of freedom          :    3
Chi-square statistic                  :    0.80
p-value of test                       :    0.85

-----------------------------------------------
CPU time used                    :  00:02:29.57

Generator state:




***********************************************************
HOST = ru01, Linux

MersenneTwiter


smarsa_MatrixRank test:
-----------------------------------------------
   N =  1,  n = 80,  r = 15,    s = 15,    L = 5000,    k = 5000


-----------------------------------------------
Number of degrees of freedom          :    2
Chi-square statistic                  :    2.81
p-value of test                       :    0.25

-----------------------------------------------
CPU time used                    :  00:02:01.96

Generator state:




***********************************************************
HOST = ru01, Linux

MersenneTwiter


smarsa_MatrixRank test:
-----------------------------------------------
   N =  1,  n = 80,  r =  0,    s = 30,    L = 5000,    k = 5000


-----------------------------------------------
Number of degrees of freedom          :    2
Chi-square statistic                  :    4.54
p-value of test                       :    0.10

-----------------------------------------------
CPU time used                    :  00:01:20.25

Generator state:




***********************************************************
HOST = ru01, Linux

MersenneTwiter


smarsa_Savir2 test:
-----------------------------------------------
   N = 10,  n = 10000000,  r = 10,    m = 1048576,    t = 30


-----------------------------------------------

Kolmogorov-Smirnov+ statistic = D+    :    0.13
p-value of test                       :    0.65

Kolmogorov-Smirnov- statistic = D-    :    0.17
p-value of test                       :    0.49

Anderson-Darling statistic = A2       :    0.38
p-value of test                       :    0.87

Test on the sum of all N observations
Number of degrees of freedom          :  130
Chi-square statistic                  :  125.55
p-value of test                       :    0.59

-----------------------------------------------
CPU time used                    :  00:00:29.88

Generator state:




***********************************************************
HOST = ru01, Linux

MersenneTwiter


smarsa_GCD test:
-----------------------------------------------
   N = 10,  n = 50000000,  r =  0,   s = 30


-----------------------------------------------
Test results for GCD values:

Kolmogorov-Smirnov+ statistic = D+    :    0.33
p-value of test                       :    0.09

Kolmogorov-Smirnov- statistic = D-    : 7.67e-3
p-value of test                       :    0.9918

Anderson-Darling statistic = A2       :    2.15
p-value of test                       :    0.08

Test on the sum of all N observations
Number of degrees of freedom          : 17430
Chi-square statistic                  :17052.32
p-value of test                       :    0.98



-----------------------------------------------
CPU time used                    :  00:00:54.10

Generator state:




***********************************************************
HOST = ru01, Linux

MersenneTwiter


swalk_RandomWalk1 test:
-----------------------------------------------
   N =  1,  n = 100000000,  r =  0,   s = 5,   L0 =   50,   L1 =   50



-----------------------------------------------
Test on the values of the Statistic H

Number of degrees of freedom          :   36
ChiSquare statistic                   :   25.76
p-value of test                       :    0.90


-----------------------------------------------
Test on the values of the Statistic M

Number of degrees of freedom          :   35
ChiSquare statistic                   :   24.61
p-value of test                       :    0.90


-----------------------------------------------
Test on the values of the Statistic J

Number of degrees of freedom          :   25
ChiSquare statistic                   :   26.80
p-value of test                       :    0.37


-----------------------------------------------
Test on the values of the Statistic R

Number of degrees of freedom          :   24
ChiSquare statistic                   :   22.59
p-value of test                       :    0.54


-----------------------------------------------
Test on the values of the Statistic C

Number of degrees of freedom          :   17
ChiSquare statistic                   :    8.78
p-value of test                       :    0.95


-----------------------------------------------
CPU time used                    :  00:01:04.54

Generator state:




***********************************************************
HOST = ru01, Linux

MersenneTwiter


swalk_RandomWalk1 test:
-----------------------------------------------
   N =  1,  n = 100000000,  r = 25,   s = 5,   L0 =   50,   L1 =   50



-----------------------------------------------
Test on the values of the Statistic H

Number of degrees of freedom          :   36
ChiSquare statistic                   :   36.98
p-value of test                       :    0.42


-----------------------------------------------
Test on the values of the Statistic M

Number of degrees of freedom          :   35
ChiSquare statistic                   :   34.72
p-value of test                       :    0.48


-----------------------------------------------
Test on the values of the Statistic J

Number of degrees of freedom          :   25
ChiSquare statistic                   :   27.39
p-value of test                       :    0.34


-----------------------------------------------
Test on the values of the Statistic R

Number of degrees of freedom          :   24
ChiSquare statistic                   :   26.17
p-value of test                       :    0.34


-----------------------------------------------
Test on the values of the Statistic C

Number of degrees of freedom          :   17
ChiSquare statistic                   :   17.62
p-value of test                       :    0.41


-----------------------------------------------
CPU time used                    :  00:01:04.57

Generator state:




***********************************************************
HOST = ru01, Linux

MersenneTwiter


swalk_RandomWalk1 test:
-----------------------------------------------
   N =  1,  n = 10000000,  r =  0,   s = 10,   L0 = 1000,   L1 = 1000



-----------------------------------------------
Test on the values of the Statistic H

Number of degrees of freedom          :  146
ChiSquare statistic                   :  171.53
p-value of test                       :    0.07


-----------------------------------------------
Test on the values of the Statistic M

Number of degrees of freedom          :  146
ChiSquare statistic                   :  125.85
p-value of test                       :    0.88


-----------------------------------------------
Test on the values of the Statistic J

Number of degrees of freedom          :  500
ChiSquare statistic                   :  465.46
p-value of test                       :    0.86


-----------------------------------------------
Test on the values of the Statistic R

Number of degrees of freedom          :  136
ChiSquare statistic                   :  167.39
p-value of test                       :    0.03


-----------------------------------------------
Test on the values of the Statistic C

Number of degrees of freedom          :   74
ChiSquare statistic                   :   59.78
p-value of test                       :    0.88


-----------------------------------------------
CPU time used                    :  00:01:21.56

Generator state:




***********************************************************
HOST = ru01, Linux

MersenneTwiter


swalk_RandomWalk1 test:
-----------------------------------------------
   N =  1,  n = 10000000,  r = 20,   s = 10,   L0 = 1000,   L1 = 1000



-----------------------------------------------
Test on the values of the Statistic H

Number of degrees of freedom          :  146
ChiSquare statistic                   :  123.54
p-value of test                       :    0.91


-----------------------------------------------
Test on the values of the Statistic M

Number of degrees of freedom          :  146
ChiSquare statistic                   :  159.76
p-value of test                       :    0.21


-----------------------------------------------
Test on the values of the Statistic J

Number of degrees of freedom          :  500
ChiSquare statistic                   :  484.86
p-value of test                       :    0.68


-----------------------------------------------
Test on the values of the Statistic R

Number of degrees of freedom          :  136
ChiSquare statistic                   :  138.09
p-value of test                       :    0.43


-----------------------------------------------
Test on the values of the Statistic C

Number of degrees of freedom          :   74
ChiSquare statistic                   :   78.32
p-value of test                       :    0.34


-----------------------------------------------
CPU time used                    :  00:01:18.47

Generator state:




***********************************************************
HOST = ru01, Linux

MersenneTwiter


swalk_RandomWalk1 test:
-----------------------------------------------
   N =  1,  n = 1000000,  r =  0,   s = 15,   L0 = 10000,   L1 = 10000



-----------------------------------------------
Test on the values of the Statistic H

Number of degrees of freedom          :  384
ChiSquare statistic                   :  431.68
p-value of test                       :    0.05


-----------------------------------------------
Test on the values of the Statistic M

Number of degrees of freedom          :  384
ChiSquare statistic                   :  444.35
p-value of test                       :    0.02


-----------------------------------------------
Test on the values of the Statistic J

Number of degrees of freedom          : 5000
ChiSquare statistic                   : 5074.43
p-value of test                       :    0.23


-----------------------------------------------
Test on the values of the Statistic R

Number of degrees of freedom          :  378
ChiSquare statistic                   :  396.13
p-value of test                       :    0.25


-----------------------------------------------
Test on the values of the Statistic C

Number of degrees of freedom          :  200
ChiSquare statistic                   :  183.42
p-value of test                       :    0.79


-----------------------------------------------
CPU time used                    :  00:00:37.44

Generator state:




***********************************************************
HOST = ru01, Linux

MersenneTwiter


swalk_RandomWalk1 test:
-----------------------------------------------
   N =  1,  n = 1000000,  r = 15,   s = 15,   L0 = 10000,   L1 = 10000



-----------------------------------------------
Test on the values of the Statistic H

Number of degrees of freedom          :  384
ChiSquare statistic                   :  393.62
p-value of test                       :    0.36


-----------------------------------------------
Test on the values of the Statistic M

Number of degrees of freedom          :  384
ChiSquare statistic                   :  349.22
p-value of test                       :    0.90


-----------------------------------------------
Test on the values of the Statistic J

Number of degrees of freedom          : 5000
ChiSquare statistic                   : 5030.21
p-value of test                       :    0.38


-----------------------------------------------
Test on the values of the Statistic R

Number of degrees of freedom          :  378
ChiSquare statistic                   :  369.48
p-value of test                       :    0.61


-----------------------------------------------
Test on the values of the Statistic C

Number of degrees of freedom          :  200
ChiSquare statistic                   :  182.17
p-value of test                       :    0.81


-----------------------------------------------
CPU time used                    :  00:00:38.12

Generator state:




***********************************************************
HOST = ru01, Linux

MersenneTwiter


scomp_LinearComp test:
-----------------------------------------------
   N =  1,  n = 400020,  r =  0,    s = 1



-----------------------------------------------
Number of degrees of freedom          :   12
Chi2 statistic for size of jumps      :   11.66
p-value of test                       :    0.47


-----------------------------------------------
Normal statistic for number of jumps  : -402.28
p-value of test                       : 1 - eps1    *****



-----------------------------------------------
CPU time used                    :  00:00:07.21

Generator state:




***********************************************************
HOST = ru01, Linux

MersenneTwiter


scomp_LinearComp test:
-----------------------------------------------
   N =  1,  n = 400020,  r = 29,    s = 1



-----------------------------------------------
Number of degrees of freedom          :   12
Chi2 statistic for size of jumps      :    4.73
p-value of test                       :    0.97


-----------------------------------------------
Normal statistic for number of jumps  : -402.68
p-value of test                       : 1 - eps1    *****



-----------------------------------------------
CPU time used                    :  00:00:07.13

Generator state:




***********************************************************
HOST = ru01, Linux

MersenneTwiter


scomp_LempelZiv test:
-----------------------------------------------
   N = 10,  n = 134217728,  r =  0,   s =   30,   k =   27


-----------------------------------------------

Kolmogorov-Smirnov+ statistic = D+    :    0.14
p-value of test                       :    0.61

Kolmogorov-Smirnov- statistic = D-    :    0.22
p-value of test                       :    0.32

Anderson-Darling statistic = A2       :    0.55
p-value of test                       :    0.70

Tests on the sum of all N observations
Standardized normal statistic         :    0.35
p-value of test                       :    0.36

Sample variance                       :    0.43
p-value of test                       :    0.92

-----------------------------------------------
CPU time used                    :  00:01:23.39

Generator state:




***********************************************************
HOST = ru01, Linux

MersenneTwiter


scomp_LempelZiv test:
-----------------------------------------------
   N = 10,  n = 134217728,  r = 15,   s =   15,   k =   27


-----------------------------------------------

Kolmogorov-Smirnov+ statistic = D+    :    0.27
p-value of test                       :    0.21

Kolmogorov-Smirnov- statistic = D-    :    0.14
p-value of test                       :    0.61

Anderson-Darling statistic = A2       :    1.28
p-value of test                       :    0.24

Tests on the sum of all N observations
Standardized normal statistic         :   -0.64
p-value of test                       :    0.74

Sample variance                       :    1.77
p-value of test                       :    0.07

-----------------------------------------------
CPU time used                    :  00:01:43.02

Generator state:




***********************************************************
HOST = ru01, Linux

MersenneTwiter


sspectral_Fourier3 test:
-----------------------------------------------
   N = 100000,  n = 16384,  r =  0,   s =    3,   k =   14


-----------------------------------------------

Kolmogorov-Smirnov+ statistic = D+    : 5.28e-3
p-value of test                       :    0.79

Kolmogorov-Smirnov- statistic = D-    : 9.51e-3
p-value of test                       :    0.47

Anderson-Darling statistic = A2       :    0.68
p-value of test                       :    0.58

-----------------------------------------------
CPU time used                    :  00:00:43.13

Generator state:




***********************************************************
HOST = ru01, Linux

MersenneTwiter


sspectral_Fourier3 test:
-----------------------------------------------
   N = 100000,  n = 16384,  r = 27,   s =    3,   k =   14


-----------------------------------------------

Kolmogorov-Smirnov+ statistic = D+    : 6.86e-3
p-value of test                       :    0.68

Kolmogorov-Smirnov- statistic = D-    : 6.83e-3
p-value of test                       :    0.68

Anderson-Darling statistic = A2       :    0.40
p-value of test                       :    0.85

-----------------------------------------------
CPU time used                    :  00:00:42.19

Generator state:




***********************************************************
HOST = ru01, Linux

MersenneTwiter


sstring_LongestHeadRun test:
-----------------------------------------------
   N =  1,  n = 1000,  r =  0,   s = 3,   L = 10000020


-----------------------------------------------
Number of degrees of freedom          :    8
Chi-square statistic                  :    9.25
p-value of test                       :    0.32

-----------------------------------------------
Global longest run of 1               :   32.00
p-value of test                       :    0.50



-----------------------------------------------
CPU time used                    :  00:01:33.48

Generator state:




***********************************************************
HOST = ru01, Linux

MersenneTwiter


sstring_LongestHeadRun test:
-----------------------------------------------
   N =  1,  n = 1000,  r = 27,   s = 3,   L = 10000020


-----------------------------------------------
Number of degrees of freedom          :    8
Chi-square statistic                  :   19.65
p-value of test                       :    0.01

-----------------------------------------------
Global longest run of 1               :   32.00
p-value of test                       :    0.50



-----------------------------------------------
CPU time used                    :  00:01:35.51

Generator state:




***********************************************************
HOST = ru01, Linux

MersenneTwiter


sstring_PeriodsInStrings test:
-----------------------------------------------
   N = 10,  n = 500000000,  r =  0,   s =   10


-----------------------------------------------

Kolmogorov-Smirnov+ statistic = D+    :    0.26
p-value of test                       :    0.23

Kolmogorov-Smirnov- statistic = D-    :    0.14
p-value of test                       :    0.62

Anderson-Darling statistic = A2       :    0.62
p-value of test                       :    0.62

Test on the sum of all N observations
Number of degrees of freedom          :  200
Chi-square statistic                  :  195.90
p-value of test                       :    0.57

-----------------------------------------------
CPU time used                    :  00:02:22.20

Generator state:




***********************************************************
HOST = ru01, Linux

MersenneTwiter


sstring_PeriodsInStrings test:
-----------------------------------------------
   N = 10,  n = 500000000,  r = 20,   s =   10


-----------------------------------------------

Kolmogorov-Smirnov+ statistic = D+    :    0.17
p-value of test                       :    0.49

Kolmogorov-Smirnov- statistic = D-    :    0.25
p-value of test                       :    0.25

Anderson-Darling statistic = A2       :    1.06
p-value of test                       :    0.33

Test on the sum of all N observations
Number of degrees of freedom          :  200
Chi-square statistic                  :  220.02
p-value of test                       :    0.16

-----------------------------------------------
CPU time used                    :  00:02:30.39

Generator state:




***********************************************************
HOST = ru01, Linux

MersenneTwiter


sstring_HammingWeight2 test:
-----------------------------------------------
   N = 10,  n = 1000000000,  r =  0,   s = 3,   L = 1000000


-----------------------------------------------

Kolmogorov-Smirnov+ statistic = D+    :   0.079
p-value of test                       :    0.84

Kolmogorov-Smirnov- statistic = D-    :    0.27
p-value of test                       :    0.19

Anderson-Darling statistic = A2       :    1.14
p-value of test                       :    0.29

Test on the sum of all N observations
Number of degrees of freedom          : 10000
Chi-square statistic                  :10181.47
p-value of test                       :    0.10

-----------------------------------------------
CPU time used                    :  00:01:08.45

Generator state:




***********************************************************
HOST = ru01, Linux

MersenneTwiter


sstring_HammingWeight2 test:
-----------------------------------------------
   N = 10,  n = 1000000000,  r = 27,   s = 3,   L = 1000000


-----------------------------------------------

Kolmogorov-Smirnov+ statistic = D+    :    0.13
p-value of test                       :    0.65

Kolmogorov-Smirnov- statistic = D-    :    0.23
p-value of test                       :    0.31

Anderson-Darling statistic = A2       :    0.70
p-value of test                       :    0.56

Test on the sum of all N observations
Number of degrees of freedom          : 10000
Chi-square statistic                  :10048.72
p-value of test                       :    0.36

-----------------------------------------------
CPU time used                    :  00:01:12.76

Generator state:




***********************************************************
HOST = ru01, Linux

MersenneTwiter


sstring_HammingCorr test:
-----------------------------------------------
   N =  1,  n = 1000000000,  r = 10,   s = 10,   L = 30



-----------------------------------------------
Normal statistic                      :    0.45
p-value of test                       :    0.33

-----------------------------------------------
CPU time used                    :  00:01:34.13

Generator state:




***********************************************************
HOST = ru01, Linux

MersenneTwiter


sstring_HammingCorr test:
-----------------------------------------------
   N =  1,  n = 100000000,  r = 10,   s = 10,   L = 300



-----------------------------------------------
Normal statistic                      :    1.73
p-value of test                       :    0.04

-----------------------------------------------
CPU time used                    :  00:01:22.76

Generator state:




***********************************************************
HOST = ru01, Linux

MersenneTwiter


sstring_HammingCorr test:
-----------------------------------------------
   N =  1,  n = 100000000,  r = 10,   s = 10,   L = 1200



-----------------------------------------------
Normal statistic                      :    1.33
p-value of test                       :    0.09

-----------------------------------------------
CPU time used                    :  00:05:56.34

Generator state:




***********************************************************
HOST = ru01, Linux

MersenneTwiter


sstring_HammingIndep test:
-----------------------------------------------
   N = 10,  n = 30000000,  r =  0,   s = 3,   L = 30,   d = 0



Counters with expected numbers >= 10
-----------------------------------------------

Kolmogorov-Smirnov+ statistic = D+    :    0.11
p-value of test                       :    0.72

Kolmogorov-Smirnov- statistic = D-    :    0.19
p-value of test                       :    0.43

Anderson-Darling statistic = A2       :    0.94
p-value of test                       :    0.39

Test on the sum of all N observations
Number of degrees of freedom          : 4890
Chi-square statistic                  : 4983.06
p-value of test                       :    0.17

-----------------------------------------------
CPU time used                    :  00:02:40.56

Generator state:




***********************************************************
HOST = ru01, Linux

MersenneTwiter


sstring_HammingIndep test:
-----------------------------------------------
   N = 10,  n = 30000000,  r = 27,   s = 3,   L = 30,   d = 0



Counters with expected numbers >= 10
-----------------------------------------------

Kolmogorov-Smirnov+ statistic = D+    :    0.15
p-value of test                       :    0.57

Kolmogorov-Smirnov- statistic = D-    :    0.22
p-value of test                       :    0.32

Anderson-Darling statistic = A2       :    0.50
p-value of test                       :    0.74

Test on the sum of all N observations
Number of degrees of freedom          : 4890
Chi-square statistic                  : 4915.75
p-value of test                       :    0.39

-----------------------------------------------
CPU time used                    :  00:02:40.32

Generator state:




***********************************************************
HOST = ru01, Linux

MersenneTwiter


sstring_HammingIndep test:
-----------------------------------------------
   N =  1,  n = 30000000,  r =  0,   s = 4,   L = 300,   d = 0



Counters with expected numbers >= 10
-----------------------------------------------
Number of degrees of freedom          : 4117
Chi-square statistic                  : 4072.77
p-value of test                       :    0.69

-----------------------------------------------
CPU time used                    :  00:02:01.85

Generator state:




***********************************************************
HOST = ru01, Linux

MersenneTwiter


sstring_HammingIndep test:
-----------------------------------------------
   N =  1,  n = 30000000,  r = 26,   s = 4,   L = 300,   d = 0



Counters with expected numbers >= 10
-----------------------------------------------
Number of degrees of freedom          : 4117
Chi-square statistic                  : 4268.37
p-value of test                       :    0.05

-----------------------------------------------
CPU time used                    :  00:01:59.96

Generator state:




***********************************************************
HOST = ru01, Linux

MersenneTwiter


sstring_HammingIndep test:
-----------------------------------------------
   N =  1,  n = 10000000,  r =  0,   s = 5,   L = 1200,   d = 0



Counters with expected numbers >= 10
-----------------------------------------------
Number of degrees of freedom          : 11825
Chi-square statistic                  :11893.91
p-value of test                       :    0.33

-----------------------------------------------
CPU time used                    :  00:02:13.61

Generator state:




***********************************************************
HOST = ru01, Linux

MersenneTwiter


sstring_HammingIndep test:
-----------------------------------------------
   N =  1,  n = 10000000,  r = 25,   s = 5,   L = 1200,   d = 0



Counters with expected numbers >= 10
-----------------------------------------------
Number of degrees of freedom          : 11825
Chi-square statistic                  :11537.41
p-value of test                       :    0.97

-----------------------------------------------
CPU time used                    :  00:02:17.09

Generator state:




***********************************************************
HOST = ru01, Linux

MersenneTwiter


sstring_Run test:
-----------------------------------------------
   N =  1,  n = 2000000000,  r =  0,   s =    3


-----------------------------------------------
Total number of 1 runs:  2000000000

Number of degrees of freedom          :   54
Chi2 statistic for number of runs     :   59.10
p-value of test                       :    0.29


-----------------------------------------------
Total number of bits:  8000037825

Normal statistic for number of bits   :    0.30
p-value of test                       :    0.38



-----------------------------------------------
CPU time used                    :  00:01:41.86

Generator state:




***********************************************************
HOST = ru01, Linux

MersenneTwiter


sstring_Run test:
-----------------------------------------------
   N =  1,  n = 2000000000,  r = 27,   s =    3


-----------------------------------------------
Total number of 1 runs:  2000000000

Number of degrees of freedom          :   54
Chi2 statistic for number of runs     :   70.18
p-value of test                       :    0.07


-----------------------------------------------
Total number of bits:  7999865631

Normal statistic for number of bits   :   -1.06
p-value of test                       :    0.86



-----------------------------------------------
CPU time used                    :  00:01:26.83

Generator state:




***********************************************************
HOST = ru01, Linux

MersenneTwiter


sstring_AutoCor test:
-----------------------------------------------
   N = 10,  n = 1000000030,  r =  0,   s = 3,   d = 1


-----------------------------------------------

Kolmogorov-Smirnov+ statistic = D+    :    0.17
p-value of test                       :    0.51

Kolmogorov-Smirnov- statistic = D-    :    0.14
p-value of test                       :    0.63

Anderson-Darling statistic = A2       :    0.37
p-value of test                       :    0.87

Tests on the sum of all N observations
Standardized normal statistic         :   -0.42
p-value of test                       :    0.66

Sample variance                       :    1.10
p-value of test                       :    0.36

-----------------------------------------------
CPU time used                    :  00:01:20.93

Generator state:




***********************************************************
HOST = ru01, Linux

MersenneTwiter


sstring_AutoCor test:
-----------------------------------------------
   N = 10,  n = 1000000029,  r =  0,   s = 3,   d = 3


-----------------------------------------------

Kolmogorov-Smirnov+ statistic = D+    :    0.24
p-value of test                       :    0.27

Kolmogorov-Smirnov- statistic = D-    :    0.10
p-value of test                       :    0.75

Anderson-Darling statistic = A2       :    0.88
p-value of test                       :    0.42

Tests on the sum of all N observations
Standardized normal statistic         :   -0.95
p-value of test                       :    0.83

Sample variance                       :    0.48
p-value of test                       :    0.89

-----------------------------------------------
CPU time used                    :  00:01:03.29

Generator state:




***********************************************************
HOST = ru01, Linux

MersenneTwiter


sstring_AutoCor test:
-----------------------------------------------
   N = 10,  n = 1000000030,  r = 27,   s = 3,   d = 1


-----------------------------------------------

Kolmogorov-Smirnov+ statistic = D+    :    0.17
p-value of test                       :    0.50

Kolmogorov-Smirnov- statistic = D-    :   0.092
p-value of test                       :    0.80

Anderson-Darling statistic = A2       :    0.31
p-value of test                       :    0.93

Tests on the sum of all N observations
Standardized normal statistic         :   -0.47
p-value of test                       :    0.68

Sample variance                       :    1.02
p-value of test                       :    0.42

-----------------------------------------------
CPU time used                    :  00:01:21.47

Generator state:




***********************************************************
HOST = ru01, Linux

MersenneTwiter


sstring_AutoCor test:
-----------------------------------------------
   N = 10,  n = 1000000029,  r = 27,   s = 3,   d = 3


-----------------------------------------------

Kolmogorov-Smirnov+ statistic = D+    :    0.16
p-value of test                       :    0.55

Kolmogorov-Smirnov- statistic = D-    :   0.054
p-value of test                       :    0.91

Anderson-Darling statistic = A2       :    0.56
p-value of test                       :    0.68

Tests on the sum of all N observations
Standardized normal statistic         :   -0.89
p-value of test                       :    0.81

Sample variance                       :    1.49
p-value of test                       :    0.14

-----------------------------------------------
CPU time used                    :  00:01:02.36

Generator state:





========= Summary results of BigCrush =========

 Version:          TestU01 1.2.3
 Generator:        MersenneTwiter
 Number of statistics:  160
 Total CPU time:   04:44:33.15
 The following tests gave p-values outside [0.001, 0.9990]:
 (eps  means a value < 1.0e-300):
 (eps1 means a value < 1.0e-15):

       Test                          p-value
 ----------------------------------------------
 80  LinearComp, r = 0              1 - eps1
 81  LinearComp, r = 29             1 - eps1
 ----------------------------------------------
 All other tests were passed



