xxxxxxxxxxxxxxxxxxxxxxxxxxxxxxxxxxxxxxxxxxxxxxxxxxxxxxxxxxx
                 Starting BigCrush
                 Version: TestU01 1.2.3
xxxxxxxxxxxxxxxxxxxxxxxxxxxxxxxxxxxxxxxxxxxxxxxxxxxxxxxxxxx


***********************************************************
Test smarsa_SerialOver calling smultin_MultinomialOver

***********************************************************
HOST = ru01, Linux

MersenneTwiter


smultin_MultinomialOver test:
-----------------------------------------------
   N =  1,  n = 1000000000,  r =  0,   d =  256,   t =  3,
       Sparse =  FALSE

       GenerCell = smultin_GenerCellSerial
       Number of cells = d^t =           16777216
       Expected number per cell =   59.604645
       Hashing =  FALSE

   For Delta > -1, we use the ChiSquare approximation
   Correction factor of the ChiSquare: 
       Delta =     1,    Mu =   0.0083558402,    Sigma =          1

-----------------------------------------------
Test Results for Delta =   1.0000

Number of degrees of freedom          : 16711680
Value of the statistic                : 1.67e+7
p-value of test                       :    0.29


-----------------------------------------------
CPU time used                    :  00:02:55.36

Generator state:




***********************************************************
Test smarsa_SerialOver calling smultin_MultinomialOver

***********************************************************
HOST = ru01, Linux

MersenneTwiter


smultin_MultinomialOver test:
-----------------------------------------------
   N =  1,  n = 1000000000,  r = 22,   d =  256,   t =  3,
       Sparse =  FALSE

       GenerCell = smultin_GenerCellSerial
       Number of cells = d^t =           16777216
       Expected number per cell =   59.604645
       Hashing =  FALSE

   For Delta > -1, we use the ChiSquare approximation
   Correction factor of the ChiSquare: 
       Delta =     1,    Mu =   0.0083558402,    Sigma =          1

-----------------------------------------------
Test Results for Delta =   1.0000

Number of degrees of freedom          : 16711680
Value of the statistic                : 1.67e+7
p-value of test                       :    0.66


-----------------------------------------------
CPU time used                    :  00:02:44.01

Generator state:




***********************************************************
Test smarsa_CollisionOver calling smultin_MultinomialOver

***********************************************************
HOST = ru01, Linux

MersenneTwiter


smultin_MultinomialOver test:
-----------------------------------------------
   N = 30,  n = 20000000,  r =  0,   d = 2097152,   t =  2,
       Sparse =   TRUE

       GenerCell = smultin_GenerCellSerial
       Number of cells = d^t =      4398046511104
       Expected number per cell =  1 /  219902.33
       EColl = n^2 / (2k) =  45.47473509
       Hashing =   TRUE

       Collision test

       CollisionOver:   density = n / k =  1 /  219902.33
       Expected number of collisions = Mu =      45.47


-----------------------------------------------
Results of CollisionOver test:

POISSON approximation                 :
Expected number of collisions = N*Mu  :     1364.24
Observed number of collisions         :     1410
p-value of test                       :    0.11

-----------------------------
Total number of cells containing j balls

  j =  0                              :  131940795334530
  j =  1                              :        599997180
  j =  2                              :             1410
  j =  3                              :                0
  j =  4                              :                0
  j =  5                              :                0

-----------------------------------------------
CPU time used                    :  00:07:43.95

Generator state:




***********************************************************
Test smarsa_CollisionOver calling smultin_MultinomialOver

***********************************************************
HOST = ru01, Linux

MersenneTwiter


smultin_MultinomialOver test:
-----------------------------------------------
   N = 30,  n = 20000000,  r =  9,   d = 2097152,   t =  2,
       Sparse =   TRUE

       GenerCell = smultin_GenerCellSerial
       Number of cells = d^t =      4398046511104
       Expected number per cell =  1 /  219902.33
       EColl = n^2 / (2k) =  45.47473509
       Hashing =   TRUE

       Collision test

       CollisionOver:   density = n / k =  1 /  219902.33
       Expected number of collisions = Mu =      45.47


-----------------------------------------------
Results of CollisionOver test:

POISSON approximation                 :
Expected number of collisions = N*Mu  :     1364.24
Observed number of collisions         :     1357
p-value of test                       :    0.57

-----------------------------
Total number of cells containing j balls

  j =  0                              :  131940795334477
  j =  1                              :        599997286
  j =  2                              :             1357
  j =  3                              :                0
  j =  4                              :                0
  j =  5                              :                0

-----------------------------------------------
CPU time used                    :  00:07:43.55

Generator state:




***********************************************************
Test smarsa_CollisionOver calling smultin_MultinomialOver

***********************************************************
HOST = ru01, Linux

MersenneTwiter


smultin_MultinomialOver test:
-----------------------------------------------
   N = 30,  n = 20000000,  r =  0,   d = 16384,   t =  3,
       Sparse =   TRUE

       GenerCell = smultin_GenerCellSerial
       Number of cells = d^t =      4398046511104
       Expected number per cell =  1 /  219902.33
       EColl = n^2 / (2k) =  45.47473509
       Hashing =   TRUE

       Collision test

       CollisionOver:   density = n / k =  1 /  219902.33
       Expected number of collisions = Mu =      45.47


-----------------------------------------------
Results of CollisionOver test:

POISSON approximation                 :
Expected number of collisions = N*Mu  :     1364.24
Observed number of collisions         :     1415
p-value of test                       :    0.09

-----------------------------
Total number of cells containing j balls

  j =  0                              :  131940795334535
  j =  1                              :        599997170
  j =  2                              :             1415
  j =  3                              :                0
  j =  4                              :                0
  j =  5                              :                0

-----------------------------------------------
CPU time used                    :  00:10:34.01

Generator state:




***********************************************************
Test smarsa_CollisionOver calling smultin_MultinomialOver

***********************************************************
HOST = ru01, Linux

MersenneTwiter


smultin_MultinomialOver test:
-----------------------------------------------
   N = 30,  n = 20000000,  r = 16,   d = 16384,   t =  3,
       Sparse =   TRUE

       GenerCell = smultin_GenerCellSerial
       Number of cells = d^t =      4398046511104
       Expected number per cell =  1 /  219902.33
       EColl = n^2 / (2k) =  45.47473509
       Hashing =   TRUE

       Collision test

       CollisionOver:   density = n / k =  1 /  219902.33
       Expected number of collisions = Mu =      45.47


-----------------------------------------------
Results of CollisionOver test:

POISSON approximation                 :
Expected number of collisions = N*Mu  :     1364.24
Observed number of collisions         :     1362
p-value of test                       :    0.52

-----------------------------
Total number of cells containing j balls

  j =  0                              :  131940795334482
  j =  1                              :        599997276
  j =  2                              :             1362
  j =  3                              :                0
  j =  4                              :                0
  j =  5                              :                0

-----------------------------------------------
CPU time used                    :  00:10:31.30

Generator state:




***********************************************************
Test smarsa_CollisionOver calling smultin_MultinomialOver

***********************************************************
HOST = ru01, Linux

MersenneTwiter


smultin_MultinomialOver test:
-----------------------------------------------
   N = 30,  n = 20000000,  r =  0,   d =   64,   t =  7,
       Sparse =   TRUE

       GenerCell = smultin_GenerCellSerial
       Number of cells = d^t =      4398046511104
       Expected number per cell =  1 /  219902.33
       EColl = n^2 / (2k) =  45.47473509
       Hashing =   TRUE

       Collision test

       CollisionOver:   density = n / k =  1 /  219902.33
       Expected number of collisions = Mu =      45.47


-----------------------------------------------
Results of CollisionOver test:

POISSON approximation                 :
Expected number of collisions = N*Mu  :     1364.24
Observed number of collisions         :     1352
p-value of test                       :    0.62

-----------------------------
Total number of cells containing j balls

  j =  0                              :  131940795334472
  j =  1                              :        599997296
  j =  2                              :             1352
  j =  3                              :                0
  j =  4                              :                0
  j =  5                              :                0

-----------------------------------------------
CPU time used                    :  00:10:54.75

Generator state:




***********************************************************
Test smarsa_CollisionOver calling smultin_MultinomialOver

***********************************************************
HOST = ru01, Linux

MersenneTwiter


smultin_MultinomialOver test:
-----------------------------------------------
   N = 30,  n = 20000000,  r = 24,   d =   64,   t =  7,
       Sparse =   TRUE

       GenerCell = smultin_GenerCellSerial
       Number of cells = d^t =      4398046511104
       Expected number per cell =  1 /  219902.33
       EColl = n^2 / (2k) =  45.47473509
       Hashing =   TRUE

       Collision test

       CollisionOver:   density = n / k =  1 /  219902.33
       Expected number of collisions = Mu =      45.47


-----------------------------------------------
Results of CollisionOver test:

POISSON approximation                 :
Expected number of collisions = N*Mu  :     1364.24
Observed number of collisions         :     1333
p-value of test                       :    0.80

-----------------------------
Total number of cells containing j balls

  j =  0                              :  131940795334453
  j =  1                              :        599997334
  j =  2                              :             1333
  j =  3                              :                0
  j =  4                              :                0
  j =  5                              :                0

-----------------------------------------------
CPU time used                    :  00:10:50.90

Generator state:




***********************************************************
Test smarsa_CollisionOver calling smultin_MultinomialOver

***********************************************************
HOST = ru01, Linux

MersenneTwiter


smultin_MultinomialOver test:
-----------------------------------------------
   N = 30,  n = 20000000,  r =  0,   d =    8,   t = 14,
       Sparse =   TRUE

       GenerCell = smultin_GenerCellSerial
       Number of cells = d^t =      4398046511104
       Expected number per cell =  1 /  219902.33
       EColl = n^2 / (2k) =  45.47473509
       Hashing =   TRUE

       Collision test

       CollisionOver:   density = n / k =  1 /  219902.33
       Expected number of collisions = Mu =      45.47


-----------------------------------------------
Results of CollisionOver test:

POISSON approximation                 :
Expected number of collisions = N*Mu  :     1364.24
Observed number of collisions         :     1383
p-value of test                       :    0.31

-----------------------------
Total number of cells containing j balls

  j =  0                              :  131940795334503
  j =  1                              :        599997234
  j =  2                              :             1383
  j =  3                              :                0
  j =  4                              :                0
  j =  5                              :                0

-----------------------------------------------
CPU time used                    :  00:10:58.27

Generator state:




***********************************************************
Test smarsa_CollisionOver calling smultin_MultinomialOver

***********************************************************
HOST = ru01, Linux

MersenneTwiter


smultin_MultinomialOver test:
-----------------------------------------------
   N = 30,  n = 20000000,  r = 27,   d =    8,   t = 14,
       Sparse =   TRUE

       GenerCell = smultin_GenerCellSerial
       Number of cells = d^t =      4398046511104
       Expected number per cell =  1 /  219902.33
       EColl = n^2 / (2k) =  45.47473509
       Hashing =   TRUE

       Collision test

       CollisionOver:   density = n / k =  1 /  219902.33
       Expected number of collisions = Mu =      45.47


-----------------------------------------------
Results of CollisionOver test:

POISSON approximation                 :
Expected number of collisions = N*Mu  :     1364.24
Observed number of collisions         :     1323
p-value of test                       :    0.87

-----------------------------
Total number of cells containing j balls

  j =  0                              :  131940795334443
  j =  1                              :        599997354
  j =  2                              :             1323
  j =  3                              :                0
  j =  4                              :                0
  j =  5                              :                0

-----------------------------------------------
CPU time used                    :  00:10:55.03

Generator state:




***********************************************************
Test smarsa_CollisionOver calling smultin_MultinomialOver

***********************************************************
HOST = ru01, Linux

MersenneTwiter


smultin_MultinomialOver test:
-----------------------------------------------
   N = 30,  n = 20000000,  r =  0,   d =    4,   t = 21,
       Sparse =   TRUE

       GenerCell = smultin_GenerCellSerial
       Number of cells = d^t =      4398046511104
       Expected number per cell =  1 /  219902.33
       EColl = n^2 / (2k) =  45.47473509
       Hashing =   TRUE

       Collision test

       CollisionOver:   density = n / k =  1 /  219902.33
       Expected number of collisions = Mu =      45.47


-----------------------------------------------
Results of CollisionOver test:

POISSON approximation                 :
Expected number of collisions = N*Mu  :     1364.24
Observed number of collisions         :     1451
p-value of test                       :    0.01

-----------------------------
Total number of cells containing j balls

  j =  0                              :  131940795334571
  j =  1                              :        599997098
  j =  2                              :             1451
  j =  3                              :                0
  j =  4                              :                0
  j =  5                              :                0

-----------------------------------------------
CPU time used                    :  00:10:52.47

Generator state:




***********************************************************
Test smarsa_CollisionOver calling smultin_MultinomialOver

***********************************************************
HOST = ru01, Linux

MersenneTwiter


smultin_MultinomialOver test:
-----------------------------------------------
   N = 30,  n = 20000000,  r = 28,   d =    4,   t = 21,
       Sparse =   TRUE

       GenerCell = smultin_GenerCellSerial
       Number of cells = d^t =      4398046511104
       Expected number per cell =  1 /  219902.33
       EColl = n^2 / (2k) =  45.47473509
       Hashing =   TRUE

       Collision test

       CollisionOver:   density = n / k =  1 /  219902.33
       Expected number of collisions = Mu =      45.47


-----------------------------------------------
Results of CollisionOver test:

POISSON approximation                 :
Expected number of collisions = N*Mu  :     1364.24
Observed number of collisions         :     1352
p-value of test                       :    0.62

-----------------------------
Total number of cells containing j balls

  j =  0                              :  131940795334472
  j =  1                              :        599997296
  j =  2                              :             1352
  j =  3                              :                0
  j =  4                              :                0
  j =  5                              :                0

-----------------------------------------------
CPU time used                    :  00:09:28.00

Generator state:




***********************************************************
HOST = ru01, Linux

MersenneTwiter


smarsa_BirthdaySpacings test:
-----------------------------------------------
   N = 100,  n = 10000000,  r =  0,    d = 2147483648,    t = 2,    p = 1


      Number of cells = d^t = 4611686018427387904
      Lambda = Poisson mean =      54.2101


----------------------------------------------------
Total expected number = N*Lambda      :    5421.01
Total observed number                 :    5418
p-value of test                       :    0.51


-----------------------------------------------
CPU time used                    :  00:03:32.53

Generator state:




***********************************************************
HOST = ru01, Linux

MersenneTwiter


smarsa_BirthdaySpacings test:
-----------------------------------------------
   N = 20,  n = 20000000,  r =  0,    d = 2097152,    t = 3,    p = 1


      Number of cells = d^t = 9223372036854775808
      Lambda = Poisson mean =     216.8404


----------------------------------------------------
Total expected number = N*Lambda      :    4336.81
Total observed number                 :    4400
p-value of test                       :    0.17


-----------------------------------------------
CPU time used                    :  00:01:36.48

Generator state:




***********************************************************
HOST = ru01, Linux

MersenneTwiter


smarsa_BirthdaySpacings test:
-----------------------------------------------
   N = 20,  n = 30000000,  r = 14,    d = 65536,    t = 4,    p = 1


      Number of cells = d^t = 18446744073709551616
      Lambda = Poisson mean =     365.9182


----------------------------------------------------
Total expected number = N*Lambda      :    7318.36
Total observed number                 :    7446
p-value of test                       :    0.07


-----------------------------------------------
CPU time used                    :  00:03:16.75

Generator state:




***********************************************************
HOST = ru01, Linux

MersenneTwiter


smarsa_BirthdaySpacings test:
-----------------------------------------------
   N = 20,  n = 20000000,  r =  0,    d = 512,    t = 7,    p = 1


      Number of cells = d^t = 9223372036854775808
      Lambda = Poisson mean =     216.8404


----------------------------------------------------
Total expected number = N*Lambda      :    4336.81
Total observed number                 :    4270
p-value of test                       :    0.84


-----------------------------------------------
CPU time used                    :  00:02:19.46

Generator state:




***********************************************************
HOST = ru01, Linux

MersenneTwiter


smarsa_BirthdaySpacings test:
-----------------------------------------------
   N = 20,  n = 20000000,  r =  7,    d = 512,    t = 7,    p = 1


      Number of cells = d^t = 9223372036854775808
      Lambda = Poisson mean =     216.8404


----------------------------------------------------
Total expected number = N*Lambda      :    4336.81
Total observed number                 :    4382
p-value of test                       :    0.25


-----------------------------------------------
CPU time used                    :  00:02:26.02

Generator state:




***********************************************************
HOST = ru01, Linux

MersenneTwiter


smarsa_BirthdaySpacings test:
-----------------------------------------------
   N = 20,  n = 30000000,  r = 14,    d = 256,    t = 8,    p = 1


      Number of cells = d^t = 18446744073709551616
      Lambda = Poisson mean =     365.9182


----------------------------------------------------
Total expected number = N*Lambda      :    7318.36
Total observed number                 :    7337
p-value of test                       :    0.42


-----------------------------------------------
CPU time used                    :  00:03:51.81

Generator state:




***********************************************************
HOST = ru01, Linux

MersenneTwiter


smarsa_BirthdaySpacings test:
-----------------------------------------------
   N = 20,  n = 30000000,  r = 22,    d = 256,    t = 8,    p = 1


      Number of cells = d^t = 18446744073709551616
      Lambda = Poisson mean =     365.9182


----------------------------------------------------
Total expected number = N*Lambda      :    7318.36
Total observed number                 :    7222
p-value of test                       :    0.87


-----------------------------------------------
CPU time used                    :  00:03:53.93

Generator state:




***********************************************************
HOST = ru01, Linux

MersenneTwiter


smarsa_BirthdaySpacings test:
-----------------------------------------------
   N = 20,  n = 30000000,  r =  0,    d = 16,    t = 16,    p = 1


      Number of cells = d^t = 18446744073709551616
      Lambda = Poisson mean =     365.9182


----------------------------------------------------
Total expected number = N*Lambda      :    7318.36
Total observed number                 :    7225
p-value of test                       :    0.86


-----------------------------------------------
CPU time used                    :  00:04:38.75

Generator state:




***********************************************************
HOST = ru01, Linux

MersenneTwiter


smarsa_BirthdaySpacings test:
-----------------------------------------------
   N = 20,  n = 30000000,  r = 26,    d = 16,    t = 16,    p = 1


      Number of cells = d^t = 18446744073709551616
      Lambda = Poisson mean =     365.9182


----------------------------------------------------
Total expected number = N*Lambda      :    7318.36
Total observed number                 :    7348
p-value of test                       :    0.37


-----------------------------------------------
CPU time used                    :  00:05:08.95

Generator state:




***********************************************************
HOST = ru01, Linux

MersenneTwiter


snpair_ClosePairs test:
-----------------------------------------------
   N = 30,  n = 6000000,  r =  0,  t = 3,  p = 0,  m = 30,  Torus =  TRUE


---------------------------------------
Test based on the 2 nearest points (NP):

Stat. AD on the N values (NP)         :    1.02
p-value of test                       :    0.35


A2 test based on the spacings between the
   successive jump times of process Y_n(t):

A2 test on the values of A2 (m-NP)    :    0.94
p-value of test                       :    0.39

Test on the Nm values of W_{n,i}(mNP1):    1.26
p-value of test                       :    0.25

Test on the jump times of Y
   (superposition of Yn):

Expected number of jumps of Y = mN    :     900
Number of jumps of Y                  :     954
p-value of test                       :    0.04

Stat. AD (mNP2)                       :    0.42
p-value of test                       :    0.83

Stat. AD after spacings (mNP2-S)      :    0.67
p-value of test                       :    0.59

-----------------------------------------------
CPU time used                    :  00:02:35.25

Generator state:




***********************************************************
HOST = ru01, Linux

MersenneTwiter


snpair_ClosePairs test:
-----------------------------------------------
   N = 20,  n = 4000000,  r =  0,  t = 5,  p = 0,  m = 30,  Torus =  TRUE


---------------------------------------
Test based on the 2 nearest points (NP):

Stat. AD on the N values (NP)         :    1.84
p-value of test                       :    0.11


A2 test based on the spacings between the
   successive jump times of process Y_n(t):

A2 test on the values of A2 (m-NP)    :    0.74
p-value of test                       :    0.53

Test on the Nm values of W_{n,i}(mNP1):    0.39
p-value of test                       :    0.86

Test on the jump times of Y
   (superposition of Yn):

Expected number of jumps of Y = mN    :     600
Number of jumps of Y                  :     589
p-value of test                       :    0.66

Stat. AD (mNP2)                       :    1.45
p-value of test                       :    0.19

Stat. AD after spacings (mNP2-S)      :    2.83
p-value of test                       :    0.03

-----------------------------------------------
CPU time used                    :  00:01:57.27

Generator state:




***********************************************************
HOST = ru01, Linux

MersenneTwiter


snpair_ClosePairs test:
-----------------------------------------------
   N = 10,  n = 3000000,  r =  0,  t = 9,  p = 0,  m = 30,  Torus =  TRUE


---------------------------------------
Test based on the 2 nearest points (NP):

Stat. AD on the N values (NP)         :    0.73
p-value of test                       :    0.53


A2 test based on the spacings between the
   successive jump times of process Y_n(t):

A2 test on the values of A2 (m-NP)    :    1.58
p-value of test                       :    0.16

Test on the Nm values of W_{n,i}(mNP1):    0.97
p-value of test                       :    0.37

Test on the jump times of Y
   (superposition of Yn):

Expected number of jumps of Y = mN    :     300
Number of jumps of Y                  :     295
p-value of test                       :    0.60

Stat. AD (mNP2)                       :    0.81
p-value of test                       :    0.48

Stat. AD after spacings (mNP2-S)      :    0.76
p-value of test                       :    0.51

-----------------------------------------------
CPU time used                    :  00:03:17.62

Generator state:




***********************************************************
HOST = ru01, Linux

MersenneTwiter


snpair_ClosePairs test:
-----------------------------------------------
   N =  5,  n = 2000000,  r =  0,  t = 16,  p = 0,  m = 30,  Torus =  TRUE


---------------------------------------
Test based on the 2 nearest points (NP):

Stat. AD on the N values (NP)         :    0.81
p-value of test                       :    0.46


A2 test based on the spacings between the
   successive jump times of process Y_n(t):

A2 test on the values of A2 (m-NP)    :    5.93
p-value of test                       :  1.2e-3

Test on the Nm values of W_{n,i}(mNP1):    0.32
p-value of test                       :    0.92

Test on the jump times of Y
   (superposition of Yn):

Expected number of jumps of Y = mN    :     150
Number of jumps of Y                  :     168
p-value of test                       :    0.08

Stat. AD (mNP2)                       :    0.64
p-value of test                       :    0.61

Stat. AD after spacings (mNP2-S)      :    0.89
p-value of test                       :    0.42

-----------------------------------------------
CPU time used                    :  00:03:28.67

Generator state:




***********************************************************
HOST = ru01, Linux

MersenneTwiter


sknuth_SimpPoker test:
-----------------------------------------------
   N =  1,  n = 400000000,  r =  0,   d =    8,   k =    8


-----------------------------------------------
Number of degrees of freedom          :    7
Chi-square statistic                  :   12.82
p-value of test                       :    0.08

-----------------------------------------------
CPU time used                    :  00:01:01.72

Generator state:




***********************************************************
HOST = ru01, Linux

MersenneTwiter


sknuth_SimpPoker test:
-----------------------------------------------
   N =  1,  n = 400000000,  r = 27,   d =    8,   k =    8


-----------------------------------------------
Number of degrees of freedom          :    7
Chi-square statistic                  :   10.87
p-value of test                       :    0.14

-----------------------------------------------
CPU time used                    :  00:01:14.34

Generator state:




***********************************************************
HOST = ru01, Linux

MersenneTwiter


sknuth_SimpPoker test:
-----------------------------------------------
   N =  1,  n = 100000000,  r =  0,   d =   32,   k =   32


-----------------------------------------------
Number of degrees of freedom          :   18
Chi-square statistic                  :   22.23
p-value of test                       :    0.22

-----------------------------------------------
CPU time used                    :  00:01:05.63

Generator state:




***********************************************************
HOST = ru01, Linux

MersenneTwiter


sknuth_SimpPoker test:
-----------------------------------------------
   N =  1,  n = 100000000,  r = 25,   d =   32,   k =   32


-----------------------------------------------
Number of degrees of freedom          :   18
Chi-square statistic                  :   11.49
p-value of test                       :    0.87

-----------------------------------------------
CPU time used                    :  00:01:21.93

Generator state:




***********************************************************
HOST = ru01, Linux

MersenneTwiter


sknuth_CouponCollector test:
-----------------------------------------------
   N =  1,  n = 200000000,  r =  0,   d =    8


-----------------------------------------------
Number of degrees of freedom          :   54
Chi-square statistic                  :   65.89
p-value of test                       :    0.13

-----------------------------------------------
CPU time used                    :  00:01:22.01

Generator state:




***********************************************************
HOST = ru01, Linux

MersenneTwiter


sknuth_CouponCollector test:
-----------------------------------------------
   N =  1,  n = 200000000,  r = 10,   d =    8


-----------------------------------------------
Number of degrees of freedom          :   54
Chi-square statistic                  :   52.81
p-value of test                       :    0.52

-----------------------------------------------
CPU time used                    :  00:01:39.62

Generator state:




***********************************************************
HOST = ru01, Linux

MersenneTwiter


sknuth_CouponCollector test:
-----------------------------------------------
   N =  1,  n = 200000000,  r = 20,   d =    8


-----------------------------------------------
Number of degrees of freedom          :   54
Chi-square statistic                  :   74.24
p-value of test                       :    0.04

-----------------------------------------------
CPU time used                    :  00:01:40.17

Generator state:




***********************************************************
HOST = ru01, Linux

MersenneTwiter


sknuth_CouponCollector test:
-----------------------------------------------
   N =  1,  n = 200000000,  r = 27,   d =    8


-----------------------------------------------
Number of degrees of freedom          :   54
Chi-square statistic                  :   87.53
p-value of test                       :  2.6e-3

-----------------------------------------------
CPU time used                    :  00:01:39.97

Generator state:




***********************************************************
HOST = ru01, Linux

MersenneTwiter


sknuth_Gap test:
-----------------------------------------------
   N =  1,  n = 500000000,  r =  0,   Alpha =        0,   Beta  =   0.0625


-----------------------------------------------
Number of degrees of freedom          :  232
Chi-square statistic                  :  215.00
p-value of test                       :    0.78

-----------------------------------------------
CPU time used                    :  00:01:40.72

Generator state:




***********************************************************
HOST = ru01, Linux

MersenneTwiter


sknuth_Gap test:
-----------------------------------------------
   N =  1,  n = 300000000,  r = 25,   Alpha =        0,   Beta  =  0.03125


-----------------------------------------------
Number of degrees of freedom          :  434
Chi-square statistic                  :  426.67
p-value of test                       :    0.59

-----------------------------------------------
CPU time used                    :  00:02:25.45

Generator state:




***********************************************************
HOST = ru01, Linux

MersenneTwiter


sknuth_Gap test:
-----------------------------------------------
   N =  1,  n = 100000000,  r =  0,   Alpha =        0,   Beta  = 0.0078125


-----------------------------------------------
Number of degrees of freedom          : 1437
Chi-square statistic                  : 1474.04
p-value of test                       :    0.24

-----------------------------------------------
CPU time used                    :  00:02:30.56

Generator state:




***********************************************************
HOST = ru01, Linux

MersenneTwiter


sknuth_Gap test:
-----------------------------------------------
   N =  1,  n = 10000000,  r = 20,   Alpha =        0,   Beta  = 0.000976562


-----------------------------------------------
Number of degrees of freedom          : 7046
Chi-square statistic                  : 7167.27
p-value of test                       :    0.15

-----------------------------------------------
CPU time used                    :  00:02:29.44

Generator state:




***********************************************************
HOST = ru01, Linux

MersenneTwiter


sknuth_Run test:
-----------------------------------------------
   N =  5,  n = 1000000000,  r =  0,   Up = FALSE


-----------------------------------------------

Kolmogorov-Smirnov+ statistic = D+    :    0.62
p-value of test                       :    0.01

Kolmogorov-Smirnov- statistic = D-    :    0.27
p-value of test                       :    0.40

Anderson-Darling statistic = A2       :    2.10
p-value of test                       :    0.08

Test on the sum of all N observations
Number of degrees of freedom          :   30
Chi-square statistic                  :   20.23
p-value of test                       :    0.91

-----------------------------------------------
CPU time used                    :  00:01:29.23

Generator state:




***********************************************************
HOST = ru01, Linux

MersenneTwiter


sknuth_Run test:
-----------------------------------------------
   N = 10,  n = 1000000000,  r = 15,   Up =  TRUE


-----------------------------------------------

Kolmogorov-Smirnov+ statistic = D+    :    0.13
p-value of test                       :    0.65

Kolmogorov-Smirnov- statistic = D-    :    0.19
p-value of test                       :    0.42

Anderson-Darling statistic = A2       :    0.28
p-value of test                       :    0.95

Test on the sum of all N observations
Number of degrees of freedom          :   60
Chi-square statistic                  :   60.87
p-value of test                       :    0.44

-----------------------------------------------
CPU time used                    :  00:03:38.18

Generator state:




***********************************************************
Test sknuth_Permutation calling smultin_Multinomial

***********************************************************
HOST = ru01, Linux

MersenneTwiter


smultin_Multinomial test:
-----------------------------------------------
   N =  1,  n = 1000000000,  r =  5,   t =  3,
       Sparse =  FALSE

       GenerCell = smultin_GenerCellPermut
       Number of cells = t! =                  6
       Expected number per cell =  1.6666667e+08
       Hashing =  FALSE

   For Delta > -1, we use the ChiSquare approximation
   Correction factor of the ChiSquare: 
       Delta =     1,    Mu =  2.5000002e-09,    Sigma =          1

-----------------------------------------------
Test Results for Delta =   1.0000

Number of degrees of freedom          :    5
Value of the statistic                :    5.74
p-value of test                       :    0.33


-----------------------------------------------
CPU time used                    :  00:01:07.73

Generator state:




***********************************************************
Test sknuth_Permutation calling smultin_Multinomial

***********************************************************
HOST = ru01, Linux

MersenneTwiter


smultin_Multinomial test:
-----------------------------------------------
   N =  1,  n = 1000000000,  r =  5,   t =  5,
       Sparse =  FALSE

       GenerCell = smultin_GenerCellPermut
       Number of cells = t! =                120
       Expected number per cell =   8333333.3
       Hashing =  FALSE

   For Delta > -1, we use the ChiSquare approximation
   Correction factor of the ChiSquare: 
       Delta =     1,    Mu =  5.9500005e-08,    Sigma =          1

-----------------------------------------------
Test Results for Delta =   1.0000

Number of degrees of freedom          :  119
Value of the statistic                :  112.53
p-value of test                       :    0.65


-----------------------------------------------
CPU time used                    :  00:01:57.79

Generator state:




***********************************************************
Test sknuth_Permutation calling smultin_Multinomial

***********************************************************
HOST = ru01, Linux

MersenneTwiter


smultin_Multinomial test:
-----------------------------------------------
   N =  1,  n = 500000000,  r =  5,   t =  7,
       Sparse =  FALSE

       GenerCell = smultin_GenerCellPermut
       Number of cells = t! =               5040
       Expected number per cell =   99206.349
       Hashing =  FALSE

   For Delta > -1, we use the ChiSquare approximation
   Correction factor of the ChiSquare: 
       Delta =     1,    Mu =  5.0390004e-06,    Sigma =          1

-----------------------------------------------
Test Results for Delta =   1.0000

Number of degrees of freedom          : 5039
Value of the statistic                : 5022.99
p-value of test                       :    0.56


-----------------------------------------------
CPU time used                    :  00:01:28.72

Generator state:




***********************************************************
Test sknuth_Permutation calling smultin_Multinomial

***********************************************************
HOST = ru01, Linux

MersenneTwiter


smultin_Multinomial test:
-----------------------------------------------
   N =  1,  n = 500000000,  r = 10,   t = 10,
       Sparse =  FALSE

       GenerCell = smultin_GenerCellPermut
       Number of cells = t! =            3628800
       Expected number per cell =    137.7866
       Hashing =  FALSE

   For Delta > -1, we use the ChiSquare approximation
   Correction factor of the ChiSquare: 
       Delta =     1,    Mu =   0.0036287993,    Sigma =          1

-----------------------------------------------
Test Results for Delta =   1.0000

Number of degrees of freedom          : 3628799
Value of the statistic                : 3.63e+6
p-value of test                       :    0.89


-----------------------------------------------
CPU time used                    :  00:03:24.20

Generator state:




***********************************************************
Test sknuth_CollisionPermut calling smultin_Multinomial

***********************************************************
HOST = ru01, Linux

MersenneTwiter


smultin_Multinomial test:
-----------------------------------------------
   N = 20,  n = 20000000,  r =  0,   t = 14,
       Sparse =   TRUE

       GenerCell = smultin_GenerCellPermut
       Number of cells = t! =        87178291200
       Expected number per cell =  1 /  4358.9146
       EColl = n^2 / (2k) =   2294.14912
       Hashing =   TRUE

       Collision test,    Mu =      2293.9736,    Sigma =    47.8841

-----------------------------------------------
Test Results for Collisions

For the total number of collisions, we use
      the Poisson approximation:
Expected number of collisions = N*Mu  :    45879.47
Observed number of collisions         :    45916
p-value of test                       :    0.43


-----------------------------
Total number of cells containing j balls

  j =  0                              :    1743165869916
  j =  1                              :        399908172
  j =  2                              :            45908
  j =  3                              :                4
  j =  4                              :                0
  j =  5                              :                0

-----------------------------------------------
CPU time used                    :  00:05:14.78

Generator state:




***********************************************************
Test sknuth_CollisionPermut calling smultin_Multinomial

***********************************************************
HOST = ru01, Linux

MersenneTwiter


smultin_Multinomial test:
-----------------------------------------------
   N = 20,  n = 20000000,  r = 10,   t = 14,
       Sparse =   TRUE

       GenerCell = smultin_GenerCellPermut
       Number of cells = t! =        87178291200
       Expected number per cell =  1 /  4358.9146
       EColl = n^2 / (2k) =   2294.14912
       Hashing =   TRUE

       Collision test,    Mu =      2293.9736,    Sigma =    47.8841

-----------------------------------------------
Test Results for Collisions

For the total number of collisions, we use
      the Poisson approximation:
Expected number of collisions = N*Mu  :    45879.47
Observed number of collisions         :    45404
p-value of test                       :    0.99


-----------------------------
Total number of cells containing j balls

  j =  0                              :    1743165869404
  j =  1                              :        399909197
  j =  2                              :            45394
  j =  3                              :                5
  j =  4                              :                0
  j =  5                              :                0

-----------------------------------------------
CPU time used                    :  00:05:56.02

Generator state:




***********************************************************
HOST = ru01, Linux

MersenneTwiter


sknuth_MaxOft test:
-----------------------------------------------
   N = 40,  n = 10000000,  r =  0,   d = 100000,   t =  8

      Number of categories = 100000
      Expected number per category  = 100.00


-----------------------------------------------
Test results for chi2 with 99999 degrees of freedom:

Kolmogorov-Smirnov+ statistic = D+    :   0.074
p-value of test                       :    0.61

Kolmogorov-Smirnov- statistic = D-    :    0.15
p-value of test                       :    0.16

Anderson-Darling statistic = A2       :    1.16
p-value of test                       :    0.28

Test on the sum of all N observations
Number of degrees of freedom          : 3999960
Chi-square statistic                  : 4.00e+6
p-value of test                       :    0.16


-----------------------------------------------
Test results for Anderson-Darling:

Kolmogorov-Smirnov+ statistic = D+    :    0.15
p-value of test                       :    0.15

Kolmogorov-Smirnov- statistic = D-    :   0.051
p-value of test                       :    0.78

Anderson-Darling statistic = A2       :    1.37
p-value of test                       :    0.21


-----------------------------------------------
CPU time used                    :  00:02:11.36

Generator state:




***********************************************************
HOST = ru01, Linux

MersenneTwiter


sknuth_MaxOft test:
-----------------------------------------------
   N = 30,  n = 10000000,  r =  0,   d = 100000,   t = 16

      Number of categories = 100000
      Expected number per category  = 100.00


-----------------------------------------------
Test results for chi2 with 99999 degrees of freedom:

Kolmogorov-Smirnov+ statistic = D+    :    0.12
p-value of test                       :    0.41

Kolmogorov-Smirnov- statistic = D-    :    0.19
p-value of test                       :    0.09

Anderson-Darling statistic = A2       :    1.13
p-value of test                       :    0.29

Test on the sum of all N observations
Number of degrees of freedom          : 2999970
Chi-square statistic                  : 3.00e+6
p-value of test                       :    0.37


-----------------------------------------------
Test results for Anderson-Darling:

Kolmogorov-Smirnov+ statistic = D+    :    0.19
p-value of test                       :    0.10

Kolmogorov-Smirnov- statistic = D-    :   0.071
p-value of test                       :    0.71

Anderson-Darling statistic = A2       :    0.93
p-value of test                       :    0.40


-----------------------------------------------
CPU time used                    :  00:02:07.59

Generator state:




***********************************************************
HOST = ru01, Linux

MersenneTwiter


sknuth_MaxOft test:
-----------------------------------------------
   N = 20,  n = 10000000,  r =  0,   d = 100000,   t = 24

      Number of categories = 100000
      Expected number per category  = 100.00


-----------------------------------------------
Test results for chi2 with 99999 degrees of freedom:

Kolmogorov-Smirnov+ statistic = D+    :    0.21
p-value of test                       :    0.14

Kolmogorov-Smirnov- statistic = D-    :   0.042
p-value of test                       :    0.91

Anderson-Darling statistic = A2       :    1.29
p-value of test                       :    0.24

Test on the sum of all N observations
Number of degrees of freedom          : 1999980
Chi-square statistic                  : 2.00e+6
p-value of test                       :    0.92


-----------------------------------------------
Test results for Anderson-Darling:

Kolmogorov-Smirnov+ statistic = D+    :    0.11
p-value of test                       :    0.59

Kolmogorov-Smirnov- statistic = D-    :    0.15
p-value of test                       :    0.38

Anderson-Darling statistic = A2       :    0.58
p-value of test                       :    0.67


-----------------------------------------------
CPU time used                    :  00:01:44.71

Generator state:




***********************************************************
HOST = ru01, Linux

MersenneTwiter


sknuth_MaxOft test:
-----------------------------------------------
   N = 20,  n = 10000000,  r =  0,   d = 100000,   t = 32

      Number of categories = 100000
      Expected number per category  = 100.00


-----------------------------------------------
Test results for chi2 with 99999 degrees of freedom:

Kolmogorov-Smirnov+ statistic = D+    :   0.053
p-value of test                       :    0.86

Kolmogorov-Smirnov- statistic = D-    :    0.11
p-value of test                       :    0.58

Anderson-Darling statistic = A2       :    0.22
p-value of test                       :    0.98

Test on the sum of all N observations
Number of degrees of freedom          : 1999980
Chi-square statistic                  : 2.00e+6
p-value of test                       :    0.40


-----------------------------------------------
Test results for Anderson-Darling:

Kolmogorov-Smirnov+ statistic = D+    :    0.24
p-value of test                       :    0.08

Kolmogorov-Smirnov- statistic = D-    :    0.12
p-value of test                       :    0.53

Anderson-Darling statistic = A2       :    1.16
p-value of test                       :    0.28


-----------------------------------------------
CPU time used                    :  00:02:03.56

Generator state:




***********************************************************
HOST = ru01, Linux

MersenneTwiter


svaria_SampleProd test:
-----------------------------------------------
   N = 40,  n = 10000000,  r =  0,   t = 8


-----------------------------------------------

Kolmogorov-Smirnov+ statistic = D+    :   0.058
p-value of test                       :    0.74

Kolmogorov-Smirnov- statistic = D-    :    0.11
p-value of test                       :    0.38

Anderson-Darling statistic = A2       :    0.60
p-value of test                       :    0.65

-----------------------------------------------
CPU time used                    :  00:01:56.27

Generator state:




***********************************************************
HOST = ru01, Linux

MersenneTwiter


svaria_SampleProd test:
-----------------------------------------------
   N = 20,  n = 10000000,  r =  0,   t = 16


-----------------------------------------------

Kolmogorov-Smirnov+ statistic = D+    :    0.13
p-value of test                       :    0.47

Kolmogorov-Smirnov- statistic = D-    :    0.13
p-value of test                       :    0.48

Anderson-Darling statistic = A2       :    0.47
p-value of test                       :    0.78

-----------------------------------------------
CPU time used                    :  00:01:19.70

Generator state:




***********************************************************
HOST = ru01, Linux

MersenneTwiter


svaria_SampleProd test:
-----------------------------------------------
   N = 20,  n = 10000000,  r =  0,   t = 24


-----------------------------------------------

Kolmogorov-Smirnov+ statistic = D+    :    0.13
p-value of test                       :    0.46

Kolmogorov-Smirnov- statistic = D-    :   0.096
p-value of test                       :    0.65

Anderson-Darling statistic = A2       :    0.34
p-value of test                       :    0.90

-----------------------------------------------
CPU time used                    :  00:01:38.89

Generator state:




***********************************************************
HOST = ru01, Linux

MersenneTwiter


svaria_SampleMean test:
-----------------------------------------------
   N = 20000000,  n = 30,  r =  0


-----------------------------------------------

Kolmogorov-Smirnov+ statistic = D+    : 2.05e-4
p-value of test                       :    0.19

Kolmogorov-Smirnov- statistic = D-    : 1.04e-4
p-value of test                       :    0.65

Anderson-Darling statistic = A2       :    0.87
p-value of test                       :    0.43

-----------------------------------------------
CPU time used                    :  00:00:18.36

Generator state:




***********************************************************
HOST = ru01, Linux

MersenneTwiter


svaria_SampleMean test:
-----------------------------------------------
   N = 20000000,  n = 30,  r = 10


-----------------------------------------------

Kolmogorov-Smirnov+ statistic = D+    : 1.28e-4
p-value of test                       :    0.52

Kolmogorov-Smirnov- statistic = D-    : 6.11e-5
p-value of test                       :    0.86

Anderson-Darling statistic = A2       :    0.34
p-value of test                       :    0.90

-----------------------------------------------
CPU time used                    :  00:00:19.79

Generator state:




***********************************************************
HOST = ru01, Linux

MersenneTwiter


svaria_SampleCorr test:
-----------------------------------------------
   N =  1,  n = 2000000000,  r =  0,   k = 1


-----------------------------------------------
Normal statistic                      :   -0.46
p-value of test                       :    0.68

-----------------------------------------------
CPU time used                    :  00:00:23.71

Generator state:




***********************************************************
HOST = ru01, Linux

MersenneTwiter


svaria_SampleCorr test:
-----------------------------------------------
   N =  1,  n = 2000000000,  r =  0,   k = 2


-----------------------------------------------
Normal statistic                      :   -1.16
p-value of test                       :    0.88

-----------------------------------------------
CPU time used                    :  00:00:24.43

Generator state:




***********************************************************
HOST = ru01, Linux

MersenneTwiter


svaria_AppearanceSpacings test:
-----------------------------------------------
   N =  1,   Q = 10000000,   K = 1000000000,   r = 0,   s = 3,   L = 15

   Sequences of n = (K + Q)L =  15150000000 bits
   Q = 10000000 initialization blocks
   K = 1000000000 blocks for the test
   the blocks have L = 15 bits



-----------------------------------------------
Normal statistic                      :    0.19
p-value of test                       :    0.43

-----------------------------------------------
CPU time used                    :  00:01:35.87

Generator state:




***********************************************************
HOST = ru01, Linux

MersenneTwiter


svaria_AppearanceSpacings test:
-----------------------------------------------
   N =  1,   Q = 10000000,   K = 1000000000,   r = 27,   s = 3,   L = 15

   Sequences of n = (K + Q)L =  15150000000 bits
   Q = 10000000 initialization blocks
   K = 1000000000 blocks for the test
   the blocks have L = 15 bits



-----------------------------------------------
Normal statistic                      :   -2.53
p-value of test                       :    0.9942

-----------------------------------------------
CPU time used                    :  00:01:06.44

Generator state:




***********************************************************
HOST = ru01, Linux

MersenneTwiter


svaria_WeightDistrib test:
-----------------------------------------------
   N =  1,  n = 20000000,  r =  0,  k = 256,  Alpha =      0,  Beta =   0.25


-----------------------------------------------
Number of degrees of freedom          :   67
Chi-square statistic                  :   71.22
p-value of test                       :    0.34

-----------------------------------------------
CPU time used                    :  00:00:39.42

Generator state:




***********************************************************
HOST = ru01, Linux

MersenneTwiter


svaria_WeightDistrib test:
-----------------------------------------------
   N =  1,  n = 20000000,  r = 20,  k = 256,  Alpha =      0,  Beta =   0.25


-----------------------------------------------
Number of degrees of freedom          :   67
Chi-square statistic                  :   68.18
p-value of test                       :    0.44

-----------------------------------------------
CPU time used                    :  00:00:45.52

Generator state:




***********************************************************
HOST = ru01, Linux

MersenneTwiter


svaria_WeightDistrib test:
-----------------------------------------------
   N =  1,  n = 20000000,  r = 28,  k = 256,  Alpha =      0,  Beta =   0.25


-----------------------------------------------
Number of degrees of freedom          :   67
Chi-square statistic                  :   72.67
p-value of test                       :    0.30

-----------------------------------------------
CPU time used                    :  00:00:45.50

Generator state:




***********************************************************
HOST = ru01, Linux

MersenneTwiter


svaria_WeightDistrib test:
-----------------------------------------------
   N =  1,  n = 20000000,  r =  0,  k = 256,  Alpha =      0,  Beta = 0.0625


-----------------------------------------------
Number of degrees of freedom          :   37
Chi-square statistic                  :   40.98
p-value of test                       :    0.30

-----------------------------------------------
CPU time used                    :  00:00:38.38

Generator state:




***********************************************************
HOST = ru01, Linux

MersenneTwiter


svaria_WeightDistrib test:
-----------------------------------------------
   N =  1,  n = 20000000,  r = 10,  k = 256,  Alpha =      0,  Beta = 0.0625


-----------------------------------------------
Number of degrees of freedom          :   37
Chi-square statistic                  :   36.45
p-value of test                       :    0.49

-----------------------------------------------
CPU time used                    :  00:00:45.37

Generator state:




***********************************************************
HOST = ru01, Linux

MersenneTwiter


svaria_WeightDistrib test:
-----------------------------------------------
   N =  1,  n = 20000000,  r = 26,  k = 256,  Alpha =      0,  Beta = 0.0625


-----------------------------------------------
Number of degrees of freedom          :   37
Chi-square statistic                  :   30.40
p-value of test                       :    0.77

-----------------------------------------------
CPU time used                    :  00:00:45.76

Generator state:




***********************************************************
HOST = ru01, Linux

MersenneTwiter


svaria_SumCollector test:
-----------------------------------------------
   N =  1,  n = 500000000,  r =  0,   g = 10


-----------------------------------------------
Number of degrees of freedom          :   29
Chi-square statistic                  :   23.52
p-value of test                       :    0.75

-----------------------------------------------
CPU time used                    :  00:01:28.37

Generator state:




***********************************************************
HOST = ru01, Linux

MersenneTwiter


smarsa_MatrixRank test:
-----------------------------------------------
   N = 10,  n = 1000000,  r =  0,    s = 5,    L = 30,    k = 30


-----------------------------------------------

Kolmogorov-Smirnov+ statistic = D+    :    0.24
p-value of test                       :    0.27

Kolmogorov-Smirnov- statistic = D-    :    0.28
p-value of test                       :    0.16

Anderson-Darling statistic = A2       :    1.22
p-value of test                       :    0.26

Test on the sum of all N observations
Number of degrees of freedom          :   40
Chi-square statistic                  :   44.78
p-value of test                       :    0.28

-----------------------------------------------
CPU time used                    :  00:01:08.18

Generator state:




***********************************************************
HOST = ru01, Linux

MersenneTwiter


smarsa_MatrixRank test:
-----------------------------------------------
   N = 10,  n = 1000000,  r = 25,    s = 5,    L = 30,    k = 30


-----------------------------------------------

Kolmogorov-Smirnov+ statistic = D+    :    0.11
p-value of test                       :    0.73

Kolmogorov-Smirnov- statistic = D-    :    0.35
p-value of test                       :    0.07

Anderson-Darling statistic = A2       :    1.20
p-value of test                       :    0.27

Test on the sum of all N observations
Number of degrees of freedom          :   40
Chi-square statistic                  :   46.32
p-value of test                       :    0.23

-----------------------------------------------
CPU time used                    :  00:01:07.63

Generator state:




***********************************************************
HOST = ru01, Linux

MersenneTwiter


smarsa_MatrixRank test:
-----------------------------------------------
   N =  1,  n = 5000,  r =  0,    s = 4,    L = 1000,    k = 1000


-----------------------------------------------
Number of degrees of freedom          :    3
Chi-square statistic                  :    1.45
p-value of test                       :    0.69

-----------------------------------------------
CPU time used                    :  00:01:33.93

Generator state:




***********************************************************
HOST = ru01, Linux

MersenneTwiter


smarsa_MatrixRank test:
-----------------------------------------------
   N =  1,  n = 5000,  r = 26,    s = 4,    L = 1000,    k = 1000


-----------------------------------------------
Number of degrees of freedom          :    3
Chi-square statistic                  :    2.17
p-value of test                       :    0.54

-----------------------------------------------
CPU time used                    :  00:01:34.29

Generator state:




***********************************************************
HOST = ru01, Linux

MersenneTwiter


smarsa_MatrixRank test:
-----------------------------------------------
   N =  1,  n = 80,  r = 15,    s = 15,    L = 5000,    k = 5000


-----------------------------------------------
Number of degrees of freedom          :    2
Chi-square statistic                  :    2.39
p-value of test                       :    0.30

-----------------------------------------------
CPU time used                    :  00:01:20.77

Generator state:




***********************************************************
HOST = ru01, Linux

MersenneTwiter


smarsa_MatrixRank test:
-----------------------------------------------
   N =  1,  n = 80,  r =  0,    s = 30,    L = 5000,    k = 5000


-----------------------------------------------
Number of degrees of freedom          :    2
Chi-square statistic                  :    2.16
p-value of test                       :    0.34

-----------------------------------------------
CPU time used                    :  00:01:11.11

Generator state:




***********************************************************
HOST = ru01, Linux

MersenneTwiter


smarsa_Savir2 test:
-----------------------------------------------
   N = 10,  n = 10000000,  r = 10,    m = 1048576,    t = 30


-----------------------------------------------

Kolmogorov-Smirnov+ statistic = D+    :    0.23
p-value of test                       :    0.32

Kolmogorov-Smirnov- statistic = D-    :    0.15
p-value of test                       :    0.58

Anderson-Darling statistic = A2       :    0.44
p-value of test                       :    0.81

Test on the sum of all N observations
Number of degrees of freedom          :  130
Chi-square statistic                  :  125.54
p-value of test                       :    0.59

-----------------------------------------------
CPU time used                    :  00:00:27.36

Generator state:




***********************************************************
HOST = ru01, Linux

MersenneTwiter


smarsa_GCD test:
-----------------------------------------------
   N = 10,  n = 50000000,  r =  0,   s = 30


-----------------------------------------------
Test results for GCD values:

Kolmogorov-Smirnov+ statistic = D+    :    0.13
p-value of test                       :    0.64

Kolmogorov-Smirnov- statistic = D-    :    0.14
p-value of test                       :    0.63

Anderson-Darling statistic = A2       :    0.30
p-value of test                       :    0.94

Test on the sum of all N observations
Number of degrees of freedom          : 17430
Chi-square statistic                  :17383.10
p-value of test                       :    0.60



-----------------------------------------------
CPU time used                    :  00:00:52.53

Generator state:




***********************************************************
HOST = ru01, Linux

MersenneTwiter


swalk_RandomWalk1 test:
-----------------------------------------------
   N =  1,  n = 100000000,  r =  0,   s = 5,   L0 =   50,   L1 =   50



-----------------------------------------------
Test on the values of the Statistic H

Number of degrees of freedom          :   36
ChiSquare statistic                   :   23.08
p-value of test                       :    0.95


-----------------------------------------------
Test on the values of the Statistic M

Number of degrees of freedom          :   35
ChiSquare statistic                   :   30.55
p-value of test                       :    0.68


-----------------------------------------------
Test on the values of the Statistic J

Number of degrees of freedom          :   25
ChiSquare statistic                   :   34.14
p-value of test                       :    0.10


-----------------------------------------------
Test on the values of the Statistic R

Number of degrees of freedom          :   24
ChiSquare statistic                   :   21.95
p-value of test                       :    0.58


-----------------------------------------------
Test on the values of the Statistic C

Number of degrees of freedom          :   17
ChiSquare statistic                   :   14.12
p-value of test                       :    0.66


-----------------------------------------------
CPU time used                    :  00:00:45.81

Generator state:




***********************************************************
HOST = ru01, Linux

MersenneTwiter


swalk_RandomWalk1 test:
-----------------------------------------------
   N =  1,  n = 100000000,  r = 25,   s = 5,   L0 =   50,   L1 =   50



-----------------------------------------------
Test on the values of the Statistic H

Number of degrees of freedom          :   36
ChiSquare statistic                   :   40.04
p-value of test                       :    0.30


-----------------------------------------------
Test on the values of the Statistic M

Number of degrees of freedom          :   35
ChiSquare statistic                   :   36.85
p-value of test                       :    0.38


-----------------------------------------------
Test on the values of the Statistic J

Number of degrees of freedom          :   25
ChiSquare statistic                   :   19.83
p-value of test                       :    0.76


-----------------------------------------------
Test on the values of the Statistic R

Number of degrees of freedom          :   24
ChiSquare statistic                   :   18.54
p-value of test                       :    0.78


-----------------------------------------------
Test on the values of the Statistic C

Number of degrees of freedom          :   17
ChiSquare statistic                   :   20.33
p-value of test                       :    0.26


-----------------------------------------------
CPU time used                    :  00:00:48.71

Generator state:




***********************************************************
HOST = ru01, Linux

MersenneTwiter


swalk_RandomWalk1 test:
-----------------------------------------------
   N =  1,  n = 10000000,  r =  0,   s = 10,   L0 = 1000,   L1 = 1000



-----------------------------------------------
Test on the values of the Statistic H

Number of degrees of freedom          :  146
ChiSquare statistic                   :  158.37
p-value of test                       :    0.23


-----------------------------------------------
Test on the values of the Statistic M

Number of degrees of freedom          :  146
ChiSquare statistic                   :  137.61
p-value of test                       :    0.68


-----------------------------------------------
Test on the values of the Statistic J

Number of degrees of freedom          :  500
ChiSquare statistic                   :  439.17
p-value of test                       :    0.98


-----------------------------------------------
Test on the values of the Statistic R

Number of degrees of freedom          :  136
ChiSquare statistic                   :  157.55
p-value of test                       :    0.10


-----------------------------------------------
Test on the values of the Statistic C

Number of degrees of freedom          :   74
ChiSquare statistic                   :   84.11
p-value of test                       :    0.20


-----------------------------------------------
CPU time used                    :  00:01:32.97

Generator state:




***********************************************************
HOST = ru01, Linux

MersenneTwiter


swalk_RandomWalk1 test:
-----------------------------------------------
   N =  1,  n = 10000000,  r = 20,   s = 10,   L0 = 1000,   L1 = 1000



-----------------------------------------------
Test on the values of the Statistic H

Number of degrees of freedom          :  146
ChiSquare statistic                   :  136.04
p-value of test                       :    0.71


-----------------------------------------------
Test on the values of the Statistic M

Number of degrees of freedom          :  146
ChiSquare statistic                   :  137.76
p-value of test                       :    0.67


-----------------------------------------------
Test on the values of the Statistic J

Number of degrees of freedom          :  500
ChiSquare statistic                   :  516.92
p-value of test                       :    0.29


-----------------------------------------------
Test on the values of the Statistic R

Number of degrees of freedom          :  136
ChiSquare statistic                   :  132.31
p-value of test                       :    0.57


-----------------------------------------------
Test on the values of the Statistic C

Number of degrees of freedom          :   74
ChiSquare statistic                   :   67.22
p-value of test                       :    0.70


-----------------------------------------------
CPU time used                    :  00:01:34.27

Generator state:




***********************************************************
HOST = ru01, Linux

MersenneTwiter


swalk_RandomWalk1 test:
-----------------------------------------------
   N =  1,  n = 1000000,  r =  0,   s = 15,   L0 = 10000,   L1 = 10000



-----------------------------------------------
Test on the values of the Statistic H

Number of degrees of freedom          :  384
ChiSquare statistic                   :  346.30
p-value of test                       :    0.92


-----------------------------------------------
Test on the values of the Statistic M

Number of degrees of freedom          :  384
ChiSquare statistic                   :  399.76
p-value of test                       :    0.28


-----------------------------------------------
Test on the values of the Statistic J

Number of degrees of freedom          : 5000
ChiSquare statistic                   : 5053.86
p-value of test                       :    0.29


-----------------------------------------------
Test on the values of the Statistic R

Number of degrees of freedom          :  378
ChiSquare statistic                   :  360.84
p-value of test                       :    0.73


-----------------------------------------------
Test on the values of the Statistic C

Number of degrees of freedom          :  200
ChiSquare statistic                   :  192.70
p-value of test                       :    0.63


-----------------------------------------------
CPU time used                    :  00:01:18.31

Generator state:




***********************************************************
HOST = ru01, Linux

MersenneTwiter


swalk_RandomWalk1 test:
-----------------------------------------------
   N =  1,  n = 1000000,  r = 15,   s = 15,   L0 = 10000,   L1 = 10000



-----------------------------------------------
Test on the values of the Statistic H

Number of degrees of freedom          :  384
ChiSquare statistic                   :  365.36
p-value of test                       :    0.75


-----------------------------------------------
Test on the values of the Statistic M

Number of degrees of freedom          :  384
ChiSquare statistic                   :  407.34
p-value of test                       :    0.20


-----------------------------------------------
Test on the values of the Statistic J

Number of degrees of freedom          : 5000
ChiSquare statistic                   : 5019.96
p-value of test                       :    0.42


-----------------------------------------------
Test on the values of the Statistic R

Number of degrees of freedom          :  378
ChiSquare statistic                   :  361.42
p-value of test                       :    0.72


-----------------------------------------------
Test on the values of the Statistic C

Number of degrees of freedom          :  200
ChiSquare statistic                   :  196.18
p-value of test                       :    0.56


-----------------------------------------------
CPU time used                    :  00:01:17.65

Generator state:




***********************************************************
HOST = ru01, Linux

MersenneTwiter


scomp_LinearComp test:
-----------------------------------------------
   N =  1,  n = 400020,  r =  0,    s = 1



-----------------------------------------------
Number of degrees of freedom          :   12
Chi2 statistic for size of jumps      :    7.28
p-value of test                       :    0.84


-----------------------------------------------
Normal statistic for number of jumps  : -402.61
p-value of test                       : 1 - eps1    *****



-----------------------------------------------
CPU time used                    :  00:00:13.09

Generator state:




***********************************************************
HOST = ru01, Linux

MersenneTwiter


scomp_LinearComp test:
-----------------------------------------------
   N =  1,  n = 400020,  r = 29,    s = 1



-----------------------------------------------
Number of degrees of freedom          :   12
Chi2 statistic for size of jumps      :    5.84
p-value of test                       :    0.92


-----------------------------------------------
Normal statistic for number of jumps  : -402.65
p-value of test                       : 1 - eps1    *****



-----------------------------------------------
CPU time used                    :  00:00:12.85

Generator state:




***********************************************************
HOST = ru01, Linux

MersenneTwiter


scomp_LempelZiv test:
-----------------------------------------------
   N = 10,  n = 134217728,  r =  0,   s =   30,   k =   27


-----------------------------------------------

Kolmogorov-Smirnov+ statistic = D+    :    0.22
p-value of test                       :    0.32

Kolmogorov-Smirnov- statistic = D-    :    0.22
p-value of test                       :    0.33

Anderson-Darling statistic = A2       :    0.65
p-value of test                       :    0.59

Tests on the sum of all N observations
Standardized normal statistic         :  -0.082
p-value of test                       :    0.53

Sample variance                       :    0.74
p-value of test                       :    0.67

-----------------------------------------------
CPU time used                    :  00:02:00.39

Generator state:




***********************************************************
HOST = ru01, Linux

MersenneTwiter


scomp_LempelZiv test:
-----------------------------------------------
   N = 10,  n = 134217728,  r = 15,   s =   15,   k =   27


-----------------------------------------------

Kolmogorov-Smirnov+ statistic = D+    :    0.11
p-value of test                       :    0.73

Kolmogorov-Smirnov- statistic = D-    :    0.31
p-value of test                       :    0.12

Anderson-Darling statistic = A2       :    0.73
p-value of test                       :    0.53

Tests on the sum of all N observations
Standardized normal statistic         :    0.34
p-value of test                       :    0.37

Sample variance                       :    0.86
p-value of test                       :    0.56

-----------------------------------------------
CPU time used                    :  00:01:36.62

Generator state:




***********************************************************
HOST = ru01, Linux

MersenneTwiter


sspectral_Fourier3 test:
-----------------------------------------------
   N = 100000,  n = 16384,  r =  0,   s =    3,   k =   14


-----------------------------------------------

Kolmogorov-Smirnov+ statistic = D+    : 9.00e-3
p-value of test                       :    0.51

Kolmogorov-Smirnov- statistic = D-    : 7.92e-3
p-value of test                       :    0.60

Anderson-Darling statistic = A2       :    0.37
p-value of test                       :    0.88

-----------------------------------------------
CPU time used                    :  00:00:47.88

Generator state:




***********************************************************
HOST = ru01, Linux

MersenneTwiter


sspectral_Fourier3 test:
-----------------------------------------------
   N = 100000,  n = 16384,  r = 27,   s =    3,   k =   14


-----------------------------------------------

Kolmogorov-Smirnov+ statistic = D+    : 2.44e-3
p-value of test                       :    0.95

Kolmogorov-Smirnov- statistic = D-    :   0.011
p-value of test                       :    0.34

Anderson-Darling statistic = A2       :    0.76
p-value of test                       :    0.51

-----------------------------------------------
CPU time used                    :  00:00:45.29

Generator state:




***********************************************************
HOST = ru01, Linux

MersenneTwiter


sstring_LongestHeadRun test:
-----------------------------------------------
   N =  1,  n = 1000,  r =  0,   s = 3,   L = 10000020


-----------------------------------------------
Number of degrees of freedom          :    8
Chi-square statistic                  :    5.46
p-value of test                       :    0.71

-----------------------------------------------
Global longest run of 1               :   32.00
p-value of test                       :    0.50



-----------------------------------------------
CPU time used                    :  00:01:39.53

Generator state:




***********************************************************
HOST = ru01, Linux

MersenneTwiter


sstring_LongestHeadRun test:
-----------------------------------------------
   N =  1,  n = 1000,  r = 27,   s = 3,   L = 10000020


-----------------------------------------------
Number of degrees of freedom          :    8
Chi-square statistic                  :    5.19
p-value of test                       :    0.74

-----------------------------------------------
Global longest run of 1               :   33.00
p-value of test                       :    0.44



-----------------------------------------------
CPU time used                    :  00:01:41.17

Generator state:




***********************************************************
HOST = ru01, Linux

MersenneTwiter


sstring_PeriodsInStrings test:
-----------------------------------------------
   N = 10,  n = 500000000,  r =  0,   s =   10


-----------------------------------------------

Kolmogorov-Smirnov+ statistic = D+    :    0.19
p-value of test                       :    0.42

Kolmogorov-Smirnov- statistic = D-    :    0.33
p-value of test                       :    0.10

Anderson-Darling statistic = A2       :    1.27
p-value of test                       :    0.24

Test on the sum of all N observations
Number of degrees of freedom          :  200
Chi-square statistic                  :  203.35
p-value of test                       :    0.42

-----------------------------------------------
CPU time used                    :  00:03:00.22

Generator state:




***********************************************************
HOST = ru01, Linux

MersenneTwiter


sstring_PeriodsInStrings test:
-----------------------------------------------
   N = 10,  n = 500000000,  r = 20,   s =   10


-----------------------------------------------

Kolmogorov-Smirnov+ statistic = D+    :    0.11
p-value of test                       :    0.74

Kolmogorov-Smirnov- statistic = D-    :    0.15
p-value of test                       :    0.58

Anderson-Darling statistic = A2       :    0.32
p-value of test                       :    0.92

Test on the sum of all N observations
Number of degrees of freedom          :  200
Chi-square statistic                  :  208.77
p-value of test                       :    0.32

-----------------------------------------------
CPU time used                    :  00:03:00.73

Generator state:




***********************************************************
HOST = ru01, Linux

MersenneTwiter


sstring_HammingWeight2 test:
-----------------------------------------------
   N = 10,  n = 1000000000,  r =  0,   s = 3,   L = 1000000


-----------------------------------------------

Kolmogorov-Smirnov+ statistic = D+    :    0.23
p-value of test                       :    0.29

Kolmogorov-Smirnov- statistic = D-    :   0.086
p-value of test                       :    0.82

Anderson-Darling statistic = A2       :    0.50
p-value of test                       :    0.75

Test on the sum of all N observations
Number of degrees of freedom          : 10000
Chi-square statistic                  : 9902.09
p-value of test                       :    0.75

-----------------------------------------------
CPU time used                    :  00:01:19.70

Generator state:




***********************************************************
HOST = ru01, Linux

MersenneTwiter


sstring_HammingWeight2 test:
-----------------------------------------------
   N = 10,  n = 1000000000,  r = 27,   s = 3,   L = 1000000


-----------------------------------------------

Kolmogorov-Smirnov+ statistic = D+    :    0.33
p-value of test                       :    0.09

Kolmogorov-Smirnov- statistic = D-    :   0.078
p-value of test                       :    0.85

Anderson-Darling statistic = A2       :    1.50
p-value of test                       :    0.18

Test on the sum of all N observations
Number of degrees of freedom          : 10000
Chi-square statistic                  : 9862.69
p-value of test                       :    0.83

-----------------------------------------------
CPU time used                    :  00:01:26.07

Generator state:




***********************************************************
HOST = ru01, Linux

MersenneTwiter


sstring_HammingCorr test:
-----------------------------------------------
   N =  1,  n = 1000000000,  r = 10,   s = 10,   L = 30



-----------------------------------------------
Normal statistic                      : 7.08e-3
p-value of test                       :    0.50

-----------------------------------------------
CPU time used                    :  00:01:38.37

Generator state:




***********************************************************
HOST = ru01, Linux

MersenneTwiter


sstring_HammingCorr test:
-----------------------------------------------
   N =  1,  n = 100000000,  r = 10,   s = 10,   L = 300



-----------------------------------------------
Normal statistic                      :   -1.40
p-value of test                       :    0.92

-----------------------------------------------
CPU time used                    :  00:01:36.15

Generator state:




***********************************************************
HOST = ru01, Linux

MersenneTwiter


sstring_HammingCorr test:
-----------------------------------------------
   N =  1,  n = 100000000,  r = 10,   s = 10,   L = 1200



-----------------------------------------------
Normal statistic                      :    0.17
p-value of test                       :    0.43

-----------------------------------------------
CPU time used                    :  00:06:24.73

Generator state:




***********************************************************
HOST = ru01, Linux

MersenneTwiter


sstring_HammingIndep test:
-----------------------------------------------
   N = 10,  n = 30000000,  r =  0,   s = 3,   L = 30,   d = 0



Counters with expected numbers >= 10
-----------------------------------------------

Kolmogorov-Smirnov+ statistic = D+    :    0.27
p-value of test                       :    0.20

Kolmogorov-Smirnov- statistic = D-    :    0.22
p-value of test                       :    0.33

Anderson-Darling statistic = A2       :    1.03
p-value of test                       :    0.34

Test on the sum of all N observations
Number of degrees of freedom          : 4890
Chi-square statistic                  : 4895.09
p-value of test                       :    0.48

-----------------------------------------------
CPU time used                    :  00:02:44.48

Generator state:




***********************************************************
HOST = ru01, Linux

MersenneTwiter


sstring_HammingIndep test:
-----------------------------------------------
   N = 10,  n = 30000000,  r = 27,   s = 3,   L = 30,   d = 0



Counters with expected numbers >= 10
-----------------------------------------------

Kolmogorov-Smirnov+ statistic = D+    :    0.27
p-value of test                       :    0.20

Kolmogorov-Smirnov- statistic = D-    :   0.031
p-value of test                       :    0.96

Anderson-Darling statistic = A2       :    0.92
p-value of test                       :    0.40

Test on the sum of all N observations
Number of degrees of freedom          : 4890
Chi-square statistic                  : 4775.05
p-value of test                       :    0.88

-----------------------------------------------
CPU time used                    :  00:02:28.96

Generator state:




***********************************************************
HOST = ru01, Linux

MersenneTwiter


sstring_HammingIndep test:
-----------------------------------------------
   N =  1,  n = 30000000,  r =  0,   s = 4,   L = 300,   d = 0



Counters with expected numbers >= 10
-----------------------------------------------
Number of degrees of freedom          : 4117
Chi-square statistic                  : 4014.68
p-value of test                       :    0.87

-----------------------------------------------
CPU time used                    :  00:01:45.59

Generator state:




***********************************************************
HOST = ru01, Linux

MersenneTwiter


sstring_HammingIndep test:
-----------------------------------------------
   N =  1,  n = 30000000,  r = 26,   s = 4,   L = 300,   d = 0



Counters with expected numbers >= 10
-----------------------------------------------
Number of degrees of freedom          : 4117
Chi-square statistic                  : 4122.56
p-value of test                       :    0.47

-----------------------------------------------
CPU time used                    :  00:02:01.50

Generator state:




***********************************************************
HOST = ru01, Linux

MersenneTwiter


sstring_HammingIndep test:
-----------------------------------------------
   N =  1,  n = 10000000,  r =  0,   s = 5,   L = 1200,   d = 0



Counters with expected numbers >= 10
-----------------------------------------------
Number of degrees of freedom          : 11825
Chi-square statistic                  :12114.22
p-value of test                       :    0.03

-----------------------------------------------
CPU time used                    :  00:02:13.12

Generator state:




***********************************************************
HOST = ru01, Linux

MersenneTwiter


sstring_HammingIndep test:
-----------------------------------------------
   N =  1,  n = 10000000,  r = 25,   s = 5,   L = 1200,   d = 0



Counters with expected numbers >= 10
-----------------------------------------------
Number of degrees of freedom          : 11825
Chi-square statistic                  :11734.00
p-value of test                       :    0.72

-----------------------------------------------
CPU time used                    :  00:02:16.83

Generator state:




***********************************************************
HOST = ru01, Linux

MersenneTwiter


sstring_Run test:
-----------------------------------------------
   N =  1,  n = 2000000000,  r =  0,   s =    3


-----------------------------------------------
Total number of 1 runs:  2000000000

Number of degrees of freedom          :   54
Chi2 statistic for number of runs     :   50.18
p-value of test                       :    0.62


-----------------------------------------------
Total number of bits:  7999829874

Normal statistic for number of bits   :   -1.34
p-value of test                       :    0.91



-----------------------------------------------
CPU time used                    :  00:01:43.22

Generator state:




***********************************************************
HOST = ru01, Linux

MersenneTwiter


sstring_Run test:
-----------------------------------------------
   N =  1,  n = 2000000000,  r = 27,   s =    3


-----------------------------------------------
Total number of 1 runs:  2000000000

Number of degrees of freedom          :   54
Chi2 statistic for number of runs     :   56.63
p-value of test                       :    0.38


-----------------------------------------------
Total number of bits:  7999982802

Normal statistic for number of bits   :   -0.14
p-value of test                       :    0.55



-----------------------------------------------
CPU time used                    :  00:01:47.47

Generator state:




***********************************************************
HOST = ru01, Linux

MersenneTwiter


sstring_AutoCor test:
-----------------------------------------------
   N = 10,  n = 1000000030,  r =  0,   s = 3,   d = 1


-----------------------------------------------

Kolmogorov-Smirnov+ statistic = D+    :    0.21
p-value of test                       :    0.38

Kolmogorov-Smirnov- statistic = D-    :    0.24
p-value of test                       :    0.26

Anderson-Darling statistic = A2       :    0.70
p-value of test                       :    0.56

Tests on the sum of all N observations
Standardized normal statistic         :   -0.39
p-value of test                       :    0.65

Sample variance                       :    0.59
p-value of test                       :    0.81

-----------------------------------------------
CPU time used                    :  00:01:47.06

Generator state:




***********************************************************
HOST = ru01, Linux

MersenneTwiter


sstring_AutoCor test:
-----------------------------------------------
   N = 10,  n = 1000000029,  r =  0,   s = 3,   d = 3


-----------------------------------------------

Kolmogorov-Smirnov+ statistic = D+    :    0.21
p-value of test                       :    0.36

Kolmogorov-Smirnov- statistic = D-    :    0.12
p-value of test                       :    0.69

Anderson-Darling statistic = A2       :    0.54
p-value of test                       :    0.70

Tests on the sum of all N observations
Standardized normal statistic         :   -0.47
p-value of test                       :    0.68

Sample variance                       :    0.58
p-value of test                       :    0.81

-----------------------------------------------
CPU time used                    :  00:01:29.52

Generator state:




***********************************************************
HOST = ru01, Linux

MersenneTwiter


sstring_AutoCor test:
-----------------------------------------------
   N = 10,  n = 1000000030,  r = 27,   s = 3,   d = 1


-----------------------------------------------

Kolmogorov-Smirnov+ statistic = D+    :    0.34
p-value of test                       :    0.08

Kolmogorov-Smirnov- statistic = D-    :   0.079
p-value of test                       :    0.84

Anderson-Darling statistic = A2       :    1.74
p-value of test                       :    0.13

Tests on the sum of all N observations
Standardized normal statistic         :   -1.51
p-value of test                       :    0.93

Sample variance                       :    0.68
p-value of test                       :    0.73

-----------------------------------------------
CPU time used                    :  00:01:47.58

Generator state:




***********************************************************
HOST = ru01, Linux

MersenneTwiter


sstring_AutoCor test:
-----------------------------------------------
   N = 10,  n = 1000000029,  r = 27,   s = 3,   d = 3


-----------------------------------------------

Kolmogorov-Smirnov+ statistic = D+    :    0.39
p-value of test                       :    0.04

Kolmogorov-Smirnov- statistic = D-    :    0.17
p-value of test                       :    0.52

Anderson-Darling statistic = A2       :    1.55
p-value of test                       :    0.17

Tests on the sum of all N observations
Standardized normal statistic         :   -0.98
p-value of test                       :    0.84

Sample variance                       :    1.14
p-value of test                       :    0.33

-----------------------------------------------
CPU time used                    :  00:01:29.81

Generator state:





========= Summary results of BigCrush =========

 Version:          TestU01 1.2.3
 Generator:        MersenneTwiter
 Number of statistics:  160
 Total CPU time:   04:43:16.41
 The following tests gave p-values outside [0.001, 0.9990]:
 (eps  means a value < 1.0e-300):
 (eps1 means a value < 1.0e-15):

       Test                          p-value
 ----------------------------------------------
 80  LinearComp, r = 0              1 - eps1
 81  LinearComp, r = 29             1 - eps1
 ----------------------------------------------
 All other tests were passed



