xxxxxxxxxxxxxxxxxxxxxxxxxxxxxxxxxxxxxxxxxxxxxxxxxxxxxxxxxxx
                 Starting BigCrush
                 Version: TestU01 1.2.3
xxxxxxxxxxxxxxxxxxxxxxxxxxxxxxxxxxxxxxxxxxxxxxxxxxxxxxxxxxx


***********************************************************
Test smarsa_SerialOver calling smultin_MultinomialOver

***********************************************************
HOST = ru01, Linux

MersenneTwiter


smultin_MultinomialOver test:
-----------------------------------------------
   N =  1,  n = 1000000000,  r =  0,   d =  256,   t =  3,
       Sparse =  FALSE

       GenerCell = smultin_GenerCellSerial
       Number of cells = d^t =           16777216
       Expected number per cell =   59.604645
       Hashing =  FALSE

   For Delta > -1, we use the ChiSquare approximation
   Correction factor of the ChiSquare: 
       Delta =     1,    Mu =   0.0083558402,    Sigma =          1

-----------------------------------------------
Test Results for Delta =   1.0000

Number of degrees of freedom          : 16711680
Value of the statistic                : 1.67e+7
p-value of test                       :    0.87


-----------------------------------------------
CPU time used                    :  00:02:36.53

Generator state:




***********************************************************
Test smarsa_SerialOver calling smultin_MultinomialOver

***********************************************************
HOST = ru01, Linux

MersenneTwiter


smultin_MultinomialOver test:
-----------------------------------------------
   N =  1,  n = 1000000000,  r = 22,   d =  256,   t =  3,
       Sparse =  FALSE

       GenerCell = smultin_GenerCellSerial
       Number of cells = d^t =           16777216
       Expected number per cell =   59.604645
       Hashing =  FALSE

   For Delta > -1, we use the ChiSquare approximation
   Correction factor of the ChiSquare: 
       Delta =     1,    Mu =   0.0083558402,    Sigma =          1

-----------------------------------------------
Test Results for Delta =   1.0000

Number of degrees of freedom          : 16711680
Value of the statistic                : 1.67e+7
p-value of test                       :    0.26


-----------------------------------------------
CPU time used                    :  00:02:41.94

Generator state:




***********************************************************
Test smarsa_CollisionOver calling smultin_MultinomialOver

***********************************************************
HOST = ru01, Linux

MersenneTwiter


smultin_MultinomialOver test:
-----------------------------------------------
   N = 30,  n = 20000000,  r =  0,   d = 2097152,   t =  2,
       Sparse =   TRUE

       GenerCell = smultin_GenerCellSerial
       Number of cells = d^t =      4398046511104
       Expected number per cell =  1 /  219902.33
       EColl = n^2 / (2k) =  45.47473509
       Hashing =   TRUE

       Collision test

       CollisionOver:   density = n / k =  1 /  219902.33
       Expected number of collisions = Mu =      45.47


-----------------------------------------------
Results of CollisionOver test:

POISSON approximation                 :
Expected number of collisions = N*Mu  :     1364.24
Observed number of collisions         :     1327
p-value of test                       :    0.84

-----------------------------
Total number of cells containing j balls

  j =  0                              :  131940795334447
  j =  1                              :        599997346
  j =  2                              :             1327
  j =  3                              :                0
  j =  4                              :                0
  j =  5                              :                0

-----------------------------------------------
CPU time used                    :  00:07:44.41

Generator state:




***********************************************************
Test smarsa_CollisionOver calling smultin_MultinomialOver

***********************************************************
HOST = ru01, Linux

MersenneTwiter


smultin_MultinomialOver test:
-----------------------------------------------
   N = 30,  n = 20000000,  r =  9,   d = 2097152,   t =  2,
       Sparse =   TRUE

       GenerCell = smultin_GenerCellSerial
       Number of cells = d^t =      4398046511104
       Expected number per cell =  1 /  219902.33
       EColl = n^2 / (2k) =  45.47473509
       Hashing =   TRUE

       Collision test

       CollisionOver:   density = n / k =  1 /  219902.33
       Expected number of collisions = Mu =      45.47


-----------------------------------------------
Results of CollisionOver test:

POISSON approximation                 :
Expected number of collisions = N*Mu  :     1364.24
Observed number of collisions         :     1301
p-value of test                       :    0.96

-----------------------------
Total number of cells containing j balls

  j =  0                              :  131940795334421
  j =  1                              :        599997398
  j =  2                              :             1301
  j =  3                              :                0
  j =  4                              :                0
  j =  5                              :                0

-----------------------------------------------
CPU time used                    :  00:07:45.34

Generator state:




***********************************************************
Test smarsa_CollisionOver calling smultin_MultinomialOver

***********************************************************
HOST = ru01, Linux

MersenneTwiter


smultin_MultinomialOver test:
-----------------------------------------------
   N = 30,  n = 20000000,  r =  0,   d = 16384,   t =  3,
       Sparse =   TRUE

       GenerCell = smultin_GenerCellSerial
       Number of cells = d^t =      4398046511104
       Expected number per cell =  1 /  219902.33
       EColl = n^2 / (2k) =  45.47473509
       Hashing =   TRUE

       Collision test

       CollisionOver:   density = n / k =  1 /  219902.33
       Expected number of collisions = Mu =      45.47


-----------------------------------------------
Results of CollisionOver test:

POISSON approximation                 :
Expected number of collisions = N*Mu  :     1364.24
Observed number of collisions         :     1367
p-value of test                       :    0.47

-----------------------------
Total number of cells containing j balls

  j =  0                              :  131940795334487
  j =  1                              :        599997266
  j =  2                              :             1367
  j =  3                              :                0
  j =  4                              :                0
  j =  5                              :                0

-----------------------------------------------
CPU time used                    :  00:10:36.94

Generator state:




***********************************************************
Test smarsa_CollisionOver calling smultin_MultinomialOver

***********************************************************
HOST = ru01, Linux

MersenneTwiter


smultin_MultinomialOver test:
-----------------------------------------------
   N = 30,  n = 20000000,  r = 16,   d = 16384,   t =  3,
       Sparse =   TRUE

       GenerCell = smultin_GenerCellSerial
       Number of cells = d^t =      4398046511104
       Expected number per cell =  1 /  219902.33
       EColl = n^2 / (2k) =  45.47473509
       Hashing =   TRUE

       Collision test

       CollisionOver:   density = n / k =  1 /  219902.33
       Expected number of collisions = Mu =      45.47


-----------------------------------------------
Results of CollisionOver test:

POISSON approximation                 :
Expected number of collisions = N*Mu  :     1364.24
Observed number of collisions         :     1398
p-value of test                       :    0.18

-----------------------------
Total number of cells containing j balls

  j =  0                              :  131940795334518
  j =  1                              :        599997204
  j =  2                              :             1398
  j =  3                              :                0
  j =  4                              :                0
  j =  5                              :                0

-----------------------------------------------
CPU time used                    :  00:10:30.84

Generator state:




***********************************************************
Test smarsa_CollisionOver calling smultin_MultinomialOver

***********************************************************
HOST = ru01, Linux

MersenneTwiter


smultin_MultinomialOver test:
-----------------------------------------------
   N = 30,  n = 20000000,  r =  0,   d =   64,   t =  7,
       Sparse =   TRUE

       GenerCell = smultin_GenerCellSerial
       Number of cells = d^t =      4398046511104
       Expected number per cell =  1 /  219902.33
       EColl = n^2 / (2k) =  45.47473509
       Hashing =   TRUE

       Collision test

       CollisionOver:   density = n / k =  1 /  219902.33
       Expected number of collisions = Mu =      45.47


-----------------------------------------------
Results of CollisionOver test:

POISSON approximation                 :
Expected number of collisions = N*Mu  :     1364.24
Observed number of collisions         :     1343
p-value of test                       :    0.71

-----------------------------
Total number of cells containing j balls

  j =  0                              :  131940795334463
  j =  1                              :        599997314
  j =  2                              :             1343
  j =  3                              :                0
  j =  4                              :                0
  j =  5                              :                0

-----------------------------------------------
CPU time used                    :  00:10:48.13

Generator state:




***********************************************************
Test smarsa_CollisionOver calling smultin_MultinomialOver

***********************************************************
HOST = ru01, Linux

MersenneTwiter


smultin_MultinomialOver test:
-----------------------------------------------
   N = 30,  n = 20000000,  r = 24,   d =   64,   t =  7,
       Sparse =   TRUE

       GenerCell = smultin_GenerCellSerial
       Number of cells = d^t =      4398046511104
       Expected number per cell =  1 /  219902.33
       EColl = n^2 / (2k) =  45.47473509
       Hashing =   TRUE

       Collision test

       CollisionOver:   density = n / k =  1 /  219902.33
       Expected number of collisions = Mu =      45.47


-----------------------------------------------
Results of CollisionOver test:

POISSON approximation                 :
Expected number of collisions = N*Mu  :     1364.24
Observed number of collisions         :     1363
p-value of test                       :    0.51

-----------------------------
Total number of cells containing j balls

  j =  0                              :  131940795334483
  j =  1                              :        599997274
  j =  2                              :             1363
  j =  3                              :                0
  j =  4                              :                0
  j =  5                              :                0

-----------------------------------------------
CPU time used                    :  00:10:47.44

Generator state:




***********************************************************
Test smarsa_CollisionOver calling smultin_MultinomialOver

***********************************************************
HOST = ru01, Linux

MersenneTwiter


smultin_MultinomialOver test:
-----------------------------------------------
   N = 30,  n = 20000000,  r =  0,   d =    8,   t = 14,
       Sparse =   TRUE

       GenerCell = smultin_GenerCellSerial
       Number of cells = d^t =      4398046511104
       Expected number per cell =  1 /  219902.33
       EColl = n^2 / (2k) =  45.47473509
       Hashing =   TRUE

       Collision test

       CollisionOver:   density = n / k =  1 /  219902.33
       Expected number of collisions = Mu =      45.47


-----------------------------------------------
Results of CollisionOver test:

POISSON approximation                 :
Expected number of collisions = N*Mu  :     1364.24
Observed number of collisions         :     1344
p-value of test                       :    0.70

-----------------------------
Total number of cells containing j balls

  j =  0                              :  131940795334464
  j =  1                              :        599997312
  j =  2                              :             1344
  j =  3                              :                0
  j =  4                              :                0
  j =  5                              :                0

-----------------------------------------------
CPU time used                    :  00:10:50.51

Generator state:




***********************************************************
Test smarsa_CollisionOver calling smultin_MultinomialOver

***********************************************************
HOST = ru01, Linux

MersenneTwiter


smultin_MultinomialOver test:
-----------------------------------------------
   N = 30,  n = 20000000,  r = 27,   d =    8,   t = 14,
       Sparse =   TRUE

       GenerCell = smultin_GenerCellSerial
       Number of cells = d^t =      4398046511104
       Expected number per cell =  1 /  219902.33
       EColl = n^2 / (2k) =  45.47473509
       Hashing =   TRUE

       Collision test

       CollisionOver:   density = n / k =  1 /  219902.33
       Expected number of collisions = Mu =      45.47


-----------------------------------------------
Results of CollisionOver test:

POISSON approximation                 :
Expected number of collisions = N*Mu  :     1364.24
Observed number of collisions         :     1397
p-value of test                       :    0.19

-----------------------------
Total number of cells containing j balls

  j =  0                              :  131940795334517
  j =  1                              :        599997206
  j =  2                              :             1397
  j =  3                              :                0
  j =  4                              :                0
  j =  5                              :                0

-----------------------------------------------
CPU time used                    :  00:10:42.38

Generator state:




***********************************************************
Test smarsa_CollisionOver calling smultin_MultinomialOver

***********************************************************
HOST = ru01, Linux

MersenneTwiter


smultin_MultinomialOver test:
-----------------------------------------------
   N = 30,  n = 20000000,  r =  0,   d =    4,   t = 21,
       Sparse =   TRUE

       GenerCell = smultin_GenerCellSerial
       Number of cells = d^t =      4398046511104
       Expected number per cell =  1 /  219902.33
       EColl = n^2 / (2k) =  45.47473509
       Hashing =   TRUE

       Collision test

       CollisionOver:   density = n / k =  1 /  219902.33
       Expected number of collisions = Mu =      45.47


-----------------------------------------------
Results of CollisionOver test:

POISSON approximation                 :
Expected number of collisions = N*Mu  :     1364.24
Observed number of collisions         :     1398
p-value of test                       :    0.18

-----------------------------
Total number of cells containing j balls

  j =  0                              :  131940795334518
  j =  1                              :        599997204
  j =  2                              :             1398
  j =  3                              :                0
  j =  4                              :                0
  j =  5                              :                0

-----------------------------------------------
CPU time used                    :  00:10:48.39

Generator state:




***********************************************************
Test smarsa_CollisionOver calling smultin_MultinomialOver

***********************************************************
HOST = ru01, Linux

MersenneTwiter


smultin_MultinomialOver test:
-----------------------------------------------
   N = 30,  n = 20000000,  r = 28,   d =    4,   t = 21,
       Sparse =   TRUE

       GenerCell = smultin_GenerCellSerial
       Number of cells = d^t =      4398046511104
       Expected number per cell =  1 /  219902.33
       EColl = n^2 / (2k) =  45.47473509
       Hashing =   TRUE

       Collision test

       CollisionOver:   density = n / k =  1 /  219902.33
       Expected number of collisions = Mu =      45.47


-----------------------------------------------
Results of CollisionOver test:

POISSON approximation                 :
Expected number of collisions = N*Mu  :     1364.24
Observed number of collisions         :     1333
p-value of test                       :    0.80

-----------------------------
Total number of cells containing j balls

  j =  0                              :  131940795334453
  j =  1                              :        599997334
  j =  2                              :             1333
  j =  3                              :                0
  j =  4                              :                0
  j =  5                              :                0

-----------------------------------------------
CPU time used                    :  00:10:54.39

Generator state:




***********************************************************
HOST = ru01, Linux

MersenneTwiter


smarsa_BirthdaySpacings test:
-----------------------------------------------
   N = 100,  n = 10000000,  r =  0,    d = 2147483648,    t = 2,    p = 1


      Number of cells = d^t = 4611686018427387904
      Lambda = Poisson mean =      54.2101


----------------------------------------------------
Total expected number = N*Lambda      :    5421.01
Total observed number                 :    5503
p-value of test                       :    0.13


-----------------------------------------------
CPU time used                    :  00:04:21.27

Generator state:




***********************************************************
HOST = ru01, Linux

MersenneTwiter


smarsa_BirthdaySpacings test:
-----------------------------------------------
   N = 20,  n = 20000000,  r =  0,    d = 2097152,    t = 3,    p = 1


      Number of cells = d^t = 9223372036854775808
      Lambda = Poisson mean =     216.8404


----------------------------------------------------
Total expected number = N*Lambda      :    4336.81
Total observed number                 :    4327
p-value of test                       :    0.56


-----------------------------------------------
CPU time used                    :  00:01:58.64

Generator state:




***********************************************************
HOST = ru01, Linux

MersenneTwiter


smarsa_BirthdaySpacings test:
-----------------------------------------------
   N = 20,  n = 30000000,  r = 14,    d = 65536,    t = 4,    p = 1


      Number of cells = d^t = 18446744073709551616
      Lambda = Poisson mean =     365.9182


----------------------------------------------------
Total expected number = N*Lambda      :    7318.36
Total observed number                 :    7203
p-value of test                       :    0.91


-----------------------------------------------
CPU time used                    :  00:03:15.46

Generator state:




***********************************************************
HOST = ru01, Linux

MersenneTwiter


smarsa_BirthdaySpacings test:
-----------------------------------------------
   N = 20,  n = 20000000,  r =  0,    d = 512,    t = 7,    p = 1


      Number of cells = d^t = 9223372036854775808
      Lambda = Poisson mean =     216.8404


----------------------------------------------------
Total expected number = N*Lambda      :    4336.81
Total observed number                 :    4228
p-value of test                       :    0.95


-----------------------------------------------
CPU time used                    :  00:02:17.57

Generator state:




***********************************************************
HOST = ru01, Linux

MersenneTwiter


smarsa_BirthdaySpacings test:
-----------------------------------------------
   N = 20,  n = 20000000,  r =  7,    d = 512,    t = 7,    p = 1


      Number of cells = d^t = 9223372036854775808
      Lambda = Poisson mean =     216.8404


----------------------------------------------------
Total expected number = N*Lambda      :    4336.81
Total observed number                 :    4337
p-value of test                       :    0.50


-----------------------------------------------
CPU time used                    :  00:02:24.69

Generator state:




***********************************************************
HOST = ru01, Linux

MersenneTwiter


smarsa_BirthdaySpacings test:
-----------------------------------------------
   N = 20,  n = 30000000,  r = 14,    d = 256,    t = 8,    p = 1


      Number of cells = d^t = 18446744073709551616
      Lambda = Poisson mean =     365.9182


----------------------------------------------------
Total expected number = N*Lambda      :    7318.36
Total observed number                 :    7160
p-value of test                       :    0.97


-----------------------------------------------
CPU time used                    :  00:03:48.11

Generator state:




***********************************************************
HOST = ru01, Linux

MersenneTwiter


smarsa_BirthdaySpacings test:
-----------------------------------------------
   N = 20,  n = 30000000,  r = 22,    d = 256,    t = 8,    p = 1


      Number of cells = d^t = 18446744073709551616
      Lambda = Poisson mean =     365.9182


----------------------------------------------------
Total expected number = N*Lambda      :    7318.36
Total observed number                 :    7354
p-value of test                       :    0.34


-----------------------------------------------
CPU time used                    :  00:03:48.98

Generator state:




***********************************************************
HOST = ru01, Linux

MersenneTwiter


smarsa_BirthdaySpacings test:
-----------------------------------------------
   N = 20,  n = 30000000,  r =  0,    d = 16,    t = 16,    p = 1


      Number of cells = d^t = 18446744073709551616
      Lambda = Poisson mean =     365.9182


----------------------------------------------------
Total expected number = N*Lambda      :    7318.36
Total observed number                 :    7363
p-value of test                       :    0.30


-----------------------------------------------
CPU time used                    :  00:04:37.18

Generator state:




***********************************************************
HOST = ru01, Linux

MersenneTwiter


smarsa_BirthdaySpacings test:
-----------------------------------------------
   N = 20,  n = 30000000,  r = 26,    d = 16,    t = 16,    p = 1


      Number of cells = d^t = 18446744073709551616
      Lambda = Poisson mean =     365.9182


----------------------------------------------------
Total expected number = N*Lambda      :    7318.36
Total observed number                 :    7600
p-value of test                       :  5.4e-4    *****


-----------------------------------------------
CPU time used                    :  00:05:05.68

Generator state:




***********************************************************
HOST = ru01, Linux

MersenneTwiter


snpair_ClosePairs test:
-----------------------------------------------
   N = 30,  n = 6000000,  r =  0,  t = 3,  p = 0,  m = 30,  Torus =  TRUE


---------------------------------------
Test based on the 2 nearest points (NP):

Stat. AD on the N values (NP)         :    0.92
p-value of test                       :    0.40


A2 test based on the spacings between the
   successive jump times of process Y_n(t):

A2 test on the values of A2 (m-NP)    :    1.39
p-value of test                       :    0.21

Test on the Nm values of W_{n,i}(mNP1):    0.86
p-value of test                       :    0.44

Test on the jump times of Y
   (superposition of Yn):

Expected number of jumps of Y = mN    :     900
Number of jumps of Y                  :     890
p-value of test                       :    0.62

Stat. AD (mNP2)                       :    1.13
p-value of test                       :    0.30

Stat. AD after spacings (mNP2-S)      :    1.89
p-value of test                       :    0.11

-----------------------------------------------
CPU time used                    :  00:03:00.36

Generator state:




***********************************************************
HOST = ru01, Linux

MersenneTwiter


snpair_ClosePairs test:
-----------------------------------------------
   N = 20,  n = 4000000,  r =  0,  t = 5,  p = 0,  m = 30,  Torus =  TRUE


---------------------------------------
Test based on the 2 nearest points (NP):

Stat. AD on the N values (NP)         :    0.57
p-value of test                       :    0.68


A2 test based on the spacings between the
   successive jump times of process Y_n(t):

A2 test on the values of A2 (m-NP)    :    0.33
p-value of test                       :    0.92

Test on the Nm values of W_{n,i}(mNP1):    1.68
p-value of test                       :    0.14

Test on the jump times of Y
   (superposition of Yn):

Expected number of jumps of Y = mN    :     600
Number of jumps of Y                  :     574
p-value of test                       :    0.85

Stat. AD (mNP2)                       :    1.24
p-value of test                       :    0.25

Stat. AD after spacings (mNP2-S)      :    3.06
p-value of test                       :    0.03

-----------------------------------------------
CPU time used                    :  00:02:03.42

Generator state:




***********************************************************
HOST = ru01, Linux

MersenneTwiter


snpair_ClosePairs test:
-----------------------------------------------
   N = 10,  n = 3000000,  r =  0,  t = 9,  p = 0,  m = 30,  Torus =  TRUE


---------------------------------------
Test based on the 2 nearest points (NP):

Stat. AD on the N values (NP)         :    1.75
p-value of test                       :    0.13


A2 test based on the spacings between the
   successive jump times of process Y_n(t):

A2 test on the values of A2 (m-NP)    :    0.30
p-value of test                       :    0.93

Test on the Nm values of W_{n,i}(mNP1):    0.89
p-value of test                       :    0.42

Test on the jump times of Y
   (superposition of Yn):

Expected number of jumps of Y = mN    :     300
Number of jumps of Y                  :     277
p-value of test                       :    0.90

Stat. AD (mNP2)                       :    0.80
p-value of test                       :    0.48

Stat. AD after spacings (mNP2-S)      :    0.42
p-value of test                       :    0.83

-----------------------------------------------
CPU time used                    :  00:03:03.31

Generator state:




***********************************************************
HOST = ru01, Linux

MersenneTwiter


snpair_ClosePairs test:
-----------------------------------------------
   N =  5,  n = 2000000,  r =  0,  t = 16,  p = 0,  m = 30,  Torus =  TRUE


---------------------------------------
Test based on the 2 nearest points (NP):

Stat. AD on the N values (NP)         :    0.69
p-value of test                       :    0.56


A2 test based on the spacings between the
   successive jump times of process Y_n(t):

A2 test on the values of A2 (m-NP)    :    0.58
p-value of test                       :    0.66

Test on the Nm values of W_{n,i}(mNP1):    0.70
p-value of test                       :    0.56

Test on the jump times of Y
   (superposition of Yn):

Expected number of jumps of Y = mN    :     150
Number of jumps of Y                  :     136
p-value of test                       :    0.87

Stat. AD (mNP2)                       :    0.29
p-value of test                       :    0.95

Stat. AD after spacings (mNP2-S)      :    0.88
p-value of test                       :    0.43

-----------------------------------------------
CPU time used                    :  00:03:23.42

Generator state:




***********************************************************
HOST = ru01, Linux

MersenneTwiter


sknuth_SimpPoker test:
-----------------------------------------------
   N =  1,  n = 400000000,  r =  0,   d =    8,   k =    8


-----------------------------------------------
Number of degrees of freedom          :    7
Chi-square statistic                  :    3.92
p-value of test                       :    0.79

-----------------------------------------------
CPU time used                    :  00:01:01.14

Generator state:




***********************************************************
HOST = ru01, Linux

MersenneTwiter


sknuth_SimpPoker test:
-----------------------------------------------
   N =  1,  n = 400000000,  r = 27,   d =    8,   k =    8


-----------------------------------------------
Number of degrees of freedom          :    7
Chi-square statistic                  :    6.81
p-value of test                       :    0.45

-----------------------------------------------
CPU time used                    :  00:01:15.59

Generator state:




***********************************************************
HOST = ru01, Linux

MersenneTwiter


sknuth_SimpPoker test:
-----------------------------------------------
   N =  1,  n = 100000000,  r =  0,   d =   32,   k =   32


-----------------------------------------------
Number of degrees of freedom          :   18
Chi-square statistic                  :   21.62
p-value of test                       :    0.25

-----------------------------------------------
CPU time used                    :  00:00:57.76

Generator state:




***********************************************************
HOST = ru01, Linux

MersenneTwiter


sknuth_SimpPoker test:
-----------------------------------------------
   N =  1,  n = 100000000,  r = 25,   d =   32,   k =   32


-----------------------------------------------
Number of degrees of freedom          :   18
Chi-square statistic                  :   24.21
p-value of test                       :    0.15

-----------------------------------------------
CPU time used                    :  00:01:18.20

Generator state:




***********************************************************
HOST = ru01, Linux

MersenneTwiter


sknuth_CouponCollector test:
-----------------------------------------------
   N =  1,  n = 200000000,  r =  0,   d =    8


-----------------------------------------------
Number of degrees of freedom          :   54
Chi-square statistic                  :   39.09
p-value of test                       :    0.94

-----------------------------------------------
CPU time used                    :  00:01:21.09

Generator state:




***********************************************************
HOST = ru01, Linux

MersenneTwiter


sknuth_CouponCollector test:
-----------------------------------------------
   N =  1,  n = 200000000,  r = 10,   d =    8


-----------------------------------------------
Number of degrees of freedom          :   54
Chi-square statistic                  :   31.09
p-value of test                       :    0.9948

-----------------------------------------------
CPU time used                    :  00:01:39.67

Generator state:




***********************************************************
HOST = ru01, Linux

MersenneTwiter


sknuth_CouponCollector test:
-----------------------------------------------
   N =  1,  n = 200000000,  r = 20,   d =    8


-----------------------------------------------
Number of degrees of freedom          :   54
Chi-square statistic                  :   57.45
p-value of test                       :    0.35

-----------------------------------------------
CPU time used                    :  00:01:39.37

Generator state:




***********************************************************
HOST = ru01, Linux

MersenneTwiter


sknuth_CouponCollector test:
-----------------------------------------------
   N =  1,  n = 200000000,  r = 27,   d =    8


-----------------------------------------------
Number of degrees of freedom          :   54
Chi-square statistic                  :   53.78
p-value of test                       :    0.48

-----------------------------------------------
CPU time used                    :  00:01:39.37

Generator state:




***********************************************************
HOST = ru01, Linux

MersenneTwiter


sknuth_Gap test:
-----------------------------------------------
   N =  1,  n = 500000000,  r =  0,   Alpha =        0,   Beta  =   0.0625


-----------------------------------------------
Number of degrees of freedom          :  232
Chi-square statistic                  :  227.73
p-value of test                       :    0.57

-----------------------------------------------
CPU time used                    :  00:01:40.76

Generator state:




***********************************************************
HOST = ru01, Linux

MersenneTwiter


sknuth_Gap test:
-----------------------------------------------
   N =  1,  n = 300000000,  r = 25,   Alpha =        0,   Beta  =  0.03125


-----------------------------------------------
Number of degrees of freedom          :  434
Chi-square statistic                  :  457.37
p-value of test                       :    0.21

-----------------------------------------------
CPU time used                    :  00:02:27.17

Generator state:




***********************************************************
HOST = ru01, Linux

MersenneTwiter


sknuth_Gap test:
-----------------------------------------------
   N =  1,  n = 100000000,  r =  0,   Alpha =        0,   Beta  = 0.0078125


-----------------------------------------------
Number of degrees of freedom          : 1437
Chi-square statistic                  : 1468.99
p-value of test                       :    0.27

-----------------------------------------------
CPU time used                    :  00:02:29.93

Generator state:




***********************************************************
HOST = ru01, Linux

MersenneTwiter


sknuth_Gap test:
-----------------------------------------------
   N =  1,  n = 10000000,  r = 20,   Alpha =        0,   Beta  = 0.000976562


-----------------------------------------------
Number of degrees of freedom          : 7046
Chi-square statistic                  : 7112.13
p-value of test                       :    0.29

-----------------------------------------------
CPU time used                    :  00:02:30.07

Generator state:




***********************************************************
HOST = ru01, Linux

MersenneTwiter


sknuth_Run test:
-----------------------------------------------
   N =  5,  n = 1000000000,  r =  0,   Up = FALSE


-----------------------------------------------

Kolmogorov-Smirnov+ statistic = D+    :    0.42
p-value of test                       :    0.13

Kolmogorov-Smirnov- statistic = D-    :    0.17
p-value of test                       :    0.70

Anderson-Darling statistic = A2       :    0.95
p-value of test                       :    0.38

Test on the sum of all N observations
Number of degrees of freedom          :   30
Chi-square statistic                  :   21.68
p-value of test                       :    0.87

-----------------------------------------------
CPU time used                    :  00:01:27.61

Generator state:




***********************************************************
HOST = ru01, Linux

MersenneTwiter


sknuth_Run test:
-----------------------------------------------
   N = 10,  n = 1000000000,  r = 15,   Up =  TRUE


-----------------------------------------------

Kolmogorov-Smirnov+ statistic = D+    :    0.17
p-value of test                       :    0.49

Kolmogorov-Smirnov- statistic = D-    :    0.12
p-value of test                       :    0.70

Anderson-Darling statistic = A2       :    0.35
p-value of test                       :    0.90

Test on the sum of all N observations
Number of degrees of freedom          :   60
Chi-square statistic                  :   56.95
p-value of test                       :    0.59

-----------------------------------------------
CPU time used                    :  00:03:37.22

Generator state:




***********************************************************
Test sknuth_Permutation calling smultin_Multinomial

***********************************************************
HOST = ru01, Linux

MersenneTwiter


smultin_Multinomial test:
-----------------------------------------------
   N =  1,  n = 1000000000,  r =  5,   t =  3,
       Sparse =  FALSE

       GenerCell = smultin_GenerCellPermut
       Number of cells = t! =                  6
       Expected number per cell =  1.6666667e+08
       Hashing =  FALSE

   For Delta > -1, we use the ChiSquare approximation
   Correction factor of the ChiSquare: 
       Delta =     1,    Mu =  2.5000002e-09,    Sigma =          1

-----------------------------------------------
Test Results for Delta =   1.0000

Number of degrees of freedom          :    5
Value of the statistic                :    3.04
p-value of test                       :    0.69


-----------------------------------------------
CPU time used                    :  00:01:07.39

Generator state:




***********************************************************
Test sknuth_Permutation calling smultin_Multinomial

***********************************************************
HOST = ru01, Linux

MersenneTwiter


smultin_Multinomial test:
-----------------------------------------------
   N =  1,  n = 1000000000,  r =  5,   t =  5,
       Sparse =  FALSE

       GenerCell = smultin_GenerCellPermut
       Number of cells = t! =                120
       Expected number per cell =   8333333.3
       Hashing =  FALSE

   For Delta > -1, we use the ChiSquare approximation
   Correction factor of the ChiSquare: 
       Delta =     1,    Mu =  5.9500005e-08,    Sigma =          1

-----------------------------------------------
Test Results for Delta =   1.0000

Number of degrees of freedom          :  119
Value of the statistic                :   97.78
p-value of test                       :    0.92


-----------------------------------------------
CPU time used                    :  00:01:56.18

Generator state:




***********************************************************
Test sknuth_Permutation calling smultin_Multinomial

***********************************************************
HOST = ru01, Linux

MersenneTwiter


smultin_Multinomial test:
-----------------------------------------------
   N =  1,  n = 500000000,  r =  5,   t =  7,
       Sparse =  FALSE

       GenerCell = smultin_GenerCellPermut
       Number of cells = t! =               5040
       Expected number per cell =   99206.349
       Hashing =  FALSE

   For Delta > -1, we use the ChiSquare approximation
   Correction factor of the ChiSquare: 
       Delta =     1,    Mu =  5.0390004e-06,    Sigma =          1

-----------------------------------------------
Test Results for Delta =   1.0000

Number of degrees of freedom          : 5039
Value of the statistic                : 4896.20
p-value of test                       :    0.92


-----------------------------------------------
CPU time used                    :  00:01:26.79

Generator state:




***********************************************************
Test sknuth_Permutation calling smultin_Multinomial

***********************************************************
HOST = ru01, Linux

MersenneTwiter


smultin_Multinomial test:
-----------------------------------------------
   N =  1,  n = 500000000,  r = 10,   t = 10,
       Sparse =  FALSE

       GenerCell = smultin_GenerCellPermut
       Number of cells = t! =            3628800
       Expected number per cell =    137.7866
       Hashing =  FALSE

   For Delta > -1, we use the ChiSquare approximation
   Correction factor of the ChiSquare: 
       Delta =     1,    Mu =   0.0036287993,    Sigma =          1

-----------------------------------------------
Test Results for Delta =   1.0000

Number of degrees of freedom          : 3628799
Value of the statistic                : 3.63e+6
p-value of test                       :    0.41


-----------------------------------------------
CPU time used                    :  00:03:42.62

Generator state:




***********************************************************
Test sknuth_CollisionPermut calling smultin_Multinomial

***********************************************************
HOST = ru01, Linux

MersenneTwiter


smultin_Multinomial test:
-----------------------------------------------
   N = 20,  n = 20000000,  r =  0,   t = 14,
       Sparse =   TRUE

       GenerCell = smultin_GenerCellPermut
       Number of cells = t! =        87178291200
       Expected number per cell =  1 /  4358.9146
       EColl = n^2 / (2k) =   2294.14912
       Hashing =   TRUE

       Collision test,    Mu =      2293.9736,    Sigma =    47.8841

-----------------------------------------------
Test Results for Collisions

For the total number of collisions, we use
      the Poisson approximation:
Expected number of collisions = N*Mu  :    45879.47
Observed number of collisions         :    45714
p-value of test                       :    0.78


-----------------------------
Total number of cells containing j balls

  j =  0                              :    1743165869714
  j =  1                              :        399908575
  j =  2                              :            45708
  j =  3                              :                3
  j =  4                              :                0
  j =  5                              :                0

-----------------------------------------------
CPU time used                    :  00:05:30.70

Generator state:




***********************************************************
Test sknuth_CollisionPermut calling smultin_Multinomial

***********************************************************
HOST = ru01, Linux

MersenneTwiter


smultin_Multinomial test:
-----------------------------------------------
   N = 20,  n = 20000000,  r = 10,   t = 14,
       Sparse =   TRUE

       GenerCell = smultin_GenerCellPermut
       Number of cells = t! =        87178291200
       Expected number per cell =  1 /  4358.9146
       EColl = n^2 / (2k) =   2294.14912
       Hashing =   TRUE

       Collision test,    Mu =      2293.9736,    Sigma =    47.8841

-----------------------------------------------
Test Results for Collisions

For the total number of collisions, we use
      the Poisson approximation:
Expected number of collisions = N*Mu  :    45879.47
Observed number of collisions         :    46008
p-value of test                       :    0.27


-----------------------------
Total number of cells containing j balls

  j =  0                              :    1743165870008
  j =  1                              :        399907985
  j =  2                              :            46006
  j =  3                              :                1
  j =  4                              :                0
  j =  5                              :                0

-----------------------------------------------
CPU time used                    :  00:05:18.04

Generator state:




***********************************************************
HOST = ru01, Linux

MersenneTwiter


sknuth_MaxOft test:
-----------------------------------------------
   N = 40,  n = 10000000,  r =  0,   d = 100000,   t =  8

      Number of categories = 100000
      Expected number per category  = 100.00


-----------------------------------------------
Test results for chi2 with 99999 degrees of freedom:

Kolmogorov-Smirnov+ statistic = D+    :   0.075
p-value of test                       :    0.61

Kolmogorov-Smirnov- statistic = D-    :    0.15
p-value of test                       :    0.13

Anderson-Darling statistic = A2       :    1.12
p-value of test                       :    0.30

Test on the sum of all N observations
Number of degrees of freedom          : 3999960
Chi-square statistic                  : 4.00e+6
p-value of test                       :    0.17


-----------------------------------------------
Test results for Anderson-Darling:

Kolmogorov-Smirnov+ statistic = D+    :   0.079
p-value of test                       :    0.58

Kolmogorov-Smirnov- statistic = D-    :    0.11
p-value of test                       :    0.34

Anderson-Darling statistic = A2       :    0.84
p-value of test                       :    0.45


-----------------------------------------------
CPU time used                    :  00:01:39.27

Generator state:




***********************************************************
HOST = ru01, Linux

MersenneTwiter


sknuth_MaxOft test:
-----------------------------------------------
   N = 30,  n = 10000000,  r =  0,   d = 100000,   t = 16

      Number of categories = 100000
      Expected number per category  = 100.00


-----------------------------------------------
Test results for chi2 with 99999 degrees of freedom:

Kolmogorov-Smirnov+ statistic = D+    :    0.19
p-value of test                       :    0.10

Kolmogorov-Smirnov- statistic = D-    :   0.100
p-value of test                       :    0.52

Anderson-Darling statistic = A2       :    1.11
p-value of test                       :    0.31

Test on the sum of all N observations
Number of degrees of freedom          : 2999970
Chi-square statistic                  : 3.00e+6
p-value of test                       :    0.72


-----------------------------------------------
Test results for Anderson-Darling:

Kolmogorov-Smirnov+ statistic = D+    :   0.035
p-value of test                       :    0.91

Kolmogorov-Smirnov- statistic = D-    :    0.14
p-value of test                       :    0.30

Anderson-Darling statistic = A2       :    0.85
p-value of test                       :    0.44


-----------------------------------------------
CPU time used                    :  00:01:32.02

Generator state:




***********************************************************
HOST = ru01, Linux

MersenneTwiter


sknuth_MaxOft test:
-----------------------------------------------
   N = 20,  n = 10000000,  r =  0,   d = 100000,   t = 24

      Number of categories = 100000
      Expected number per category  = 100.00


-----------------------------------------------
Test results for chi2 with 99999 degrees of freedom:

Kolmogorov-Smirnov+ statistic = D+    :    0.16
p-value of test                       :    0.32

Kolmogorov-Smirnov- statistic = D-    :    0.16
p-value of test                       :    0.31

Anderson-Darling statistic = A2       :    0.65
p-value of test                       :    0.60

Test on the sum of all N observations
Number of degrees of freedom          : 1999980
Chi-square statistic                  : 2.00e+6
p-value of test                       :    0.44


-----------------------------------------------
Test results for Anderson-Darling:

Kolmogorov-Smirnov+ statistic = D+    :   0.069
p-value of test                       :    0.79

Kolmogorov-Smirnov- statistic = D-    :    0.13
p-value of test                       :    0.48

Anderson-Darling statistic = A2       :    0.29
p-value of test                       :    0.95


-----------------------------------------------
CPU time used                    :  00:01:15.12

Generator state:




***********************************************************
HOST = ru01, Linux

MersenneTwiter


sknuth_MaxOft test:
-----------------------------------------------
   N = 20,  n = 10000000,  r =  0,   d = 100000,   t = 32

      Number of categories = 100000
      Expected number per category  = 100.00


-----------------------------------------------
Test results for chi2 with 99999 degrees of freedom:

Kolmogorov-Smirnov+ statistic = D+    :    0.10
p-value of test                       :    0.63

Kolmogorov-Smirnov- statistic = D-    :    0.15
p-value of test                       :    0.39

Anderson-Darling statistic = A2       :    0.39
p-value of test                       :    0.86

Test on the sum of all N observations
Number of degrees of freedom          : 1999980
Chi-square statistic                  : 2.00e+6
p-value of test                       :    0.55


-----------------------------------------------
Test results for Anderson-Darling:

Kolmogorov-Smirnov+ statistic = D+    :   0.091
p-value of test                       :    0.68

Kolmogorov-Smirnov- statistic = D-    :    0.20
p-value of test                       :    0.19

Anderson-Darling statistic = A2       :    0.55
p-value of test                       :    0.69


-----------------------------------------------
CPU time used                    :  00:01:25.95

Generator state:




***********************************************************
HOST = ru01, Linux

MersenneTwiter


svaria_SampleProd test:
-----------------------------------------------
   N = 40,  n = 10000000,  r =  0,   t = 8


-----------------------------------------------

Kolmogorov-Smirnov+ statistic = D+    :    0.12
p-value of test                       :    0.29

Kolmogorov-Smirnov- statistic = D-    :   0.098
p-value of test                       :    0.44

Anderson-Darling statistic = A2       :    0.78
p-value of test                       :    0.50

-----------------------------------------------
CPU time used                    :  00:01:29.37

Generator state:




***********************************************************
HOST = ru01, Linux

MersenneTwiter


svaria_SampleProd test:
-----------------------------------------------
   N = 20,  n = 10000000,  r =  0,   t = 16


-----------------------------------------------

Kolmogorov-Smirnov+ statistic = D+    :    0.18
p-value of test                       :    0.23

Kolmogorov-Smirnov- statistic = D-    :   0.043
p-value of test                       :    0.90

Anderson-Darling statistic = A2       :    0.78
p-value of test                       :    0.50

-----------------------------------------------
CPU time used                    :  00:00:59.12

Generator state:




***********************************************************
HOST = ru01, Linux

MersenneTwiter


svaria_SampleProd test:
-----------------------------------------------
   N = 20,  n = 10000000,  r =  0,   t = 24


-----------------------------------------------

Kolmogorov-Smirnov+ statistic = D+    :    0.12
p-value of test                       :    0.52

Kolmogorov-Smirnov- statistic = D-    :   0.092
p-value of test                       :    0.67

Anderson-Darling statistic = A2       :    0.38
p-value of test                       :    0.87

-----------------------------------------------
CPU time used                    :  00:01:12.60

Generator state:




***********************************************************
HOST = ru01, Linux

MersenneTwiter


svaria_SampleMean test:
-----------------------------------------------
   N = 20000000,  n = 30,  r =  0


-----------------------------------------------

Kolmogorov-Smirnov+ statistic = D+    : 1.83e-4
p-value of test                       :    0.26

Kolmogorov-Smirnov- statistic = D-    : 2.09e-4
p-value of test                       :    0.17

Anderson-Darling statistic = A2       :    1.84
p-value of test                       :    0.11

-----------------------------------------------
CPU time used                    :  00:00:12.54

Generator state:




***********************************************************
HOST = ru01, Linux

MersenneTwiter


svaria_SampleMean test:
-----------------------------------------------
   N = 20000000,  n = 30,  r = 10


-----------------------------------------------

Kolmogorov-Smirnov+ statistic = D+    : 2.28e-4
p-value of test                       :    0.13

Kolmogorov-Smirnov- statistic = D-    : 8.37e-5
p-value of test                       :    0.76

Anderson-Darling statistic = A2       :    1.46
p-value of test                       :    0.19

-----------------------------------------------
CPU time used                    :  00:00:13.21

Generator state:




***********************************************************
HOST = ru01, Linux

MersenneTwiter


svaria_SampleCorr test:
-----------------------------------------------
   N =  1,  n = 2000000000,  r =  0,   k = 1


-----------------------------------------------
Normal statistic                      :    0.10
p-value of test                       :    0.46

-----------------------------------------------
CPU time used                    :  00:00:17.65

Generator state:




***********************************************************
HOST = ru01, Linux

MersenneTwiter


svaria_SampleCorr test:
-----------------------------------------------
   N =  1,  n = 2000000000,  r =  0,   k = 2


-----------------------------------------------
Normal statistic                      :   0.042
p-value of test                       :    0.48

-----------------------------------------------
CPU time used                    :  00:00:17.75

Generator state:




***********************************************************
HOST = ru01, Linux

MersenneTwiter


svaria_AppearanceSpacings test:
-----------------------------------------------
   N =  1,   Q = 10000000,   K = 1000000000,   r = 0,   s = 3,   L = 15

   Sequences of n = (K + Q)L =  15150000000 bits
   Q = 10000000 initialization blocks
   K = 1000000000 blocks for the test
   the blocks have L = 15 bits



-----------------------------------------------
Normal statistic                      :    1.28
p-value of test                       :    0.10

-----------------------------------------------
CPU time used                    :  00:01:01.65

Generator state:




***********************************************************
HOST = ru01, Linux

MersenneTwiter


svaria_AppearanceSpacings test:
-----------------------------------------------
   N =  1,   Q = 10000000,   K = 1000000000,   r = 27,   s = 3,   L = 15

   Sequences of n = (K + Q)L =  15150000000 bits
   Q = 10000000 initialization blocks
   K = 1000000000 blocks for the test
   the blocks have L = 15 bits



-----------------------------------------------
Normal statistic                      :   -1.33
p-value of test                       :    0.91

-----------------------------------------------
CPU time used                    :  00:01:04.77

Generator state:




***********************************************************
HOST = ru01, Linux

MersenneTwiter


svaria_WeightDistrib test:
-----------------------------------------------
   N =  1,  n = 20000000,  r =  0,  k = 256,  Alpha =      0,  Beta =   0.25


-----------------------------------------------
Number of degrees of freedom          :   67
Chi-square statistic                  :   65.06
p-value of test                       :    0.54

-----------------------------------------------
CPU time used                    :  00:00:38.06

Generator state:




***********************************************************
HOST = ru01, Linux

MersenneTwiter


svaria_WeightDistrib test:
-----------------------------------------------
   N =  1,  n = 20000000,  r = 20,  k = 256,  Alpha =      0,  Beta =   0.25


-----------------------------------------------
Number of degrees of freedom          :   67
Chi-square statistic                  :   68.88
p-value of test                       :    0.41

-----------------------------------------------
CPU time used                    :  00:00:51.43

Generator state:




***********************************************************
HOST = ru01, Linux

MersenneTwiter


svaria_WeightDistrib test:
-----------------------------------------------
   N =  1,  n = 20000000,  r = 28,  k = 256,  Alpha =      0,  Beta =   0.25


-----------------------------------------------
Number of degrees of freedom          :   67
Chi-square statistic                  :   54.01
p-value of test                       :    0.87

-----------------------------------------------
CPU time used                    :  00:01:13.39

Generator state:




***********************************************************
HOST = ru01, Linux

MersenneTwiter


svaria_WeightDistrib test:
-----------------------------------------------
   N =  1,  n = 20000000,  r =  0,  k = 256,  Alpha =      0,  Beta = 0.0625


-----------------------------------------------
Number of degrees of freedom          :   37
Chi-square statistic                  :   35.17
p-value of test                       :    0.56

-----------------------------------------------
CPU time used                    :  00:00:59.52

Generator state:




***********************************************************
HOST = ru01, Linux

MersenneTwiter


svaria_WeightDistrib test:
-----------------------------------------------
   N =  1,  n = 20000000,  r = 10,  k = 256,  Alpha =      0,  Beta = 0.0625


-----------------------------------------------
Number of degrees of freedom          :   37
Chi-square statistic                  :   27.42
p-value of test                       :    0.87

-----------------------------------------------
CPU time used                    :  00:01:12.14

Generator state:




***********************************************************
HOST = ru01, Linux

MersenneTwiter


svaria_WeightDistrib test:
-----------------------------------------------
   N =  1,  n = 20000000,  r = 26,  k = 256,  Alpha =      0,  Beta = 0.0625


-----------------------------------------------
Number of degrees of freedom          :   37
Chi-square statistic                  :   37.14
p-value of test                       :    0.46

-----------------------------------------------
CPU time used                    :  00:01:11.90

Generator state:




***********************************************************
HOST = ru01, Linux

MersenneTwiter


svaria_SumCollector test:
-----------------------------------------------
   N =  1,  n = 500000000,  r =  0,   g = 10


-----------------------------------------------
Number of degrees of freedom          :   29
Chi-square statistic                  :   22.34
p-value of test                       :    0.81

-----------------------------------------------
CPU time used                    :  00:02:07.27

Generator state:




***********************************************************
HOST = ru01, Linux

MersenneTwiter


smarsa_MatrixRank test:
-----------------------------------------------
   N = 10,  n = 1000000,  r =  0,    s = 5,    L = 30,    k = 30


-----------------------------------------------

Kolmogorov-Smirnov+ statistic = D+    :    0.28
p-value of test                       :    0.18

Kolmogorov-Smirnov- statistic = D-    :    0.17
p-value of test                       :    0.52

Anderson-Darling statistic = A2       :    0.94
p-value of test                       :    0.39

Test on the sum of all N observations
Number of degrees of freedom          :   40
Chi-square statistic                  :   35.94
p-value of test                       :    0.65

-----------------------------------------------
CPU time used                    :  00:01:32.01

Generator state:




***********************************************************
HOST = ru01, Linux

MersenneTwiter


smarsa_MatrixRank test:
-----------------------------------------------
   N = 10,  n = 1000000,  r = 25,    s = 5,    L = 30,    k = 30


-----------------------------------------------

Kolmogorov-Smirnov+ statistic = D+    :    0.15
p-value of test                       :    0.60

Kolmogorov-Smirnov- statistic = D-    :    0.22
p-value of test                       :    0.34

Anderson-Darling statistic = A2       :    0.64
p-value of test                       :    0.61

Test on the sum of all N observations
Number of degrees of freedom          :   40
Chi-square statistic                  :   38.66
p-value of test                       :    0.53

-----------------------------------------------
CPU time used                    :  00:01:31.10

Generator state:




***********************************************************
HOST = ru01, Linux

MersenneTwiter


smarsa_MatrixRank test:
-----------------------------------------------
   N =  1,  n = 5000,  r =  0,    s = 4,    L = 1000,    k = 1000


-----------------------------------------------
Number of degrees of freedom          :    3
Chi-square statistic                  :    0.66
p-value of test                       :    0.88

-----------------------------------------------
CPU time used                    :  00:01:34.88

Generator state:




***********************************************************
HOST = ru01, Linux

MersenneTwiter


smarsa_MatrixRank test:
-----------------------------------------------
   N =  1,  n = 5000,  r = 26,    s = 4,    L = 1000,    k = 1000


-----------------------------------------------
Number of degrees of freedom          :    3
Chi-square statistic                  :    2.53
p-value of test                       :    0.47

-----------------------------------------------
CPU time used                    :  00:01:31.42

Generator state:




***********************************************************
HOST = ru01, Linux

MersenneTwiter


smarsa_MatrixRank test:
-----------------------------------------------
   N =  1,  n = 80,  r = 15,    s = 15,    L = 5000,    k = 5000


-----------------------------------------------
Number of degrees of freedom          :    2
Chi-square statistic                  :    1.03
p-value of test                       :    0.60

-----------------------------------------------
CPU time used                    :  00:01:19.26

Generator state:




***********************************************************
HOST = ru01, Linux

MersenneTwiter


smarsa_MatrixRank test:
-----------------------------------------------
   N =  1,  n = 80,  r =  0,    s = 30,    L = 5000,    k = 5000


-----------------------------------------------
Number of degrees of freedom          :    2
Chi-square statistic                  :    2.01
p-value of test                       :    0.37

-----------------------------------------------
CPU time used                    :  00:01:10.23

Generator state:




***********************************************************
HOST = ru01, Linux

MersenneTwiter


smarsa_Savir2 test:
-----------------------------------------------
   N = 10,  n = 10000000,  r = 10,    m = 1048576,    t = 30


-----------------------------------------------

Kolmogorov-Smirnov+ statistic = D+    :    0.29
p-value of test                       :    0.15

Kolmogorov-Smirnov- statistic = D-    :    0.26
p-value of test                       :    0.21

Anderson-Darling statistic = A2       :    2.47
p-value of test                       :    0.05

Test on the sum of all N observations
Number of degrees of freedom          :  130
Chi-square statistic                  :  153.41
p-value of test                       :    0.08

-----------------------------------------------
CPU time used                    :  00:00:27.13

Generator state:




***********************************************************
HOST = ru01, Linux

MersenneTwiter


smarsa_GCD test:
-----------------------------------------------
   N = 10,  n = 50000000,  r =  0,   s = 30


-----------------------------------------------
Test results for GCD values:

Kolmogorov-Smirnov+ statistic = D+    :   0.034
p-value of test                       :    0.95

Kolmogorov-Smirnov- statistic = D-    :    0.43
p-value of test                       :    0.02

Anderson-Darling statistic = A2       :    2.25
p-value of test                       :    0.07

Test on the sum of all N observations
Number of degrees of freedom          : 17430
Chi-square statistic                  :17764.72
p-value of test                       :    0.04



-----------------------------------------------
CPU time used                    :  00:00:51.80

Generator state:




***********************************************************
HOST = ru01, Linux

MersenneTwiter


swalk_RandomWalk1 test:
-----------------------------------------------
   N =  1,  n = 100000000,  r =  0,   s = 5,   L0 =   50,   L1 =   50



-----------------------------------------------
Test on the values of the Statistic H

Number of degrees of freedom          :   36
ChiSquare statistic                   :   39.56
p-value of test                       :    0.31


-----------------------------------------------
Test on the values of the Statistic M

Number of degrees of freedom          :   35
ChiSquare statistic                   :   33.00
p-value of test                       :    0.56


-----------------------------------------------
Test on the values of the Statistic J

Number of degrees of freedom          :   25
ChiSquare statistic                   :   21.87
p-value of test                       :    0.64


-----------------------------------------------
Test on the values of the Statistic R

Number of degrees of freedom          :   24
ChiSquare statistic                   :   16.38
p-value of test                       :    0.87


-----------------------------------------------
Test on the values of the Statistic C

Number of degrees of freedom          :   17
ChiSquare statistic                   :   29.51
p-value of test                       :    0.03


-----------------------------------------------
CPU time used                    :  00:00:45.43

Generator state:




***********************************************************
HOST = ru01, Linux

MersenneTwiter


swalk_RandomWalk1 test:
-----------------------------------------------
   N =  1,  n = 100000000,  r = 25,   s = 5,   L0 =   50,   L1 =   50



-----------------------------------------------
Test on the values of the Statistic H

Number of degrees of freedom          :   36
ChiSquare statistic                   :   40.64
p-value of test                       :    0.27


-----------------------------------------------
Test on the values of the Statistic M

Number of degrees of freedom          :   35
ChiSquare statistic                   :   40.11
p-value of test                       :    0.25


-----------------------------------------------
Test on the values of the Statistic J

Number of degrees of freedom          :   25
ChiSquare statistic                   :   17.58
p-value of test                       :    0.86


-----------------------------------------------
Test on the values of the Statistic R

Number of degrees of freedom          :   24
ChiSquare statistic                   :   17.72
p-value of test                       :    0.82


-----------------------------------------------
Test on the values of the Statistic C

Number of degrees of freedom          :   17
ChiSquare statistic                   :   12.45
p-value of test                       :    0.77


-----------------------------------------------
CPU time used                    :  00:00:46.76

Generator state:




***********************************************************
HOST = ru01, Linux

MersenneTwiter


swalk_RandomWalk1 test:
-----------------------------------------------
   N =  1,  n = 10000000,  r =  0,   s = 10,   L0 = 1000,   L1 = 1000



-----------------------------------------------
Test on the values of the Statistic H

Number of degrees of freedom          :  146
ChiSquare statistic                   :  146.10
p-value of test                       :    0.48


-----------------------------------------------
Test on the values of the Statistic M

Number of degrees of freedom          :  146
ChiSquare statistic                   :  142.51
p-value of test                       :    0.57


-----------------------------------------------
Test on the values of the Statistic J

Number of degrees of freedom          :  500
ChiSquare statistic                   :  514.61
p-value of test                       :    0.32


-----------------------------------------------
Test on the values of the Statistic R

Number of degrees of freedom          :  136
ChiSquare statistic                   :  149.59
p-value of test                       :    0.20


-----------------------------------------------
Test on the values of the Statistic C

Number of degrees of freedom          :   74
ChiSquare statistic                   :   76.71
p-value of test                       :    0.39


-----------------------------------------------
CPU time used                    :  00:01:32.62

Generator state:




***********************************************************
HOST = ru01, Linux

MersenneTwiter


swalk_RandomWalk1 test:
-----------------------------------------------
   N =  1,  n = 10000000,  r = 20,   s = 10,   L0 = 1000,   L1 = 1000



-----------------------------------------------
Test on the values of the Statistic H

Number of degrees of freedom          :  146
ChiSquare statistic                   :  109.91
p-value of test                       :    0.99


-----------------------------------------------
Test on the values of the Statistic M

Number of degrees of freedom          :  146
ChiSquare statistic                   :  130.51
p-value of test                       :    0.82


-----------------------------------------------
Test on the values of the Statistic J

Number of degrees of freedom          :  500
ChiSquare statistic                   :  499.35
p-value of test                       :    0.50


-----------------------------------------------
Test on the values of the Statistic R

Number of degrees of freedom          :  136
ChiSquare statistic                   :  144.82
p-value of test                       :    0.29


-----------------------------------------------
Test on the values of the Statistic C

Number of degrees of freedom          :   74
ChiSquare statistic                   :   71.53
p-value of test                       :    0.56


-----------------------------------------------
CPU time used                    :  00:01:33.40

Generator state:




***********************************************************
HOST = ru01, Linux

MersenneTwiter


swalk_RandomWalk1 test:
-----------------------------------------------
   N =  1,  n = 1000000,  r =  0,   s = 15,   L0 = 10000,   L1 = 10000



-----------------------------------------------
Test on the values of the Statistic H

Number of degrees of freedom          :  384
ChiSquare statistic                   :  331.10
p-value of test                       :    0.98


-----------------------------------------------
Test on the values of the Statistic M

Number of degrees of freedom          :  384
ChiSquare statistic                   :  385.32
p-value of test                       :    0.47


-----------------------------------------------
Test on the values of the Statistic J

Number of degrees of freedom          : 5000
ChiSquare statistic                   : 5092.84
p-value of test                       :    0.18


-----------------------------------------------
Test on the values of the Statistic R

Number of degrees of freedom          :  378
ChiSquare statistic                   :  386.74
p-value of test                       :    0.37


-----------------------------------------------
Test on the values of the Statistic C

Number of degrees of freedom          :  200
ChiSquare statistic                   :  216.70
p-value of test                       :    0.20


-----------------------------------------------
CPU time used                    :  00:01:20.52

Generator state:




***********************************************************
HOST = ru01, Linux

MersenneTwiter


swalk_RandomWalk1 test:
-----------------------------------------------
   N =  1,  n = 1000000,  r = 15,   s = 15,   L0 = 10000,   L1 = 10000



-----------------------------------------------
Test on the values of the Statistic H

Number of degrees of freedom          :  384
ChiSquare statistic                   :  340.08
p-value of test                       :    0.95


-----------------------------------------------
Test on the values of the Statistic M

Number of degrees of freedom          :  384
ChiSquare statistic                   :  402.15
p-value of test                       :    0.25


-----------------------------------------------
Test on the values of the Statistic J

Number of degrees of freedom          : 5000
ChiSquare statistic                   : 4836.93
p-value of test                       :    0.95


-----------------------------------------------
Test on the values of the Statistic R

Number of degrees of freedom          :  378
ChiSquare statistic                   :  432.25
p-value of test                       :    0.03


-----------------------------------------------
Test on the values of the Statistic C

Number of degrees of freedom          :  200
ChiSquare statistic                   :  202.33
p-value of test                       :    0.44


-----------------------------------------------
CPU time used                    :  00:01:15.09

Generator state:




***********************************************************
HOST = ru01, Linux

MersenneTwiter


scomp_LinearComp test:
-----------------------------------------------
   N =  1,  n = 400020,  r =  0,    s = 1



-----------------------------------------------
Number of degrees of freedom          :   12
Chi2 statistic for size of jumps      :    8.03
p-value of test                       :    0.78


-----------------------------------------------
Normal statistic for number of jumps  : -402.52
p-value of test                       : 1 - eps1    *****



-----------------------------------------------
CPU time used                    :  00:00:14.00

Generator state:




***********************************************************
HOST = ru01, Linux

MersenneTwiter


scomp_LinearComp test:
-----------------------------------------------
   N =  1,  n = 400020,  r = 29,    s = 1



-----------------------------------------------
Number of degrees of freedom          :   12
Chi2 statistic for size of jumps      :   12.34
p-value of test                       :    0.42


-----------------------------------------------
Normal statistic for number of jumps  : -402.84
p-value of test                       : 1 - eps1    *****



-----------------------------------------------
CPU time used                    :  00:00:14.01

Generator state:




***********************************************************
HOST = ru01, Linux

MersenneTwiter


scomp_LempelZiv test:
-----------------------------------------------
   N = 10,  n = 134217728,  r =  0,   s =   30,   k =   27


-----------------------------------------------

Kolmogorov-Smirnov+ statistic = D+    :    0.26
p-value of test                       :    0.21

Kolmogorov-Smirnov- statistic = D-    :   0.057
p-value of test                       :    0.91

Anderson-Darling statistic = A2       :    0.95
p-value of test                       :    0.38

Tests on the sum of all N observations
Standardized normal statistic         :   -1.16
p-value of test                       :    0.88

Sample variance                       :    0.79
p-value of test                       :    0.63

-----------------------------------------------
CPU time used                    :  00:01:45.25

Generator state:




***********************************************************
HOST = ru01, Linux

MersenneTwiter


scomp_LempelZiv test:
-----------------------------------------------
   N = 10,  n = 134217728,  r = 15,   s =   15,   k =   27


-----------------------------------------------

Kolmogorov-Smirnov+ statistic = D+    :    0.27
p-value of test                       :    0.20

Kolmogorov-Smirnov- statistic = D-    :    0.15
p-value of test                       :    0.58

Anderson-Darling statistic = A2       :    1.00
p-value of test                       :    0.36

Tests on the sum of all N observations
Standardized normal statistic         :   -0.74
p-value of test                       :    0.77

Sample variance                       :    0.41
p-value of test                       :    0.93

-----------------------------------------------
CPU time used                    :  00:01:35.70

Generator state:




***********************************************************
HOST = ru01, Linux

MersenneTwiter


sspectral_Fourier3 test:
-----------------------------------------------
   N = 100000,  n = 16384,  r =  0,   s =    3,   k =   14


-----------------------------------------------

Kolmogorov-Smirnov+ statistic = D+    : 5.70e-3
p-value of test                       :    0.76

Kolmogorov-Smirnov- statistic = D-    : 8.45e-3
p-value of test                       :    0.55

Anderson-Darling statistic = A2       :    0.33
p-value of test                       :    0.91

-----------------------------------------------
CPU time used                    :  00:00:48.18

Generator state:




***********************************************************
HOST = ru01, Linux

MersenneTwiter


sspectral_Fourier3 test:
-----------------------------------------------
   N = 100000,  n = 16384,  r = 27,   s =    3,   k =   14


-----------------------------------------------

Kolmogorov-Smirnov+ statistic = D+    : 6.92e-3
p-value of test                       :    0.67

Kolmogorov-Smirnov- statistic = D-    : 9.48e-3
p-value of test                       :    0.48

Anderson-Darling statistic = A2       :    0.45
p-value of test                       :    0.80

-----------------------------------------------
CPU time used                    :  00:00:48.65

Generator state:




***********************************************************
HOST = ru01, Linux

MersenneTwiter


sstring_LongestHeadRun test:
-----------------------------------------------
   N =  1,  n = 1000,  r =  0,   s = 3,   L = 10000020


-----------------------------------------------
Number of degrees of freedom          :    8
Chi-square statistic                  :   11.39
p-value of test                       :    0.18

-----------------------------------------------
Global longest run of 1               :   31.00
p-value of test                       :    0.69



-----------------------------------------------
CPU time used                    :  00:01:52.18

Generator state:




***********************************************************
HOST = ru01, Linux

MersenneTwiter


sstring_LongestHeadRun test:
-----------------------------------------------
   N =  1,  n = 1000,  r = 27,   s = 3,   L = 10000020


-----------------------------------------------
Number of degrees of freedom          :    8
Chi-square statistic                  :    9.35
p-value of test                       :    0.31

-----------------------------------------------
Global longest run of 1               :   34.00
p-value of test                       :    0.25



-----------------------------------------------
CPU time used                    :  00:01:39.48

Generator state:




***********************************************************
HOST = ru01, Linux

MersenneTwiter


sstring_PeriodsInStrings test:
-----------------------------------------------
   N = 10,  n = 500000000,  r =  0,   s =   10


-----------------------------------------------

Kolmogorov-Smirnov+ statistic = D+    :    0.32
p-value of test                       :    0.10

Kolmogorov-Smirnov- statistic = D-    :   0.059
p-value of test                       :    0.90

Anderson-Darling statistic = A2       :    1.78
p-value of test                       :    0.12

Test on the sum of all N observations
Number of degrees of freedom          :  200
Chi-square statistic                  :  166.95
p-value of test                       :    0.96

-----------------------------------------------
CPU time used                    :  00:02:14.72

Generator state:




***********************************************************
HOST = ru01, Linux

MersenneTwiter


sstring_PeriodsInStrings test:
-----------------------------------------------
   N = 10,  n = 500000000,  r = 20,   s =   10


-----------------------------------------------

Kolmogorov-Smirnov+ statistic = D+    :   0.074
p-value of test                       :    0.86

Kolmogorov-Smirnov- statistic = D-    :    0.23
p-value of test                       :    0.31

Anderson-Darling statistic = A2       :    0.53
p-value of test                       :    0.72

Test on the sum of all N observations
Number of degrees of freedom          :  200
Chi-square statistic                  :  210.39
p-value of test                       :    0.29

-----------------------------------------------
CPU time used                    :  00:02:21.21

Generator state:




***********************************************************
HOST = ru01, Linux

MersenneTwiter


sstring_HammingWeight2 test:
-----------------------------------------------
   N = 10,  n = 1000000000,  r =  0,   s = 3,   L = 1000000


-----------------------------------------------

Kolmogorov-Smirnov+ statistic = D+    :    0.12
p-value of test                       :    0.69

Kolmogorov-Smirnov- statistic = D-    :    0.26
p-value of test                       :    0.21

Anderson-Darling statistic = A2       :    0.83
p-value of test                       :    0.45

Test on the sum of all N observations
Number of degrees of freedom          : 10000
Chi-square statistic                  :10072.36
p-value of test                       :    0.30

-----------------------------------------------
CPU time used                    :  00:01:02.36

Generator state:




***********************************************************
HOST = ru01, Linux

MersenneTwiter


sstring_HammingWeight2 test:
-----------------------------------------------
   N = 10,  n = 1000000000,  r = 27,   s = 3,   L = 1000000


-----------------------------------------------

Kolmogorov-Smirnov+ statistic = D+    :    0.13
p-value of test                       :    0.68

Kolmogorov-Smirnov- statistic = D-    :    0.36
p-value of test                       :    0.06

Anderson-Darling statistic = A2       :    1.69
p-value of test                       :    0.14

Test on the sum of all N observations
Number of degrees of freedom          : 10000
Chi-square statistic                  :10195.78
p-value of test                       :    0.08

-----------------------------------------------
CPU time used                    :  00:01:07.01

Generator state:




***********************************************************
HOST = ru01, Linux

MersenneTwiter


sstring_HammingCorr test:
-----------------------------------------------
   N =  1,  n = 1000000000,  r = 10,   s = 10,   L = 30



-----------------------------------------------
Normal statistic                      :    1.01
p-value of test                       :    0.16

-----------------------------------------------
CPU time used                    :  00:01:21.79

Generator state:




***********************************************************
HOST = ru01, Linux

MersenneTwiter


sstring_HammingCorr test:
-----------------------------------------------
   N =  1,  n = 100000000,  r = 10,   s = 10,   L = 300



-----------------------------------------------
Normal statistic                      :    0.42
p-value of test                       :    0.34

-----------------------------------------------
CPU time used                    :  00:01:21.82

Generator state:




***********************************************************
HOST = ru01, Linux

MersenneTwiter


sstring_HammingCorr test:
-----------------------------------------------
   N =  1,  n = 100000000,  r = 10,   s = 10,   L = 1200



-----------------------------------------------
Normal statistic                      :    1.55
p-value of test                       :    0.06

-----------------------------------------------
CPU time used                    :  00:05:25.12

Generator state:




***********************************************************
HOST = ru01, Linux

MersenneTwiter


sstring_HammingIndep test:
-----------------------------------------------
   N = 10,  n = 30000000,  r =  0,   s = 3,   L = 30,   d = 0



Counters with expected numbers >= 10
-----------------------------------------------

Kolmogorov-Smirnov+ statistic = D+    :   0.043
p-value of test                       :    0.94

Kolmogorov-Smirnov- statistic = D-    :    0.35
p-value of test                       :    0.06

Anderson-Darling statistic = A2       :    1.26
p-value of test                       :    0.24

Test on the sum of all N observations
Number of degrees of freedom          : 4890
Chi-square statistic                  : 5013.32
p-value of test                       :    0.11

-----------------------------------------------
CPU time used                    :  00:02:13.71

Generator state:




***********************************************************
HOST = ru01, Linux

MersenneTwiter


sstring_HammingIndep test:
-----------------------------------------------
   N = 10,  n = 30000000,  r = 27,   s = 3,   L = 30,   d = 0



Counters with expected numbers >= 10
-----------------------------------------------

Kolmogorov-Smirnov+ statistic = D+    :   0.057
p-value of test                       :    0.91

Kolmogorov-Smirnov- statistic = D-    :    0.23
p-value of test                       :    0.30

Anderson-Darling statistic = A2       :    0.93
p-value of test                       :    0.39

Test on the sum of all N observations
Number of degrees of freedom          : 4890
Chi-square statistic                  : 5022.31
p-value of test                       :    0.09

-----------------------------------------------
CPU time used                    :  00:02:18.95

Generator state:




***********************************************************
HOST = ru01, Linux

MersenneTwiter


sstring_HammingIndep test:
-----------------------------------------------
   N =  1,  n = 30000000,  r =  0,   s = 4,   L = 300,   d = 0



Counters with expected numbers >= 10
-----------------------------------------------
Number of degrees of freedom          : 4117
Chi-square statistic                  : 4014.67
p-value of test                       :    0.87

-----------------------------------------------
CPU time used                    :  00:01:43.10

Generator state:




***********************************************************
HOST = ru01, Linux

MersenneTwiter


sstring_HammingIndep test:
-----------------------------------------------
   N =  1,  n = 30000000,  r = 26,   s = 4,   L = 300,   d = 0



Counters with expected numbers >= 10
-----------------------------------------------
Number of degrees of freedom          : 4117
Chi-square statistic                  : 4037.87
p-value of test                       :    0.81

-----------------------------------------------
CPU time used                    :  00:01:44.45

Generator state:




***********************************************************
HOST = ru01, Linux

MersenneTwiter


sstring_HammingIndep test:
-----------------------------------------------
   N =  1,  n = 10000000,  r =  0,   s = 5,   L = 1200,   d = 0



Counters with expected numbers >= 10
-----------------------------------------------
Number of degrees of freedom          : 11825
Chi-square statistic                  :11885.50
p-value of test                       :    0.35

-----------------------------------------------
CPU time used                    :  00:01:58.20

Generator state:




***********************************************************
HOST = ru01, Linux

MersenneTwiter


sstring_HammingIndep test:
-----------------------------------------------
   N =  1,  n = 10000000,  r = 25,   s = 5,   L = 1200,   d = 0



Counters with expected numbers >= 10
-----------------------------------------------
Number of degrees of freedom          : 11825
Chi-square statistic                  :11725.31
p-value of test                       :    0.74

-----------------------------------------------
CPU time used                    :  00:02:17.61

Generator state:




***********************************************************
HOST = ru01, Linux

MersenneTwiter


sstring_Run test:
-----------------------------------------------
   N =  1,  n = 2000000000,  r =  0,   s =    3


-----------------------------------------------
Total number of 1 runs:  2000000000

Number of degrees of freedom          :   54
Chi2 statistic for number of runs     :   60.89
p-value of test                       :    0.24


-----------------------------------------------
Total number of bits:  7999998573

Normal statistic for number of bits   :  -0.011
p-value of test                       :    0.50



-----------------------------------------------
CPU time used                    :  00:01:43.98

Generator state:




***********************************************************
HOST = ru01, Linux

MersenneTwiter


sstring_Run test:
-----------------------------------------------
   N =  1,  n = 2000000000,  r = 27,   s =    3


-----------------------------------------------
Total number of 1 runs:  2000000000

Number of degrees of freedom          :   54
Chi2 statistic for number of runs     :   63.68
p-value of test                       :    0.17


-----------------------------------------------
Total number of bits:  7999937775

Normal statistic for number of bits   :   -0.49
p-value of test                       :    0.69



-----------------------------------------------
CPU time used                    :  00:01:49.23

Generator state:




***********************************************************
HOST = ru01, Linux

MersenneTwiter


sstring_AutoCor test:
-----------------------------------------------
   N = 10,  n = 1000000030,  r =  0,   s = 3,   d = 1


-----------------------------------------------

Kolmogorov-Smirnov+ statistic = D+    :    0.13
p-value of test                       :    0.65

Kolmogorov-Smirnov- statistic = D-    :    0.12
p-value of test                       :    0.69

Anderson-Darling statistic = A2       :    0.20
p-value of test                       :    0.99

Tests on the sum of all N observations
Standardized normal statistic         :   -0.21
p-value of test                       :    0.58

Sample variance                       :    1.03
p-value of test                       :    0.41

-----------------------------------------------
CPU time used                    :  00:01:48.93

Generator state:




***********************************************************
HOST = ru01, Linux

MersenneTwiter


sstring_AutoCor test:
-----------------------------------------------
   N = 10,  n = 1000000029,  r =  0,   s = 3,   d = 3


-----------------------------------------------

Kolmogorov-Smirnov+ statistic = D+    :   0.058
p-value of test                       :    0.90

Kolmogorov-Smirnov- statistic = D-    :    0.38
p-value of test                       :    0.04

Anderson-Darling statistic = A2       :    1.24
p-value of test                       :    0.25

Tests on the sum of all N observations
Standardized normal statistic         :    1.13
p-value of test                       :    0.13

Sample variance                       :    0.86
p-value of test                       :    0.56

-----------------------------------------------
CPU time used                    :  00:01:31.56

Generator state:




***********************************************************
HOST = ru01, Linux

MersenneTwiter


sstring_AutoCor test:
-----------------------------------------------
   N = 10,  n = 1000000030,  r = 27,   s = 3,   d = 1


-----------------------------------------------

Kolmogorov-Smirnov+ statistic = D+    :    0.25
p-value of test                       :    0.24

Kolmogorov-Smirnov- statistic = D-    :   0.096
p-value of test                       :    0.78

Anderson-Darling statistic = A2       :    0.89
p-value of test                       :    0.41

Tests on the sum of all N observations
Standardized normal statistic         :   -0.77
p-value of test                       :    0.78

Sample variance                       :    1.67
p-value of test                       :    0.09

-----------------------------------------------
CPU time used                    :  00:01:50.63

Generator state:




***********************************************************
HOST = ru01, Linux

MersenneTwiter


sstring_AutoCor test:
-----------------------------------------------
   N = 10,  n = 1000000029,  r = 27,   s = 3,   d = 3


-----------------------------------------------

Kolmogorov-Smirnov+ statistic = D+    :   0.021
p-value of test                       :    0.97

Kolmogorov-Smirnov- statistic = D-    :    0.43
p-value of test                       :    0.02

Anderson-Darling statistic = A2       :    2.48
p-value of test                       :    0.05

Tests on the sum of all N observations
Standardized normal statistic         :    2.04
p-value of test                       :    0.02

Sample variance                       :    0.59
p-value of test                       :    0.81

-----------------------------------------------
CPU time used                    :  00:01:33.70

Generator state:





========= Summary results of BigCrush =========

 Version:          TestU01 1.2.3
 Generator:        MersenneTwiter
 Number of statistics:  160
 Total CPU time:   04:38:36.34
 The following tests gave p-values outside [0.001, 0.9990]:
 (eps  means a value < 1.0e-300):
 (eps1 means a value < 1.0e-15):

       Test                          p-value
 ----------------------------------------------
 21  BirthdaySpacings, t = 16        5.4e-4
 80  LinearComp, r = 0              1 - eps1
 81  LinearComp, r = 29             1 - eps1
 ----------------------------------------------
 All other tests were passed



