xxxxxxxxxxxxxxxxxxxxxxxxxxxxxxxxxxxxxxxxxxxxxxxxxxxxxxxxxxx
                 Starting BigCrush
                 Version: TestU01 1.2.3
xxxxxxxxxxxxxxxxxxxxxxxxxxxxxxxxxxxxxxxxxxxxxxxxxxxxxxxxxxx


***********************************************************
Test smarsa_SerialOver calling smultin_MultinomialOver

***********************************************************
HOST = hpcsmp01, Linux

MersenneTwiter


smultin_MultinomialOver test:
-----------------------------------------------
   N =  1,  n = 1000000000,  r =  0,   d =  256,   t =  3,
       Sparse =  FALSE

       GenerCell = smultin_GenerCellSerial
       Number of cells = d^t =           16777216
       Expected number per cell =   59.604645
       Hashing =  FALSE

   For Delta > -1, we use the ChiSquare approximation
   Correction factor of the ChiSquare: 
       Delta =     1,    Mu =   0.0083558402,    Sigma =          1

-----------------------------------------------
Test Results for Delta =   1.0000

Number of degrees of freedom          : 16711680
Value of the statistic                : 1.67e+7
p-value of test                       :    0.17


-----------------------------------------------
CPU time used                    :  00:03:28.97

Generator state:




***********************************************************
Test smarsa_SerialOver calling smultin_MultinomialOver

***********************************************************
HOST = hpcsmp01, Linux

MersenneTwiter


smultin_MultinomialOver test:
-----------------------------------------------
   N =  1,  n = 1000000000,  r = 22,   d =  256,   t =  3,
       Sparse =  FALSE

       GenerCell = smultin_GenerCellSerial
       Number of cells = d^t =           16777216
       Expected number per cell =   59.604645
       Hashing =  FALSE

   For Delta > -1, we use the ChiSquare approximation
   Correction factor of the ChiSquare: 
       Delta =     1,    Mu =   0.0083558402,    Sigma =          1

-----------------------------------------------
Test Results for Delta =   1.0000

Number of degrees of freedom          : 16711680
Value of the statistic                : 1.67e+7
p-value of test                       :    0.82


-----------------------------------------------
CPU time used                    :  00:03:34.72

Generator state:




***********************************************************
Test smarsa_CollisionOver calling smultin_MultinomialOver

***********************************************************
HOST = hpcsmp01, Linux

MersenneTwiter


smultin_MultinomialOver test:
-----------------------------------------------
   N = 30,  n = 20000000,  r =  0,   d = 2097152,   t =  2,
       Sparse =   TRUE

       GenerCell = smultin_GenerCellSerial
       Number of cells = d^t =      4398046511104
       Expected number per cell =  1 /  219902.33
       EColl = n^2 / (2k) =  45.47473509
       Hashing =   TRUE

       Collision test

       CollisionOver:   density = n / k =  1 /  219902.33
       Expected number of collisions = Mu =      45.47


-----------------------------------------------
Results of CollisionOver test:

POISSON approximation                 :
Expected number of collisions = N*Mu  :     1364.24
Observed number of collisions         :     1373
p-value of test                       :    0.41

-----------------------------
Total number of cells containing j balls

  j =  0                              :  131940795334493
  j =  1                              :        599997254
  j =  2                              :             1373
  j =  3                              :                0
  j =  4                              :                0
  j =  5                              :                0

-----------------------------------------------
CPU time used                    :  00:07:10.19

Generator state:




***********************************************************
Test smarsa_CollisionOver calling smultin_MultinomialOver

***********************************************************
HOST = hpcsmp01, Linux

MersenneTwiter


smultin_MultinomialOver test:
-----------------------------------------------
   N = 30,  n = 20000000,  r =  9,   d = 2097152,   t =  2,
       Sparse =   TRUE

       GenerCell = smultin_GenerCellSerial
       Number of cells = d^t =      4398046511104
       Expected number per cell =  1 /  219902.33
       EColl = n^2 / (2k) =  45.47473509
       Hashing =   TRUE

       Collision test

       CollisionOver:   density = n / k =  1 /  219902.33
       Expected number of collisions = Mu =      45.47


-----------------------------------------------
Results of CollisionOver test:

POISSON approximation                 :
Expected number of collisions = N*Mu  :     1364.24
Observed number of collisions         :     1426
p-value of test                       :    0.05

-----------------------------
Total number of cells containing j balls

  j =  0                              :  131940795334546
  j =  1                              :        599997148
  j =  2                              :             1426
  j =  3                              :                0
  j =  4                              :                0
  j =  5                              :                0

-----------------------------------------------
CPU time used                    :  00:07:41.41

Generator state:




***********************************************************
Test smarsa_CollisionOver calling smultin_MultinomialOver

***********************************************************
HOST = hpcsmp01, Linux

MersenneTwiter


smultin_MultinomialOver test:
-----------------------------------------------
   N = 30,  n = 20000000,  r =  0,   d = 16384,   t =  3,
       Sparse =   TRUE

       GenerCell = smultin_GenerCellSerial
       Number of cells = d^t =      4398046511104
       Expected number per cell =  1 /  219902.33
       EColl = n^2 / (2k) =  45.47473509
       Hashing =   TRUE

       Collision test

       CollisionOver:   density = n / k =  1 /  219902.33
       Expected number of collisions = Mu =      45.47


-----------------------------------------------
Results of CollisionOver test:

POISSON approximation                 :
Expected number of collisions = N*Mu  :     1364.24
Observed number of collisions         :     1391
p-value of test                       :    0.24

-----------------------------
Total number of cells containing j balls

  j =  0                              :  131940795334511
  j =  1                              :        599997218
  j =  2                              :             1391
  j =  3                              :                0
  j =  4                              :                0
  j =  5                              :                0

-----------------------------------------------
CPU time used                    :  00:09:47.36

Generator state:




***********************************************************
Test smarsa_CollisionOver calling smultin_MultinomialOver

***********************************************************
HOST = hpcsmp01, Linux

MersenneTwiter


smultin_MultinomialOver test:
-----------------------------------------------
   N = 30,  n = 20000000,  r = 16,   d = 16384,   t =  3,
       Sparse =   TRUE

       GenerCell = smultin_GenerCellSerial
       Number of cells = d^t =      4398046511104
       Expected number per cell =  1 /  219902.33
       EColl = n^2 / (2k) =  45.47473509
       Hashing =   TRUE

       Collision test

       CollisionOver:   density = n / k =  1 /  219902.33
       Expected number of collisions = Mu =      45.47


-----------------------------------------------
Results of CollisionOver test:

POISSON approximation                 :
Expected number of collisions = N*Mu  :     1364.24
Observed number of collisions         :     1344
p-value of test                       :    0.70

-----------------------------
Total number of cells containing j balls

  j =  0                              :  131940795334464
  j =  1                              :        599997312
  j =  2                              :             1344
  j =  3                              :                0
  j =  4                              :                0
  j =  5                              :                0

-----------------------------------------------
CPU time used                    :  00:09:51.90

Generator state:




***********************************************************
Test smarsa_CollisionOver calling smultin_MultinomialOver

***********************************************************
HOST = hpcsmp01, Linux

MersenneTwiter


smultin_MultinomialOver test:
-----------------------------------------------
   N = 30,  n = 20000000,  r =  0,   d =   64,   t =  7,
       Sparse =   TRUE

       GenerCell = smultin_GenerCellSerial
       Number of cells = d^t =      4398046511104
       Expected number per cell =  1 /  219902.33
       EColl = n^2 / (2k) =  45.47473509
       Hashing =   TRUE

       Collision test

       CollisionOver:   density = n / k =  1 /  219902.33
       Expected number of collisions = Mu =      45.47


-----------------------------------------------
Results of CollisionOver test:

POISSON approximation                 :
Expected number of collisions = N*Mu  :     1364.24
Observed number of collisions         :     1441
p-value of test                       :    0.02

-----------------------------
Total number of cells containing j balls

  j =  0                              :  131940795334561
  j =  1                              :        599997118
  j =  2                              :             1441
  j =  3                              :                0
  j =  4                              :                0
  j =  5                              :                0

-----------------------------------------------
CPU time used                    :  00:09:55.71

Generator state:




***********************************************************
Test smarsa_CollisionOver calling smultin_MultinomialOver

***********************************************************
HOST = hpcsmp01, Linux

MersenneTwiter


smultin_MultinomialOver test:
-----------------------------------------------
   N = 30,  n = 20000000,  r = 24,   d =   64,   t =  7,
       Sparse =   TRUE

       GenerCell = smultin_GenerCellSerial
       Number of cells = d^t =      4398046511104
       Expected number per cell =  1 /  219902.33
       EColl = n^2 / (2k) =  45.47473509
       Hashing =   TRUE

       Collision test

       CollisionOver:   density = n / k =  1 /  219902.33
       Expected number of collisions = Mu =      45.47


-----------------------------------------------
Results of CollisionOver test:

POISSON approximation                 :
Expected number of collisions = N*Mu  :     1364.24
Observed number of collisions         :     1375
p-value of test                       :    0.39

-----------------------------
Total number of cells containing j balls

  j =  0                              :  131940795334495
  j =  1                              :        599997250
  j =  2                              :             1375
  j =  3                              :                0
  j =  4                              :                0
  j =  5                              :                0

-----------------------------------------------
CPU time used                    :  00:10:04.23

Generator state:




***********************************************************
Test smarsa_CollisionOver calling smultin_MultinomialOver

***********************************************************
HOST = hpcsmp01, Linux

MersenneTwiter


smultin_MultinomialOver test:
-----------------------------------------------
   N = 30,  n = 20000000,  r =  0,   d =    8,   t = 14,
       Sparse =   TRUE

       GenerCell = smultin_GenerCellSerial
       Number of cells = d^t =      4398046511104
       Expected number per cell =  1 /  219902.33
       EColl = n^2 / (2k) =  45.47473509
       Hashing =   TRUE

       Collision test

       CollisionOver:   density = n / k =  1 /  219902.33
       Expected number of collisions = Mu =      45.47


-----------------------------------------------
Results of CollisionOver test:

POISSON approximation                 :
Expected number of collisions = N*Mu  :     1364.24
Observed number of collisions         :     1415
p-value of test                       :    0.09

-----------------------------
Total number of cells containing j balls

  j =  0                              :  131940795334535
  j =  1                              :        599997170
  j =  2                              :             1415
  j =  3                              :                0
  j =  4                              :                0
  j =  5                              :                0

-----------------------------------------------
CPU time used                    :  00:09:57.86

Generator state:




***********************************************************
Test smarsa_CollisionOver calling smultin_MultinomialOver

***********************************************************
HOST = hpcsmp01, Linux

MersenneTwiter


smultin_MultinomialOver test:
-----------------------------------------------
   N = 30,  n = 20000000,  r = 27,   d =    8,   t = 14,
       Sparse =   TRUE

       GenerCell = smultin_GenerCellSerial
       Number of cells = d^t =      4398046511104
       Expected number per cell =  1 /  219902.33
       EColl = n^2 / (2k) =  45.47473509
       Hashing =   TRUE

       Collision test

       CollisionOver:   density = n / k =  1 /  219902.33
       Expected number of collisions = Mu =      45.47


-----------------------------------------------
Results of CollisionOver test:

POISSON approximation                 :
Expected number of collisions = N*Mu  :     1364.24
Observed number of collisions         :     1350
p-value of test                       :    0.64

-----------------------------
Total number of cells containing j balls

  j =  0                              :  131940795334470
  j =  1                              :        599997300
  j =  2                              :             1350
  j =  3                              :                0
  j =  4                              :                0
  j =  5                              :                0

-----------------------------------------------
CPU time used                    :  00:10:03.21

Generator state:




***********************************************************
Test smarsa_CollisionOver calling smultin_MultinomialOver

***********************************************************
HOST = hpcsmp01, Linux

MersenneTwiter


smultin_MultinomialOver test:
-----------------------------------------------
   N = 30,  n = 20000000,  r =  0,   d =    4,   t = 21,
       Sparse =   TRUE

       GenerCell = smultin_GenerCellSerial
       Number of cells = d^t =      4398046511104
       Expected number per cell =  1 /  219902.33
       EColl = n^2 / (2k) =  45.47473509
       Hashing =   TRUE

       Collision test

       CollisionOver:   density = n / k =  1 /  219902.33
       Expected number of collisions = Mu =      45.47


-----------------------------------------------
Results of CollisionOver test:

POISSON approximation                 :
Expected number of collisions = N*Mu  :     1364.24
Observed number of collisions         :     1235
p-value of test                       :    0.9998    *****

-----------------------------
Total number of cells containing j balls

  j =  0                              :  131940795334355
  j =  1                              :        599997530
  j =  2                              :             1235
  j =  3                              :                0
  j =  4                              :                0
  j =  5                              :                0

-----------------------------------------------
CPU time used                    :  00:09:55.52

Generator state:




***********************************************************
Test smarsa_CollisionOver calling smultin_MultinomialOver

***********************************************************
HOST = hpcsmp01, Linux

MersenneTwiter


smultin_MultinomialOver test:
-----------------------------------------------
   N = 30,  n = 20000000,  r = 28,   d =    4,   t = 21,
       Sparse =   TRUE

       GenerCell = smultin_GenerCellSerial
       Number of cells = d^t =      4398046511104
       Expected number per cell =  1 /  219902.33
       EColl = n^2 / (2k) =  45.47473509
       Hashing =   TRUE

       Collision test

       CollisionOver:   density = n / k =  1 /  219902.33
       Expected number of collisions = Mu =      45.47


-----------------------------------------------
Results of CollisionOver test:

POISSON approximation                 :
Expected number of collisions = N*Mu  :     1364.24
Observed number of collisions         :     1452
p-value of test                       :  9.6e-3

-----------------------------
Total number of cells containing j balls

  j =  0                              :  131940795334572
  j =  1                              :        599997096
  j =  2                              :             1452
  j =  3                              :                0
  j =  4                              :                0
  j =  5                              :                0

-----------------------------------------------
CPU time used                    :  00:10:02.60

Generator state:




***********************************************************
HOST = hpcsmp01, Linux

MersenneTwiter


smarsa_BirthdaySpacings test:
-----------------------------------------------
   N = 100,  n = 10000000,  r =  0,    d = 2147483648,    t = 2,    p = 1


      Number of cells = d^t = 4611686018427387904
      Lambda = Poisson mean =      54.2101


----------------------------------------------------
Total expected number = N*Lambda      :    5421.01
Total observed number                 :    5458
p-value of test                       :    0.31


-----------------------------------------------
CPU time used                    :  00:06:30.44

Generator state:




***********************************************************
HOST = hpcsmp01, Linux

MersenneTwiter


smarsa_BirthdaySpacings test:
-----------------------------------------------
   N = 20,  n = 20000000,  r =  0,    d = 2097152,    t = 3,    p = 1


      Number of cells = d^t = 9223372036854775808
      Lambda = Poisson mean =     216.8404


----------------------------------------------------
Total expected number = N*Lambda      :    4336.81
Total observed number                 :    4351
p-value of test                       :    0.42


-----------------------------------------------
CPU time used                    :  00:02:48.86

Generator state:




***********************************************************
HOST = hpcsmp01, Linux

MersenneTwiter


smarsa_BirthdaySpacings test:
-----------------------------------------------
   N = 20,  n = 30000000,  r = 14,    d = 65536,    t = 4,    p = 1


      Number of cells = d^t = 18446744073709551616
      Lambda = Poisson mean =     365.9182


----------------------------------------------------
Total expected number = N*Lambda      :    7318.36
Total observed number                 :    7172
p-value of test                       :    0.96


-----------------------------------------------
CPU time used                    :  00:04:33.30

Generator state:




***********************************************************
HOST = hpcsmp01, Linux

MersenneTwiter


smarsa_BirthdaySpacings test:
-----------------------------------------------
   N = 20,  n = 20000000,  r =  0,    d = 512,    t = 7,    p = 1


      Number of cells = d^t = 9223372036854775808
      Lambda = Poisson mean =     216.8404


----------------------------------------------------
Total expected number = N*Lambda      :    4336.81
Total observed number                 :    4406
p-value of test                       :    0.15


-----------------------------------------------
CPU time used                    :  00:03:15.05

Generator state:




***********************************************************
HOST = hpcsmp01, Linux

MersenneTwiter


smarsa_BirthdaySpacings test:
-----------------------------------------------
   N = 20,  n = 20000000,  r =  7,    d = 512,    t = 7,    p = 1


      Number of cells = d^t = 9223372036854775808
      Lambda = Poisson mean =     216.8404


----------------------------------------------------
Total expected number = N*Lambda      :    4336.81
Total observed number                 :    4427
p-value of test                       :    0.09


-----------------------------------------------
CPU time used                    :  00:03:21.21

Generator state:




***********************************************************
HOST = hpcsmp01, Linux

MersenneTwiter


smarsa_BirthdaySpacings test:
-----------------------------------------------
   N = 20,  n = 30000000,  r = 14,    d = 256,    t = 8,    p = 1


      Number of cells = d^t = 18446744073709551616
      Lambda = Poisson mean =     365.9182


----------------------------------------------------
Total expected number = N*Lambda      :    7318.36
Total observed number                 :    7375
p-value of test                       :    0.26


-----------------------------------------------
CPU time used                    :  00:05:18.48

Generator state:




***********************************************************
HOST = hpcsmp01, Linux

MersenneTwiter


smarsa_BirthdaySpacings test:
-----------------------------------------------
   N = 20,  n = 30000000,  r = 22,    d = 256,    t = 8,    p = 1


      Number of cells = d^t = 18446744073709551616
      Lambda = Poisson mean =     365.9182


----------------------------------------------------
Total expected number = N*Lambda      :    7318.36
Total observed number                 :    7266
p-value of test                       :    0.73


-----------------------------------------------
CPU time used                    :  00:05:16.30

Generator state:




***********************************************************
HOST = hpcsmp01, Linux

MersenneTwiter


smarsa_BirthdaySpacings test:
-----------------------------------------------
   N = 20,  n = 30000000,  r =  0,    d = 16,    t = 16,    p = 1


      Number of cells = d^t = 18446744073709551616
      Lambda = Poisson mean =     365.9182


----------------------------------------------------
Total expected number = N*Lambda      :    7318.36
Total observed number                 :    7377
p-value of test                       :    0.25


-----------------------------------------------
CPU time used                    :  00:06:32.62

Generator state:




***********************************************************
HOST = hpcsmp01, Linux

MersenneTwiter


smarsa_BirthdaySpacings test:
-----------------------------------------------
   N = 20,  n = 30000000,  r = 26,    d = 16,    t = 16,    p = 1


      Number of cells = d^t = 18446744073709551616
      Lambda = Poisson mean =     365.9182


----------------------------------------------------
Total expected number = N*Lambda      :    7318.36
Total observed number                 :    7327
p-value of test                       :    0.46


-----------------------------------------------
CPU time used                    :  00:06:59.70

Generator state:




***********************************************************
HOST = hpcsmp01, Linux

MersenneTwiter


snpair_ClosePairs test:
-----------------------------------------------
   N = 30,  n = 6000000,  r =  0,  t = 3,  p = 0,  m = 30,  Torus =  TRUE


---------------------------------------
Test based on the 2 nearest points (NP):

Stat. AD on the N values (NP)         :    2.76
p-value of test                       :    0.04


A2 test based on the spacings between the
   successive jump times of process Y_n(t):

A2 test on the values of A2 (m-NP)    :    1.48
p-value of test                       :    0.18

Test on the Nm values of W_{n,i}(mNP1):    0.42
p-value of test                       :    0.82

Test on the jump times of Y
   (superposition of Yn):

Expected number of jumps of Y = mN    :     900
Number of jumps of Y                  :     876
p-value of test                       :    0.78

Stat. AD (mNP2)                       :    0.55
p-value of test                       :    0.70

Stat. AD after spacings (mNP2-S)      :    0.37
p-value of test                       :    0.88

-----------------------------------------------
CPU time used                    :  00:06:04.42

Generator state:




***********************************************************
HOST = hpcsmp01, Linux

MersenneTwiter


snpair_ClosePairs test:
-----------------------------------------------
   N = 20,  n = 4000000,  r =  0,  t = 5,  p = 0,  m = 30,  Torus =  TRUE


---------------------------------------
Test based on the 2 nearest points (NP):

Stat. AD on the N values (NP)         :    0.17
p-value of test                       :    0.9969


A2 test based on the spacings between the
   successive jump times of process Y_n(t):

A2 test on the values of A2 (m-NP)    :    0.37
p-value of test                       :    0.87

Test on the Nm values of W_{n,i}(mNP1):    0.22
p-value of test                       :    0.98

Test on the jump times of Y
   (superposition of Yn):

Expected number of jumps of Y = mN    :     600
Number of jumps of Y                  :     597
p-value of test                       :    0.54

Stat. AD (mNP2)                       :    1.24
p-value of test                       :    0.25

Stat. AD after spacings (mNP2-S)      :    1.22
p-value of test                       :    0.26

-----------------------------------------------
CPU time used                    :  00:03:03.61

Generator state:




***********************************************************
HOST = hpcsmp01, Linux

MersenneTwiter


snpair_ClosePairs test:
-----------------------------------------------
   N = 10,  n = 3000000,  r =  0,  t = 9,  p = 0,  m = 30,  Torus =  TRUE


---------------------------------------
Test based on the 2 nearest points (NP):

Stat. AD on the N values (NP)         :    0.52
p-value of test                       :    0.73


A2 test based on the spacings between the
   successive jump times of process Y_n(t):

A2 test on the values of A2 (m-NP)    :    0.24
p-value of test                       :    0.98

Test on the Nm values of W_{n,i}(mNP1):    1.95
p-value of test                       :    0.10

Test on the jump times of Y
   (superposition of Yn):

Expected number of jumps of Y = mN    :     300
Number of jumps of Y                  :     325
p-value of test                       :    0.08

Stat. AD (mNP2)                       :    0.84
p-value of test                       :    0.45

Stat. AD after spacings (mNP2-S)      :    1.49
p-value of test                       :    0.18

-----------------------------------------------
CPU time used                    :  00:04:29.31

Generator state:




***********************************************************
HOST = hpcsmp01, Linux

MersenneTwiter


snpair_ClosePairs test:
-----------------------------------------------
   N =  5,  n = 2000000,  r =  0,  t = 16,  p = 0,  m = 30,  Torus =  TRUE


---------------------------------------
Test based on the 2 nearest points (NP):

Stat. AD on the N values (NP)         :    1.09
p-value of test                       :    0.31


A2 test based on the spacings between the
   successive jump times of process Y_n(t):

A2 test on the values of A2 (m-NP)    :    0.90
p-value of test                       :    0.41

Test on the Nm values of W_{n,i}(mNP1):    0.68
p-value of test                       :    0.58

Test on the jump times of Y
   (superposition of Yn):

Expected number of jumps of Y = mN    :     150
Number of jumps of Y                  :     155
p-value of test                       :    0.35

Stat. AD (mNP2)                       :    0.68
p-value of test                       :    0.58

Stat. AD after spacings (mNP2-S)      :    0.25
p-value of test                       :    0.97

-----------------------------------------------
CPU time used                    :  00:04:33.05

Generator state:




***********************************************************
HOST = hpcsmp01, Linux

MersenneTwiter


sknuth_SimpPoker test:
-----------------------------------------------
   N =  1,  n = 400000000,  r =  0,   d =    8,   k =    8


-----------------------------------------------
Number of degrees of freedom          :    7
Chi-square statistic                  :    2.61
p-value of test                       :    0.92

-----------------------------------------------
CPU time used                    :  00:01:19.29

Generator state:




***********************************************************
HOST = hpcsmp01, Linux

MersenneTwiter


sknuth_SimpPoker test:
-----------------------------------------------
   N =  1,  n = 400000000,  r = 27,   d =    8,   k =    8


-----------------------------------------------
Number of degrees of freedom          :    7
Chi-square statistic                  :    9.45
p-value of test                       :    0.22

-----------------------------------------------
CPU time used                    :  00:01:34.02

Generator state:




***********************************************************
HOST = hpcsmp01, Linux

MersenneTwiter


sknuth_SimpPoker test:
-----------------------------------------------
   N =  1,  n = 100000000,  r =  0,   d =   32,   k =   32


-----------------------------------------------
Number of degrees of freedom          :   18
Chi-square statistic                  :   18.51
p-value of test                       :    0.42

-----------------------------------------------
CPU time used                    :  00:01:21.62

Generator state:




***********************************************************
HOST = hpcsmp01, Linux

MersenneTwiter


sknuth_SimpPoker test:
-----------------------------------------------
   N =  1,  n = 100000000,  r = 25,   d =   32,   k =   32


-----------------------------------------------
Number of degrees of freedom          :   18
Chi-square statistic                  :   22.37
p-value of test                       :    0.22

-----------------------------------------------
CPU time used                    :  00:01:32.26

Generator state:




***********************************************************
HOST = hpcsmp01, Linux

MersenneTwiter


sknuth_CouponCollector test:
-----------------------------------------------
   N =  1,  n = 200000000,  r =  0,   d =    8


-----------------------------------------------
Number of degrees of freedom          :   54
Chi-square statistic                  :   81.31
p-value of test                       :  9.5e-3

-----------------------------------------------
CPU time used                    :  00:01:40.73

Generator state:




***********************************************************
HOST = hpcsmp01, Linux

MersenneTwiter


sknuth_CouponCollector test:
-----------------------------------------------
   N =  1,  n = 200000000,  r = 10,   d =    8


-----------------------------------------------
Number of degrees of freedom          :   54
Chi-square statistic                  :   60.58
p-value of test                       :    0.25

-----------------------------------------------
CPU time used                    :  00:01:57.89

Generator state:




***********************************************************
HOST = hpcsmp01, Linux

MersenneTwiter


sknuth_CouponCollector test:
-----------------------------------------------
   N =  1,  n = 200000000,  r = 20,   d =    8


-----------------------------------------------
Number of degrees of freedom          :   54
Chi-square statistic                  :   67.40
p-value of test                       :    0.10

-----------------------------------------------
CPU time used                    :  00:01:57.87

Generator state:




***********************************************************
HOST = hpcsmp01, Linux

MersenneTwiter


sknuth_CouponCollector test:
-----------------------------------------------
   N =  1,  n = 200000000,  r = 27,   d =    8


-----------------------------------------------
Number of degrees of freedom          :   54
Chi-square statistic                  :   63.79
p-value of test                       :    0.17

-----------------------------------------------
CPU time used                    :  00:01:57.35

Generator state:




***********************************************************
HOST = hpcsmp01, Linux

MersenneTwiter


sknuth_Gap test:
-----------------------------------------------
   N =  1,  n = 500000000,  r =  0,   Alpha =        0,   Beta  =   0.0625


-----------------------------------------------
Number of degrees of freedom          :  232
Chi-square statistic                  :  218.03
p-value of test                       :    0.74

-----------------------------------------------
CPU time used                    :  00:02:07.92

Generator state:




***********************************************************
HOST = hpcsmp01, Linux

MersenneTwiter


sknuth_Gap test:
-----------------------------------------------
   N =  1,  n = 300000000,  r = 25,   Alpha =        0,   Beta  =  0.03125


-----------------------------------------------
Number of degrees of freedom          :  434
Chi-square statistic                  :  441.85
p-value of test                       :    0.39

-----------------------------------------------
CPU time used                    :  00:02:58.84

Generator state:




***********************************************************
HOST = hpcsmp01, Linux

MersenneTwiter


sknuth_Gap test:
-----------------------------------------------
   N =  1,  n = 100000000,  r =  0,   Alpha =        0,   Beta  = 0.0078125


-----------------------------------------------
Number of degrees of freedom          : 1437
Chi-square statistic                  : 1449.28
p-value of test                       :    0.40

-----------------------------------------------
CPU time used                    :  00:03:08.54

Generator state:




***********************************************************
HOST = hpcsmp01, Linux

MersenneTwiter


sknuth_Gap test:
-----------------------------------------------
   N =  1,  n = 10000000,  r = 20,   Alpha =        0,   Beta  = 0.000976562


-----------------------------------------------
Number of degrees of freedom          : 7046
Chi-square statistic                  : 6983.70
p-value of test                       :    0.70

-----------------------------------------------
CPU time used                    :  00:03:03.79

Generator state:




***********************************************************
HOST = hpcsmp01, Linux

MersenneTwiter


sknuth_Run test:
-----------------------------------------------
   N =  5,  n = 1000000000,  r =  0,   Up = FALSE


-----------------------------------------------

Kolmogorov-Smirnov+ statistic = D+    :    0.29
p-value of test                       :    0.36

Kolmogorov-Smirnov- statistic = D-    :    0.13
p-value of test                       :    0.78

Anderson-Darling statistic = A2       :    0.56
p-value of test                       :    0.68

Test on the sum of all N observations
Number of degrees of freedom          :   30
Chi-square statistic                  :   23.95
p-value of test                       :    0.77

-----------------------------------------------
CPU time used                    :  00:01:44.71

Generator state:




***********************************************************
HOST = hpcsmp01, Linux

MersenneTwiter


sknuth_Run test:
-----------------------------------------------
   N = 10,  n = 1000000000,  r = 15,   Up =  TRUE


-----------------------------------------------

Kolmogorov-Smirnov+ statistic = D+    :    0.15
p-value of test                       :    0.60

Kolmogorov-Smirnov- statistic = D-    :   0.097
p-value of test                       :    0.78

Anderson-Darling statistic = A2       :    0.42
p-value of test                       :    0.83

Test on the sum of all N observations
Number of degrees of freedom          :   60
Chi-square statistic                  :   62.33
p-value of test                       :    0.39

-----------------------------------------------
CPU time used                    :  00:04:11.34

Generator state:




***********************************************************
Test sknuth_Permutation calling smultin_Multinomial

***********************************************************
HOST = hpcsmp01, Linux

MersenneTwiter


smultin_Multinomial test:
-----------------------------------------------
   N =  1,  n = 1000000000,  r =  5,   t =  3,
       Sparse =  FALSE

       GenerCell = smultin_GenerCellPermut
       Number of cells = t! =                  6
       Expected number per cell =  1.6666667e+08
       Hashing =  FALSE

   For Delta > -1, we use the ChiSquare approximation
   Correction factor of the ChiSquare: 
       Delta =     1,    Mu =  2.5000002e-09,    Sigma =          1

-----------------------------------------------
Test Results for Delta =   1.0000

Number of degrees of freedom          :    5
Value of the statistic                :    6.31
p-value of test                       :    0.28


-----------------------------------------------
CPU time used                    :  00:01:28.30

Generator state:




***********************************************************
Test sknuth_Permutation calling smultin_Multinomial

***********************************************************
HOST = hpcsmp01, Linux

MersenneTwiter


smultin_Multinomial test:
-----------------------------------------------
   N =  1,  n = 1000000000,  r =  5,   t =  5,
       Sparse =  FALSE

       GenerCell = smultin_GenerCellPermut
       Number of cells = t! =                120
       Expected number per cell =   8333333.3
       Hashing =  FALSE

   For Delta > -1, we use the ChiSquare approximation
   Correction factor of the ChiSquare: 
       Delta =     1,    Mu =  5.9500005e-08,    Sigma =          1

-----------------------------------------------
Test Results for Delta =   1.0000

Number of degrees of freedom          :  119
Value of the statistic                :   86.83
p-value of test                       :    0.99


-----------------------------------------------
CPU time used                    :  00:02:42.50

Generator state:




***********************************************************
Test sknuth_Permutation calling smultin_Multinomial

***********************************************************
HOST = hpcsmp01, Linux

MersenneTwiter


smultin_Multinomial test:
-----------------------------------------------
   N =  1,  n = 500000000,  r =  5,   t =  7,
       Sparse =  FALSE

       GenerCell = smultin_GenerCellPermut
       Number of cells = t! =               5040
       Expected number per cell =   99206.349
       Hashing =  FALSE

   For Delta > -1, we use the ChiSquare approximation
   Correction factor of the ChiSquare: 
       Delta =     1,    Mu =  5.0390004e-06,    Sigma =          1

-----------------------------------------------
Test Results for Delta =   1.0000

Number of degrees of freedom          : 5039
Value of the statistic                : 5170.07
p-value of test                       :    0.10


-----------------------------------------------
CPU time used                    :  00:02:05.07

Generator state:




***********************************************************
Test sknuth_Permutation calling smultin_Multinomial

***********************************************************
HOST = hpcsmp01, Linux

MersenneTwiter


smultin_Multinomial test:
-----------------------------------------------
   N =  1,  n = 500000000,  r = 10,   t = 10,
       Sparse =  FALSE

       GenerCell = smultin_GenerCellPermut
       Number of cells = t! =            3628800
       Expected number per cell =    137.7866
       Hashing =  FALSE

   For Delta > -1, we use the ChiSquare approximation
   Correction factor of the ChiSquare: 
       Delta =     1,    Mu =   0.0036287993,    Sigma =          1

-----------------------------------------------
Test Results for Delta =   1.0000

Number of degrees of freedom          : 3628799
Value of the statistic                : 3.63e+6
p-value of test                       :    0.62


-----------------------------------------------
CPU time used                    :  00:04:35.90

Generator state:




***********************************************************
Test sknuth_CollisionPermut calling smultin_Multinomial

***********************************************************
HOST = hpcsmp01, Linux

MersenneTwiter


smultin_Multinomial test:
-----------------------------------------------
   N = 20,  n = 20000000,  r =  0,   t = 14,
       Sparse =   TRUE

       GenerCell = smultin_GenerCellPermut
       Number of cells = t! =        87178291200
       Expected number per cell =  1 /  4358.9146
       EColl = n^2 / (2k) =   2294.14912
       Hashing =   TRUE

       Collision test,    Mu =      2293.9736,    Sigma =    47.8841

-----------------------------------------------
Test Results for Collisions

For the total number of collisions, we use
      the Poisson approximation:
Expected number of collisions = N*Mu  :    45879.47
Observed number of collisions         :    45867
p-value of test                       :    0.52


-----------------------------
Total number of cells containing j balls

  j =  0                              :    1743165869867
  j =  1                              :        399908270
  j =  2                              :            45859
  j =  3                              :                4
  j =  4                              :                0
  j =  5                              :                0

-----------------------------------------------
CPU time used                    :  00:06:47.54

Generator state:




***********************************************************
Test sknuth_CollisionPermut calling smultin_Multinomial

***********************************************************
HOST = hpcsmp01, Linux

MersenneTwiter


smultin_Multinomial test:
-----------------------------------------------
   N = 20,  n = 20000000,  r = 10,   t = 14,
       Sparse =   TRUE

       GenerCell = smultin_GenerCellPermut
       Number of cells = t! =        87178291200
       Expected number per cell =  1 /  4358.9146
       EColl = n^2 / (2k) =   2294.14912
       Hashing =   TRUE

       Collision test,    Mu =      2293.9736,    Sigma =    47.8841

-----------------------------------------------
Test Results for Collisions

For the total number of collisions, we use
      the Poisson approximation:
Expected number of collisions = N*Mu  :    45879.47
Observed number of collisions         :    46089
p-value of test                       :    0.16


-----------------------------
Total number of cells containing j balls

  j =  0                              :    1743165870089
  j =  1                              :        399907825
  j =  2                              :            46083
  j =  3                              :                3
  j =  4                              :                0
  j =  5                              :                0

-----------------------------------------------
CPU time used                    :  00:07:05.67

Generator state:




***********************************************************
HOST = hpcsmp01, Linux

MersenneTwiter


sknuth_MaxOft test:
-----------------------------------------------
   N = 40,  n = 10000000,  r =  0,   d = 100000,   t =  8

      Number of categories = 100000
      Expected number per category  = 100.00


-----------------------------------------------
Test results for chi2 with 99999 degrees of freedom:

Kolmogorov-Smirnov+ statistic = D+    :   0.034
p-value of test                       :    0.89

Kolmogorov-Smirnov- statistic = D-    :    0.18
p-value of test                       :    0.08

Anderson-Darling statistic = A2       :    1.77
p-value of test                       :    0.12

Test on the sum of all N observations
Number of degrees of freedom          : 3999960
Chi-square statistic                  : 4.00e+6
p-value of test                       :    0.06


-----------------------------------------------
Test results for Anderson-Darling:

Kolmogorov-Smirnov+ statistic = D+    :   0.065
p-value of test                       :    0.68

Kolmogorov-Smirnov- statistic = D-    :    0.13
p-value of test                       :    0.22

Anderson-Darling statistic = A2       :    0.99
p-value of test                       :    0.36


-----------------------------------------------
CPU time used                    :  00:04:21.10

Generator state:




***********************************************************
HOST = hpcsmp01, Linux

MersenneTwiter


sknuth_MaxOft test:
-----------------------------------------------
   N = 30,  n = 10000000,  r =  0,   d = 100000,   t = 16

      Number of categories = 100000
      Expected number per category  = 100.00


-----------------------------------------------
Test results for chi2 with 99999 degrees of freedom:

Kolmogorov-Smirnov+ statistic = D+    :   0.065
p-value of test                       :    0.75

Kolmogorov-Smirnov- statistic = D-    :    0.12
p-value of test                       :    0.39

Anderson-Darling statistic = A2       :    0.92
p-value of test                       :    0.40

Test on the sum of all N observations
Number of degrees of freedom          : 2999970
Chi-square statistic                  : 3.00e+6
p-value of test                       :    0.39


-----------------------------------------------
Test results for Anderson-Darling:

Kolmogorov-Smirnov+ statistic = D+    :   0.052
p-value of test                       :    0.82

Kolmogorov-Smirnov- statistic = D-    :    0.16
p-value of test                       :    0.18

Anderson-Darling statistic = A2       :    1.88
p-value of test                       :    0.11


-----------------------------------------------
CPU time used                    :  00:03:51.11

Generator state:




***********************************************************
HOST = hpcsmp01, Linux

MersenneTwiter


sknuth_MaxOft test:
-----------------------------------------------
   N = 20,  n = 10000000,  r =  0,   d = 100000,   t = 24

      Number of categories = 100000
      Expected number per category  = 100.00


-----------------------------------------------
Test results for chi2 with 99999 degrees of freedom:

Kolmogorov-Smirnov+ statistic = D+    :   0.040
p-value of test                       :    0.92

Kolmogorov-Smirnov- statistic = D-    :    0.17
p-value of test                       :    0.30

Anderson-Darling statistic = A2       :    0.62
p-value of test                       :    0.63

Test on the sum of all N observations
Number of degrees of freedom          : 1999980
Chi-square statistic                  : 2.00e+6
p-value of test                       :    0.16


-----------------------------------------------
Test results for Anderson-Darling:

Kolmogorov-Smirnov+ statistic = D+    :    0.14
p-value of test                       :    0.43

Kolmogorov-Smirnov- statistic = D-    :    0.18
p-value of test                       :    0.24

Anderson-Darling statistic = A2       :    1.04
p-value of test                       :    0.34


-----------------------------------------------
CPU time used                    :  00:02:56.79

Generator state:




***********************************************************
HOST = hpcsmp01, Linux

MersenneTwiter


sknuth_MaxOft test:
-----------------------------------------------
   N = 20,  n = 10000000,  r =  0,   d = 100000,   t = 32

      Number of categories = 100000
      Expected number per category  = 100.00


-----------------------------------------------
Test results for chi2 with 99999 degrees of freedom:

Kolmogorov-Smirnov+ statistic = D+    :   0.072
p-value of test                       :    0.78

Kolmogorov-Smirnov- statistic = D-    :    0.14
p-value of test                       :    0.41

Anderson-Darling statistic = A2       :    0.32
p-value of test                       :    0.92

Test on the sum of all N observations
Number of degrees of freedom          : 1999980
Chi-square statistic                  : 2.00e+6
p-value of test                       :    0.37


-----------------------------------------------
Test results for Anderson-Darling:

Kolmogorov-Smirnov+ statistic = D+    :    0.14
p-value of test                       :    0.42

Kolmogorov-Smirnov- statistic = D-    :    0.11
p-value of test                       :    0.59

Anderson-Darling statistic = A2       :    0.48
p-value of test                       :    0.77


-----------------------------------------------
CPU time used                    :  00:03:25.03

Generator state:




***********************************************************
HOST = hpcsmp01, Linux

MersenneTwiter


svaria_SampleProd test:
-----------------------------------------------
   N = 40,  n = 10000000,  r =  0,   t = 8


-----------------------------------------------

Kolmogorov-Smirnov+ statistic = D+    :    0.12
p-value of test                       :    0.32

Kolmogorov-Smirnov- statistic = D-    :   0.056
p-value of test                       :    0.75

Anderson-Darling statistic = A2       :    0.58
p-value of test                       :    0.66

-----------------------------------------------
CPU time used                    :  00:03:17.84

Generator state:




***********************************************************
HOST = hpcsmp01, Linux

MersenneTwiter


svaria_SampleProd test:
-----------------------------------------------
   N = 20,  n = 10000000,  r =  0,   t = 16


-----------------------------------------------

Kolmogorov-Smirnov+ statistic = D+    :    0.18
p-value of test                       :    0.23

Kolmogorov-Smirnov- statistic = D-    :    0.14
p-value of test                       :    0.44

Anderson-Darling statistic = A2       :    0.76
p-value of test                       :    0.51

-----------------------------------------------
CPU time used                    :  00:02:18.27

Generator state:




***********************************************************
HOST = hpcsmp01, Linux

MersenneTwiter


svaria_SampleProd test:
-----------------------------------------------
   N = 20,  n = 10000000,  r =  0,   t = 24


-----------------------------------------------

Kolmogorov-Smirnov+ statistic = D+    :   0.064
p-value of test                       :    0.81

Kolmogorov-Smirnov- statistic = D-    :    0.13
p-value of test                       :    0.47

Anderson-Darling statistic = A2       :    0.42
p-value of test                       :    0.82

-----------------------------------------------
CPU time used                    :  00:02:54.54

Generator state:




***********************************************************
HOST = hpcsmp01, Linux

MersenneTwiter


svaria_SampleMean test:
-----------------------------------------------
   N = 20000000,  n = 30,  r =  0


-----------------------------------------------

Kolmogorov-Smirnov+ statistic = D+    : 1.83e-4
p-value of test                       :    0.26

Kolmogorov-Smirnov- statistic = D-    : 1.40e-4
p-value of test                       :    0.46

Anderson-Darling statistic = A2       :    0.70
p-value of test                       :    0.56

-----------------------------------------------
CPU time used                    :  00:00:40.46

Generator state:




***********************************************************
HOST = hpcsmp01, Linux

MersenneTwiter


svaria_SampleMean test:
-----------------------------------------------
   N = 20000000,  n = 30,  r = 10


-----------------------------------------------

Kolmogorov-Smirnov+ statistic = D+    : 3.23e-4
p-value of test                       :    0.02

Kolmogorov-Smirnov- statistic = D-    : 3.15e-5
p-value of test                       :    0.96

Anderson-Darling statistic = A2       :    3.70
p-value of test                       :    0.01

-----------------------------------------------
CPU time used                    :  00:00:43.65

Generator state:




***********************************************************
HOST = hpcsmp01, Linux

MersenneTwiter


svaria_SampleCorr test:
-----------------------------------------------
   N =  1,  n = 2000000000,  r =  0,   k = 1


-----------------------------------------------
Normal statistic                      :   -1.31
p-value of test                       :    0.90

-----------------------------------------------
CPU time used                    :  00:00:40.29

Generator state:




***********************************************************
HOST = hpcsmp01, Linux

MersenneTwiter


svaria_SampleCorr test:
-----------------------------------------------
   N =  1,  n = 2000000000,  r =  0,   k = 2


-----------------------------------------------
Normal statistic                      :   -0.63
p-value of test                       :    0.73

-----------------------------------------------
CPU time used                    :  00:00:40.31

Generator state:




***********************************************************
HOST = hpcsmp01, Linux

MersenneTwiter


svaria_AppearanceSpacings test:
-----------------------------------------------
   N =  1,   Q = 10000000,   K = 1000000000,   r = 0,   s = 3,   L = 15

   Sequences of n = (K + Q)L =  15150000000 bits
   Q = 10000000 initialization blocks
   K = 1000000000 blocks for the test
   the blocks have L = 15 bits



-----------------------------------------------
Normal statistic                      :   -0.49
p-value of test                       :    0.69

-----------------------------------------------
CPU time used                    :  00:02:35.67

Generator state:




***********************************************************
HOST = hpcsmp01, Linux

MersenneTwiter


svaria_AppearanceSpacings test:
-----------------------------------------------
   N =  1,   Q = 10000000,   K = 1000000000,   r = 27,   s = 3,   L = 15

   Sequences of n = (K + Q)L =  15150000000 bits
   Q = 10000000 initialization blocks
   K = 1000000000 blocks for the test
   the blocks have L = 15 bits



-----------------------------------------------
Normal statistic                      :   -1.82
p-value of test                       :    0.97

-----------------------------------------------
CPU time used                    :  00:02:42.53

Generator state:




***********************************************************
HOST = hpcsmp01, Linux

MersenneTwiter


svaria_WeightDistrib test:
-----------------------------------------------
   N =  1,  n = 20000000,  r =  0,  k = 256,  Alpha =      0,  Beta =   0.25


-----------------------------------------------
Number of degrees of freedom          :   67
Chi-square statistic                  :   95.74
p-value of test                       :    0.01

-----------------------------------------------
CPU time used                    :  00:01:15.51

Generator state:




***********************************************************
HOST = hpcsmp01, Linux

MersenneTwiter


svaria_WeightDistrib test:
-----------------------------------------------
   N =  1,  n = 20000000,  r = 20,  k = 256,  Alpha =      0,  Beta =   0.25


-----------------------------------------------
Number of degrees of freedom          :   67
Chi-square statistic                  :   80.11
p-value of test                       :    0.13

-----------------------------------------------
CPU time used                    :  00:01:35.06

Generator state:




***********************************************************
HOST = hpcsmp01, Linux

MersenneTwiter


svaria_WeightDistrib test:
-----------------------------------------------
   N =  1,  n = 20000000,  r = 28,  k = 256,  Alpha =      0,  Beta =   0.25


-----------------------------------------------
Number of degrees of freedom          :   67
Chi-square statistic                  :   74.16
p-value of test                       :    0.26

-----------------------------------------------
CPU time used                    :  00:01:35.09

Generator state:




***********************************************************
HOST = hpcsmp01, Linux

MersenneTwiter


svaria_WeightDistrib test:
-----------------------------------------------
   N =  1,  n = 20000000,  r =  0,  k = 256,  Alpha =      0,  Beta = 0.0625


-----------------------------------------------
Number of degrees of freedom          :   37
Chi-square statistic                  :   32.79
p-value of test                       :    0.67

-----------------------------------------------
CPU time used                    :  00:01:15.46

Generator state:




***********************************************************
HOST = hpcsmp01, Linux

MersenneTwiter


svaria_WeightDistrib test:
-----------------------------------------------
   N =  1,  n = 20000000,  r = 10,  k = 256,  Alpha =      0,  Beta = 0.0625


-----------------------------------------------
Number of degrees of freedom          :   37
Chi-square statistic                  :   30.48
p-value of test                       :    0.77

-----------------------------------------------
CPU time used                    :  00:01:35.12

Generator state:




***********************************************************
HOST = hpcsmp01, Linux

MersenneTwiter


svaria_WeightDistrib test:
-----------------------------------------------
   N =  1,  n = 20000000,  r = 26,  k = 256,  Alpha =      0,  Beta = 0.0625


-----------------------------------------------
Number of degrees of freedom          :   37
Chi-square statistic                  :   56.91
p-value of test                       :    0.02

-----------------------------------------------
CPU time used                    :  00:01:35.10

Generator state:




***********************************************************
HOST = hpcsmp01, Linux

MersenneTwiter


svaria_SumCollector test:
-----------------------------------------------
   N =  1,  n = 500000000,  r =  0,   g = 10


-----------------------------------------------
Number of degrees of freedom          :   29
Chi-square statistic                  :   40.35
p-value of test                       :    0.08

-----------------------------------------------
CPU time used                    :  00:02:46.03

Generator state:




***********************************************************
HOST = hpcsmp01, Linux

MersenneTwiter


smarsa_MatrixRank test:
-----------------------------------------------
   N = 10,  n = 1000000,  r =  0,    s = 5,    L = 30,    k = 30


-----------------------------------------------

Kolmogorov-Smirnov+ statistic = D+    :   0.068
p-value of test                       :    0.88

Kolmogorov-Smirnov- statistic = D-    :    0.16
p-value of test                       :    0.53

Anderson-Darling statistic = A2       :    0.23
p-value of test                       :    0.98

Test on the sum of all N observations
Number of degrees of freedom          :   40
Chi-square statistic                  :   42.81
p-value of test                       :    0.35

-----------------------------------------------
CPU time used                    :  00:01:56.93

Generator state:




***********************************************************
HOST = hpcsmp01, Linux

MersenneTwiter


smarsa_MatrixRank test:
-----------------------------------------------
   N = 10,  n = 1000000,  r = 25,    s = 5,    L = 30,    k = 30


-----------------------------------------------

Kolmogorov-Smirnov+ statistic = D+    : 2.49e-3
p-value of test                       :    0.9975

Kolmogorov-Smirnov- statistic = D-    :    0.28
p-value of test                       :    0.18

Anderson-Darling statistic = A2       :    2.22
p-value of test                       :    0.07

Test on the sum of all N observations
Number of degrees of freedom          :   40
Chi-square statistic                  :   64.60
p-value of test                       :  8.2e-3

-----------------------------------------------
CPU time used                    :  00:01:54.37

Generator state:




***********************************************************
HOST = hpcsmp01, Linux

MersenneTwiter


smarsa_MatrixRank test:
-----------------------------------------------
   N =  1,  n = 5000,  r =  0,    s = 4,    L = 1000,    k = 1000


-----------------------------------------------
Number of degrees of freedom          :    3
Chi-square statistic                  :    3.23
p-value of test                       :    0.36

-----------------------------------------------
CPU time used                    :  00:05:50.04

Generator state:




***********************************************************
HOST = hpcsmp01, Linux

MersenneTwiter


smarsa_MatrixRank test:
-----------------------------------------------
   N =  1,  n = 5000,  r = 26,    s = 4,    L = 1000,    k = 1000


-----------------------------------------------
Number of degrees of freedom          :    3
Chi-square statistic                  :    2.84
p-value of test                       :    0.42

-----------------------------------------------
CPU time used                    :  00:05:37.50

Generator state:




***********************************************************
HOST = hpcsmp01, Linux

MersenneTwiter


smarsa_MatrixRank test:
-----------------------------------------------
   N =  1,  n = 80,  r = 15,    s = 15,    L = 5000,    k = 5000


-----------------------------------------------
Number of degrees of freedom          :    2
Chi-square statistic                  :    0.66
p-value of test                       :    0.72

-----------------------------------------------
CPU time used                    :  00:19:38.93

Generator state:




***********************************************************
HOST = hpcsmp01, Linux

MersenneTwiter


smarsa_MatrixRank test:
-----------------------------------------------
   N =  1,  n = 80,  r =  0,    s = 30,    L = 5000,    k = 5000


-----------------------------------------------
Number of degrees of freedom          :    2
Chi-square statistic                  :    1.90
p-value of test                       :    0.39

-----------------------------------------------
CPU time used                    :  00:14:53.93

Generator state:




***********************************************************
HOST = hpcsmp01, Linux

MersenneTwiter


smarsa_Savir2 test:
-----------------------------------------------
   N = 10,  n = 10000000,  r = 10,    m = 1048576,    t = 30


-----------------------------------------------

Kolmogorov-Smirnov+ statistic = D+    :    0.18
p-value of test                       :    0.47

Kolmogorov-Smirnov- statistic = D-    :    0.18
p-value of test                       :    0.47

Anderson-Darling statistic = A2       :    0.87
p-value of test                       :    0.43

Test on the sum of all N observations
Number of degrees of freedom          :  130
Chi-square statistic                  :  145.52
p-value of test                       :    0.17

-----------------------------------------------
CPU time used                    :  00:00:56.47

Generator state:




***********************************************************
HOST = hpcsmp01, Linux

MersenneTwiter


smarsa_GCD test:
-----------------------------------------------
   N = 10,  n = 50000000,  r =  0,   s = 30


-----------------------------------------------
Test results for GCD values:

Kolmogorov-Smirnov+ statistic = D+    :   0.029
p-value of test                       :    0.96

Kolmogorov-Smirnov- statistic = D-    :    0.34
p-value of test                       :    0.07

Anderson-Darling statistic = A2       :    2.48
p-value of test                       :    0.05

Test on the sum of all N observations
Number of degrees of freedom          : 17430
Chi-square statistic                  :17811.00
p-value of test                       :    0.02



-----------------------------------------------
CPU time used                    :  00:02:24.38

Generator state:




***********************************************************
HOST = hpcsmp01, Linux

MersenneTwiter


swalk_RandomWalk1 test:
-----------------------------------------------
   N =  1,  n = 100000000,  r =  0,   s = 5,   L0 =   50,   L1 =   50



-----------------------------------------------
Test on the values of the Statistic H

Number of degrees of freedom          :   36
ChiSquare statistic                   :   48.04
p-value of test                       :    0.09


-----------------------------------------------
Test on the values of the Statistic M

Number of degrees of freedom          :   35
ChiSquare statistic                   :   47.68
p-value of test                       :    0.07


-----------------------------------------------
Test on the values of the Statistic J

Number of degrees of freedom          :   25
ChiSquare statistic                   :   18.41
p-value of test                       :    0.82


-----------------------------------------------
Test on the values of the Statistic R

Number of degrees of freedom          :   24
ChiSquare statistic                   :   27.34
p-value of test                       :    0.29


-----------------------------------------------
Test on the values of the Statistic C

Number of degrees of freedom          :   17
ChiSquare statistic                   :   21.74
p-value of test                       :    0.19


-----------------------------------------------
CPU time used                    :  00:01:33.27

Generator state:




***********************************************************
HOST = hpcsmp01, Linux

MersenneTwiter


swalk_RandomWalk1 test:
-----------------------------------------------
   N =  1,  n = 100000000,  r = 25,   s = 5,   L0 =   50,   L1 =   50



-----------------------------------------------
Test on the values of the Statistic H

Number of degrees of freedom          :   36
ChiSquare statistic                   :   37.42
p-value of test                       :    0.40


-----------------------------------------------
Test on the values of the Statistic M

Number of degrees of freedom          :   35
ChiSquare statistic                   :   37.94
p-value of test                       :    0.34


-----------------------------------------------
Test on the values of the Statistic J

Number of degrees of freedom          :   25
ChiSquare statistic                   :   29.04
p-value of test                       :    0.26


-----------------------------------------------
Test on the values of the Statistic R

Number of degrees of freedom          :   24
ChiSquare statistic                   :   22.18
p-value of test                       :    0.57


-----------------------------------------------
Test on the values of the Statistic C

Number of degrees of freedom          :   17
ChiSquare statistic                   :   17.79
p-value of test                       :    0.40


-----------------------------------------------
CPU time used                    :  00:01:35.70

Generator state:




***********************************************************
HOST = hpcsmp01, Linux

MersenneTwiter


swalk_RandomWalk1 test:
-----------------------------------------------
   N =  1,  n = 10000000,  r =  0,   s = 10,   L0 = 1000,   L1 = 1000



-----------------------------------------------
Test on the values of the Statistic H

Number of degrees of freedom          :  146
ChiSquare statistic                   :  182.75
p-value of test                       :    0.02


-----------------------------------------------
Test on the values of the Statistic M

Number of degrees of freedom          :  146
ChiSquare statistic                   :  141.37
p-value of test                       :    0.59


-----------------------------------------------
Test on the values of the Statistic J

Number of degrees of freedom          :  500
ChiSquare statistic                   :  475.13
p-value of test                       :    0.78


-----------------------------------------------
Test on the values of the Statistic R

Number of degrees of freedom          :  136
ChiSquare statistic                   :  129.64
p-value of test                       :    0.64


-----------------------------------------------
Test on the values of the Statistic C

Number of degrees of freedom          :   74
ChiSquare statistic                   :   85.84
p-value of test                       :    0.16


-----------------------------------------------
CPU time used                    :  00:02:31.02

Generator state:




***********************************************************
HOST = hpcsmp01, Linux

MersenneTwiter


swalk_RandomWalk1 test:
-----------------------------------------------
   N =  1,  n = 10000000,  r = 20,   s = 10,   L0 = 1000,   L1 = 1000



-----------------------------------------------
Test on the values of the Statistic H

Number of degrees of freedom          :  146
ChiSquare statistic                   :  130.99
p-value of test                       :    0.81


-----------------------------------------------
Test on the values of the Statistic M

Number of degrees of freedom          :  146
ChiSquare statistic                   :  179.44
p-value of test                       :    0.03


-----------------------------------------------
Test on the values of the Statistic J

Number of degrees of freedom          :  500
ChiSquare statistic                   :  496.52
p-value of test                       :    0.54


-----------------------------------------------
Test on the values of the Statistic R

Number of degrees of freedom          :  136
ChiSquare statistic                   :  124.00
p-value of test                       :    0.76


-----------------------------------------------
Test on the values of the Statistic C

Number of degrees of freedom          :   74
ChiSquare statistic                   :   66.77
p-value of test                       :    0.71


-----------------------------------------------
CPU time used                    :  00:02:33.15

Generator state:




***********************************************************
HOST = hpcsmp01, Linux

MersenneTwiter


swalk_RandomWalk1 test:
-----------------------------------------------
   N =  1,  n = 1000000,  r =  0,   s = 15,   L0 = 10000,   L1 = 10000



-----------------------------------------------
Test on the values of the Statistic H

Number of degrees of freedom          :  384
ChiSquare statistic                   :  357.80
p-value of test                       :    0.83


-----------------------------------------------
Test on the values of the Statistic M

Number of degrees of freedom          :  384
ChiSquare statistic                   :  367.94
p-value of test                       :    0.71


-----------------------------------------------
Test on the values of the Statistic J

Number of degrees of freedom          : 5000
ChiSquare statistic                   : 4968.92
p-value of test                       :    0.62


-----------------------------------------------
Test on the values of the Statistic R

Number of degrees of freedom          :  378
ChiSquare statistic                   :  435.28
p-value of test                       :    0.02


-----------------------------------------------
Test on the values of the Statistic C

Number of degrees of freedom          :  200
ChiSquare statistic                   :  212.33
p-value of test                       :    0.26


-----------------------------------------------
CPU time used                    :  00:02:19.13

Generator state:




***********************************************************
HOST = hpcsmp01, Linux

MersenneTwiter


swalk_RandomWalk1 test:
-----------------------------------------------
   N =  1,  n = 1000000,  r = 15,   s = 15,   L0 = 10000,   L1 = 10000



-----------------------------------------------
Test on the values of the Statistic H

Number of degrees of freedom          :  384
ChiSquare statistic                   :  382.11
p-value of test                       :    0.52


-----------------------------------------------
Test on the values of the Statistic M

Number of degrees of freedom          :  384
ChiSquare statistic                   :  392.49
p-value of test                       :    0.37


-----------------------------------------------
Test on the values of the Statistic J

Number of degrees of freedom          : 5000
ChiSquare statistic                   : 5096.71
p-value of test                       :    0.17


-----------------------------------------------
Test on the values of the Statistic R

Number of degrees of freedom          :  378
ChiSquare statistic                   :  342.66
p-value of test                       :    0.90


-----------------------------------------------
Test on the values of the Statistic C

Number of degrees of freedom          :  200
ChiSquare statistic                   :  215.85
p-value of test                       :    0.21


-----------------------------------------------
CPU time used                    :  00:02:07.41

Generator state:




***********************************************************
HOST = hpcsmp01, Linux

MersenneTwiter


scomp_LinearComp test:
-----------------------------------------------
   N =  1,  n = 400020,  r =  0,    s = 1



-----------------------------------------------
Number of degrees of freedom          :   12
Chi2 statistic for size of jumps      :   13.35
p-value of test                       :    0.34


-----------------------------------------------
Normal statistic for number of jumps  : -402.35
p-value of test                       : 1 - eps1    *****



-----------------------------------------------
CPU time used                    :  00:00:09.59

Generator state:




***********************************************************
HOST = hpcsmp01, Linux

MersenneTwiter


scomp_LinearComp test:
-----------------------------------------------
   N =  1,  n = 400020,  r = 29,    s = 1



-----------------------------------------------
Number of degrees of freedom          :   12
Chi2 statistic for size of jumps      :   13.06
p-value of test                       :    0.36


-----------------------------------------------
Normal statistic for number of jumps  : -402.14
p-value of test                       : 1 - eps1    *****



-----------------------------------------------
CPU time used                    :  00:00:09.36

Generator state:




***********************************************************
HOST = hpcsmp01, Linux

MersenneTwiter


scomp_LempelZiv test:
-----------------------------------------------
   N = 10,  n = 134217728,  r =  0,   s =   30,   k =   27


-----------------------------------------------

Kolmogorov-Smirnov+ statistic = D+    :    0.35
p-value of test                       :    0.07

Kolmogorov-Smirnov- statistic = D-    :   0.028
p-value of test                       :    0.96

Anderson-Darling statistic = A2       :    1.01
p-value of test                       :    0.35

Tests on the sum of all N observations
Standardized normal statistic         :   -1.20
p-value of test                       :    0.88

Sample variance                       :    1.09
p-value of test                       :    0.36

-----------------------------------------------
CPU time used                    :  00:02:12.41

Generator state:




***********************************************************
HOST = hpcsmp01, Linux

MersenneTwiter


scomp_LempelZiv test:
-----------------------------------------------
   N = 10,  n = 134217728,  r = 15,   s =   15,   k =   27


-----------------------------------------------

Kolmogorov-Smirnov+ statistic = D+    :    0.22
p-value of test                       :    0.32

Kolmogorov-Smirnov- statistic = D-    :    0.21
p-value of test                       :    0.37

Anderson-Darling statistic = A2       :    0.65
p-value of test                       :    0.60

Tests on the sum of all N observations
Standardized normal statistic         :   -0.15
p-value of test                       :    0.56

Sample variance                       :    1.49
p-value of test                       :    0.14

-----------------------------------------------
CPU time used                    :  00:02:05.65

Generator state:




***********************************************************
HOST = hpcsmp01, Linux

MersenneTwiter


sspectral_Fourier3 test:
-----------------------------------------------
   N = 100000,  n = 16384,  r =  0,   s =    3,   k =   14


-----------------------------------------------

Kolmogorov-Smirnov+ statistic = D+    :   0.015
p-value of test                       :    0.15

Kolmogorov-Smirnov- statistic = D-    :   0.019
p-value of test                       :    0.05

Anderson-Darling statistic = A2       :    2.11
p-value of test                       :    0.08

-----------------------------------------------
CPU time used                    :  00:01:22.70

Generator state:




***********************************************************
HOST = hpcsmp01, Linux

MersenneTwiter


sspectral_Fourier3 test:
-----------------------------------------------
   N = 100000,  n = 16384,  r = 27,   s =    3,   k =   14


-----------------------------------------------

Kolmogorov-Smirnov+ statistic = D+    : 9.89e-3
p-value of test                       :    0.45

Kolmogorov-Smirnov- statistic = D-    : 4.62e-3
p-value of test                       :    0.84

Anderson-Darling statistic = A2       :    0.45
p-value of test                       :    0.80

-----------------------------------------------
CPU time used                    :  00:01:04.79

Generator state:




***********************************************************
HOST = hpcsmp01, Linux

MersenneTwiter


sstring_LongestHeadRun test:
-----------------------------------------------
   N =  1,  n = 1000,  r =  0,   s = 3,   L = 10000020


-----------------------------------------------
Number of degrees of freedom          :    8
Chi-square statistic                  :    4.98
p-value of test                       :    0.76

-----------------------------------------------
Global longest run of 1               :   33.00
p-value of test                       :    0.44



-----------------------------------------------
CPU time used                    :  00:02:09.36

Generator state:




***********************************************************
HOST = hpcsmp01, Linux

MersenneTwiter


sstring_LongestHeadRun test:
-----------------------------------------------
   N =  1,  n = 1000,  r = 27,   s = 3,   L = 10000020


-----------------------------------------------
Number of degrees of freedom          :    8
Chi-square statistic                  :    3.91
p-value of test                       :    0.86

-----------------------------------------------
Global longest run of 1               :   32.00
p-value of test                       :    0.50



-----------------------------------------------
CPU time used                    :  00:02:19.27

Generator state:




***********************************************************
HOST = hpcsmp01, Linux

MersenneTwiter


sstring_PeriodsInStrings test:
-----------------------------------------------
   N = 10,  n = 500000000,  r =  0,   s =   10


-----------------------------------------------

Kolmogorov-Smirnov+ statistic = D+    :    0.22
p-value of test                       :    0.33

Kolmogorov-Smirnov- statistic = D-    :    0.12
p-value of test                       :    0.68

Anderson-Darling statistic = A2       :    0.58
p-value of test                       :    0.66

Test on the sum of all N observations
Number of degrees of freedom          :  200
Chi-square statistic                  :  189.15
p-value of test                       :    0.70

-----------------------------------------------
CPU time used                    :  00:03:57.91

Generator state:




***********************************************************
HOST = hpcsmp01, Linux

MersenneTwiter


sstring_PeriodsInStrings test:
-----------------------------------------------
   N = 10,  n = 500000000,  r = 20,   s =   10


-----------------------------------------------

Kolmogorov-Smirnov+ statistic = D+    :    0.12
p-value of test                       :    0.70

Kolmogorov-Smirnov- statistic = D-    :    0.17
p-value of test                       :    0.52

Anderson-Darling statistic = A2       :    0.59
p-value of test                       :    0.65

Test on the sum of all N observations
Number of degrees of freedom          :  200
Chi-square statistic                  :  220.58
p-value of test                       :    0.15

-----------------------------------------------
CPU time used                    :  00:04:10.15

Generator state:




***********************************************************
HOST = hpcsmp01, Linux

MersenneTwiter


sstring_HammingWeight2 test:
-----------------------------------------------
   N = 10,  n = 1000000000,  r =  0,   s = 3,   L = 1000000


-----------------------------------------------

Kolmogorov-Smirnov+ statistic = D+    :    0.11
p-value of test                       :    0.72

Kolmogorov-Smirnov- statistic = D-    :    0.18
p-value of test                       :    0.45

Anderson-Darling statistic = A2       :    0.63
p-value of test                       :    0.62

Test on the sum of all N observations
Number of degrees of freedom          : 10000
Chi-square statistic                  :10091.75
p-value of test                       :    0.26

-----------------------------------------------
CPU time used                    :  00:01:21.38

Generator state:




***********************************************************
HOST = hpcsmp01, Linux

MersenneTwiter


sstring_HammingWeight2 test:
-----------------------------------------------
   N = 10,  n = 1000000000,  r = 27,   s = 3,   L = 1000000


-----------------------------------------------

Kolmogorov-Smirnov+ statistic = D+    :   0.012
p-value of test                       :    0.99

Kolmogorov-Smirnov- statistic = D-    :    0.20
p-value of test                       :    0.41

Anderson-Darling statistic = A2       :    1.09
p-value of test                       :    0.31

Test on the sum of all N observations
Number of degrees of freedom          : 10000
Chi-square statistic                  :10205.85
p-value of test                       :    0.07

-----------------------------------------------
CPU time used                    :  00:01:29.63

Generator state:




***********************************************************
HOST = hpcsmp01, Linux

MersenneTwiter


sstring_HammingCorr test:
-----------------------------------------------
   N =  1,  n = 1000000000,  r = 10,   s = 10,   L = 30



-----------------------------------------------
Normal statistic                      :   -0.73
p-value of test                       :    0.77

-----------------------------------------------
CPU time used                    :  00:01:48.88

Generator state:




***********************************************************
HOST = hpcsmp01, Linux

MersenneTwiter


sstring_HammingCorr test:
-----------------------------------------------
   N =  1,  n = 100000000,  r = 10,   s = 10,   L = 300



-----------------------------------------------
Normal statistic                      :    0.30
p-value of test                       :    0.38

-----------------------------------------------
CPU time used                    :  00:01:41.09

Generator state:




***********************************************************
HOST = hpcsmp01, Linux

MersenneTwiter


sstring_HammingCorr test:
-----------------------------------------------
   N =  1,  n = 100000000,  r = 10,   s = 10,   L = 1200



-----------------------------------------------
Normal statistic                      :   -0.38
p-value of test                       :    0.65

-----------------------------------------------
CPU time used                    :  00:06:41.20

Generator state:




***********************************************************
HOST = hpcsmp01, Linux

MersenneTwiter


sstring_HammingIndep test:
-----------------------------------------------
   N = 10,  n = 30000000,  r =  0,   s = 3,   L = 30,   d = 0



Counters with expected numbers >= 10
-----------------------------------------------

Kolmogorov-Smirnov+ statistic = D+    :    0.28
p-value of test                       :    0.18

Kolmogorov-Smirnov- statistic = D-    :   0.053
p-value of test                       :    0.91

Anderson-Darling statistic = A2       :    1.23
p-value of test                       :    0.26

Test on the sum of all N observations
Number of degrees of freedom          : 4890
Chi-square statistic                  : 4756.27
p-value of test                       :    0.91

-----------------------------------------------
CPU time used                    :  00:02:43.75

Generator state:




***********************************************************
HOST = hpcsmp01, Linux

MersenneTwiter


sstring_HammingIndep test:
-----------------------------------------------
   N = 10,  n = 30000000,  r = 27,   s = 3,   L = 30,   d = 0



Counters with expected numbers >= 10
-----------------------------------------------

Kolmogorov-Smirnov+ statistic = D+    :   0.012
p-value of test                       :    0.99

Kolmogorov-Smirnov- statistic = D-    :    0.33
p-value of test                       :    0.09

Anderson-Darling statistic = A2       :    2.21
p-value of test                       :    0.07

Test on the sum of all N observations
Number of degrees of freedom          : 4890
Chi-square statistic                  : 5097.73
p-value of test                       :    0.02

-----------------------------------------------
CPU time used                    :  00:02:59.97

Generator state:




***********************************************************
HOST = hpcsmp01, Linux

MersenneTwiter


sstring_HammingIndep test:
-----------------------------------------------
   N =  1,  n = 30000000,  r =  0,   s = 4,   L = 300,   d = 0



Counters with expected numbers >= 10
-----------------------------------------------
Number of degrees of freedom          : 4117
Chi-square statistic                  : 4201.31
p-value of test                       :    0.18

-----------------------------------------------
CPU time used                    :  00:02:00.02

Generator state:




***********************************************************
HOST = hpcsmp01, Linux

MersenneTwiter


sstring_HammingIndep test:
-----------------------------------------------
   N =  1,  n = 30000000,  r = 26,   s = 4,   L = 300,   d = 0



Counters with expected numbers >= 10
-----------------------------------------------
Number of degrees of freedom          : 4117
Chi-square statistic                  : 4095.21
p-value of test                       :    0.59

-----------------------------------------------
CPU time used                    :  00:02:13.20

Generator state:




***********************************************************
HOST = hpcsmp01, Linux

MersenneTwiter


sstring_HammingIndep test:
-----------------------------------------------
   N =  1,  n = 10000000,  r =  0,   s = 5,   L = 1200,   d = 0



Counters with expected numbers >= 10
-----------------------------------------------
Number of degrees of freedom          : 11825
Chi-square statistic                  :11846.67
p-value of test                       :    0.44

-----------------------------------------------
CPU time used                    :  00:02:11.58

Generator state:




***********************************************************
HOST = hpcsmp01, Linux

MersenneTwiter


sstring_HammingIndep test:
-----------------------------------------------
   N =  1,  n = 10000000,  r = 25,   s = 5,   L = 1200,   d = 0



Counters with expected numbers >= 10
-----------------------------------------------
Number of degrees of freedom          : 11825
Chi-square statistic                  :11646.73
p-value of test                       :    0.88

-----------------------------------------------
CPU time used                    :  00:02:25.34

Generator state:




***********************************************************
HOST = hpcsmp01, Linux

MersenneTwiter


sstring_Run test:
-----------------------------------------------
   N =  1,  n = 2000000000,  r =  0,   s =    3


-----------------------------------------------
Total number of 1 runs:  2000000000

Number of degrees of freedom          :   54
Chi2 statistic for number of runs     :   61.56
p-value of test                       :    0.22


-----------------------------------------------
Total number of bits:  8000048805

Normal statistic for number of bits   :    0.39
p-value of test                       :    0.35



-----------------------------------------------
CPU time used                    :  00:01:47.79

Generator state:




***********************************************************
HOST = hpcsmp01, Linux

MersenneTwiter


sstring_Run test:
-----------------------------------------------
   N =  1,  n = 2000000000,  r = 27,   s =    3


-----------------------------------------------
Total number of 1 runs:  2000000000

Number of degrees of freedom          :   54
Chi2 statistic for number of runs     :   52.72
p-value of test                       :    0.52


-----------------------------------------------
Total number of bits:  7999988823

Normal statistic for number of bits   :  -0.088
p-value of test                       :    0.54



-----------------------------------------------
CPU time used                    :  00:01:56.11

Generator state:




***********************************************************
HOST = hpcsmp01, Linux

MersenneTwiter


sstring_AutoCor test:
-----------------------------------------------
   N = 10,  n = 1000000030,  r =  0,   s = 3,   d = 1


-----------------------------------------------

Kolmogorov-Smirnov+ statistic = D+    :    0.24
p-value of test                       :    0.28

Kolmogorov-Smirnov- statistic = D-    :    0.18
p-value of test                       :    0.47

Anderson-Darling statistic = A2       :    1.08
p-value of test                       :    0.31

Tests on the sum of all N observations
Standardized normal statistic         :   -1.01
p-value of test                       :    0.84

Sample variance                       :    1.78
p-value of test                       :    0.07

-----------------------------------------------
CPU time used                    :  00:03:51.52

Generator state:




***********************************************************
HOST = hpcsmp01, Linux

MersenneTwiter


sstring_AutoCor test:
-----------------------------------------------
   N = 10,  n = 1000000029,  r =  0,   s = 3,   d = 3


-----------------------------------------------

Kolmogorov-Smirnov+ statistic = D+    :    0.16
p-value of test                       :    0.54

Kolmogorov-Smirnov- statistic = D-    :    0.17
p-value of test                       :    0.49

Anderson-Darling statistic = A2       :    0.45
p-value of test                       :    0.79

Tests on the sum of all N observations
Standardized normal statistic         :  -0.061
p-value of test                       :    0.52

Sample variance                       :    0.62
p-value of test                       :    0.78

-----------------------------------------------
CPU time used                    :  00:03:34.88

Generator state:




***********************************************************
HOST = hpcsmp01, Linux

MersenneTwiter


sstring_AutoCor test:
-----------------------------------------------
   N = 10,  n = 1000000030,  r = 27,   s = 3,   d = 1


-----------------------------------------------

Kolmogorov-Smirnov+ statistic = D+    :    0.16
p-value of test                       :    0.53

Kolmogorov-Smirnov- statistic = D-    :   0.095
p-value of test                       :    0.78

Anderson-Darling statistic = A2       :    0.44
p-value of test                       :    0.80

Tests on the sum of all N observations
Standardized normal statistic         :   -0.57
p-value of test                       :    0.71

Sample variance                       :    1.31
p-value of test                       :    0.23

-----------------------------------------------
CPU time used                    :  00:03:18.86

Generator state:




***********************************************************
HOST = hpcsmp01, Linux

MersenneTwiter


sstring_AutoCor test:
-----------------------------------------------
   N = 10,  n = 1000000029,  r = 27,   s = 3,   d = 3


-----------------------------------------------

Kolmogorov-Smirnov+ statistic = D+    :    0.12
p-value of test                       :    0.69

Kolmogorov-Smirnov- statistic = D-    :    0.31
p-value of test                       :    0.11

Anderson-Darling statistic = A2       :    0.73
p-value of test                       :    0.53

Tests on the sum of all N observations
Standardized normal statistic         :    0.69
p-value of test                       :    0.24

Sample variance                       :    0.74
p-value of test                       :    0.67

-----------------------------------------------
CPU time used                    :  00:02:33.72

Generator state:





========= Summary results of BigCrush =========

 Version:          TestU01 1.2.3
 Generator:        MersenneTwiter
 Number of statistics:  160
 Total CPU time:   06:32:39.86
 The following tests gave p-values outside [0.001, 0.9990]:
 (eps  means a value < 1.0e-300):
 (eps1 means a value < 1.0e-15):

       Test                          p-value
 ----------------------------------------------
 11  CollisionOver, t = 21           0.9998 
 80  LinearComp, r = 0              1 - eps1
 81  LinearComp, r = 29             1 - eps1
 ----------------------------------------------
 All other tests were passed



