xxxxxxxxxxxxxxxxxxxxxxxxxxxxxxxxxxxxxxxxxxxxxxxxxxxxxxxxxxx
                 Starting BigCrush
                 Version: TestU01 1.2.3
xxxxxxxxxxxxxxxxxxxxxxxxxxxxxxxxxxxxxxxxxxxxxxxxxxxxxxxxxxx


***********************************************************
Test smarsa_SerialOver calling smultin_MultinomialOver

***********************************************************
HOST = node36.local.isima.fr, Linux

MersenneTwiter


smultin_MultinomialOver test:
-----------------------------------------------
   N =  1,  n = 1000000000,  r =  0,   d =  256,   t =  3,
       Sparse =  FALSE

       GenerCell = smultin_GenerCellSerial
       Number of cells = d^t =           16777216
       Expected number per cell =   59.604645
       Hashing =  FALSE

   For Delta > -1, we use the ChiSquare approximation
   Correction factor of the ChiSquare: 
       Delta =     1,    Mu =   0.0083558402,    Sigma =          1

-----------------------------------------------
Test Results for Delta =   1.0000

Number of degrees of freedom          : 16711680
Value of the statistic                : 1.67e+7
p-value of test                       :    0.10


-----------------------------------------------
CPU time used                    :  00:01:05.65

Generator state:




***********************************************************
Test smarsa_SerialOver calling smultin_MultinomialOver

***********************************************************
HOST = node36.local.isima.fr, Linux

MersenneTwiter


smultin_MultinomialOver test:
-----------------------------------------------
   N =  1,  n = 1000000000,  r = 22,   d =  256,   t =  3,
       Sparse =  FALSE

       GenerCell = smultin_GenerCellSerial
       Number of cells = d^t =           16777216
       Expected number per cell =   59.604645
       Hashing =  FALSE

   For Delta > -1, we use the ChiSquare approximation
   Correction factor of the ChiSquare: 
       Delta =     1,    Mu =   0.0083558402,    Sigma =          1

-----------------------------------------------
Test Results for Delta =   1.0000

Number of degrees of freedom          : 16711680
Value of the statistic                : 1.67e+7
p-value of test                       :    0.32


-----------------------------------------------
CPU time used                    :  00:01:08.49

Generator state:




***********************************************************
Test smarsa_CollisionOver calling smultin_MultinomialOver

***********************************************************
HOST = node36.local.isima.fr, Linux

MersenneTwiter


smultin_MultinomialOver test:
-----------------------------------------------
   N = 30,  n = 20000000,  r =  0,   d = 2097152,   t =  2,
       Sparse =   TRUE

       GenerCell = smultin_GenerCellSerial
       Number of cells = d^t =      4398046511104
       Expected number per cell =  1 /  219902.33
       EColl = n^2 / (2k) =  45.47473509
       Hashing =   TRUE

       Collision test

       CollisionOver:   density = n / k =  1 /  219902.33
       Expected number of collisions = Mu =      45.47


-----------------------------------------------
Results of CollisionOver test:

POISSON approximation                 :
Expected number of collisions = N*Mu  :     1364.24
Observed number of collisions         :     1383
p-value of test                       :    0.31

-----------------------------
Total number of cells containing j balls

  j =  0                              :  131940795334503
  j =  1                              :        599997234
  j =  2                              :             1383
  j =  3                              :                0
  j =  4                              :                0
  j =  5                              :                0

-----------------------------------------------
CPU time used                    :  00:04:01.05

Generator state:




***********************************************************
Test smarsa_CollisionOver calling smultin_MultinomialOver

***********************************************************
HOST = node36.local.isima.fr, Linux

MersenneTwiter


smultin_MultinomialOver test:
-----------------------------------------------
   N = 30,  n = 20000000,  r =  9,   d = 2097152,   t =  2,
       Sparse =   TRUE

       GenerCell = smultin_GenerCellSerial
       Number of cells = d^t =      4398046511104
       Expected number per cell =  1 /  219902.33
       EColl = n^2 / (2k) =  45.47473509
       Hashing =   TRUE

       Collision test

       CollisionOver:   density = n / k =  1 /  219902.33
       Expected number of collisions = Mu =      45.47


-----------------------------------------------
Results of CollisionOver test:

POISSON approximation                 :
Expected number of collisions = N*Mu  :     1364.24
Observed number of collisions         :     1400
p-value of test                       :    0.17

-----------------------------
Total number of cells containing j balls

  j =  0                              :  131940795334520
  j =  1                              :        599997200
  j =  2                              :             1400
  j =  3                              :                0
  j =  4                              :                0
  j =  5                              :                0

-----------------------------------------------
CPU time used                    :  00:04:11.22

Generator state:




***********************************************************
Test smarsa_CollisionOver calling smultin_MultinomialOver

***********************************************************
HOST = node36.local.isima.fr, Linux

MersenneTwiter


smultin_MultinomialOver test:
-----------------------------------------------
   N = 30,  n = 20000000,  r =  0,   d = 16384,   t =  3,
       Sparse =   TRUE

       GenerCell = smultin_GenerCellSerial
       Number of cells = d^t =      4398046511104
       Expected number per cell =  1 /  219902.33
       EColl = n^2 / (2k) =  45.47473509
       Hashing =   TRUE

       Collision test

       CollisionOver:   density = n / k =  1 /  219902.33
       Expected number of collisions = Mu =      45.47


-----------------------------------------------
Results of CollisionOver test:

POISSON approximation                 :
Expected number of collisions = N*Mu  :     1364.24
Observed number of collisions         :     1384
p-value of test                       :    0.30

-----------------------------
Total number of cells containing j balls

  j =  0                              :  131940795334504
  j =  1                              :        599997232
  j =  2                              :             1384
  j =  3                              :                0
  j =  4                              :                0
  j =  5                              :                0

-----------------------------------------------
CPU time used                    :  00:05:04.92

Generator state:




***********************************************************
Test smarsa_CollisionOver calling smultin_MultinomialOver

***********************************************************
HOST = node36.local.isima.fr, Linux

MersenneTwiter


smultin_MultinomialOver test:
-----------------------------------------------
   N = 30,  n = 20000000,  r = 16,   d = 16384,   t =  3,
       Sparse =   TRUE

       GenerCell = smultin_GenerCellSerial
       Number of cells = d^t =      4398046511104
       Expected number per cell =  1 /  219902.33
       EColl = n^2 / (2k) =  45.47473509
       Hashing =   TRUE

       Collision test

       CollisionOver:   density = n / k =  1 /  219902.33
       Expected number of collisions = Mu =      45.47


-----------------------------------------------
Results of CollisionOver test:

POISSON approximation                 :
Expected number of collisions = N*Mu  :     1364.24
Observed number of collisions         :     1372
p-value of test                       :    0.42

-----------------------------
Total number of cells containing j balls

  j =  0                              :  131940795334492
  j =  1                              :        599997256
  j =  2                              :             1372
  j =  3                              :                0
  j =  4                              :                0
  j =  5                              :                0

-----------------------------------------------
CPU time used                    :  00:05:31.16

Generator state:




***********************************************************
Test smarsa_CollisionOver calling smultin_MultinomialOver

***********************************************************
HOST = node36.local.isima.fr, Linux

MersenneTwiter


smultin_MultinomialOver test:
-----------------------------------------------
   N = 30,  n = 20000000,  r =  0,   d =   64,   t =  7,
       Sparse =   TRUE

       GenerCell = smultin_GenerCellSerial
       Number of cells = d^t =      4398046511104
       Expected number per cell =  1 /  219902.33
       EColl = n^2 / (2k) =  45.47473509
       Hashing =   TRUE

       Collision test

       CollisionOver:   density = n / k =  1 /  219902.33
       Expected number of collisions = Mu =      45.47


-----------------------------------------------
Results of CollisionOver test:

POISSON approximation                 :
Expected number of collisions = N*Mu  :     1364.24
Observed number of collisions         :     1303
p-value of test                       :    0.95

-----------------------------
Total number of cells containing j balls

  j =  0                              :  131940795334423
  j =  1                              :        599997394
  j =  2                              :             1303
  j =  3                              :                0
  j =  4                              :                0
  j =  5                              :                0

-----------------------------------------------
CPU time used                    :  00:06:01.29

Generator state:




***********************************************************
Test smarsa_CollisionOver calling smultin_MultinomialOver

***********************************************************
HOST = node36.local.isima.fr, Linux

MersenneTwiter


smultin_MultinomialOver test:
-----------------------------------------------
   N = 30,  n = 20000000,  r = 24,   d =   64,   t =  7,
       Sparse =   TRUE

       GenerCell = smultin_GenerCellSerial
       Number of cells = d^t =      4398046511104
       Expected number per cell =  1 /  219902.33
       EColl = n^2 / (2k) =  45.47473509
       Hashing =   TRUE

       Collision test

       CollisionOver:   density = n / k =  1 /  219902.33
       Expected number of collisions = Mu =      45.47


-----------------------------------------------
Results of CollisionOver test:

POISSON approximation                 :
Expected number of collisions = N*Mu  :     1364.24
Observed number of collisions         :     1303
p-value of test                       :    0.95

-----------------------------
Total number of cells containing j balls

  j =  0                              :  131940795334423
  j =  1                              :        599997394
  j =  2                              :             1303
  j =  3                              :                0
  j =  4                              :                0
  j =  5                              :                0

-----------------------------------------------
CPU time used                    :  00:05:34.60

Generator state:




***********************************************************
Test smarsa_CollisionOver calling smultin_MultinomialOver

***********************************************************
HOST = node36.local.isima.fr, Linux

MersenneTwiter


smultin_MultinomialOver test:
-----------------------------------------------
   N = 30,  n = 20000000,  r =  0,   d =    8,   t = 14,
       Sparse =   TRUE

       GenerCell = smultin_GenerCellSerial
       Number of cells = d^t =      4398046511104
       Expected number per cell =  1 /  219902.33
       EColl = n^2 / (2k) =  45.47473509
       Hashing =   TRUE

       Collision test

       CollisionOver:   density = n / k =  1 /  219902.33
       Expected number of collisions = Mu =      45.47


-----------------------------------------------
Results of CollisionOver test:

POISSON approximation                 :
Expected number of collisions = N*Mu  :     1364.24
Observed number of collisions         :     1375
p-value of test                       :    0.39

-----------------------------
Total number of cells containing j balls

  j =  0                              :  131940795334495
  j =  1                              :        599997250
  j =  2                              :             1375
  j =  3                              :                0
  j =  4                              :                0
  j =  5                              :                0

-----------------------------------------------
CPU time used                    :  00:05:08.69

Generator state:




***********************************************************
Test smarsa_CollisionOver calling smultin_MultinomialOver

***********************************************************
HOST = node36.local.isima.fr, Linux

MersenneTwiter


smultin_MultinomialOver test:
-----------------------------------------------
   N = 30,  n = 20000000,  r = 27,   d =    8,   t = 14,
       Sparse =   TRUE

       GenerCell = smultin_GenerCellSerial
       Number of cells = d^t =      4398046511104
       Expected number per cell =  1 /  219902.33
       EColl = n^2 / (2k) =  45.47473509
       Hashing =   TRUE

       Collision test

       CollisionOver:   density = n / k =  1 /  219902.33
       Expected number of collisions = Mu =      45.47


-----------------------------------------------
Results of CollisionOver test:

POISSON approximation                 :
Expected number of collisions = N*Mu  :     1364.24
Observed number of collisions         :     1410
p-value of test                       :    0.11

-----------------------------
Total number of cells containing j balls

  j =  0                              :  131940795334530
  j =  1                              :        599997180
  j =  2                              :             1410
  j =  3                              :                0
  j =  4                              :                0
  j =  5                              :                0

-----------------------------------------------
CPU time used                    :  00:05:30.21

Generator state:




***********************************************************
Test smarsa_CollisionOver calling smultin_MultinomialOver

***********************************************************
HOST = node36.local.isima.fr, Linux

MersenneTwiter


smultin_MultinomialOver test:
-----------------------------------------------
   N = 30,  n = 20000000,  r =  0,   d =    4,   t = 21,
       Sparse =   TRUE

       GenerCell = smultin_GenerCellSerial
       Number of cells = d^t =      4398046511104
       Expected number per cell =  1 /  219902.33
       EColl = n^2 / (2k) =  45.47473509
       Hashing =   TRUE

       Collision test

       CollisionOver:   density = n / k =  1 /  219902.33
       Expected number of collisions = Mu =      45.47


-----------------------------------------------
Results of CollisionOver test:

POISSON approximation                 :
Expected number of collisions = N*Mu  :     1364.24
Observed number of collisions         :     1337
p-value of test                       :    0.76

-----------------------------
Total number of cells containing j balls

  j =  0                              :  131940795334457
  j =  1                              :        599997326
  j =  2                              :             1337
  j =  3                              :                0
  j =  4                              :                0
  j =  5                              :                0

-----------------------------------------------
CPU time used                    :  00:05:06.21

Generator state:




***********************************************************
Test smarsa_CollisionOver calling smultin_MultinomialOver

***********************************************************
HOST = node36.local.isima.fr, Linux

MersenneTwiter


smultin_MultinomialOver test:
-----------------------------------------------
   N = 30,  n = 20000000,  r = 28,   d =    4,   t = 21,
       Sparse =   TRUE

       GenerCell = smultin_GenerCellSerial
       Number of cells = d^t =      4398046511104
       Expected number per cell =  1 /  219902.33
       EColl = n^2 / (2k) =  45.47473509
       Hashing =   TRUE

       Collision test

       CollisionOver:   density = n / k =  1 /  219902.33
       Expected number of collisions = Mu =      45.47


-----------------------------------------------
Results of CollisionOver test:

POISSON approximation                 :
Expected number of collisions = N*Mu  :     1364.24
Observed number of collisions         :     1307
p-value of test                       :    0.94

-----------------------------
Total number of cells containing j balls

  j =  0                              :  131940795334427
  j =  1                              :        599997386
  j =  2                              :             1307
  j =  3                              :                0
  j =  4                              :                0
  j =  5                              :                0

-----------------------------------------------
CPU time used                    :  00:05:29.84

Generator state:




***********************************************************
HOST = node36.local.isima.fr, Linux

MersenneTwiter


smarsa_BirthdaySpacings test:
-----------------------------------------------
   N = 100,  n = 10000000,  r =  0,    d = 2147483648,    t = 2,    p = 1


      Number of cells = d^t = 4611686018427387904
      Lambda = Poisson mean =      54.2101


----------------------------------------------------
Total expected number = N*Lambda      :    5421.01
Total observed number                 :    5391
p-value of test                       :    0.66


-----------------------------------------------
CPU time used                    :  00:03:25.84

Generator state:




***********************************************************
HOST = node36.local.isima.fr, Linux

MersenneTwiter


smarsa_BirthdaySpacings test:
-----------------------------------------------
   N = 20,  n = 20000000,  r =  0,    d = 2097152,    t = 3,    p = 1


      Number of cells = d^t = 9223372036854775808
      Lambda = Poisson mean =     216.8404


----------------------------------------------------
Total expected number = N*Lambda      :    4336.81
Total observed number                 :    4336
p-value of test                       :    0.50


-----------------------------------------------
CPU time used                    :  00:01:27.11

Generator state:




***********************************************************
HOST = node36.local.isima.fr, Linux

MersenneTwiter


smarsa_BirthdaySpacings test:
-----------------------------------------------
   N = 20,  n = 30000000,  r = 14,    d = 65536,    t = 4,    p = 1


      Number of cells = d^t = 18446744073709551616
      Lambda = Poisson mean =     365.9182


----------------------------------------------------
Total expected number = N*Lambda      :    7318.36
Total observed number                 :    7282
p-value of test                       :    0.66


-----------------------------------------------
CPU time used                    :  00:02:20.42

Generator state:




***********************************************************
HOST = node36.local.isima.fr, Linux

MersenneTwiter


smarsa_BirthdaySpacings test:
-----------------------------------------------
   N = 20,  n = 20000000,  r =  0,    d = 512,    t = 7,    p = 1


      Number of cells = d^t = 9223372036854775808
      Lambda = Poisson mean =     216.8404


----------------------------------------------------
Total expected number = N*Lambda      :    4336.81
Total observed number                 :    4401
p-value of test                       :    0.17


-----------------------------------------------
CPU time used                    :  00:01:37.03

Generator state:




***********************************************************
HOST = node36.local.isima.fr, Linux

MersenneTwiter


smarsa_BirthdaySpacings test:
-----------------------------------------------
   N = 20,  n = 20000000,  r =  7,    d = 512,    t = 7,    p = 1


      Number of cells = d^t = 9223372036854775808
      Lambda = Poisson mean =     216.8404


----------------------------------------------------
Total expected number = N*Lambda      :    4336.81
Total observed number                 :    4418
p-value of test                       :    0.11


-----------------------------------------------
CPU time used                    :  00:01:41.76

Generator state:




***********************************************************
HOST = node36.local.isima.fr, Linux

MersenneTwiter


smarsa_BirthdaySpacings test:
-----------------------------------------------
   N = 20,  n = 30000000,  r = 14,    d = 256,    t = 8,    p = 1


      Number of cells = d^t = 18446744073709551616
      Lambda = Poisson mean =     365.9182


----------------------------------------------------
Total expected number = N*Lambda      :    7318.36
Total observed number                 :    7210
p-value of test                       :    0.90


-----------------------------------------------
CPU time used                    :  00:02:39.30

Generator state:




***********************************************************
HOST = node36.local.isima.fr, Linux

MersenneTwiter


smarsa_BirthdaySpacings test:
-----------------------------------------------
   N = 20,  n = 30000000,  r = 22,    d = 256,    t = 8,    p = 1


      Number of cells = d^t = 18446744073709551616
      Lambda = Poisson mean =     365.9182


----------------------------------------------------
Total expected number = N*Lambda      :    7318.36
Total observed number                 :    7390
p-value of test                       :    0.20


-----------------------------------------------
CPU time used                    :  00:02:39.03

Generator state:




***********************************************************
HOST = node36.local.isima.fr, Linux

MersenneTwiter


smarsa_BirthdaySpacings test:
-----------------------------------------------
   N = 20,  n = 30000000,  r =  0,    d = 16,    t = 16,    p = 1


      Number of cells = d^t = 18446744073709551616
      Lambda = Poisson mean =     365.9182


----------------------------------------------------
Total expected number = N*Lambda      :    7318.36
Total observed number                 :    7255
p-value of test                       :    0.77


-----------------------------------------------
CPU time used                    :  00:03:07.02

Generator state:




***********************************************************
HOST = node36.local.isima.fr, Linux

MersenneTwiter


smarsa_BirthdaySpacings test:
-----------------------------------------------
   N = 20,  n = 30000000,  r = 26,    d = 16,    t = 16,    p = 1


      Number of cells = d^t = 18446744073709551616
      Lambda = Poisson mean =     365.9182


----------------------------------------------------
Total expected number = N*Lambda      :    7318.36
Total observed number                 :    7344
p-value of test                       :    0.38


-----------------------------------------------
CPU time used                    :  00:03:21.19

Generator state:




***********************************************************
HOST = node36.local.isima.fr, Linux

MersenneTwiter


snpair_ClosePairs test:
-----------------------------------------------
   N = 30,  n = 6000000,  r =  0,  t = 3,  p = 0,  m = 30,  Torus =  TRUE


---------------------------------------
Test based on the 2 nearest points (NP):

Stat. AD on the N values (NP)         :    2.40
p-value of test                       :    0.06


A2 test based on the spacings between the
   successive jump times of process Y_n(t):

A2 test on the values of A2 (m-NP)    :    0.75
p-value of test                       :    0.52

Test on the Nm values of W_{n,i}(mNP1):    0.65
p-value of test                       :    0.60

Test on the jump times of Y
   (superposition of Yn):

Expected number of jumps of Y = mN    :     900
Number of jumps of Y                  :     906
p-value of test                       :    0.43

Stat. AD (mNP2)                       :    0.83
p-value of test                       :    0.46

Stat. AD after spacings (mNP2-S)      :    0.44
p-value of test                       :    0.81

-----------------------------------------------
CPU time used                    :  00:01:48.19

Generator state:




***********************************************************
HOST = node36.local.isima.fr, Linux

MersenneTwiter


snpair_ClosePairs test:
-----------------------------------------------
   N = 20,  n = 4000000,  r =  0,  t = 5,  p = 0,  m = 30,  Torus =  TRUE


---------------------------------------
Test based on the 2 nearest points (NP):

Stat. AD on the N values (NP)         :    0.50
p-value of test                       :    0.74


A2 test based on the spacings between the
   successive jump times of process Y_n(t):

A2 test on the values of A2 (m-NP)    :    1.06
p-value of test                       :    0.33

Test on the Nm values of W_{n,i}(mNP1):    1.24
p-value of test                       :    0.25

Test on the jump times of Y
   (superposition of Yn):

Expected number of jumps of Y = mN    :     600
Number of jumps of Y                  :     560
p-value of test                       :    0.95

Stat. AD (mNP2)                       :    0.53
p-value of test                       :    0.72

Stat. AD after spacings (mNP2-S)      :    0.54
p-value of test                       :    0.71

-----------------------------------------------
CPU time used                    :  00:01:11.89

Generator state:




***********************************************************
HOST = node36.local.isima.fr, Linux

MersenneTwiter


snpair_ClosePairs test:
-----------------------------------------------
   N = 10,  n = 3000000,  r =  0,  t = 9,  p = 0,  m = 30,  Torus =  TRUE


---------------------------------------
Test based on the 2 nearest points (NP):

Stat. AD on the N values (NP)         :    0.98
p-value of test                       :    0.37


A2 test based on the spacings between the
   successive jump times of process Y_n(t):

A2 test on the values of A2 (m-NP)    :    0.86
p-value of test                       :    0.44

Test on the Nm values of W_{n,i}(mNP1):    0.30
p-value of test                       :    0.94

Test on the jump times of Y
   (superposition of Yn):

Expected number of jumps of Y = mN    :     300
Number of jumps of Y                  :     304
p-value of test                       :    0.42

Stat. AD (mNP2)                       :    1.11
p-value of test                       :    0.30

Stat. AD after spacings (mNP2-S)      :    0.83
p-value of test                       :    0.46

-----------------------------------------------
CPU time used                    :  00:02:09.13

Generator state:




***********************************************************
HOST = node36.local.isima.fr, Linux

MersenneTwiter


snpair_ClosePairs test:
-----------------------------------------------
   N =  5,  n = 2000000,  r =  0,  t = 16,  p = 0,  m = 30,  Torus =  TRUE


---------------------------------------
Test based on the 2 nearest points (NP):

Stat. AD on the N values (NP)         :    1.58
p-value of test                       :    0.16


A2 test based on the spacings between the
   successive jump times of process Y_n(t):

A2 test on the values of A2 (m-NP)    :    0.34
p-value of test                       :    0.90

Test on the Nm values of W_{n,i}(mNP1):    0.42
p-value of test                       :    0.83

Test on the jump times of Y
   (superposition of Yn):

Expected number of jumps of Y = mN    :     150
Number of jumps of Y                  :     147
p-value of test                       :    0.58

Stat. AD (mNP2)                       :    0.40
p-value of test                       :    0.85

Stat. AD after spacings (mNP2-S)      :    0.25
p-value of test                       :    0.97

-----------------------------------------------
CPU time used                    :  00:02:33.53

Generator state:




***********************************************************
HOST = node36.local.isima.fr, Linux

MersenneTwiter


sknuth_SimpPoker test:
-----------------------------------------------
   N =  1,  n = 400000000,  r =  0,   d =    8,   k =    8


-----------------------------------------------
Number of degrees of freedom          :    7
Chi-square statistic                  :    4.26
p-value of test                       :    0.75

-----------------------------------------------
CPU time used                    :  00:00:42.72

Generator state:




***********************************************************
HOST = node36.local.isima.fr, Linux

MersenneTwiter


sknuth_SimpPoker test:
-----------------------------------------------
   N =  1,  n = 400000000,  r = 27,   d =    8,   k =    8


-----------------------------------------------
Number of degrees of freedom          :    7
Chi-square statistic                  :    9.70
p-value of test                       :    0.21

-----------------------------------------------
CPU time used                    :  00:00:53.09

Generator state:




***********************************************************
HOST = node36.local.isima.fr, Linux

MersenneTwiter


sknuth_SimpPoker test:
-----------------------------------------------
   N =  1,  n = 100000000,  r =  0,   d =   32,   k =   32


-----------------------------------------------
Number of degrees of freedom          :   18
Chi-square statistic                  :   17.63
p-value of test                       :    0.48

-----------------------------------------------
CPU time used                    :  00:00:45.26

Generator state:




***********************************************************
HOST = node36.local.isima.fr, Linux

MersenneTwiter


sknuth_SimpPoker test:
-----------------------------------------------
   N =  1,  n = 100000000,  r = 25,   d =   32,   k =   32


-----------------------------------------------
Number of degrees of freedom          :   18
Chi-square statistic                  :   12.42
p-value of test                       :    0.82

-----------------------------------------------
CPU time used                    :  00:00:58.03

Generator state:




***********************************************************
HOST = node36.local.isima.fr, Linux

MersenneTwiter


sknuth_CouponCollector test:
-----------------------------------------------
   N =  1,  n = 200000000,  r =  0,   d =    8


-----------------------------------------------
Number of degrees of freedom          :   54
Chi-square statistic                  :   49.39
p-value of test                       :    0.65

-----------------------------------------------
CPU time used                    :  00:00:52.59

Generator state:




***********************************************************
HOST = node36.local.isima.fr, Linux

MersenneTwiter


sknuth_CouponCollector test:
-----------------------------------------------
   N =  1,  n = 200000000,  r = 10,   d =    8


-----------------------------------------------
Number of degrees of freedom          :   54
Chi-square statistic                  :   56.59
p-value of test                       :    0.38

-----------------------------------------------
CPU time used                    :  00:01:05.60

Generator state:




***********************************************************
HOST = node36.local.isima.fr, Linux

MersenneTwiter


sknuth_CouponCollector test:
-----------------------------------------------
   N =  1,  n = 200000000,  r = 20,   d =    8


-----------------------------------------------
Number of degrees of freedom          :   54
Chi-square statistic                  :   58.04
p-value of test                       :    0.33

-----------------------------------------------
CPU time used                    :  00:01:05.60

Generator state:




***********************************************************
HOST = node36.local.isima.fr, Linux

MersenneTwiter


sknuth_CouponCollector test:
-----------------------------------------------
   N =  1,  n = 200000000,  r = 27,   d =    8


-----------------------------------------------
Number of degrees of freedom          :   54
Chi-square statistic                  :   55.91
p-value of test                       :    0.40

-----------------------------------------------
CPU time used                    :  00:01:05.60

Generator state:




***********************************************************
HOST = node36.local.isima.fr, Linux

MersenneTwiter


sknuth_Gap test:
-----------------------------------------------
   N =  1,  n = 500000000,  r =  0,   Alpha =        0,   Beta  =   0.0625


-----------------------------------------------
Number of degrees of freedom          :  232
Chi-square statistic                  :  200.72
p-value of test                       :    0.93

-----------------------------------------------
CPU time used                    :  00:00:56.03

Generator state:




***********************************************************
HOST = node36.local.isima.fr, Linux

MersenneTwiter


sknuth_Gap test:
-----------------------------------------------
   N =  1,  n = 300000000,  r = 25,   Alpha =        0,   Beta  =  0.03125


-----------------------------------------------
Number of degrees of freedom          :  434
Chi-square statistic                  :  390.62
p-value of test                       :    0.93

-----------------------------------------------
CPU time used                    :  00:01:18.67

Generator state:




***********************************************************
HOST = node36.local.isima.fr, Linux

MersenneTwiter


sknuth_Gap test:
-----------------------------------------------
   N =  1,  n = 100000000,  r =  0,   Alpha =        0,   Beta  = 0.0078125


-----------------------------------------------
Number of degrees of freedom          : 1437
Chi-square statistic                  : 1357.79
p-value of test                       :    0.93

-----------------------------------------------
CPU time used                    :  00:01:18.22

Generator state:




***********************************************************
HOST = node36.local.isima.fr, Linux

MersenneTwiter


sknuth_Gap test:
-----------------------------------------------
   N =  1,  n = 10000000,  r = 20,   Alpha =        0,   Beta  = 0.000976562


-----------------------------------------------
Number of degrees of freedom          : 7046
Chi-square statistic                  : 6839.09
p-value of test                       :    0.96

-----------------------------------------------
CPU time used                    :  00:01:16.77

Generator state:




***********************************************************
HOST = node36.local.isima.fr, Linux

MersenneTwiter


sknuth_Run test:
-----------------------------------------------
   N =  5,  n = 1000000000,  r =  0,   Up = FALSE


-----------------------------------------------

Kolmogorov-Smirnov+ statistic = D+    :    0.29
p-value of test                       :    0.36

Kolmogorov-Smirnov- statistic = D-    :    0.28
p-value of test                       :    0.40

Anderson-Darling statistic = A2       :    1.35
p-value of test                       :    0.22

Test on the sum of all N observations
Number of degrees of freedom          :   30
Chi-square statistic                  :   39.00
p-value of test                       :    0.13

-----------------------------------------------
CPU time used                    :  00:01:00.02

Generator state:




***********************************************************
HOST = node36.local.isima.fr, Linux

MersenneTwiter


sknuth_Run test:
-----------------------------------------------
   N = 10,  n = 1000000000,  r = 15,   Up =  TRUE


-----------------------------------------------

Kolmogorov-Smirnov+ statistic = D+    :    0.17
p-value of test                       :    0.51

Kolmogorov-Smirnov- statistic = D-    :    0.27
p-value of test                       :    0.19

Anderson-Darling statistic = A2       :    0.96
p-value of test                       :    0.38

Test on the sum of all N observations
Number of degrees of freedom          :   60
Chi-square statistic                  :   62.40
p-value of test                       :    0.39

-----------------------------------------------
CPU time used                    :  00:02:35.97

Generator state:




***********************************************************
Test sknuth_Permutation calling smultin_Multinomial

***********************************************************
HOST = node36.local.isima.fr, Linux

MersenneTwiter


smultin_Multinomial test:
-----------------------------------------------
   N =  1,  n = 1000000000,  r =  5,   t =  3,
       Sparse =  FALSE

       GenerCell = smultin_GenerCellPermut
       Number of cells = t! =                  6
       Expected number per cell =  1.6666667e+08
       Hashing =  FALSE

   For Delta > -1, we use the ChiSquare approximation
   Correction factor of the ChiSquare: 
       Delta =     1,    Mu =  2.5000002e-09,    Sigma =          1

-----------------------------------------------
Test Results for Delta =   1.0000

Number of degrees of freedom          :    5
Value of the statistic                :    1.46
p-value of test                       :    0.92


-----------------------------------------------
CPU time used                    :  00:00:50.13

Generator state:




***********************************************************
Test sknuth_Permutation calling smultin_Multinomial

***********************************************************
HOST = node36.local.isima.fr, Linux

MersenneTwiter


smultin_Multinomial test:
-----------------------------------------------
   N =  1,  n = 1000000000,  r =  5,   t =  5,
       Sparse =  FALSE

       GenerCell = smultin_GenerCellPermut
       Number of cells = t! =                120
       Expected number per cell =   8333333.3
       Hashing =  FALSE

   For Delta > -1, we use the ChiSquare approximation
   Correction factor of the ChiSquare: 
       Delta =     1,    Mu =  5.9500005e-08,    Sigma =          1

-----------------------------------------------
Test Results for Delta =   1.0000

Number of degrees of freedom          :  119
Value of the statistic                :  109.78
p-value of test                       :    0.72


-----------------------------------------------
CPU time used                    :  00:01:21.32

Generator state:




***********************************************************
Test sknuth_Permutation calling smultin_Multinomial

***********************************************************
HOST = node36.local.isima.fr, Linux

MersenneTwiter


smultin_Multinomial test:
-----------------------------------------------
   N =  1,  n = 500000000,  r =  5,   t =  7,
       Sparse =  FALSE

       GenerCell = smultin_GenerCellPermut
       Number of cells = t! =               5040
       Expected number per cell =   99206.349
       Hashing =  FALSE

   For Delta > -1, we use the ChiSquare approximation
   Correction factor of the ChiSquare: 
       Delta =     1,    Mu =  5.0390004e-06,    Sigma =          1

-----------------------------------------------
Test Results for Delta =   1.0000

Number of degrees of freedom          : 5039
Value of the statistic                : 5057.09
p-value of test                       :    0.43


-----------------------------------------------
CPU time used                    :  00:01:04.02

Generator state:




***********************************************************
Test sknuth_Permutation calling smultin_Multinomial

***********************************************************
HOST = node36.local.isima.fr, Linux

MersenneTwiter


smultin_Multinomial test:
-----------------------------------------------
   N =  1,  n = 500000000,  r = 10,   t = 10,
       Sparse =  FALSE

       GenerCell = smultin_GenerCellPermut
       Number of cells = t! =            3628800
       Expected number per cell =    137.7866
       Hashing =  FALSE

   For Delta > -1, we use the ChiSquare approximation
   Correction factor of the ChiSquare: 
       Delta =     1,    Mu =   0.0036287993,    Sigma =          1

-----------------------------------------------
Test Results for Delta =   1.0000

Number of degrees of freedom          : 3628799
Value of the statistic                : 3.63e+6
p-value of test                       :    0.35


-----------------------------------------------
CPU time used                    :  00:02:50.86

Generator state:




***********************************************************
Test sknuth_CollisionPermut calling smultin_Multinomial

***********************************************************
HOST = node36.local.isima.fr, Linux

MersenneTwiter


smultin_Multinomial test:
-----------------------------------------------
   N = 20,  n = 20000000,  r =  0,   t = 14,
       Sparse =   TRUE

       GenerCell = smultin_GenerCellPermut
       Number of cells = t! =        87178291200
       Expected number per cell =  1 /  4358.9146
       EColl = n^2 / (2k) =   2294.14912
       Hashing =   TRUE

       Collision test,    Mu =      2293.9736,    Sigma =    47.8841

-----------------------------------------------
Test Results for Collisions

For the total number of collisions, we use
      the Poisson approximation:
Expected number of collisions = N*Mu  :    45879.47
Observed number of collisions         :    45803
p-value of test                       :    0.64


-----------------------------
Total number of cells containing j balls

  j =  0                              :    1743165869803
  j =  1                              :        399908396
  j =  2                              :            45799
  j =  3                              :                2
  j =  4                              :                0
  j =  5                              :                0

-----------------------------------------------
CPU time used                    :  00:04:29.13

Generator state:




***********************************************************
Test sknuth_CollisionPermut calling smultin_Multinomial

***********************************************************
HOST = node36.local.isima.fr, Linux

MersenneTwiter


smultin_Multinomial test:
-----------------------------------------------
   N = 20,  n = 20000000,  r = 10,   t = 14,
       Sparse =   TRUE

       GenerCell = smultin_GenerCellPermut
       Number of cells = t! =        87178291200
       Expected number per cell =  1 /  4358.9146
       EColl = n^2 / (2k) =   2294.14912
       Hashing =   TRUE

       Collision test,    Mu =      2293.9736,    Sigma =    47.8841

-----------------------------------------------
Test Results for Collisions

For the total number of collisions, we use
      the Poisson approximation:
Expected number of collisions = N*Mu  :    45879.47
Observed number of collisions         :    45599
p-value of test                       :    0.90


-----------------------------
Total number of cells containing j balls

  j =  0                              :    1743165869599
  j =  1                              :        399908806
  j =  2                              :            45591
  j =  3                              :                4
  j =  4                              :                0
  j =  5                              :                0

-----------------------------------------------
CPU time used                    :  00:04:34.82

Generator state:




***********************************************************
HOST = node36.local.isima.fr, Linux

MersenneTwiter


sknuth_MaxOft test:
-----------------------------------------------
   N = 40,  n = 10000000,  r =  0,   d = 100000,   t =  8

      Number of categories = 100000
      Expected number per category  = 100.00


-----------------------------------------------
Test results for chi2 with 99999 degrees of freedom:

Kolmogorov-Smirnov+ statistic = D+    :    0.12
p-value of test                       :    0.32

Kolmogorov-Smirnov- statistic = D-    :   0.037
p-value of test                       :    0.87

Anderson-Darling statistic = A2       :    0.51
p-value of test                       :    0.74

Test on the sum of all N observations
Number of degrees of freedom          : 3999960
Chi-square statistic                  : 4.00e+6
p-value of test                       :    0.72


-----------------------------------------------
Test results for Anderson-Darling:

Kolmogorov-Smirnov+ statistic = D+    :   0.085
p-value of test                       :    0.53

Kolmogorov-Smirnov- statistic = D-    :   0.086
p-value of test                       :    0.52

Anderson-Darling statistic = A2       :    0.59
p-value of test                       :    0.66


-----------------------------------------------
CPU time used                    :  00:01:32.22

Generator state:




***********************************************************
HOST = node36.local.isima.fr, Linux

MersenneTwiter


sknuth_MaxOft test:
-----------------------------------------------
   N = 30,  n = 10000000,  r =  0,   d = 100000,   t = 16

      Number of categories = 100000
      Expected number per category  = 100.00


-----------------------------------------------
Test results for chi2 with 99999 degrees of freedom:

Kolmogorov-Smirnov+ statistic = D+    :    0.11
p-value of test                       :    0.46

Kolmogorov-Smirnov- statistic = D-    :   0.044
p-value of test                       :    0.87

Anderson-Darling statistic = A2       :    0.25
p-value of test                       :    0.97

Test on the sum of all N observations
Number of degrees of freedom          : 2999970
Chi-square statistic                  : 3.00e+6
p-value of test                       :    0.63


-----------------------------------------------
Test results for Anderson-Darling:

Kolmogorov-Smirnov+ statistic = D+    :    0.20
p-value of test                       :    0.08

Kolmogorov-Smirnov- statistic = D-    :   0.066
p-value of test                       :    0.74

Anderson-Darling statistic = A2       :    1.74
p-value of test                       :    0.13


-----------------------------------------------
CPU time used                    :  00:01:25.00

Generator state:




***********************************************************
HOST = node36.local.isima.fr, Linux

MersenneTwiter


sknuth_MaxOft test:
-----------------------------------------------
   N = 20,  n = 10000000,  r =  0,   d = 100000,   t = 24

      Number of categories = 100000
      Expected number per category  = 100.00


-----------------------------------------------
Test results for chi2 with 99999 degrees of freedom:

Kolmogorov-Smirnov+ statistic = D+    :    0.26
p-value of test                       :    0.06

Kolmogorov-Smirnov- statistic = D-    :   0.057
p-value of test                       :    0.84

Anderson-Darling statistic = A2       :    1.45
p-value of test                       :    0.19

Test on the sum of all N observations
Number of degrees of freedom          : 1999980
Chi-square statistic                  : 2.00e+6
p-value of test                       :    0.86


-----------------------------------------------
Test results for Anderson-Darling:

Kolmogorov-Smirnov+ statistic = D+    :    0.15
p-value of test                       :    0.35

Kolmogorov-Smirnov- statistic = D-    :   0.086
p-value of test                       :    0.70

Anderson-Darling statistic = A2       :    0.84
p-value of test                       :    0.45


-----------------------------------------------
CPU time used                    :  00:01:05.31

Generator state:




***********************************************************
HOST = node36.local.isima.fr, Linux

MersenneTwiter


sknuth_MaxOft test:
-----------------------------------------------
   N = 20,  n = 10000000,  r =  0,   d = 100000,   t = 32

      Number of categories = 100000
      Expected number per category  = 100.00


-----------------------------------------------
Test results for chi2 with 99999 degrees of freedom:

Kolmogorov-Smirnov+ statistic = D+    :   0.031
p-value of test                       :    0.94

Kolmogorov-Smirnov- statistic = D-    :    0.19
p-value of test                       :    0.22

Anderson-Darling statistic = A2       :    1.24
p-value of test                       :    0.25

Test on the sum of all N observations
Number of degrees of freedom          : 1999980
Chi-square statistic                  : 2.00e+6
p-value of test                       :    0.08


-----------------------------------------------
Test results for Anderson-Darling:

Kolmogorov-Smirnov+ statistic = D+    :   0.068
p-value of test                       :    0.80

Kolmogorov-Smirnov- statistic = D-    :    0.25
p-value of test                       :    0.07

Anderson-Darling statistic = A2       :    0.97
p-value of test                       :    0.37


-----------------------------------------------
CPU time used                    :  00:01:14.46

Generator state:




***********************************************************
HOST = node36.local.isima.fr, Linux

MersenneTwiter


svaria_SampleProd test:
-----------------------------------------------
   N = 40,  n = 10000000,  r =  0,   t = 8


-----------------------------------------------

Kolmogorov-Smirnov+ statistic = D+    :    0.17
p-value of test                       :    0.08

Kolmogorov-Smirnov- statistic = D-    :   0.020
p-value of test                       :    0.96

Anderson-Darling statistic = A2       :    1.44
p-value of test                       :    0.19

-----------------------------------------------
CPU time used                    :  00:01:18.43

Generator state:




***********************************************************
HOST = node36.local.isima.fr, Linux

MersenneTwiter


svaria_SampleProd test:
-----------------------------------------------
   N = 20,  n = 10000000,  r =  0,   t = 16


-----------------------------------------------

Kolmogorov-Smirnov+ statistic = D+    :    0.18
p-value of test                       :    0.23

Kolmogorov-Smirnov- statistic = D-    :   0.096
p-value of test                       :    0.65

Anderson-Darling statistic = A2       :    0.42
p-value of test                       :    0.82

-----------------------------------------------
CPU time used                    :  00:00:52.07

Generator state:




***********************************************************
HOST = node36.local.isima.fr, Linux

MersenneTwiter


svaria_SampleProd test:
-----------------------------------------------
   N = 20,  n = 10000000,  r =  0,   t = 24


-----------------------------------------------

Kolmogorov-Smirnov+ statistic = D+    :    0.13
p-value of test                       :    0.47

Kolmogorov-Smirnov- statistic = D-    :    0.12
p-value of test                       :    0.53

Anderson-Darling statistic = A2       :    0.36
p-value of test                       :    0.89

-----------------------------------------------
CPU time used                    :  00:01:02.67

Generator state:




***********************************************************
HOST = node36.local.isima.fr, Linux

MersenneTwiter


svaria_SampleMean test:
-----------------------------------------------
   N = 20000000,  n = 30,  r =  0


-----------------------------------------------

Kolmogorov-Smirnov+ statistic = D+    : 2.59e-5
p-value of test                       :    0.97

Kolmogorov-Smirnov- statistic = D-    : 2.10e-4
p-value of test                       :    0.17

Anderson-Darling statistic = A2       :    1.05
p-value of test                       :    0.33

-----------------------------------------------
CPU time used                    :  00:00:11.64

Generator state:




***********************************************************
HOST = node36.local.isima.fr, Linux

MersenneTwiter


svaria_SampleMean test:
-----------------------------------------------
   N = 20000000,  n = 30,  r = 10


-----------------------------------------------

Kolmogorov-Smirnov+ statistic = D+    : 6.05e-5
p-value of test                       :    0.86

Kolmogorov-Smirnov- statistic = D-    : 1.49e-4
p-value of test                       :    0.41

Anderson-Darling statistic = A2       :    0.30
p-value of test                       :    0.94

-----------------------------------------------
CPU time used                    :  00:00:12.23

Generator state:




***********************************************************
HOST = node36.local.isima.fr, Linux

MersenneTwiter


svaria_SampleCorr test:
-----------------------------------------------
   N =  1,  n = 2000000000,  r =  0,   k = 1


-----------------------------------------------
Normal statistic                      :    0.28
p-value of test                       :    0.39

-----------------------------------------------
CPU time used                    :  00:00:12.09

Generator state:




***********************************************************
HOST = node36.local.isima.fr, Linux

MersenneTwiter


svaria_SampleCorr test:
-----------------------------------------------
   N =  1,  n = 2000000000,  r =  0,   k = 2


-----------------------------------------------
Normal statistic                      :    0.44
p-value of test                       :    0.33

-----------------------------------------------
CPU time used                    :  00:00:12.06

Generator state:




***********************************************************
HOST = node36.local.isima.fr, Linux

MersenneTwiter


svaria_AppearanceSpacings test:
-----------------------------------------------
   N =  1,   Q = 10000000,   K = 1000000000,   r = 0,   s = 3,   L = 15

   Sequences of n = (K + Q)L =  15150000000 bits
   Q = 10000000 initialization blocks
   K = 1000000000 blocks for the test
   the blocks have L = 15 bits



-----------------------------------------------
Normal statistic                      :   -0.27
p-value of test                       :    0.61

-----------------------------------------------
CPU time used                    :  00:00:46.01

Generator state:




***********************************************************
HOST = node36.local.isima.fr, Linux

MersenneTwiter


svaria_AppearanceSpacings test:
-----------------------------------------------
   N =  1,   Q = 10000000,   K = 1000000000,   r = 27,   s = 3,   L = 15

   Sequences of n = (K + Q)L =  15150000000 bits
   Q = 10000000 initialization blocks
   K = 1000000000 blocks for the test
   the blocks have L = 15 bits



-----------------------------------------------
Normal statistic                      :   -1.41
p-value of test                       :    0.92

-----------------------------------------------
CPU time used                    :  00:00:48.47

Generator state:




***********************************************************
HOST = node36.local.isima.fr, Linux

MersenneTwiter


svaria_WeightDistrib test:
-----------------------------------------------
   N =  1,  n = 20000000,  r =  0,  k = 256,  Alpha =      0,  Beta =   0.25


-----------------------------------------------
Number of degrees of freedom          :   67
Chi-square statistic                  :   69.39
p-value of test                       :    0.40

-----------------------------------------------
CPU time used                    :  00:00:29.39

Generator state:




***********************************************************
HOST = node36.local.isima.fr, Linux

MersenneTwiter


svaria_WeightDistrib test:
-----------------------------------------------
   N =  1,  n = 20000000,  r = 20,  k = 256,  Alpha =      0,  Beta =   0.25


-----------------------------------------------
Number of degrees of freedom          :   67
Chi-square statistic                  :   55.18
p-value of test                       :    0.85

-----------------------------------------------
CPU time used                    :  00:00:38.35

Generator state:




***********************************************************
HOST = node36.local.isima.fr, Linux

MersenneTwiter


svaria_WeightDistrib test:
-----------------------------------------------
   N =  1,  n = 20000000,  r = 28,  k = 256,  Alpha =      0,  Beta =   0.25


-----------------------------------------------
Number of degrees of freedom          :   67
Chi-square statistic                  :   71.07
p-value of test                       :    0.34

-----------------------------------------------
CPU time used                    :  00:00:38.35

Generator state:




***********************************************************
HOST = node36.local.isima.fr, Linux

MersenneTwiter


svaria_WeightDistrib test:
-----------------------------------------------
   N =  1,  n = 20000000,  r =  0,  k = 256,  Alpha =      0,  Beta = 0.0625


-----------------------------------------------
Number of degrees of freedom          :   37
Chi-square statistic                  :   35.07
p-value of test                       :    0.56

-----------------------------------------------
CPU time used                    :  00:00:29.43

Generator state:




***********************************************************
HOST = node36.local.isima.fr, Linux

MersenneTwiter


svaria_WeightDistrib test:
-----------------------------------------------
   N =  1,  n = 20000000,  r = 10,  k = 256,  Alpha =      0,  Beta = 0.0625


-----------------------------------------------
Number of degrees of freedom          :   37
Chi-square statistic                  :   42.81
p-value of test                       :    0.24

-----------------------------------------------
CPU time used                    :  00:00:38.36

Generator state:




***********************************************************
HOST = node36.local.isima.fr, Linux

MersenneTwiter


svaria_WeightDistrib test:
-----------------------------------------------
   N =  1,  n = 20000000,  r = 26,  k = 256,  Alpha =      0,  Beta = 0.0625


-----------------------------------------------
Number of degrees of freedom          :   37
Chi-square statistic                  :   45.51
p-value of test                       :    0.16

-----------------------------------------------
CPU time used                    :  00:00:38.35

Generator state:




***********************************************************
HOST = node36.local.isima.fr, Linux

MersenneTwiter


svaria_SumCollector test:
-----------------------------------------------
   N =  1,  n = 500000000,  r =  0,   g = 10


-----------------------------------------------
Number of degrees of freedom          :   29
Chi-square statistic                  :   28.86
p-value of test                       :    0.47

-----------------------------------------------
CPU time used                    :  00:01:08.34

Generator state:




***********************************************************
HOST = node36.local.isima.fr, Linux

MersenneTwiter


smarsa_MatrixRank test:
-----------------------------------------------
   N = 10,  n = 1000000,  r =  0,    s = 5,    L = 30,    k = 30


-----------------------------------------------

Kolmogorov-Smirnov+ statistic = D+    :    0.11
p-value of test                       :    0.72

Kolmogorov-Smirnov- statistic = D-    :    0.37
p-value of test                       :    0.05

Anderson-Darling statistic = A2       :    1.17
p-value of test                       :    0.28

Test on the sum of all N observations
Number of degrees of freedom          :   40
Chi-square statistic                  :   44.43
p-value of test                       :    0.29

-----------------------------------------------
CPU time used                    :  00:00:57.77

Generator state:




***********************************************************
HOST = node36.local.isima.fr, Linux

MersenneTwiter


smarsa_MatrixRank test:
-----------------------------------------------
   N = 10,  n = 1000000,  r = 25,    s = 5,    L = 30,    k = 30


-----------------------------------------------

Kolmogorov-Smirnov+ statistic = D+    :    0.18
p-value of test                       :    0.47

Kolmogorov-Smirnov- statistic = D-    :    0.20
p-value of test                       :    0.39

Anderson-Darling statistic = A2       :    0.39
p-value of test                       :    0.85

Test on the sum of all N observations
Number of degrees of freedom          :   40
Chi-square statistic                  :   41.92
p-value of test                       :    0.39

-----------------------------------------------
CPU time used                    :  00:00:57.88

Generator state:




***********************************************************
HOST = node36.local.isima.fr, Linux

MersenneTwiter


smarsa_MatrixRank test:
-----------------------------------------------
   N =  1,  n = 5000,  r =  0,    s = 4,    L = 1000,    k = 1000


-----------------------------------------------
Number of degrees of freedom          :    3
Chi-square statistic                  :    4.37
p-value of test                       :    0.22

-----------------------------------------------
CPU time used                    :  00:01:21.97

Generator state:




***********************************************************
HOST = node36.local.isima.fr, Linux

MersenneTwiter


smarsa_MatrixRank test:
-----------------------------------------------
   N =  1,  n = 5000,  r = 26,    s = 4,    L = 1000,    k = 1000


-----------------------------------------------
Number of degrees of freedom          :    3
Chi-square statistic                  :    3.06
p-value of test                       :    0.38

-----------------------------------------------
CPU time used                    :  00:01:22.18

Generator state:




***********************************************************
HOST = node36.local.isima.fr, Linux

MersenneTwiter


smarsa_MatrixRank test:
-----------------------------------------------
   N =  1,  n = 80,  r = 15,    s = 15,    L = 5000,    k = 5000


-----------------------------------------------
Number of degrees of freedom          :    2
Chi-square statistic                  :    2.81
p-value of test                       :    0.25

-----------------------------------------------
CPU time used                    :  00:01:22.29

Generator state:




***********************************************************
HOST = node36.local.isima.fr, Linux

MersenneTwiter


smarsa_MatrixRank test:
-----------------------------------------------
   N =  1,  n = 80,  r =  0,    s = 30,    L = 5000,    k = 5000


-----------------------------------------------
Number of degrees of freedom          :    2
Chi-square statistic                  :    4.36
p-value of test                       :    0.11

-----------------------------------------------
CPU time used                    :  00:01:22.50

Generator state:




***********************************************************
HOST = node36.local.isima.fr, Linux

MersenneTwiter


smarsa_Savir2 test:
-----------------------------------------------
   N = 10,  n = 10000000,  r = 10,    m = 1048576,    t = 30


-----------------------------------------------

Kolmogorov-Smirnov+ statistic = D+    :    0.27
p-value of test                       :    0.20

Kolmogorov-Smirnov- statistic = D-    :   0.099
p-value of test                       :    0.77

Anderson-Darling statistic = A2       :    0.57
p-value of test                       :    0.67

Test on the sum of all N observations
Number of degrees of freedom          :  130
Chi-square statistic                  :  117.02
p-value of test                       :    0.79

-----------------------------------------------
CPU time used                    :  00:00:23.56

Generator state:




***********************************************************
HOST = node36.local.isima.fr, Linux

MersenneTwiter


smarsa_GCD test:
-----------------------------------------------
   N = 10,  n = 50000000,  r =  0,   s = 30


-----------------------------------------------
Test results for GCD values:

Kolmogorov-Smirnov+ statistic = D+    :    0.20
p-value of test                       :    0.40

Kolmogorov-Smirnov- statistic = D-    :   0.042
p-value of test                       :    0.94

Anderson-Darling statistic = A2       :    0.88
p-value of test                       :    0.43

Test on the sum of all N observations
Number of degrees of freedom          : 17430
Chi-square statistic                  :17216.51
p-value of test                       :    0.87



-----------------------------------------------
CPU time used                    :  00:00:49.03

Generator state:




***********************************************************
HOST = node36.local.isima.fr, Linux

MersenneTwiter


swalk_RandomWalk1 test:
-----------------------------------------------
   N =  1,  n = 100000000,  r =  0,   s = 5,   L0 =   50,   L1 =   50



-----------------------------------------------
Test on the values of the Statistic H

Number of degrees of freedom          :   36
ChiSquare statistic                   :   46.99
p-value of test                       :    0.10


-----------------------------------------------
Test on the values of the Statistic M

Number of degrees of freedom          :   35
ChiSquare statistic                   :   45.92
p-value of test                       :    0.10


-----------------------------------------------
Test on the values of the Statistic J

Number of degrees of freedom          :   25
ChiSquare statistic                   :   28.93
p-value of test                       :    0.27


-----------------------------------------------
Test on the values of the Statistic R

Number of degrees of freedom          :   24
ChiSquare statistic                   :   38.78
p-value of test                       :    0.03


-----------------------------------------------
Test on the values of the Statistic C

Number of degrees of freedom          :   17
ChiSquare statistic                   :   18.15
p-value of test                       :    0.38


-----------------------------------------------
CPU time used                    :  00:00:36.01

Generator state:




***********************************************************
HOST = node36.local.isima.fr, Linux

MersenneTwiter


swalk_RandomWalk1 test:
-----------------------------------------------
   N =  1,  n = 100000000,  r = 25,   s = 5,   L0 =   50,   L1 =   50



-----------------------------------------------
Test on the values of the Statistic H

Number of degrees of freedom          :   36
ChiSquare statistic                   :   32.78
p-value of test                       :    0.62


-----------------------------------------------
Test on the values of the Statistic M

Number of degrees of freedom          :   35
ChiSquare statistic                   :   36.20
p-value of test                       :    0.41


-----------------------------------------------
Test on the values of the Statistic J

Number of degrees of freedom          :   25
ChiSquare statistic                   :   35.63
p-value of test                       :    0.08


-----------------------------------------------
Test on the values of the Statistic R

Number of degrees of freedom          :   24
ChiSquare statistic                   :   30.76
p-value of test                       :    0.16


-----------------------------------------------
Test on the values of the Statistic C

Number of degrees of freedom          :   17
ChiSquare statistic                   :   12.03
p-value of test                       :    0.80


-----------------------------------------------
CPU time used                    :  00:00:36.80

Generator state:




***********************************************************
HOST = node36.local.isima.fr, Linux

MersenneTwiter


swalk_RandomWalk1 test:
-----------------------------------------------
   N =  1,  n = 10000000,  r =  0,   s = 10,   L0 = 1000,   L1 = 1000



-----------------------------------------------
Test on the values of the Statistic H

Number of degrees of freedom          :  146
ChiSquare statistic                   :  134.33
p-value of test                       :    0.75


-----------------------------------------------
Test on the values of the Statistic M

Number of degrees of freedom          :  146
ChiSquare statistic                   :  151.69
p-value of test                       :    0.36


-----------------------------------------------
Test on the values of the Statistic J

Number of degrees of freedom          :  500
ChiSquare statistic                   :  463.35
p-value of test                       :    0.88


-----------------------------------------------
Test on the values of the Statistic R

Number of degrees of freedom          :  136
ChiSquare statistic                   :  128.44
p-value of test                       :    0.67


-----------------------------------------------
Test on the values of the Statistic C

Number of degrees of freedom          :   74
ChiSquare statistic                   :   73.15
p-value of test                       :    0.51


-----------------------------------------------
CPU time used                    :  00:00:42.02

Generator state:




***********************************************************
HOST = node36.local.isima.fr, Linux

MersenneTwiter


swalk_RandomWalk1 test:
-----------------------------------------------
   N =  1,  n = 10000000,  r = 20,   s = 10,   L0 = 1000,   L1 = 1000



-----------------------------------------------
Test on the values of the Statistic H

Number of degrees of freedom          :  146
ChiSquare statistic                   :  132.01
p-value of test                       :    0.79


-----------------------------------------------
Test on the values of the Statistic M

Number of degrees of freedom          :  146
ChiSquare statistic                   :  122.90
p-value of test                       :    0.92


-----------------------------------------------
Test on the values of the Statistic J

Number of degrees of freedom          :  500
ChiSquare statistic                   :  499.83
p-value of test                       :    0.49


-----------------------------------------------
Test on the values of the Statistic R

Number of degrees of freedom          :  136
ChiSquare statistic                   :  114.69
p-value of test                       :    0.91


-----------------------------------------------
Test on the values of the Statistic C

Number of degrees of freedom          :   74
ChiSquare statistic                   :   60.00
p-value of test                       :    0.88


-----------------------------------------------
CPU time used                    :  00:00:42.75

Generator state:




***********************************************************
HOST = node36.local.isima.fr, Linux

MersenneTwiter


swalk_RandomWalk1 test:
-----------------------------------------------
   N =  1,  n = 1000000,  r =  0,   s = 15,   L0 = 10000,   L1 = 10000



-----------------------------------------------
Test on the values of the Statistic H

Number of degrees of freedom          :  384
ChiSquare statistic                   :  388.04
p-value of test                       :    0.43


-----------------------------------------------
Test on the values of the Statistic M

Number of degrees of freedom          :  384
ChiSquare statistic                   :  333.48
p-value of test                       :    0.97


-----------------------------------------------
Test on the values of the Statistic J

Number of degrees of freedom          : 5000
ChiSquare statistic                   : 5144.46
p-value of test                       :    0.08


-----------------------------------------------
Test on the values of the Statistic R

Number of degrees of freedom          :  378
ChiSquare statistic                   :  407.62
p-value of test                       :    0.14


-----------------------------------------------
Test on the values of the Statistic C

Number of degrees of freedom          :  200
ChiSquare statistic                   :  196.35
p-value of test                       :    0.56


-----------------------------------------------
CPU time used                    :  00:00:33.82

Generator state:




***********************************************************
HOST = node36.local.isima.fr, Linux

MersenneTwiter


swalk_RandomWalk1 test:
-----------------------------------------------
   N =  1,  n = 1000000,  r = 15,   s = 15,   L0 = 10000,   L1 = 10000



-----------------------------------------------
Test on the values of the Statistic H

Number of degrees of freedom          :  384
ChiSquare statistic                   :  378.42
p-value of test                       :    0.57


-----------------------------------------------
Test on the values of the Statistic M

Number of degrees of freedom          :  384
ChiSquare statistic                   :  370.54
p-value of test                       :    0.68


-----------------------------------------------
Test on the values of the Statistic J

Number of degrees of freedom          : 5000
ChiSquare statistic                   : 4955.59
p-value of test                       :    0.67


-----------------------------------------------
Test on the values of the Statistic R

Number of degrees of freedom          :  378
ChiSquare statistic                   :  314.47
p-value of test                       :    0.9924


-----------------------------------------------
Test on the values of the Statistic C

Number of degrees of freedom          :  200
ChiSquare statistic                   :  227.20
p-value of test                       :    0.09


-----------------------------------------------
CPU time used                    :  00:00:34.02

Generator state:




***********************************************************
HOST = node36.local.isima.fr, Linux

MersenneTwiter


scomp_LinearComp test:
-----------------------------------------------
   N =  1,  n = 400020,  r =  0,    s = 1



-----------------------------------------------
Number of degrees of freedom          :   12
Chi2 statistic for size of jumps      :    8.58
p-value of test                       :    0.74


-----------------------------------------------
Normal statistic for number of jumps  : -402.34
p-value of test                       : 1 - eps1    *****



-----------------------------------------------
CPU time used                    :  00:00:05.95

Generator state:




***********************************************************
HOST = node36.local.isima.fr, Linux

MersenneTwiter


scomp_LinearComp test:
-----------------------------------------------
   N =  1,  n = 400020,  r = 29,    s = 1



-----------------------------------------------
Number of degrees of freedom          :   12
Chi2 statistic for size of jumps      :   11.27
p-value of test                       :    0.51


-----------------------------------------------
Normal statistic for number of jumps  : -402.80
p-value of test                       : 1 - eps1    *****



-----------------------------------------------
CPU time used                    :  00:00:05.96

Generator state:




***********************************************************
HOST = node36.local.isima.fr, Linux

MersenneTwiter


scomp_LempelZiv test:
-----------------------------------------------
   N = 10,  n = 134217728,  r =  0,   s =   30,   k =   27


-----------------------------------------------

Kolmogorov-Smirnov+ statistic = D+    :   0.087
p-value of test                       :    0.81

Kolmogorov-Smirnov- statistic = D-    :    0.11
p-value of test                       :    0.74

Anderson-Darling statistic = A2       :    0.14
p-value of test                       :    0.9990    *****

Tests on the sum of all N observations
Standardized normal statistic         :  -0.071
p-value of test                       :    0.53

Sample variance                       :    0.82
p-value of test                       :    0.60

-----------------------------------------------
CPU time used                    :  00:01:34.01

Generator state:




***********************************************************
HOST = node36.local.isima.fr, Linux

MersenneTwiter


scomp_LempelZiv test:
-----------------------------------------------
   N = 10,  n = 134217728,  r = 15,   s =   15,   k =   27


-----------------------------------------------

Kolmogorov-Smirnov+ statistic = D+    :   0.060
p-value of test                       :    0.90

Kolmogorov-Smirnov- statistic = D-    :    0.24
p-value of test                       :    0.27

Anderson-Darling statistic = A2       :    0.48
p-value of test                       :    0.76

Tests on the sum of all N observations
Standardized normal statistic         :    0.70
p-value of test                       :    0.24

Sample variance                       :    0.84
p-value of test                       :    0.58

-----------------------------------------------
CPU time used                    :  00:01:34.70

Generator state:




***********************************************************
HOST = node36.local.isima.fr, Linux

MersenneTwiter


sspectral_Fourier3 test:
-----------------------------------------------
   N = 100000,  n = 16384,  r =  0,   s =    3,   k =   14


-----------------------------------------------

Kolmogorov-Smirnov+ statistic = D+    :   0.015
p-value of test                       :    0.16

Kolmogorov-Smirnov- statistic = D-    : 9.31e-3
p-value of test                       :    0.49

Anderson-Darling statistic = A2       :    1.09
p-value of test                       :    0.31

-----------------------------------------------
CPU time used                    :  00:00:47.53

Generator state:




***********************************************************
HOST = node36.local.isima.fr, Linux

MersenneTwiter


sspectral_Fourier3 test:
-----------------------------------------------
   N = 100000,  n = 16384,  r = 27,   s =    3,   k =   14


-----------------------------------------------

Kolmogorov-Smirnov+ statistic = D+    :   0.018
p-value of test                       :    0.06

Kolmogorov-Smirnov- statistic = D-    :   0.010
p-value of test                       :    0.43

Anderson-Darling statistic = A2       :    1.53
p-value of test                       :    0.17

-----------------------------------------------
CPU time used                    :  00:00:47.55

Generator state:




***********************************************************
HOST = node36.local.isima.fr, Linux

MersenneTwiter


sstring_LongestHeadRun test:
-----------------------------------------------
   N =  1,  n = 1000,  r =  0,   s = 3,   L = 10000020


-----------------------------------------------
Number of degrees of freedom          :    8
Chi-square statistic                  :   14.22
p-value of test                       :    0.08

-----------------------------------------------
Global longest run of 1               :   32.00
p-value of test                       :    0.50



-----------------------------------------------
CPU time used                    :  00:01:15.03

Generator state:




***********************************************************
HOST = node36.local.isima.fr, Linux

MersenneTwiter


sstring_LongestHeadRun test:
-----------------------------------------------
   N =  1,  n = 1000,  r = 27,   s = 3,   L = 10000020


-----------------------------------------------
Number of degrees of freedom          :    8
Chi-square statistic                  :    7.39
p-value of test                       :    0.50

-----------------------------------------------
Global longest run of 1               :   34.00
p-value of test                       :    0.25



-----------------------------------------------
CPU time used                    :  00:01:16.67

Generator state:




***********************************************************
HOST = node36.local.isima.fr, Linux

MersenneTwiter


sstring_PeriodsInStrings test:
-----------------------------------------------
   N = 10,  n = 500000000,  r =  0,   s =   10


-----------------------------------------------

Kolmogorov-Smirnov+ statistic = D+    :   0.046
p-value of test                       :    0.93

Kolmogorov-Smirnov- statistic = D-    :    0.43
p-value of test                       :    0.02

Anderson-Darling statistic = A2       :    2.76
p-value of test                       :    0.04

Test on the sum of all N observations
Number of degrees of freedom          :  200
Chi-square statistic                  :  241.27
p-value of test                       :    0.02

-----------------------------------------------
CPU time used                    :  00:01:59.21

Generator state:




***********************************************************
HOST = node36.local.isima.fr, Linux

MersenneTwiter


sstring_PeriodsInStrings test:
-----------------------------------------------
   N = 10,  n = 500000000,  r = 20,   s =   10


-----------------------------------------------

Kolmogorov-Smirnov+ statistic = D+    :    0.16
p-value of test                       :    0.54

Kolmogorov-Smirnov- statistic = D-    :    0.11
p-value of test                       :    0.72

Anderson-Darling statistic = A2       :    0.41
p-value of test                       :    0.84

Test on the sum of all N observations
Number of degrees of freedom          :  200
Chi-square statistic                  :  197.38
p-value of test                       :    0.54

-----------------------------------------------
CPU time used                    :  00:02:02.97

Generator state:




***********************************************************
HOST = node36.local.isima.fr, Linux

MersenneTwiter


sstring_HammingWeight2 test:
-----------------------------------------------
   N = 10,  n = 1000000000,  r =  0,   s = 3,   L = 1000000


-----------------------------------------------

Kolmogorov-Smirnov+ statistic = D+    :   0.086
p-value of test                       :    0.82

Kolmogorov-Smirnov- statistic = D-    :    0.23
p-value of test                       :    0.30

Anderson-Darling statistic = A2       :    0.63
p-value of test                       :    0.61

Test on the sum of all N observations
Number of degrees of freedom          : 10000
Chi-square statistic                  :10107.42
p-value of test                       :    0.22

-----------------------------------------------
CPU time used                    :  00:00:46.62

Generator state:




***********************************************************
HOST = node36.local.isima.fr, Linux

MersenneTwiter


sstring_HammingWeight2 test:
-----------------------------------------------
   N = 10,  n = 1000000000,  r = 27,   s = 3,   L = 1000000


-----------------------------------------------

Kolmogorov-Smirnov+ statistic = D+    :    0.22
p-value of test                       :    0.34

Kolmogorov-Smirnov- statistic = D-    :    0.12
p-value of test                       :    0.70

Anderson-Darling statistic = A2       :    0.42
p-value of test                       :    0.82

Test on the sum of all N observations
Number of degrees of freedom          : 10000
Chi-square statistic                  : 9943.44
p-value of test                       :    0.65

-----------------------------------------------
CPU time used                    :  00:00:48.10

Generator state:




***********************************************************
HOST = node36.local.isima.fr, Linux

MersenneTwiter


sstring_HammingCorr test:
-----------------------------------------------
   N =  1,  n = 1000000000,  r = 10,   s = 10,   L = 30



-----------------------------------------------
Normal statistic                      :    1.72
p-value of test                       :    0.04

-----------------------------------------------
CPU time used                    :  00:00:59.37

Generator state:




***********************************************************
HOST = node36.local.isima.fr, Linux

MersenneTwiter


sstring_HammingCorr test:
-----------------------------------------------
   N =  1,  n = 100000000,  r = 10,   s = 10,   L = 300



-----------------------------------------------
Normal statistic                      :    0.17
p-value of test                       :    0.43

-----------------------------------------------
CPU time used                    :  00:00:56.86

Generator state:




***********************************************************
HOST = node36.local.isima.fr, Linux

MersenneTwiter


sstring_HammingCorr test:
-----------------------------------------------
   N =  1,  n = 100000000,  r = 10,   s = 10,   L = 1200



-----------------------------------------------
Normal statistic                      :   -0.42
p-value of test                       :    0.66

-----------------------------------------------
CPU time used                    :  00:03:45.98

Generator state:




***********************************************************
HOST = node36.local.isima.fr, Linux

MersenneTwiter


sstring_HammingIndep test:
-----------------------------------------------
   N = 10,  n = 30000000,  r =  0,   s = 3,   L = 30,   d = 0



Counters with expected numbers >= 10
-----------------------------------------------

Kolmogorov-Smirnov+ statistic = D+    :    0.19
p-value of test                       :    0.44

Kolmogorov-Smirnov- statistic = D-    :    0.15
p-value of test                       :    0.57

Anderson-Darling statistic = A2       :    0.48
p-value of test                       :    0.76

Test on the sum of all N observations
Number of degrees of freedom          : 4890
Chi-square statistic                  : 4871.48
p-value of test                       :    0.57

-----------------------------------------------
CPU time used                    :  00:01:31.07

Generator state:




***********************************************************
HOST = node36.local.isima.fr, Linux

MersenneTwiter


sstring_HammingIndep test:
-----------------------------------------------
   N = 10,  n = 30000000,  r = 27,   s = 3,   L = 30,   d = 0



Counters with expected numbers >= 10
-----------------------------------------------

Kolmogorov-Smirnov+ statistic = D+    :    0.24
p-value of test                       :    0.28

Kolmogorov-Smirnov- statistic = D-    :    0.17
p-value of test                       :    0.51

Anderson-Darling statistic = A2       :    0.57
p-value of test                       :    0.67

Test on the sum of all N observations
Number of degrees of freedom          : 4890
Chi-square statistic                  : 4874.14
p-value of test                       :    0.56

-----------------------------------------------
CPU time used                    :  00:01:34.56

Generator state:




***********************************************************
HOST = node36.local.isima.fr, Linux

MersenneTwiter


sstring_HammingIndep test:
-----------------------------------------------
   N =  1,  n = 30000000,  r =  0,   s = 4,   L = 300,   d = 0



Counters with expected numbers >= 10
-----------------------------------------------
Number of degrees of freedom          : 4117
Chi-square statistic                  : 4088.46
p-value of test                       :    0.62

-----------------------------------------------
CPU time used                    :  00:01:08.46

Generator state:




***********************************************************
HOST = node36.local.isima.fr, Linux

MersenneTwiter


sstring_HammingIndep test:
-----------------------------------------------
   N =  1,  n = 30000000,  r = 26,   s = 4,   L = 300,   d = 0



Counters with expected numbers >= 10
-----------------------------------------------
Number of degrees of freedom          : 4117
Chi-square statistic                  : 4087.20
p-value of test                       :    0.63

-----------------------------------------------
CPU time used                    :  00:01:09.86

Generator state:




***********************************************************
HOST = node36.local.isima.fr, Linux

MersenneTwiter


sstring_HammingIndep test:
-----------------------------------------------
   N =  1,  n = 10000000,  r =  0,   s = 5,   L = 1200,   d = 0



Counters with expected numbers >= 10
-----------------------------------------------
Number of degrees of freedom          : 11825
Chi-square statistic                  :11770.42
p-value of test                       :    0.64

-----------------------------------------------
CPU time used                    :  00:01:16.13

Generator state:




***********************************************************
HOST = node36.local.isima.fr, Linux

MersenneTwiter


sstring_HammingIndep test:
-----------------------------------------------
   N =  1,  n = 10000000,  r = 25,   s = 5,   L = 1200,   d = 0



Counters with expected numbers >= 10
-----------------------------------------------
Number of degrees of freedom          : 11825
Chi-square statistic                  :11939.04
p-value of test                       :    0.23

-----------------------------------------------
CPU time used                    :  00:01:17.88

Generator state:




***********************************************************
HOST = node36.local.isima.fr, Linux

MersenneTwiter


sstring_Run test:
-----------------------------------------------
   N =  1,  n = 2000000000,  r =  0,   s =    3


-----------------------------------------------
Total number of 1 runs:  2000000000

Number of degrees of freedom          :   54
Chi2 statistic for number of runs     :   54.73
p-value of test                       :    0.45


-----------------------------------------------
Total number of bits:  7999854054

Normal statistic for number of bits   :   -1.15
p-value of test                       :    0.88



-----------------------------------------------
CPU time used                    :  00:01:02.21

Generator state:




***********************************************************
HOST = node36.local.isima.fr, Linux

MersenneTwiter


sstring_Run test:
-----------------------------------------------
   N =  1,  n = 2000000000,  r = 27,   s =    3


-----------------------------------------------
Total number of 1 runs:  2000000000

Number of degrees of freedom          :   54
Chi2 statistic for number of runs     :   46.55
p-value of test                       :    0.75


-----------------------------------------------
Total number of bits:  8000023731

Normal statistic for number of bits   :    0.19
p-value of test                       :    0.43



-----------------------------------------------
CPU time used                    :  00:01:04.25

Generator state:




***********************************************************
HOST = node36.local.isima.fr, Linux

MersenneTwiter


sstring_AutoCor test:
-----------------------------------------------
   N = 10,  n = 1000000030,  r =  0,   s = 3,   d = 1


-----------------------------------------------

Kolmogorov-Smirnov+ statistic = D+    :    0.33
p-value of test                       :    0.09

Kolmogorov-Smirnov- statistic = D-    :   0.064
p-value of test                       :    0.89

Anderson-Darling statistic = A2       :    1.55
p-value of test                       :    0.17

Tests on the sum of all N observations
Standardized normal statistic         :   -1.54
p-value of test                       :    0.94

Sample variance                       :    1.31
p-value of test                       :    0.22

-----------------------------------------------
CPU time used                    :  00:01:16.65

Generator state:




***********************************************************
HOST = node36.local.isima.fr, Linux

MersenneTwiter


sstring_AutoCor test:
-----------------------------------------------
   N = 10,  n = 1000000029,  r =  0,   s = 3,   d = 3


-----------------------------------------------

Kolmogorov-Smirnov+ statistic = D+    :    0.19
p-value of test                       :    0.45

Kolmogorov-Smirnov- statistic = D-    :    0.23
p-value of test                       :    0.30

Anderson-Darling statistic = A2       :    0.68
p-value of test                       :    0.57

Tests on the sum of all N observations
Standardized normal statistic         :    0.46
p-value of test                       :    0.32

Sample variance                       :    0.79
p-value of test                       :    0.63

-----------------------------------------------
CPU time used                    :  00:01:00.62

Generator state:




***********************************************************
HOST = node36.local.isima.fr, Linux

MersenneTwiter


sstring_AutoCor test:
-----------------------------------------------
   N = 10,  n = 1000000030,  r = 27,   s = 3,   d = 1


-----------------------------------------------

Kolmogorov-Smirnov+ statistic = D+    :    0.15
p-value of test                       :    0.60

Kolmogorov-Smirnov- statistic = D-    :    0.21
p-value of test                       :    0.38

Anderson-Darling statistic = A2       :    0.46
p-value of test                       :    0.78

Tests on the sum of all N observations
Standardized normal statistic         :   -0.11
p-value of test                       :    0.54

Sample variance                       :    1.06
p-value of test                       :    0.39

-----------------------------------------------
CPU time used                    :  00:01:23.89

Generator state:




***********************************************************
HOST = node36.local.isima.fr, Linux

MersenneTwiter


sstring_AutoCor test:
-----------------------------------------------
   N = 10,  n = 1000000029,  r = 27,   s = 3,   d = 3


-----------------------------------------------

Kolmogorov-Smirnov+ statistic = D+    :    0.10
p-value of test                       :    0.76

Kolmogorov-Smirnov- statistic = D-    :    0.25
p-value of test                       :    0.24

Anderson-Darling statistic = A2       :    1.10
p-value of test                       :    0.31

Tests on the sum of all N observations
Standardized normal statistic         :    0.92
p-value of test                       :    0.18

Sample variance                       :    2.02
p-value of test                       :    0.03

-----------------------------------------------
CPU time used                    :  00:01:06.88

Generator state:





========= Summary results of BigCrush =========

 Version:          TestU01 1.2.3
 Generator:        MersenneTwiter
 Number of statistics:  160
 Total CPU time:   02:56:35.53
 The following tests gave p-values outside [0.001, 0.9990]:
 (eps  means a value < 1.0e-300):
 (eps1 means a value < 1.0e-15):

       Test                          p-value
 ----------------------------------------------
 80  LinearComp, r = 0              1 - eps1
 81  LinearComp, r = 29             1 - eps1
 ----------------------------------------------
 All other tests were passed



