xxxxxxxxxxxxxxxxxxxxxxxxxxxxxxxxxxxxxxxxxxxxxxxxxxxxxxxxxxx
                 Starting BigCrush
                 Version: TestU01 1.2.3
xxxxxxxxxxxxxxxxxxxxxxxxxxxxxxxxxxxxxxxxxxxxxxxxxxxxxxxxxxx


***********************************************************
Test smarsa_SerialOver calling smultin_MultinomialOver

***********************************************************
HOST = node35.local.isima.fr, Linux

MersenneTwiter


smultin_MultinomialOver test:
-----------------------------------------------
   N =  1,  n = 1000000000,  r =  0,   d =  256,   t =  3,
       Sparse =  FALSE

       GenerCell = smultin_GenerCellSerial
       Number of cells = d^t =           16777216
       Expected number per cell =   59.604645
       Hashing =  FALSE

   For Delta > -1, we use the ChiSquare approximation
   Correction factor of the ChiSquare: 
       Delta =     1,    Mu =   0.0083558402,    Sigma =          1

-----------------------------------------------
Test Results for Delta =   1.0000

Number of degrees of freedom          : 16711680
Value of the statistic                : 1.67e+7
p-value of test                       :    0.28


-----------------------------------------------
CPU time used                    :  00:01:05.51

Generator state:




***********************************************************
Test smarsa_SerialOver calling smultin_MultinomialOver

***********************************************************
HOST = node35.local.isima.fr, Linux

MersenneTwiter


smultin_MultinomialOver test:
-----------------------------------------------
   N =  1,  n = 1000000000,  r = 22,   d =  256,   t =  3,
       Sparse =  FALSE

       GenerCell = smultin_GenerCellSerial
       Number of cells = d^t =           16777216
       Expected number per cell =   59.604645
       Hashing =  FALSE

   For Delta > -1, we use the ChiSquare approximation
   Correction factor of the ChiSquare: 
       Delta =     1,    Mu =   0.0083558402,    Sigma =          1

-----------------------------------------------
Test Results for Delta =   1.0000

Number of degrees of freedom          : 16711680
Value of the statistic                : 1.67e+7
p-value of test                       :    0.92


-----------------------------------------------
CPU time used                    :  00:01:08.43

Generator state:




***********************************************************
Test smarsa_CollisionOver calling smultin_MultinomialOver

***********************************************************
HOST = node35.local.isima.fr, Linux

MersenneTwiter


smultin_MultinomialOver test:
-----------------------------------------------
   N = 30,  n = 20000000,  r =  0,   d = 2097152,   t =  2,
       Sparse =   TRUE

       GenerCell = smultin_GenerCellSerial
       Number of cells = d^t =      4398046511104
       Expected number per cell =  1 /  219902.33
       EColl = n^2 / (2k) =  45.47473509
       Hashing =   TRUE

       Collision test

       CollisionOver:   density = n / k =  1 /  219902.33
       Expected number of collisions = Mu =      45.47


-----------------------------------------------
Results of CollisionOver test:

POISSON approximation                 :
Expected number of collisions = N*Mu  :     1364.24
Observed number of collisions         :     1340
p-value of test                       :    0.74

-----------------------------
Total number of cells containing j balls

  j =  0                              :  131940795334460
  j =  1                              :        599997320
  j =  2                              :             1340
  j =  3                              :                0
  j =  4                              :                0
  j =  5                              :                0

-----------------------------------------------
CPU time used                    :  00:04:00.81

Generator state:




***********************************************************
Test smarsa_CollisionOver calling smultin_MultinomialOver

***********************************************************
HOST = node35.local.isima.fr, Linux

MersenneTwiter


smultin_MultinomialOver test:
-----------------------------------------------
   N = 30,  n = 20000000,  r =  9,   d = 2097152,   t =  2,
       Sparse =   TRUE

       GenerCell = smultin_GenerCellSerial
       Number of cells = d^t =      4398046511104
       Expected number per cell =  1 /  219902.33
       EColl = n^2 / (2k) =  45.47473509
       Hashing =   TRUE

       Collision test

       CollisionOver:   density = n / k =  1 /  219902.33
       Expected number of collisions = Mu =      45.47


-----------------------------------------------
Results of CollisionOver test:

POISSON approximation                 :
Expected number of collisions = N*Mu  :     1364.24
Observed number of collisions         :     1385
p-value of test                       :    0.29

-----------------------------
Total number of cells containing j balls

  j =  0                              :  131940795334505
  j =  1                              :        599997230
  j =  2                              :             1385
  j =  3                              :                0
  j =  4                              :                0
  j =  5                              :                0

-----------------------------------------------
CPU time used                    :  00:04:11.12

Generator state:




***********************************************************
Test smarsa_CollisionOver calling smultin_MultinomialOver

***********************************************************
HOST = node35.local.isima.fr, Linux

MersenneTwiter


smultin_MultinomialOver test:
-----------------------------------------------
   N = 30,  n = 20000000,  r =  0,   d = 16384,   t =  3,
       Sparse =   TRUE

       GenerCell = smultin_GenerCellSerial
       Number of cells = d^t =      4398046511104
       Expected number per cell =  1 /  219902.33
       EColl = n^2 / (2k) =  45.47473509
       Hashing =   TRUE

       Collision test

       CollisionOver:   density = n / k =  1 /  219902.33
       Expected number of collisions = Mu =      45.47


-----------------------------------------------
Results of CollisionOver test:

POISSON approximation                 :
Expected number of collisions = N*Mu  :     1364.24
Observed number of collisions         :     1371
p-value of test                       :    0.43

-----------------------------
Total number of cells containing j balls

  j =  0                              :  131940795334491
  j =  1                              :        599997258
  j =  2                              :             1371
  j =  3                              :                0
  j =  4                              :                0
  j =  5                              :                0

-----------------------------------------------
CPU time used                    :  00:05:06.94

Generator state:




***********************************************************
Test smarsa_CollisionOver calling smultin_MultinomialOver

***********************************************************
HOST = node35.local.isima.fr, Linux

MersenneTwiter


smultin_MultinomialOver test:
-----------------------------------------------
   N = 30,  n = 20000000,  r = 16,   d = 16384,   t =  3,
       Sparse =   TRUE

       GenerCell = smultin_GenerCellSerial
       Number of cells = d^t =      4398046511104
       Expected number per cell =  1 /  219902.33
       EColl = n^2 / (2k) =  45.47473509
       Hashing =   TRUE

       Collision test

       CollisionOver:   density = n / k =  1 /  219902.33
       Expected number of collisions = Mu =      45.47


-----------------------------------------------
Results of CollisionOver test:

POISSON approximation                 :
Expected number of collisions = N*Mu  :     1364.24
Observed number of collisions         :     1360
p-value of test                       :    0.54

-----------------------------
Total number of cells containing j balls

  j =  0                              :  131940795334480
  j =  1                              :        599997280
  j =  2                              :             1360
  j =  3                              :                0
  j =  4                              :                0
  j =  5                              :                0

-----------------------------------------------
CPU time used                    :  00:05:35.47

Generator state:




***********************************************************
Test smarsa_CollisionOver calling smultin_MultinomialOver

***********************************************************
HOST = node35.local.isima.fr, Linux

MersenneTwiter


smultin_MultinomialOver test:
-----------------------------------------------
   N = 30,  n = 20000000,  r =  0,   d =   64,   t =  7,
       Sparse =   TRUE

       GenerCell = smultin_GenerCellSerial
       Number of cells = d^t =      4398046511104
       Expected number per cell =  1 /  219902.33
       EColl = n^2 / (2k) =  45.47473509
       Hashing =   TRUE

       Collision test

       CollisionOver:   density = n / k =  1 /  219902.33
       Expected number of collisions = Mu =      45.47


-----------------------------------------------
Results of CollisionOver test:

POISSON approximation                 :
Expected number of collisions = N*Mu  :     1364.24
Observed number of collisions         :     1345
p-value of test                       :    0.69

-----------------------------
Total number of cells containing j balls

  j =  0                              :  131940795334465
  j =  1                              :        599997310
  j =  2                              :             1345
  j =  3                              :                0
  j =  4                              :                0
  j =  5                              :                0

-----------------------------------------------
CPU time used                    :  00:05:10.35

Generator state:




***********************************************************
Test smarsa_CollisionOver calling smultin_MultinomialOver

***********************************************************
HOST = node35.local.isima.fr, Linux

MersenneTwiter


smultin_MultinomialOver test:
-----------------------------------------------
   N = 30,  n = 20000000,  r = 24,   d =   64,   t =  7,
       Sparse =   TRUE

       GenerCell = smultin_GenerCellSerial
       Number of cells = d^t =      4398046511104
       Expected number per cell =  1 /  219902.33
       EColl = n^2 / (2k) =  45.47473509
       Hashing =   TRUE

       Collision test

       CollisionOver:   density = n / k =  1 /  219902.33
       Expected number of collisions = Mu =      45.47


-----------------------------------------------
Results of CollisionOver test:

POISSON approximation                 :
Expected number of collisions = N*Mu  :     1364.24
Observed number of collisions         :     1359
p-value of test                       :    0.55

-----------------------------
Total number of cells containing j balls

  j =  0                              :  131940795334479
  j =  1                              :        599997282
  j =  2                              :             1359
  j =  3                              :                0
  j =  4                              :                0
  j =  5                              :                0

-----------------------------------------------
CPU time used                    :  00:05:38.40

Generator state:




***********************************************************
Test smarsa_CollisionOver calling smultin_MultinomialOver

***********************************************************
HOST = node35.local.isima.fr, Linux

MersenneTwiter


smultin_MultinomialOver test:
-----------------------------------------------
   N = 30,  n = 20000000,  r =  0,   d =    8,   t = 14,
       Sparse =   TRUE

       GenerCell = smultin_GenerCellSerial
       Number of cells = d^t =      4398046511104
       Expected number per cell =  1 /  219902.33
       EColl = n^2 / (2k) =  45.47473509
       Hashing =   TRUE

       Collision test

       CollisionOver:   density = n / k =  1 /  219902.33
       Expected number of collisions = Mu =      45.47


-----------------------------------------------
Results of CollisionOver test:

POISSON approximation                 :
Expected number of collisions = N*Mu  :     1364.24
Observed number of collisions         :     1347
p-value of test                       :    0.67

-----------------------------
Total number of cells containing j balls

  j =  0                              :  131940795334467
  j =  1                              :        599997306
  j =  2                              :             1347
  j =  3                              :                0
  j =  4                              :                0
  j =  5                              :                0

-----------------------------------------------
CPU time used                    :  00:05:12.26

Generator state:




***********************************************************
Test smarsa_CollisionOver calling smultin_MultinomialOver

***********************************************************
HOST = node35.local.isima.fr, Linux

MersenneTwiter


smultin_MultinomialOver test:
-----------------------------------------------
   N = 30,  n = 20000000,  r = 27,   d =    8,   t = 14,
       Sparse =   TRUE

       GenerCell = smultin_GenerCellSerial
       Number of cells = d^t =      4398046511104
       Expected number per cell =  1 /  219902.33
       EColl = n^2 / (2k) =  45.47473509
       Hashing =   TRUE

       Collision test

       CollisionOver:   density = n / k =  1 /  219902.33
       Expected number of collisions = Mu =      45.47


-----------------------------------------------
Results of CollisionOver test:

POISSON approximation                 :
Expected number of collisions = N*Mu  :     1364.24
Observed number of collisions         :     1370
p-value of test                       :    0.44

-----------------------------
Total number of cells containing j balls

  j =  0                              :  131940795334490
  j =  1                              :        599997260
  j =  2                              :             1370
  j =  3                              :                0
  j =  4                              :                0
  j =  5                              :                0

-----------------------------------------------
CPU time used                    :  00:05:40.55

Generator state:




***********************************************************
Test smarsa_CollisionOver calling smultin_MultinomialOver

***********************************************************
HOST = node35.local.isima.fr, Linux

MersenneTwiter


smultin_MultinomialOver test:
-----------------------------------------------
   N = 30,  n = 20000000,  r =  0,   d =    4,   t = 21,
       Sparse =   TRUE

       GenerCell = smultin_GenerCellSerial
       Number of cells = d^t =      4398046511104
       Expected number per cell =  1 /  219902.33
       EColl = n^2 / (2k) =  45.47473509
       Hashing =   TRUE

       Collision test

       CollisionOver:   density = n / k =  1 /  219902.33
       Expected number of collisions = Mu =      45.47


-----------------------------------------------
Results of CollisionOver test:

POISSON approximation                 :
Expected number of collisions = N*Mu  :     1364.24
Observed number of collisions         :     1391
p-value of test                       :    0.24

-----------------------------
Total number of cells containing j balls

  j =  0                              :  131940795334511
  j =  1                              :        599997218
  j =  2                              :             1391
  j =  3                              :                0
  j =  4                              :                0
  j =  5                              :                0

-----------------------------------------------
CPU time used                    :  00:05:08.48

Generator state:




***********************************************************
Test smarsa_CollisionOver calling smultin_MultinomialOver

***********************************************************
HOST = node35.local.isima.fr, Linux

MersenneTwiter


smultin_MultinomialOver test:
-----------------------------------------------
   N = 30,  n = 20000000,  r = 28,   d =    4,   t = 21,
       Sparse =   TRUE

       GenerCell = smultin_GenerCellSerial
       Number of cells = d^t =      4398046511104
       Expected number per cell =  1 /  219902.33
       EColl = n^2 / (2k) =  45.47473509
       Hashing =   TRUE

       Collision test

       CollisionOver:   density = n / k =  1 /  219902.33
       Expected number of collisions = Mu =      45.47


-----------------------------------------------
Results of CollisionOver test:

POISSON approximation                 :
Expected number of collisions = N*Mu  :     1364.24
Observed number of collisions         :     1359
p-value of test                       :    0.55

-----------------------------
Total number of cells containing j balls

  j =  0                              :  131940795334479
  j =  1                              :        599997282
  j =  2                              :             1359
  j =  3                              :                0
  j =  4                              :                0
  j =  5                              :                0

-----------------------------------------------
CPU time used                    :  00:05:41.76

Generator state:




***********************************************************
HOST = node35.local.isima.fr, Linux

MersenneTwiter


smarsa_BirthdaySpacings test:
-----------------------------------------------
   N = 100,  n = 10000000,  r =  0,    d = 2147483648,    t = 2,    p = 1


      Number of cells = d^t = 4611686018427387904
      Lambda = Poisson mean =      54.2101


----------------------------------------------------
Total expected number = N*Lambda      :    5421.01
Total observed number                 :    5383
p-value of test                       :    0.69


-----------------------------------------------
CPU time used                    :  00:03:30.50

Generator state:




***********************************************************
HOST = node35.local.isima.fr, Linux

MersenneTwiter


smarsa_BirthdaySpacings test:
-----------------------------------------------
   N = 20,  n = 20000000,  r =  0,    d = 2097152,    t = 3,    p = 1


      Number of cells = d^t = 9223372036854775808
      Lambda = Poisson mean =     216.8404


----------------------------------------------------
Total expected number = N*Lambda      :    4336.81
Total observed number                 :    4318
p-value of test                       :    0.61


-----------------------------------------------
CPU time used                    :  00:01:29.92

Generator state:




***********************************************************
HOST = node35.local.isima.fr, Linux

MersenneTwiter


smarsa_BirthdaySpacings test:
-----------------------------------------------
   N = 20,  n = 30000000,  r = 14,    d = 65536,    t = 4,    p = 1


      Number of cells = d^t = 18446744073709551616
      Lambda = Poisson mean =     365.9182


----------------------------------------------------
Total expected number = N*Lambda      :    7318.36
Total observed number                 :    7478
p-value of test                       :    0.03


-----------------------------------------------
CPU time used                    :  00:02:24.63

Generator state:




***********************************************************
HOST = node35.local.isima.fr, Linux

MersenneTwiter


smarsa_BirthdaySpacings test:
-----------------------------------------------
   N = 20,  n = 20000000,  r =  0,    d = 512,    t = 7,    p = 1


      Number of cells = d^t = 9223372036854775808
      Lambda = Poisson mean =     216.8404


----------------------------------------------------
Total expected number = N*Lambda      :    4336.81
Total observed number                 :    4314
p-value of test                       :    0.63


-----------------------------------------------
CPU time used                    :  00:01:39.69

Generator state:




***********************************************************
HOST = node35.local.isima.fr, Linux

MersenneTwiter


smarsa_BirthdaySpacings test:
-----------------------------------------------
   N = 20,  n = 20000000,  r =  7,    d = 512,    t = 7,    p = 1


      Number of cells = d^t = 9223372036854775808
      Lambda = Poisson mean =     216.8404


----------------------------------------------------
Total expected number = N*Lambda      :    4336.81
Total observed number                 :    4292
p-value of test                       :    0.75


-----------------------------------------------
CPU time used                    :  00:01:44.30

Generator state:




***********************************************************
HOST = node35.local.isima.fr, Linux

MersenneTwiter


smarsa_BirthdaySpacings test:
-----------------------------------------------
   N = 20,  n = 30000000,  r = 14,    d = 256,    t = 8,    p = 1


      Number of cells = d^t = 18446744073709551616
      Lambda = Poisson mean =     365.9182


----------------------------------------------------
Total expected number = N*Lambda      :    7318.36
Total observed number                 :    7414
p-value of test                       :    0.13


-----------------------------------------------
CPU time used                    :  00:02:43.32

Generator state:




***********************************************************
HOST = node35.local.isima.fr, Linux

MersenneTwiter


smarsa_BirthdaySpacings test:
-----------------------------------------------
   N = 20,  n = 30000000,  r = 22,    d = 256,    t = 8,    p = 1


      Number of cells = d^t = 18446744073709551616
      Lambda = Poisson mean =     365.9182


----------------------------------------------------
Total expected number = N*Lambda      :    7318.36
Total observed number                 :    7250
p-value of test                       :    0.79


-----------------------------------------------
CPU time used                    :  00:02:43.72

Generator state:




***********************************************************
HOST = node35.local.isima.fr, Linux

MersenneTwiter


smarsa_BirthdaySpacings test:
-----------------------------------------------
   N = 20,  n = 30000000,  r =  0,    d = 16,    t = 16,    p = 1


      Number of cells = d^t = 18446744073709551616
      Lambda = Poisson mean =     365.9182


----------------------------------------------------
Total expected number = N*Lambda      :    7318.36
Total observed number                 :    7400
p-value of test                       :    0.17


-----------------------------------------------
CPU time used                    :  00:03:11.34

Generator state:




***********************************************************
HOST = node35.local.isima.fr, Linux

MersenneTwiter


smarsa_BirthdaySpacings test:
-----------------------------------------------
   N = 20,  n = 30000000,  r = 26,    d = 16,    t = 16,    p = 1


      Number of cells = d^t = 18446744073709551616
      Lambda = Poisson mean =     365.9182


----------------------------------------------------
Total expected number = N*Lambda      :    7318.36
Total observed number                 :    7440
p-value of test                       :    0.08


-----------------------------------------------
CPU time used                    :  00:03:23.96

Generator state:




***********************************************************
HOST = node35.local.isima.fr, Linux

MersenneTwiter


snpair_ClosePairs test:
-----------------------------------------------
   N = 30,  n = 6000000,  r =  0,  t = 3,  p = 0,  m = 30,  Torus =  TRUE


---------------------------------------
Test based on the 2 nearest points (NP):

Stat. AD on the N values (NP)         :    0.47
p-value of test                       :    0.78


A2 test based on the spacings between the
   successive jump times of process Y_n(t):

A2 test on the values of A2 (m-NP)    :    1.34
p-value of test                       :    0.22

Test on the Nm values of W_{n,i}(mNP1):    0.54
p-value of test                       :    0.71

Test on the jump times of Y
   (superposition of Yn):

Expected number of jumps of Y = mN    :     900
Number of jumps of Y                  :     893
p-value of test                       :    0.58

Stat. AD (mNP2)                       :    1.42
p-value of test                       :    0.20

Stat. AD after spacings (mNP2-S)      :    6.14
p-value of test                       :  8.5e-4    *****

-----------------------------------------------
CPU time used                    :  00:01:48.57

Generator state:




***********************************************************
HOST = node35.local.isima.fr, Linux

MersenneTwiter


snpair_ClosePairs test:
-----------------------------------------------
   N = 20,  n = 4000000,  r =  0,  t = 5,  p = 0,  m = 30,  Torus =  TRUE


---------------------------------------
Test based on the 2 nearest points (NP):

Stat. AD on the N values (NP)         :    0.61
p-value of test                       :    0.64


A2 test based on the spacings between the
   successive jump times of process Y_n(t):

A2 test on the values of A2 (m-NP)    :    1.05
p-value of test                       :    0.33

Test on the Nm values of W_{n,i}(mNP1):    0.25
p-value of test                       :    0.97

Test on the jump times of Y
   (superposition of Yn):

Expected number of jumps of Y = mN    :     600
Number of jumps of Y                  :     588
p-value of test                       :    0.68

Stat. AD (mNP2)                       :    0.52
p-value of test                       :    0.73

Stat. AD after spacings (mNP2-S)      :    0.41
p-value of test                       :    0.84

-----------------------------------------------
CPU time used                    :  00:01:13.34

Generator state:




***********************************************************
HOST = node35.local.isima.fr, Linux

MersenneTwiter


snpair_ClosePairs test:
-----------------------------------------------
   N = 10,  n = 3000000,  r =  0,  t = 9,  p = 0,  m = 30,  Torus =  TRUE


---------------------------------------
Test based on the 2 nearest points (NP):

Stat. AD on the N values (NP)         :    1.62
p-value of test                       :    0.15


A2 test based on the spacings between the
   successive jump times of process Y_n(t):

A2 test on the values of A2 (m-NP)    :    2.71
p-value of test                       :    0.04

Test on the Nm values of W_{n,i}(mNP1):    1.53
p-value of test                       :    0.17

Test on the jump times of Y
   (superposition of Yn):

Expected number of jumps of Y = mN    :     300
Number of jumps of Y                  :     280
p-value of test                       :    0.87

Stat. AD (mNP2)                       :    0.72
p-value of test                       :    0.54

Stat. AD after spacings (mNP2-S)      :    2.55
p-value of test                       :    0.05

-----------------------------------------------
CPU time used                    :  00:02:12.22

Generator state:




***********************************************************
HOST = node35.local.isima.fr, Linux

MersenneTwiter


snpair_ClosePairs test:
-----------------------------------------------
   N =  5,  n = 2000000,  r =  0,  t = 16,  p = 0,  m = 30,  Torus =  TRUE


---------------------------------------
Test based on the 2 nearest points (NP):

Stat. AD on the N values (NP)         :    0.25
p-value of test                       :    0.97


A2 test based on the spacings between the
   successive jump times of process Y_n(t):

A2 test on the values of A2 (m-NP)    :    0.82
p-value of test                       :    0.46

Test on the Nm values of W_{n,i}(mNP1):    1.36
p-value of test                       :    0.21

Test on the jump times of Y
   (superposition of Yn):

Expected number of jumps of Y = mN    :     150
Number of jumps of Y                  :     147
p-value of test                       :    0.58

Stat. AD (mNP2)                       :    0.96
p-value of test                       :    0.38

Stat. AD after spacings (mNP2-S)      :    2.65
p-value of test                       :    0.04

-----------------------------------------------
CPU time used                    :  00:02:37.26

Generator state:




***********************************************************
HOST = node35.local.isima.fr, Linux

MersenneTwiter


sknuth_SimpPoker test:
-----------------------------------------------
   N =  1,  n = 400000000,  r =  0,   d =    8,   k =    8


-----------------------------------------------
Number of degrees of freedom          :    7
Chi-square statistic                  :    8.21
p-value of test                       :    0.31

-----------------------------------------------
CPU time used                    :  00:00:43.77

Generator state:




***********************************************************
HOST = node35.local.isima.fr, Linux

MersenneTwiter


sknuth_SimpPoker test:
-----------------------------------------------
   N =  1,  n = 400000000,  r = 27,   d =    8,   k =    8


-----------------------------------------------
Number of degrees of freedom          :    7
Chi-square statistic                  :    3.41
p-value of test                       :    0.84

-----------------------------------------------
CPU time used                    :  00:00:53.77

Generator state:




***********************************************************
HOST = node35.local.isima.fr, Linux

MersenneTwiter


sknuth_SimpPoker test:
-----------------------------------------------
   N =  1,  n = 100000000,  r =  0,   d =   32,   k =   32


-----------------------------------------------
Number of degrees of freedom          :   18
Chi-square statistic                  :   24.88
p-value of test                       :    0.13

-----------------------------------------------
CPU time used                    :  00:00:45.93

Generator state:




***********************************************************
HOST = node35.local.isima.fr, Linux

MersenneTwiter


sknuth_SimpPoker test:
-----------------------------------------------
   N =  1,  n = 100000000,  r = 25,   d =   32,   k =   32


-----------------------------------------------
Number of degrees of freedom          :   18
Chi-square statistic                  :   21.44
p-value of test                       :    0.26

-----------------------------------------------
CPU time used                    :  00:00:58.85

Generator state:




***********************************************************
HOST = node35.local.isima.fr, Linux

MersenneTwiter


sknuth_CouponCollector test:
-----------------------------------------------
   N =  1,  n = 200000000,  r =  0,   d =    8


-----------------------------------------------
Number of degrees of freedom          :   54
Chi-square statistic                  :   58.28
p-value of test                       :    0.32

-----------------------------------------------
CPU time used                    :  00:00:52.71

Generator state:




***********************************************************
HOST = node35.local.isima.fr, Linux

MersenneTwiter


sknuth_CouponCollector test:
-----------------------------------------------
   N =  1,  n = 200000000,  r = 10,   d =    8


-----------------------------------------------
Number of degrees of freedom          :   54
Chi-square statistic                  :   45.10
p-value of test                       :    0.80

-----------------------------------------------
CPU time used                    :  00:01:06.55

Generator state:




***********************************************************
HOST = node35.local.isima.fr, Linux

MersenneTwiter


sknuth_CouponCollector test:
-----------------------------------------------
   N =  1,  n = 200000000,  r = 20,   d =    8


-----------------------------------------------
Number of degrees of freedom          :   54
Chi-square statistic                  :   59.86
p-value of test                       :    0.27

-----------------------------------------------
CPU time used                    :  00:01:06.31

Generator state:




***********************************************************
HOST = node35.local.isima.fr, Linux

MersenneTwiter


sknuth_CouponCollector test:
-----------------------------------------------
   N =  1,  n = 200000000,  r = 27,   d =    8


-----------------------------------------------
Number of degrees of freedom          :   54
Chi-square statistic                  :   59.44
p-value of test                       :    0.28

-----------------------------------------------
CPU time used                    :  00:01:06.31

Generator state:




***********************************************************
HOST = node35.local.isima.fr, Linux

MersenneTwiter


sknuth_Gap test:
-----------------------------------------------
   N =  1,  n = 500000000,  r =  0,   Alpha =        0,   Beta  =   0.0625


-----------------------------------------------
Number of degrees of freedom          :  232
Chi-square statistic                  :  240.09
p-value of test                       :    0.34

-----------------------------------------------
CPU time used                    :  00:00:56.73

Generator state:




***********************************************************
HOST = node35.local.isima.fr, Linux

MersenneTwiter


sknuth_Gap test:
-----------------------------------------------
   N =  1,  n = 300000000,  r = 25,   Alpha =        0,   Beta  =  0.03125


-----------------------------------------------
Number of degrees of freedom          :  434
Chi-square statistic                  :  452.34
p-value of test                       :    0.26

-----------------------------------------------
CPU time used                    :  00:01:19.52

Generator state:




***********************************************************
HOST = node35.local.isima.fr, Linux

MersenneTwiter


sknuth_Gap test:
-----------------------------------------------
   N =  1,  n = 100000000,  r =  0,   Alpha =        0,   Beta  = 0.0078125


-----------------------------------------------
Number of degrees of freedom          : 1437
Chi-square statistic                  : 1443.81
p-value of test                       :    0.44

-----------------------------------------------
CPU time used                    :  00:01:19.31

Generator state:




***********************************************************
HOST = node35.local.isima.fr, Linux

MersenneTwiter


sknuth_Gap test:
-----------------------------------------------
   N =  1,  n = 10000000,  r = 20,   Alpha =        0,   Beta  = 0.000976562


-----------------------------------------------
Number of degrees of freedom          : 7046
Chi-square statistic                  : 6958.38
p-value of test                       :    0.77

-----------------------------------------------
CPU time used                    :  00:01:17.50

Generator state:




***********************************************************
HOST = node35.local.isima.fr, Linux

MersenneTwiter


sknuth_Run test:
-----------------------------------------------
   N =  5,  n = 1000000000,  r =  0,   Up = FALSE


-----------------------------------------------

Kolmogorov-Smirnov+ statistic = D+    :    0.13
p-value of test                       :    0.79

Kolmogorov-Smirnov- statistic = D-    :    0.32
p-value of test                       :    0.30

Anderson-Darling statistic = A2       :    0.58
p-value of test                       :    0.66

Test on the sum of all N observations
Number of degrees of freedom          :   30
Chi-square statistic                  :   33.30
p-value of test                       :    0.31

-----------------------------------------------
CPU time used                    :  00:01:00.85

Generator state:




***********************************************************
HOST = node35.local.isima.fr, Linux

MersenneTwiter


sknuth_Run test:
-----------------------------------------------
   N = 10,  n = 1000000000,  r = 15,   Up =  TRUE


-----------------------------------------------

Kolmogorov-Smirnov+ statistic = D+    :    0.14
p-value of test                       :    0.62

Kolmogorov-Smirnov- statistic = D-    :    0.30
p-value of test                       :    0.14

Anderson-Darling statistic = A2       :    0.75
p-value of test                       :    0.52

Test on the sum of all N observations
Number of degrees of freedom          :   60
Chi-square statistic                  :   63.21
p-value of test                       :    0.36

-----------------------------------------------
CPU time used                    :  00:02:38.25

Generator state:




***********************************************************
Test sknuth_Permutation calling smultin_Multinomial

***********************************************************
HOST = node35.local.isima.fr, Linux

MersenneTwiter


smultin_Multinomial test:
-----------------------------------------------
   N =  1,  n = 1000000000,  r =  5,   t =  3,
       Sparse =  FALSE

       GenerCell = smultin_GenerCellPermut
       Number of cells = t! =                  6
       Expected number per cell =  1.6666667e+08
       Hashing =  FALSE

   For Delta > -1, we use the ChiSquare approximation
   Correction factor of the ChiSquare: 
       Delta =     1,    Mu =  2.5000002e-09,    Sigma =          1

-----------------------------------------------
Test Results for Delta =   1.0000

Number of degrees of freedom          :    5
Value of the statistic                :    5.12
p-value of test                       :    0.40


-----------------------------------------------
CPU time used                    :  00:00:50.64

Generator state:




***********************************************************
Test sknuth_Permutation calling smultin_Multinomial

***********************************************************
HOST = node35.local.isima.fr, Linux

MersenneTwiter


smultin_Multinomial test:
-----------------------------------------------
   N =  1,  n = 1000000000,  r =  5,   t =  5,
       Sparse =  FALSE

       GenerCell = smultin_GenerCellPermut
       Number of cells = t! =                120
       Expected number per cell =   8333333.3
       Hashing =  FALSE

   For Delta > -1, we use the ChiSquare approximation
   Correction factor of the ChiSquare: 
       Delta =     1,    Mu =  5.9500005e-08,    Sigma =          1

-----------------------------------------------
Test Results for Delta =   1.0000

Number of degrees of freedom          :  119
Value of the statistic                :  111.39
p-value of test                       :    0.68


-----------------------------------------------
CPU time used                    :  00:01:21.93

Generator state:




***********************************************************
Test sknuth_Permutation calling smultin_Multinomial

***********************************************************
HOST = node35.local.isima.fr, Linux

MersenneTwiter


smultin_Multinomial test:
-----------------------------------------------
   N =  1,  n = 500000000,  r =  5,   t =  7,
       Sparse =  FALSE

       GenerCell = smultin_GenerCellPermut
       Number of cells = t! =               5040
       Expected number per cell =   99206.349
       Hashing =  FALSE

   For Delta > -1, we use the ChiSquare approximation
   Correction factor of the ChiSquare: 
       Delta =     1,    Mu =  5.0390004e-06,    Sigma =          1

-----------------------------------------------
Test Results for Delta =   1.0000

Number of degrees of freedom          : 5039
Value of the statistic                : 5125.64
p-value of test                       :    0.19


-----------------------------------------------
CPU time used                    :  00:01:05.22

Generator state:




***********************************************************
Test sknuth_Permutation calling smultin_Multinomial

***********************************************************
HOST = node35.local.isima.fr, Linux

MersenneTwiter


smultin_Multinomial test:
-----------------------------------------------
   N =  1,  n = 500000000,  r = 10,   t = 10,
       Sparse =  FALSE

       GenerCell = smultin_GenerCellPermut
       Number of cells = t! =            3628800
       Expected number per cell =    137.7866
       Hashing =  FALSE

   For Delta > -1, we use the ChiSquare approximation
   Correction factor of the ChiSquare: 
       Delta =     1,    Mu =   0.0036287993,    Sigma =          1

-----------------------------------------------
Test Results for Delta =   1.0000

Number of degrees of freedom          : 3628799
Value of the statistic                : 3.63e+6
p-value of test                       :    0.20


-----------------------------------------------
CPU time used                    :  00:02:56.27

Generator state:




***********************************************************
Test sknuth_CollisionPermut calling smultin_Multinomial

***********************************************************
HOST = node35.local.isima.fr, Linux

MersenneTwiter


smultin_Multinomial test:
-----------------------------------------------
   N = 20,  n = 20000000,  r =  0,   t = 14,
       Sparse =   TRUE

       GenerCell = smultin_GenerCellPermut
       Number of cells = t! =        87178291200
       Expected number per cell =  1 /  4358.9146
       EColl = n^2 / (2k) =   2294.14912
       Hashing =   TRUE

       Collision test,    Mu =      2293.9736,    Sigma =    47.8841

-----------------------------------------------
Test Results for Collisions

For the total number of collisions, we use
      the Poisson approximation:
Expected number of collisions = N*Mu  :    45879.47
Observed number of collisions         :    45876
p-value of test                       :    0.51


-----------------------------
Total number of cells containing j balls

  j =  0                              :    1743165869876
  j =  1                              :        399908252
  j =  2                              :            45868
  j =  3                              :                4
  j =  4                              :                0
  j =  5                              :                0

-----------------------------------------------
CPU time used                    :  00:04:38.11

Generator state:




***********************************************************
Test sknuth_CollisionPermut calling smultin_Multinomial

***********************************************************
HOST = node35.local.isima.fr, Linux

MersenneTwiter


smultin_Multinomial test:
-----------------------------------------------
   N = 20,  n = 20000000,  r = 10,   t = 14,
       Sparse =   TRUE

       GenerCell = smultin_GenerCellPermut
       Number of cells = t! =        87178291200
       Expected number per cell =  1 /  4358.9146
       EColl = n^2 / (2k) =   2294.14912
       Hashing =   TRUE

       Collision test,    Mu =      2293.9736,    Sigma =    47.8841

-----------------------------------------------
Test Results for Collisions

For the total number of collisions, we use
      the Poisson approximation:
Expected number of collisions = N*Mu  :    45879.47
Observed number of collisions         :    46194
p-value of test                       :    0.07


-----------------------------
Total number of cells containing j balls

  j =  0                              :    1743165870194
  j =  1                              :        399907618
  j =  2                              :            46182
  j =  3                              :                6
  j =  4                              :                0
  j =  5                              :                0

-----------------------------------------------
CPU time used                    :  00:04:44.09

Generator state:




***********************************************************
HOST = node35.local.isima.fr, Linux

MersenneTwiter


sknuth_MaxOft test:
-----------------------------------------------
   N = 40,  n = 10000000,  r =  0,   d = 100000,   t =  8

      Number of categories = 100000
      Expected number per category  = 100.00


-----------------------------------------------
Test results for chi2 with 99999 degrees of freedom:

Kolmogorov-Smirnov+ statistic = D+    :   0.068
p-value of test                       :    0.66

Kolmogorov-Smirnov- statistic = D-    :   0.097
p-value of test                       :    0.44

Anderson-Darling statistic = A2       :    0.56
p-value of test                       :    0.69

Test on the sum of all N observations
Number of degrees of freedom          : 3999960
Chi-square statistic                  : 4.00e+6
p-value of test                       :    0.57


-----------------------------------------------
Test results for Anderson-Darling:

Kolmogorov-Smirnov+ statistic = D+    :   0.095
p-value of test                       :    0.46

Kolmogorov-Smirnov- statistic = D-    :    0.16
p-value of test                       :    0.13

Anderson-Darling statistic = A2       :    0.78
p-value of test                       :    0.49


-----------------------------------------------
CPU time used                    :  00:01:33.55

Generator state:




***********************************************************
HOST = node35.local.isima.fr, Linux

MersenneTwiter


sknuth_MaxOft test:
-----------------------------------------------
   N = 30,  n = 10000000,  r =  0,   d = 100000,   t = 16

      Number of categories = 100000
      Expected number per category  = 100.00


-----------------------------------------------
Test results for chi2 with 99999 degrees of freedom:

Kolmogorov-Smirnov+ statistic = D+    :   0.030
p-value of test                       :    0.93

Kolmogorov-Smirnov- statistic = D-    :    0.18
p-value of test                       :    0.13

Anderson-Darling statistic = A2       :    1.73
p-value of test                       :    0.13

Test on the sum of all N observations
Number of degrees of freedom          : 2999970
Chi-square statistic                  : 3.00e+6
p-value of test                       :    0.05


-----------------------------------------------
Test results for Anderson-Darling:

Kolmogorov-Smirnov+ statistic = D+    : 1.41e-3
p-value of test                       :    0.9985

Kolmogorov-Smirnov- statistic = D-    :    0.23
p-value of test                       :    0.03

Anderson-Darling statistic = A2       :    3.81
p-value of test                       :    0.01


-----------------------------------------------
CPU time used                    :  00:01:23.89

Generator state:




***********************************************************
HOST = node35.local.isima.fr, Linux

MersenneTwiter


sknuth_MaxOft test:
-----------------------------------------------
   N = 20,  n = 10000000,  r =  0,   d = 100000,   t = 24

      Number of categories = 100000
      Expected number per category  = 100.00


-----------------------------------------------
Test results for chi2 with 99999 degrees of freedom:

Kolmogorov-Smirnov+ statistic = D+    :    0.16
p-value of test                       :    0.32

Kolmogorov-Smirnov- statistic = D-    :   0.100
p-value of test                       :    0.63

Anderson-Darling statistic = A2       :    0.51
p-value of test                       :    0.73

Test on the sum of all N observations
Number of degrees of freedom          : 1999980
Chi-square statistic                  : 2.00e+6
p-value of test                       :    0.47


-----------------------------------------------
Test results for Anderson-Darling:

Kolmogorov-Smirnov+ statistic = D+    :   0.073
p-value of test                       :    0.77

Kolmogorov-Smirnov- statistic = D-    :    0.27
p-value of test                       :    0.04

Anderson-Darling statistic = A2       :    1.64
p-value of test                       :    0.15


-----------------------------------------------
CPU time used                    :  00:01:05.32

Generator state:




***********************************************************
HOST = node35.local.isima.fr, Linux

MersenneTwiter


sknuth_MaxOft test:
-----------------------------------------------
   N = 20,  n = 10000000,  r =  0,   d = 100000,   t = 32

      Number of categories = 100000
      Expected number per category  = 100.00


-----------------------------------------------
Test results for chi2 with 99999 degrees of freedom:

Kolmogorov-Smirnov+ statistic = D+    :    0.22
p-value of test                       :    0.13

Kolmogorov-Smirnov- statistic = D-    :   0.056
p-value of test                       :    0.85

Anderson-Darling statistic = A2       :    0.89
p-value of test                       :    0.42

Test on the sum of all N observations
Number of degrees of freedom          : 1999980
Chi-square statistic                  : 2.00e+6
p-value of test                       :    0.80


-----------------------------------------------
Test results for Anderson-Darling:

Kolmogorov-Smirnov+ statistic = D+    :   0.078
p-value of test                       :    0.74

Kolmogorov-Smirnov- statistic = D-    :    0.29
p-value of test                       :    0.03

Anderson-Darling statistic = A2       :    2.42
p-value of test                       :    0.05


-----------------------------------------------
CPU time used                    :  00:01:14.61

Generator state:




***********************************************************
HOST = node35.local.isima.fr, Linux

MersenneTwiter


svaria_SampleProd test:
-----------------------------------------------
   N = 40,  n = 10000000,  r =  0,   t = 8


-----------------------------------------------

Kolmogorov-Smirnov+ statistic = D+    :   0.028
p-value of test                       :    0.92

Kolmogorov-Smirnov- statistic = D-    :   0.069
p-value of test                       :    0.65

Anderson-Darling statistic = A2       :    0.27
p-value of test                       :    0.96

-----------------------------------------------
CPU time used                    :  00:01:18.48

Generator state:




***********************************************************
HOST = node35.local.isima.fr, Linux

MersenneTwiter


svaria_SampleProd test:
-----------------------------------------------
   N = 20,  n = 10000000,  r =  0,   t = 16


-----------------------------------------------

Kolmogorov-Smirnov+ statistic = D+    :    0.13
p-value of test                       :    0.46

Kolmogorov-Smirnov- statistic = D-    :   0.064
p-value of test                       :    0.81

Anderson-Darling statistic = A2       :    0.30
p-value of test                       :    0.94

-----------------------------------------------
CPU time used                    :  00:00:52.02

Generator state:




***********************************************************
HOST = node35.local.isima.fr, Linux

MersenneTwiter


svaria_SampleProd test:
-----------------------------------------------
   N = 20,  n = 10000000,  r =  0,   t = 24


-----------------------------------------------

Kolmogorov-Smirnov+ statistic = D+    :   0.010
p-value of test                       :    0.99

Kolmogorov-Smirnov- statistic = D-    :    0.23
p-value of test                       :    0.10

Anderson-Darling statistic = A2       :    2.88
p-value of test                       :    0.03

-----------------------------------------------
CPU time used                    :  00:01:03.13

Generator state:




***********************************************************
HOST = node35.local.isima.fr, Linux

MersenneTwiter


svaria_SampleMean test:
-----------------------------------------------
   N = 20000000,  n = 30,  r =  0


-----------------------------------------------

Kolmogorov-Smirnov+ statistic = D+    : 7.87e-5
p-value of test                       :    0.78

Kolmogorov-Smirnov- statistic = D-    : 2.40e-4
p-value of test                       :    0.10

Anderson-Darling statistic = A2       :    0.99
p-value of test                       :    0.36

-----------------------------------------------
CPU time used                    :  00:00:11.81

Generator state:




***********************************************************
HOST = node35.local.isima.fr, Linux

MersenneTwiter


svaria_SampleMean test:
-----------------------------------------------
   N = 20000000,  n = 30,  r = 10


-----------------------------------------------

Kolmogorov-Smirnov+ statistic = D+    : 1.24e-4
p-value of test                       :    0.54

Kolmogorov-Smirnov- statistic = D-    : 1.30e-4
p-value of test                       :    0.51

Anderson-Darling statistic = A2       :    0.64
p-value of test                       :    0.61

-----------------------------------------------
CPU time used                    :  00:00:12.53

Generator state:




***********************************************************
HOST = node35.local.isima.fr, Linux

MersenneTwiter


svaria_SampleCorr test:
-----------------------------------------------
   N =  1,  n = 2000000000,  r =  0,   k = 1


-----------------------------------------------
Normal statistic                      :   -0.15
p-value of test                       :    0.56

-----------------------------------------------
CPU time used                    :  00:00:12.26

Generator state:




***********************************************************
HOST = node35.local.isima.fr, Linux

MersenneTwiter


svaria_SampleCorr test:
-----------------------------------------------
   N =  1,  n = 2000000000,  r =  0,   k = 2


-----------------------------------------------
Normal statistic                      :    0.71
p-value of test                       :    0.24

-----------------------------------------------
CPU time used                    :  00:00:12.18

Generator state:




***********************************************************
HOST = node35.local.isima.fr, Linux

MersenneTwiter


svaria_AppearanceSpacings test:
-----------------------------------------------
   N =  1,   Q = 10000000,   K = 1000000000,   r = 0,   s = 3,   L = 15

   Sequences of n = (K + Q)L =  15150000000 bits
   Q = 10000000 initialization blocks
   K = 1000000000 blocks for the test
   the blocks have L = 15 bits



-----------------------------------------------
Normal statistic                      :   -1.42
p-value of test                       :    0.92

-----------------------------------------------
CPU time used                    :  00:00:46.48

Generator state:




***********************************************************
HOST = node35.local.isima.fr, Linux

MersenneTwiter


svaria_AppearanceSpacings test:
-----------------------------------------------
   N =  1,   Q = 10000000,   K = 1000000000,   r = 27,   s = 3,   L = 15

   Sequences of n = (K + Q)L =  15150000000 bits
   Q = 10000000 initialization blocks
   K = 1000000000 blocks for the test
   the blocks have L = 15 bits



-----------------------------------------------
Normal statistic                      :    1.44
p-value of test                       :    0.07

-----------------------------------------------
CPU time used                    :  00:00:48.81

Generator state:




***********************************************************
HOST = node35.local.isima.fr, Linux

MersenneTwiter


svaria_WeightDistrib test:
-----------------------------------------------
   N =  1,  n = 20000000,  r =  0,  k = 256,  Alpha =      0,  Beta =   0.25


-----------------------------------------------
Number of degrees of freedom          :   67
Chi-square statistic                  :   57.86
p-value of test                       :    0.78

-----------------------------------------------
CPU time used                    :  00:00:29.71

Generator state:




***********************************************************
HOST = node35.local.isima.fr, Linux

MersenneTwiter


svaria_WeightDistrib test:
-----------------------------------------------
   N =  1,  n = 20000000,  r = 20,  k = 256,  Alpha =      0,  Beta =   0.25


-----------------------------------------------
Number of degrees of freedom          :   67
Chi-square statistic                  :   76.17
p-value of test                       :    0.21

-----------------------------------------------
CPU time used                    :  00:00:38.84

Generator state:




***********************************************************
HOST = node35.local.isima.fr, Linux

MersenneTwiter


svaria_WeightDistrib test:
-----------------------------------------------
   N =  1,  n = 20000000,  r = 28,  k = 256,  Alpha =      0,  Beta =   0.25


-----------------------------------------------
Number of degrees of freedom          :   67
Chi-square statistic                  :   60.49
p-value of test                       :    0.70

-----------------------------------------------
CPU time used                    :  00:00:38.89

Generator state:




***********************************************************
HOST = node35.local.isima.fr, Linux

MersenneTwiter


svaria_WeightDistrib test:
-----------------------------------------------
   N =  1,  n = 20000000,  r =  0,  k = 256,  Alpha =      0,  Beta = 0.0625


-----------------------------------------------
Number of degrees of freedom          :   37
Chi-square statistic                  :   28.75
p-value of test                       :    0.83

-----------------------------------------------
CPU time used                    :  00:00:29.89

Generator state:




***********************************************************
HOST = node35.local.isima.fr, Linux

MersenneTwiter


svaria_WeightDistrib test:
-----------------------------------------------
   N =  1,  n = 20000000,  r = 10,  k = 256,  Alpha =      0,  Beta = 0.0625


-----------------------------------------------
Number of degrees of freedom          :   37
Chi-square statistic                  :   44.33
p-value of test                       :    0.19

-----------------------------------------------
CPU time used                    :  00:00:39.00

Generator state:




***********************************************************
HOST = node35.local.isima.fr, Linux

MersenneTwiter


svaria_WeightDistrib test:
-----------------------------------------------
   N =  1,  n = 20000000,  r = 26,  k = 256,  Alpha =      0,  Beta = 0.0625


-----------------------------------------------
Number of degrees of freedom          :   37
Chi-square statistic                  :   34.79
p-value of test                       :    0.57

-----------------------------------------------
CPU time used                    :  00:00:38.86

Generator state:




***********************************************************
HOST = node35.local.isima.fr, Linux

MersenneTwiter


svaria_SumCollector test:
-----------------------------------------------
   N =  1,  n = 500000000,  r =  0,   g = 10


-----------------------------------------------
Number of degrees of freedom          :   29
Chi-square statistic                  :   31.61
p-value of test                       :    0.34

-----------------------------------------------
CPU time used                    :  00:01:08.93

Generator state:




***********************************************************
HOST = node35.local.isima.fr, Linux

MersenneTwiter


smarsa_MatrixRank test:
-----------------------------------------------
   N = 10,  n = 1000000,  r =  0,    s = 5,    L = 30,    k = 30


-----------------------------------------------

Kolmogorov-Smirnov+ statistic = D+    :    0.20
p-value of test                       :    0.41

Kolmogorov-Smirnov- statistic = D-    :    0.26
p-value of test                       :    0.22

Anderson-Darling statistic = A2       :    1.01
p-value of test                       :    0.35

Test on the sum of all N observations
Number of degrees of freedom          :   40
Chi-square statistic                  :   45.55
p-value of test                       :    0.25

-----------------------------------------------
CPU time used                    :  00:00:58.56

Generator state:




***********************************************************
HOST = node35.local.isima.fr, Linux

MersenneTwiter


smarsa_MatrixRank test:
-----------------------------------------------
   N = 10,  n = 1000000,  r = 25,    s = 5,    L = 30,    k = 30


-----------------------------------------------

Kolmogorov-Smirnov+ statistic = D+    :   0.053
p-value of test                       :    0.92

Kolmogorov-Smirnov- statistic = D-    :    0.43
p-value of test                       :    0.02

Anderson-Darling statistic = A2       :    3.71
p-value of test                       :    0.01

Test on the sum of all N observations
Number of degrees of freedom          :   40
Chi-square statistic                  :   60.00
p-value of test                       :    0.02

-----------------------------------------------
CPU time used                    :  00:00:58.86

Generator state:




***********************************************************
HOST = node35.local.isima.fr, Linux

MersenneTwiter


smarsa_MatrixRank test:
-----------------------------------------------
   N =  1,  n = 5000,  r =  0,    s = 4,    L = 1000,    k = 1000


-----------------------------------------------
Number of degrees of freedom          :    3
Chi-square statistic                  :    0.21
p-value of test                       :    0.98

-----------------------------------------------
CPU time used                    :  00:01:22.98

Generator state:




***********************************************************
HOST = node35.local.isima.fr, Linux

MersenneTwiter


smarsa_MatrixRank test:
-----------------------------------------------
   N =  1,  n = 5000,  r = 26,    s = 4,    L = 1000,    k = 1000


-----------------------------------------------
Number of degrees of freedom          :    3
Chi-square statistic                  :    0.43
p-value of test                       :    0.93

-----------------------------------------------
CPU time used                    :  00:01:22.96

Generator state:




***********************************************************
HOST = node35.local.isima.fr, Linux

MersenneTwiter


smarsa_MatrixRank test:
-----------------------------------------------
   N =  1,  n = 80,  r = 15,    s = 15,    L = 5000,    k = 5000


-----------------------------------------------
Number of degrees of freedom          :    2
Chi-square statistic                  :    5.34
p-value of test                       :    0.07

-----------------------------------------------
CPU time used                    :  00:01:24.20

Generator state:




***********************************************************
HOST = node35.local.isima.fr, Linux

MersenneTwiter


smarsa_MatrixRank test:
-----------------------------------------------
   N =  1,  n = 80,  r =  0,    s = 30,    L = 5000,    k = 5000


-----------------------------------------------
Number of degrees of freedom          :    2
Chi-square statistic                  :    1.53
p-value of test                       :    0.47

-----------------------------------------------
CPU time used                    :  00:01:19.89

Generator state:




***********************************************************
HOST = node35.local.isima.fr, Linux

MersenneTwiter


smarsa_Savir2 test:
-----------------------------------------------
   N = 10,  n = 10000000,  r = 10,    m = 1048576,    t = 30


-----------------------------------------------

Kolmogorov-Smirnov+ statistic = D+    :    0.29
p-value of test                       :    0.15

Kolmogorov-Smirnov- statistic = D-    :    0.21
p-value of test                       :    0.37

Anderson-Darling statistic = A2       :    1.27
p-value of test                       :    0.24

Test on the sum of all N observations
Number of degrees of freedom          :  130
Chi-square statistic                  :  114.89
p-value of test                       :    0.83

-----------------------------------------------
CPU time used                    :  00:00:23.63

Generator state:




***********************************************************
HOST = node35.local.isima.fr, Linux

MersenneTwiter


smarsa_GCD test:
-----------------------------------------------
   N = 10,  n = 50000000,  r =  0,   s = 30


-----------------------------------------------
Test results for GCD values:

Kolmogorov-Smirnov+ statistic = D+    :    0.19
p-value of test                       :    0.43

Kolmogorov-Smirnov- statistic = D-    :    0.16
p-value of test                       :    0.53

Anderson-Darling statistic = A2       :    0.43
p-value of test                       :    0.82

Test on the sum of all N observations
Number of degrees of freedom          : 17430
Chi-square statistic                  :17373.68
p-value of test                       :    0.62



-----------------------------------------------
CPU time used                    :  00:00:50.04

Generator state:




***********************************************************
HOST = node35.local.isima.fr, Linux

MersenneTwiter


swalk_RandomWalk1 test:
-----------------------------------------------
   N =  1,  n = 100000000,  r =  0,   s = 5,   L0 =   50,   L1 =   50



-----------------------------------------------
Test on the values of the Statistic H

Number of degrees of freedom          :   36
ChiSquare statistic                   :   37.78
p-value of test                       :    0.39


-----------------------------------------------
Test on the values of the Statistic M

Number of degrees of freedom          :   35
ChiSquare statistic                   :   34.58
p-value of test                       :    0.49


-----------------------------------------------
Test on the values of the Statistic J

Number of degrees of freedom          :   25
ChiSquare statistic                   :   24.88
p-value of test                       :    0.47


-----------------------------------------------
Test on the values of the Statistic R

Number of degrees of freedom          :   24
ChiSquare statistic                   :   16.83
p-value of test                       :    0.86


-----------------------------------------------
Test on the values of the Statistic C

Number of degrees of freedom          :   17
ChiSquare statistic                   :   18.37
p-value of test                       :    0.37


-----------------------------------------------
CPU time used                    :  00:00:36.10

Generator state:




***********************************************************
HOST = node35.local.isima.fr, Linux

MersenneTwiter


swalk_RandomWalk1 test:
-----------------------------------------------
   N =  1,  n = 100000000,  r = 25,   s = 5,   L0 =   50,   L1 =   50



-----------------------------------------------
Test on the values of the Statistic H

Number of degrees of freedom          :   36
ChiSquare statistic                   :   49.74
p-value of test                       :    0.06


-----------------------------------------------
Test on the values of the Statistic M

Number of degrees of freedom          :   35
ChiSquare statistic                   :   42.08
p-value of test                       :    0.19


-----------------------------------------------
Test on the values of the Statistic J

Number of degrees of freedom          :   25
ChiSquare statistic                   :   29.41
p-value of test                       :    0.25


-----------------------------------------------
Test on the values of the Statistic R

Number of degrees of freedom          :   24
ChiSquare statistic                   :   34.07
p-value of test                       :    0.08


-----------------------------------------------
Test on the values of the Statistic C

Number of degrees of freedom          :   17
ChiSquare statistic                   :   17.45
p-value of test                       :    0.42


-----------------------------------------------
CPU time used                    :  00:00:36.71

Generator state:




***********************************************************
HOST = node35.local.isima.fr, Linux

MersenneTwiter


swalk_RandomWalk1 test:
-----------------------------------------------
   N =  1,  n = 10000000,  r =  0,   s = 10,   L0 = 1000,   L1 = 1000



-----------------------------------------------
Test on the values of the Statistic H

Number of degrees of freedom          :  146
ChiSquare statistic                   :  149.59
p-value of test                       :    0.40


-----------------------------------------------
Test on the values of the Statistic M

Number of degrees of freedom          :  146
ChiSquare statistic                   :  134.34
p-value of test                       :    0.75


-----------------------------------------------
Test on the values of the Statistic J

Number of degrees of freedom          :  500
ChiSquare statistic                   :  473.47
p-value of test                       :    0.80


-----------------------------------------------
Test on the values of the Statistic R

Number of degrees of freedom          :  136
ChiSquare statistic                   :  131.07
p-value of test                       :    0.60


-----------------------------------------------
Test on the values of the Statistic C

Number of degrees of freedom          :   74
ChiSquare statistic                   :   74.76
p-value of test                       :    0.45


-----------------------------------------------
CPU time used                    :  00:00:42.17

Generator state:




***********************************************************
HOST = node35.local.isima.fr, Linux

MersenneTwiter


swalk_RandomWalk1 test:
-----------------------------------------------
   N =  1,  n = 10000000,  r = 20,   s = 10,   L0 = 1000,   L1 = 1000



-----------------------------------------------
Test on the values of the Statistic H

Number of degrees of freedom          :  146
ChiSquare statistic                   :  146.02
p-value of test                       :    0.48


-----------------------------------------------
Test on the values of the Statistic M

Number of degrees of freedom          :  146
ChiSquare statistic                   :  144.06
p-value of test                       :    0.53


-----------------------------------------------
Test on the values of the Statistic J

Number of degrees of freedom          :  500
ChiSquare statistic                   :  500.38
p-value of test                       :    0.49


-----------------------------------------------
Test on the values of the Statistic R

Number of degrees of freedom          :  136
ChiSquare statistic                   :  159.45
p-value of test                       :    0.08


-----------------------------------------------
Test on the values of the Statistic C

Number of degrees of freedom          :   74
ChiSquare statistic                   :   57.02
p-value of test                       :    0.93


-----------------------------------------------
CPU time used                    :  00:00:42.34

Generator state:




***********************************************************
HOST = node35.local.isima.fr, Linux

MersenneTwiter


swalk_RandomWalk1 test:
-----------------------------------------------
   N =  1,  n = 1000000,  r =  0,   s = 15,   L0 = 10000,   L1 = 10000



-----------------------------------------------
Test on the values of the Statistic H

Number of degrees of freedom          :  384
ChiSquare statistic                   :  357.21
p-value of test                       :    0.83


-----------------------------------------------
Test on the values of the Statistic M

Number of degrees of freedom          :  384
ChiSquare statistic                   :  385.89
p-value of test                       :    0.46


-----------------------------------------------
Test on the values of the Statistic J

Number of degrees of freedom          : 5000
ChiSquare statistic                   : 5009.34
p-value of test                       :    0.46


-----------------------------------------------
Test on the values of the Statistic R

Number of degrees of freedom          :  378
ChiSquare statistic                   :  399.79
p-value of test                       :    0.21


-----------------------------------------------
Test on the values of the Statistic C

Number of degrees of freedom          :  200
ChiSquare statistic                   :  185.52
p-value of test                       :    0.76


-----------------------------------------------
CPU time used                    :  00:00:34.54

Generator state:




***********************************************************
HOST = node35.local.isima.fr, Linux

MersenneTwiter


swalk_RandomWalk1 test:
-----------------------------------------------
   N =  1,  n = 1000000,  r = 15,   s = 15,   L0 = 10000,   L1 = 10000



-----------------------------------------------
Test on the values of the Statistic H

Number of degrees of freedom          :  384
ChiSquare statistic                   :  354.72
p-value of test                       :    0.86


-----------------------------------------------
Test on the values of the Statistic M

Number of degrees of freedom          :  384
ChiSquare statistic                   :  398.21
p-value of test                       :    0.30


-----------------------------------------------
Test on the values of the Statistic J

Number of degrees of freedom          : 5000
ChiSquare statistic                   : 4826.67
p-value of test                       :    0.96


-----------------------------------------------
Test on the values of the Statistic R

Number of degrees of freedom          :  378
ChiSquare statistic                   :  350.49
p-value of test                       :    0.84


-----------------------------------------------
Test on the values of the Statistic C

Number of degrees of freedom          :  200
ChiSquare statistic                   :  182.98
p-value of test                       :    0.80


-----------------------------------------------
CPU time used                    :  00:00:34.62

Generator state:




***********************************************************
HOST = node35.local.isima.fr, Linux

MersenneTwiter


scomp_LinearComp test:
-----------------------------------------------
   N =  1,  n = 400020,  r =  0,    s = 1



-----------------------------------------------
Number of degrees of freedom          :   12
Chi2 statistic for size of jumps      :    4.42
p-value of test                       :    0.97


-----------------------------------------------
Normal statistic for number of jumps  : -402.67
p-value of test                       : 1 - eps1    *****



-----------------------------------------------
CPU time used                    :  00:00:06.12

Generator state:




***********************************************************
HOST = node35.local.isima.fr, Linux

MersenneTwiter


scomp_LinearComp test:
-----------------------------------------------
   N =  1,  n = 400020,  r = 29,    s = 1



-----------------------------------------------
Number of degrees of freedom          :   12
Chi2 statistic for size of jumps      :   12.13
p-value of test                       :    0.43


-----------------------------------------------
Normal statistic for number of jumps  : -402.51
p-value of test                       : 1 - eps1    *****



-----------------------------------------------
CPU time used                    :  00:00:06.12

Generator state:




***********************************************************
HOST = node35.local.isima.fr, Linux

MersenneTwiter


scomp_LempelZiv test:
-----------------------------------------------
   N = 10,  n = 134217728,  r =  0,   s =   30,   k =   27


-----------------------------------------------

Kolmogorov-Smirnov+ statistic = D+    :    0.12
p-value of test                       :    0.70

Kolmogorov-Smirnov- statistic = D-    :    0.39
p-value of test                       :    0.03

Anderson-Darling statistic = A2       :    2.49
p-value of test                       :    0.05

Tests on the sum of all N observations
Standardized normal statistic         :    1.72
p-value of test                       :    0.04

Sample variance                       :    0.37
p-value of test                       :    0.95

-----------------------------------------------
CPU time used                    :  00:01:37.03

Generator state:




***********************************************************
HOST = node35.local.isima.fr, Linux

MersenneTwiter


scomp_LempelZiv test:
-----------------------------------------------
   N = 10,  n = 134217728,  r = 15,   s =   15,   k =   27


-----------------------------------------------

Kolmogorov-Smirnov+ statistic = D+    :    0.25
p-value of test                       :    0.26

Kolmogorov-Smirnov- statistic = D-    :    0.16
p-value of test                       :    0.56

Anderson-Darling statistic = A2       :    0.59
p-value of test                       :    0.66

Tests on the sum of all N observations
Standardized normal statistic         :   -0.22
p-value of test                       :    0.59

Sample variance                       :    0.81
p-value of test                       :    0.61

-----------------------------------------------
CPU time used                    :  00:01:39.60

Generator state:




***********************************************************
HOST = node35.local.isima.fr, Linux

MersenneTwiter


sspectral_Fourier3 test:
-----------------------------------------------
   N = 100000,  n = 16384,  r =  0,   s =    3,   k =   14


-----------------------------------------------

Kolmogorov-Smirnov+ statistic = D+    :   0.011
p-value of test                       :    0.35

Kolmogorov-Smirnov- statistic = D-    : 4.53e-3
p-value of test                       :    0.84

Anderson-Darling statistic = A2       :    0.57
p-value of test                       :    0.68

-----------------------------------------------
CPU time used                    :  00:00:48.50

Generator state:




***********************************************************
HOST = node35.local.isima.fr, Linux

MersenneTwiter


sspectral_Fourier3 test:
-----------------------------------------------
   N = 100000,  n = 16384,  r = 27,   s =    3,   k =   14


-----------------------------------------------

Kolmogorov-Smirnov+ statistic = D+    :   0.018
p-value of test                       :    0.07

Kolmogorov-Smirnov- statistic = D-    : 4.89e-3
p-value of test                       :    0.82

Anderson-Darling statistic = A2       :    1.61
p-value of test                       :    0.15

-----------------------------------------------
CPU time used                    :  00:00:48.54

Generator state:




***********************************************************
HOST = node35.local.isima.fr, Linux

MersenneTwiter


sstring_LongestHeadRun test:
-----------------------------------------------
   N =  1,  n = 1000,  r =  0,   s = 3,   L = 10000020


-----------------------------------------------
Number of degrees of freedom          :    8
Chi-square statistic                  :    2.55
p-value of test                       :    0.96

-----------------------------------------------
Global longest run of 1               :   35.00
p-value of test                       :    0.14



-----------------------------------------------
CPU time used                    :  00:01:18.11

Generator state:




***********************************************************
HOST = node35.local.isima.fr, Linux

MersenneTwiter


sstring_LongestHeadRun test:
-----------------------------------------------
   N =  1,  n = 1000,  r = 27,   s = 3,   L = 10000020


-----------------------------------------------
Number of degrees of freedom          :    8
Chi-square statistic                  :    8.86
p-value of test                       :    0.35

-----------------------------------------------
Global longest run of 1               :   32.00
p-value of test                       :    0.50



-----------------------------------------------
CPU time used                    :  00:01:19.00

Generator state:




***********************************************************
HOST = node35.local.isima.fr, Linux

MersenneTwiter


sstring_PeriodsInStrings test:
-----------------------------------------------
   N = 10,  n = 500000000,  r =  0,   s =   10


-----------------------------------------------

Kolmogorov-Smirnov+ statistic = D+    :    0.18
p-value of test                       :    0.47

Kolmogorov-Smirnov- statistic = D-    :    0.21
p-value of test                       :    0.37

Anderson-Darling statistic = A2       :    0.55
p-value of test                       :    0.70

Test on the sum of all N observations
Number of degrees of freedom          :  200
Chi-square statistic                  :  205.15
p-value of test                       :    0.39

-----------------------------------------------
CPU time used                    :  00:02:01.27

Generator state:




***********************************************************
HOST = node35.local.isima.fr, Linux

MersenneTwiter


sstring_PeriodsInStrings test:
-----------------------------------------------
   N = 10,  n = 500000000,  r = 20,   s =   10


-----------------------------------------------

Kolmogorov-Smirnov+ statistic = D+    :   0.050
p-value of test                       :    0.92

Kolmogorov-Smirnov- statistic = D-    :    0.31
p-value of test                       :    0.12

Anderson-Darling statistic = A2       :    1.03
p-value of test                       :    0.34

Test on the sum of all N observations
Number of degrees of freedom          :  200
Chi-square statistic                  :  220.69
p-value of test                       :    0.15

-----------------------------------------------
CPU time used                    :  00:02:05.12

Generator state:




***********************************************************
HOST = node35.local.isima.fr, Linux

MersenneTwiter


sstring_HammingWeight2 test:
-----------------------------------------------
   N = 10,  n = 1000000000,  r =  0,   s = 3,   L = 1000000


-----------------------------------------------

Kolmogorov-Smirnov+ statistic = D+    :    0.26
p-value of test                       :    0.22

Kolmogorov-Smirnov- statistic = D-    :   0.094
p-value of test                       :    0.79

Anderson-Darling statistic = A2       :    0.92
p-value of test                       :    0.40

Test on the sum of all N observations
Number of degrees of freedom          : 10000
Chi-square statistic                  : 9870.36
p-value of test                       :    0.82

-----------------------------------------------
CPU time used                    :  00:00:47.52

Generator state:




***********************************************************
HOST = node35.local.isima.fr, Linux

MersenneTwiter


sstring_HammingWeight2 test:
-----------------------------------------------
   N = 10,  n = 1000000000,  r = 27,   s = 3,   L = 1000000


-----------------------------------------------

Kolmogorov-Smirnov+ statistic = D+    :   0.067
p-value of test                       :    0.88

Kolmogorov-Smirnov- statistic = D-    :    0.18
p-value of test                       :    0.45

Anderson-Darling statistic = A2       :    0.46
p-value of test                       :    0.78

Test on the sum of all N observations
Number of degrees of freedom          : 10000
Chi-square statistic                  :10095.98
p-value of test                       :    0.25

-----------------------------------------------
CPU time used                    :  00:00:48.98

Generator state:




***********************************************************
HOST = node35.local.isima.fr, Linux

MersenneTwiter


sstring_HammingCorr test:
-----------------------------------------------
   N =  1,  n = 1000000000,  r = 10,   s = 10,   L = 30



-----------------------------------------------
Normal statistic                      :   -1.08
p-value of test                       :    0.86

-----------------------------------------------
CPU time used                    :  00:01:00.21

Generator state:




***********************************************************
HOST = node35.local.isima.fr, Linux

MersenneTwiter


sstring_HammingCorr test:
-----------------------------------------------
   N =  1,  n = 100000000,  r = 10,   s = 10,   L = 300



-----------------------------------------------
Normal statistic                      :    0.45
p-value of test                       :    0.33

-----------------------------------------------
CPU time used                    :  00:00:57.87

Generator state:




***********************************************************
HOST = node35.local.isima.fr, Linux

MersenneTwiter


sstring_HammingCorr test:
-----------------------------------------------
   N =  1,  n = 100000000,  r = 10,   s = 10,   L = 1200



-----------------------------------------------
Normal statistic                      :    0.89
p-value of test                       :    0.19

-----------------------------------------------
CPU time used                    :  00:03:52.05

Generator state:




***********************************************************
HOST = node35.local.isima.fr, Linux

MersenneTwiter


sstring_HammingIndep test:
-----------------------------------------------
   N = 10,  n = 30000000,  r =  0,   s = 3,   L = 30,   d = 0



Counters with expected numbers >= 10
-----------------------------------------------

Kolmogorov-Smirnov+ statistic = D+    :    0.15
p-value of test                       :    0.57

Kolmogorov-Smirnov- statistic = D-    :    0.23
p-value of test                       :    0.30

Anderson-Darling statistic = A2       :    0.53
p-value of test                       :    0.71

Test on the sum of all N observations
Number of degrees of freedom          : 4890
Chi-square statistic                  : 4898.26
p-value of test                       :    0.46

-----------------------------------------------
CPU time used                    :  00:01:32.97

Generator state:




***********************************************************
HOST = node35.local.isima.fr, Linux

MersenneTwiter


sstring_HammingIndep test:
-----------------------------------------------
   N = 10,  n = 30000000,  r = 27,   s = 3,   L = 30,   d = 0



Counters with expected numbers >= 10
-----------------------------------------------

Kolmogorov-Smirnov+ statistic = D+    :    0.21
p-value of test                       :    0.37

Kolmogorov-Smirnov- statistic = D-    :    0.16
p-value of test                       :    0.54

Anderson-Darling statistic = A2       :    0.55
p-value of test                       :    0.69

Test on the sum of all N observations
Number of degrees of freedom          : 4890
Chi-square statistic                  : 4875.47
p-value of test                       :    0.56

-----------------------------------------------
CPU time used                    :  00:01:35.62

Generator state:




***********************************************************
HOST = node35.local.isima.fr, Linux

MersenneTwiter


sstring_HammingIndep test:
-----------------------------------------------
   N =  1,  n = 30000000,  r =  0,   s = 4,   L = 300,   d = 0



Counters with expected numbers >= 10
-----------------------------------------------
Number of degrees of freedom          : 4117
Chi-square statistic                  : 4091.12
p-value of test                       :    0.61

-----------------------------------------------
CPU time used                    :  00:01:09.45

Generator state:




***********************************************************
HOST = node35.local.isima.fr, Linux

MersenneTwiter


sstring_HammingIndep test:
-----------------------------------------------
   N =  1,  n = 30000000,  r = 26,   s = 4,   L = 300,   d = 0



Counters with expected numbers >= 10
-----------------------------------------------
Number of degrees of freedom          : 4117
Chi-square statistic                  : 4104.15
p-value of test                       :    0.55

-----------------------------------------------
CPU time used                    :  00:01:10.94

Generator state:




***********************************************************
HOST = node35.local.isima.fr, Linux

MersenneTwiter


sstring_HammingIndep test:
-----------------------------------------------
   N =  1,  n = 10000000,  r =  0,   s = 5,   L = 1200,   d = 0



Counters with expected numbers >= 10
-----------------------------------------------
Number of degrees of freedom          : 11825
Chi-square statistic                  :11701.98
p-value of test                       :    0.79

-----------------------------------------------
CPU time used                    :  00:01:17.57

Generator state:




***********************************************************
HOST = node35.local.isima.fr, Linux

MersenneTwiter


sstring_HammingIndep test:
-----------------------------------------------
   N =  1,  n = 10000000,  r = 25,   s = 5,   L = 1200,   d = 0



Counters with expected numbers >= 10
-----------------------------------------------
Number of degrees of freedom          : 11825
Chi-square statistic                  :11793.21
p-value of test                       :    0.58

-----------------------------------------------
CPU time used                    :  00:01:19.53

Generator state:




***********************************************************
HOST = node35.local.isima.fr, Linux

MersenneTwiter


sstring_Run test:
-----------------------------------------------
   N =  1,  n = 2000000000,  r =  0,   s =    3


-----------------------------------------------
Total number of 1 runs:  2000000000

Number of degrees of freedom          :   54
Chi2 statistic for number of runs     :   62.03
p-value of test                       :    0.21


-----------------------------------------------
Total number of bits:  8000116965

Normal statistic for number of bits   :    0.92
p-value of test                       :    0.18



-----------------------------------------------
CPU time used                    :  00:01:03.84

Generator state:




***********************************************************
HOST = node35.local.isima.fr, Linux

MersenneTwiter


sstring_Run test:
-----------------------------------------------
   N =  1,  n = 2000000000,  r = 27,   s =    3


-----------------------------------------------
Total number of 1 runs:  2000000000

Number of degrees of freedom          :   54
Chi2 statistic for number of runs     :   48.27
p-value of test                       :    0.69


-----------------------------------------------
Total number of bits:  7999941600

Normal statistic for number of bits   :   -0.46
p-value of test                       :    0.68



-----------------------------------------------
CPU time used                    :  00:01:07.69

Generator state:




***********************************************************
HOST = node35.local.isima.fr, Linux

MersenneTwiter


sstring_AutoCor test:
-----------------------------------------------
   N = 10,  n = 1000000030,  r =  0,   s = 3,   d = 1


-----------------------------------------------

Kolmogorov-Smirnov+ statistic = D+    :    0.12
p-value of test                       :    0.69

Kolmogorov-Smirnov- statistic = D-    :    0.27
p-value of test                       :    0.19

Anderson-Darling statistic = A2       :    0.69
p-value of test                       :    0.56

Tests on the sum of all N observations
Standardized normal statistic         :    0.25
p-value of test                       :    0.40

Sample variance                       :    1.54
p-value of test                       :    0.13

-----------------------------------------------
CPU time used                    :  00:01:18.20

Generator state:




***********************************************************
HOST = node35.local.isima.fr, Linux

MersenneTwiter


sstring_AutoCor test:
-----------------------------------------------
   N = 10,  n = 1000000029,  r =  0,   s = 3,   d = 3


-----------------------------------------------

Kolmogorov-Smirnov+ statistic = D+    :    0.22
p-value of test                       :    0.33

Kolmogorov-Smirnov- statistic = D-    :    0.16
p-value of test                       :    0.53

Anderson-Darling statistic = A2       :    0.67
p-value of test                       :    0.58

Tests on the sum of all N observations
Standardized normal statistic         :   -0.51
p-value of test                       :    0.70

Sample variance                       :    1.74
p-value of test                       :    0.08

-----------------------------------------------
CPU time used                    :  00:01:01.18

Generator state:




***********************************************************
HOST = node35.local.isima.fr, Linux

MersenneTwiter


sstring_AutoCor test:
-----------------------------------------------
   N = 10,  n = 1000000030,  r = 27,   s = 3,   d = 1


-----------------------------------------------

Kolmogorov-Smirnov+ statistic = D+    :    0.15
p-value of test                       :    0.59

Kolmogorov-Smirnov- statistic = D-    :    0.40
p-value of test                       :    0.03

Anderson-Darling statistic = A2       :    1.39
p-value of test                       :    0.20

Tests on the sum of all N observations
Standardized normal statistic         :    0.71
p-value of test                       :    0.24

Sample variance                       :    0.86
p-value of test                       :    0.56

-----------------------------------------------
CPU time used                    :  00:01:25.04

Generator state:




***********************************************************
HOST = node35.local.isima.fr, Linux

MersenneTwiter


sstring_AutoCor test:
-----------------------------------------------
   N = 10,  n = 1000000029,  r = 27,   s = 3,   d = 3


-----------------------------------------------

Kolmogorov-Smirnov+ statistic = D+    :   0.033
p-value of test                       :    0.96

Kolmogorov-Smirnov- statistic = D-    :    0.39
p-value of test                       :    0.04

Anderson-Darling statistic = A2       :    2.44
p-value of test                       :    0.05

Tests on the sum of all N observations
Standardized normal statistic         :    1.94
p-value of test                       :    0.03

Sample variance                       :    1.34
p-value of test                       :    0.21

-----------------------------------------------
CPU time used                    :  00:01:08.00

Generator state:





========= Summary results of BigCrush =========

 Version:          TestU01 1.2.3
 Generator:        MersenneTwiter
 Number of statistics:  160
 Total CPU time:   02:58:39.79
 The following tests gave p-values outside [0.001, 0.9990]:
 (eps  means a value < 1.0e-300):
 (eps1 means a value < 1.0e-15):

       Test                          p-value
 ----------------------------------------------
 22  ClosePairs mNP2S, t = 3         8.5e-4
 80  LinearComp, r = 0              1 - eps1
 81  LinearComp, r = 29             1 - eps1
 ----------------------------------------------
 All other tests were passed



