xxxxxxxxxxxxxxxxxxxxxxxxxxxxxxxxxxxxxxxxxxxxxxxxxxxxxxxxxxx
                 Starting BigCrush
                 Version: TestU01 1.2.3
xxxxxxxxxxxxxxxxxxxxxxxxxxxxxxxxxxxxxxxxxxxxxxxxxxxxxxxxxxx


***********************************************************
Test smarsa_SerialOver calling smultin_MultinomialOver

***********************************************************
HOST = node36.local.isima.fr, Linux

MersenneTwiter


smultin_MultinomialOver test:
-----------------------------------------------
   N =  1,  n = 1000000000,  r =  0,   d =  256,   t =  3,
       Sparse =  FALSE

       GenerCell = smultin_GenerCellSerial
       Number of cells = d^t =           16777216
       Expected number per cell =   59.604645
       Hashing =  FALSE

   For Delta > -1, we use the ChiSquare approximation
   Correction factor of the ChiSquare: 
       Delta =     1,    Mu =   0.0083558402,    Sigma =          1

-----------------------------------------------
Test Results for Delta =   1.0000

Number of degrees of freedom          : 16711680
Value of the statistic                : 1.67e+7
p-value of test                       :    0.77


-----------------------------------------------
CPU time used                    :  00:01:05.51

Generator state:




***********************************************************
Test smarsa_SerialOver calling smultin_MultinomialOver

***********************************************************
HOST = node36.local.isima.fr, Linux

MersenneTwiter


smultin_MultinomialOver test:
-----------------------------------------------
   N =  1,  n = 1000000000,  r = 22,   d =  256,   t =  3,
       Sparse =  FALSE

       GenerCell = smultin_GenerCellSerial
       Number of cells = d^t =           16777216
       Expected number per cell =   59.604645
       Hashing =  FALSE

   For Delta > -1, we use the ChiSquare approximation
   Correction factor of the ChiSquare: 
       Delta =     1,    Mu =   0.0083558402,    Sigma =          1

-----------------------------------------------
Test Results for Delta =   1.0000

Number of degrees of freedom          : 16711680
Value of the statistic                : 1.67e+7
p-value of test                       :    0.89


-----------------------------------------------
CPU time used                    :  00:01:08.36

Generator state:




***********************************************************
Test smarsa_CollisionOver calling smultin_MultinomialOver

***********************************************************
HOST = node36.local.isima.fr, Linux

MersenneTwiter


smultin_MultinomialOver test:
-----------------------------------------------
   N = 30,  n = 20000000,  r =  0,   d = 2097152,   t =  2,
       Sparse =   TRUE

       GenerCell = smultin_GenerCellSerial
       Number of cells = d^t =      4398046511104
       Expected number per cell =  1 /  219902.33
       EColl = n^2 / (2k) =  45.47473509
       Hashing =   TRUE

       Collision test

       CollisionOver:   density = n / k =  1 /  219902.33
       Expected number of collisions = Mu =      45.47


-----------------------------------------------
Results of CollisionOver test:

POISSON approximation                 :
Expected number of collisions = N*Mu  :     1364.24
Observed number of collisions         :     1335
p-value of test                       :    0.78

-----------------------------
Total number of cells containing j balls

  j =  0                              :  131940795334455
  j =  1                              :        599997330
  j =  2                              :             1335
  j =  3                              :                0
  j =  4                              :                0
  j =  5                              :                0

-----------------------------------------------
CPU time used                    :  00:04:01.06

Generator state:




***********************************************************
Test smarsa_CollisionOver calling smultin_MultinomialOver

***********************************************************
HOST = node36.local.isima.fr, Linux

MersenneTwiter


smultin_MultinomialOver test:
-----------------------------------------------
   N = 30,  n = 20000000,  r =  9,   d = 2097152,   t =  2,
       Sparse =   TRUE

       GenerCell = smultin_GenerCellSerial
       Number of cells = d^t =      4398046511104
       Expected number per cell =  1 /  219902.33
       EColl = n^2 / (2k) =  45.47473509
       Hashing =   TRUE

       Collision test

       CollisionOver:   density = n / k =  1 /  219902.33
       Expected number of collisions = Mu =      45.47


-----------------------------------------------
Results of CollisionOver test:

POISSON approximation                 :
Expected number of collisions = N*Mu  :     1364.24
Observed number of collisions         :     1357
p-value of test                       :    0.57

-----------------------------
Total number of cells containing j balls

  j =  0                              :  131940795334477
  j =  1                              :        599997286
  j =  2                              :             1357
  j =  3                              :                0
  j =  4                              :                0
  j =  5                              :                0

-----------------------------------------------
CPU time used                    :  00:04:10.87

Generator state:




***********************************************************
Test smarsa_CollisionOver calling smultin_MultinomialOver

***********************************************************
HOST = node36.local.isima.fr, Linux

MersenneTwiter


smultin_MultinomialOver test:
-----------------------------------------------
   N = 30,  n = 20000000,  r =  0,   d = 16384,   t =  3,
       Sparse =   TRUE

       GenerCell = smultin_GenerCellSerial
       Number of cells = d^t =      4398046511104
       Expected number per cell =  1 /  219902.33
       EColl = n^2 / (2k) =  45.47473509
       Hashing =   TRUE

       Collision test

       CollisionOver:   density = n / k =  1 /  219902.33
       Expected number of collisions = Mu =      45.47


-----------------------------------------------
Results of CollisionOver test:

POISSON approximation                 :
Expected number of collisions = N*Mu  :     1364.24
Observed number of collisions         :     1352
p-value of test                       :    0.62

-----------------------------
Total number of cells containing j balls

  j =  0                              :  131940795334472
  j =  1                              :        599997296
  j =  2                              :             1352
  j =  3                              :                0
  j =  4                              :                0
  j =  5                              :                0

-----------------------------------------------
CPU time used                    :  00:05:04.52

Generator state:




***********************************************************
Test smarsa_CollisionOver calling smultin_MultinomialOver

***********************************************************
HOST = node36.local.isima.fr, Linux

MersenneTwiter


smultin_MultinomialOver test:
-----------------------------------------------
   N = 30,  n = 20000000,  r = 16,   d = 16384,   t =  3,
       Sparse =   TRUE

       GenerCell = smultin_GenerCellSerial
       Number of cells = d^t =      4398046511104
       Expected number per cell =  1 /  219902.33
       EColl = n^2 / (2k) =  45.47473509
       Hashing =   TRUE

       Collision test

       CollisionOver:   density = n / k =  1 /  219902.33
       Expected number of collisions = Mu =      45.47


-----------------------------------------------
Results of CollisionOver test:

POISSON approximation                 :
Expected number of collisions = N*Mu  :     1364.24
Observed number of collisions         :     1366
p-value of test                       :    0.48

-----------------------------
Total number of cells containing j balls

  j =  0                              :  131940795334486
  j =  1                              :        599997268
  j =  2                              :             1366
  j =  3                              :                0
  j =  4                              :                0
  j =  5                              :                0

-----------------------------------------------
CPU time used                    :  00:05:36.08

Generator state:




***********************************************************
Test smarsa_CollisionOver calling smultin_MultinomialOver

***********************************************************
HOST = node36.local.isima.fr, Linux

MersenneTwiter


smultin_MultinomialOver test:
-----------------------------------------------
   N = 30,  n = 20000000,  r =  0,   d =   64,   t =  7,
       Sparse =   TRUE

       GenerCell = smultin_GenerCellSerial
       Number of cells = d^t =      4398046511104
       Expected number per cell =  1 /  219902.33
       EColl = n^2 / (2k) =  45.47473509
       Hashing =   TRUE

       Collision test

       CollisionOver:   density = n / k =  1 /  219902.33
       Expected number of collisions = Mu =      45.47


-----------------------------------------------
Results of CollisionOver test:

POISSON approximation                 :
Expected number of collisions = N*Mu  :     1364.24
Observed number of collisions         :     1384
p-value of test                       :    0.30

-----------------------------
Total number of cells containing j balls

  j =  0                              :  131940795334504
  j =  1                              :        599997232
  j =  2                              :             1384
  j =  3                              :                0
  j =  4                              :                0
  j =  5                              :                0

-----------------------------------------------
CPU time used                    :  00:05:12.81

Generator state:




***********************************************************
Test smarsa_CollisionOver calling smultin_MultinomialOver

***********************************************************
HOST = node36.local.isima.fr, Linux

MersenneTwiter


smultin_MultinomialOver test:
-----------------------------------------------
   N = 30,  n = 20000000,  r = 24,   d =   64,   t =  7,
       Sparse =   TRUE

       GenerCell = smultin_GenerCellSerial
       Number of cells = d^t =      4398046511104
       Expected number per cell =  1 /  219902.33
       EColl = n^2 / (2k) =  45.47473509
       Hashing =   TRUE

       Collision test

       CollisionOver:   density = n / k =  1 /  219902.33
       Expected number of collisions = Mu =      45.47


-----------------------------------------------
Results of CollisionOver test:

POISSON approximation                 :
Expected number of collisions = N*Mu  :     1364.24
Observed number of collisions         :     1327
p-value of test                       :    0.84

-----------------------------
Total number of cells containing j balls

  j =  0                              :  131940795334447
  j =  1                              :        599997346
  j =  2                              :             1327
  j =  3                              :                0
  j =  4                              :                0
  j =  5                              :                0

-----------------------------------------------
CPU time used                    :  00:05:40.75

Generator state:




***********************************************************
Test smarsa_CollisionOver calling smultin_MultinomialOver

***********************************************************
HOST = node36.local.isima.fr, Linux

MersenneTwiter


smultin_MultinomialOver test:
-----------------------------------------------
   N = 30,  n = 20000000,  r =  0,   d =    8,   t = 14,
       Sparse =   TRUE

       GenerCell = smultin_GenerCellSerial
       Number of cells = d^t =      4398046511104
       Expected number per cell =  1 /  219902.33
       EColl = n^2 / (2k) =  45.47473509
       Hashing =   TRUE

       Collision test

       CollisionOver:   density = n / k =  1 /  219902.33
       Expected number of collisions = Mu =      45.47


-----------------------------------------------
Results of CollisionOver test:

POISSON approximation                 :
Expected number of collisions = N*Mu  :     1364.24
Observed number of collisions         :     1277
p-value of test                       :    0.9911

-----------------------------
Total number of cells containing j balls

  j =  0                              :  131940795334397
  j =  1                              :        599997446
  j =  2                              :             1277
  j =  3                              :                0
  j =  4                              :                0
  j =  5                              :                0

-----------------------------------------------
CPU time used                    :  00:05:11.36

Generator state:




***********************************************************
Test smarsa_CollisionOver calling smultin_MultinomialOver

***********************************************************
HOST = node36.local.isima.fr, Linux

MersenneTwiter


smultin_MultinomialOver test:
-----------------------------------------------
   N = 30,  n = 20000000,  r = 27,   d =    8,   t = 14,
       Sparse =   TRUE

       GenerCell = smultin_GenerCellSerial
       Number of cells = d^t =      4398046511104
       Expected number per cell =  1 /  219902.33
       EColl = n^2 / (2k) =  45.47473509
       Hashing =   TRUE

       Collision test

       CollisionOver:   density = n / k =  1 /  219902.33
       Expected number of collisions = Mu =      45.47


-----------------------------------------------
Results of CollisionOver test:

POISSON approximation                 :
Expected number of collisions = N*Mu  :     1364.24
Observed number of collisions         :     1298
p-value of test                       :    0.96

-----------------------------
Total number of cells containing j balls

  j =  0                              :  131940795334418
  j =  1                              :        599997404
  j =  2                              :             1298
  j =  3                              :                0
  j =  4                              :                0
  j =  5                              :                0

-----------------------------------------------
CPU time used                    :  00:05:42.51

Generator state:




***********************************************************
Test smarsa_CollisionOver calling smultin_MultinomialOver

***********************************************************
HOST = node36.local.isima.fr, Linux

MersenneTwiter


smultin_MultinomialOver test:
-----------------------------------------------
   N = 30,  n = 20000000,  r =  0,   d =    4,   t = 21,
       Sparse =   TRUE

       GenerCell = smultin_GenerCellSerial
       Number of cells = d^t =      4398046511104
       Expected number per cell =  1 /  219902.33
       EColl = n^2 / (2k) =  45.47473509
       Hashing =   TRUE

       Collision test

       CollisionOver:   density = n / k =  1 /  219902.33
       Expected number of collisions = Mu =      45.47


-----------------------------------------------
Results of CollisionOver test:

POISSON approximation                 :
Expected number of collisions = N*Mu  :     1364.24
Observed number of collisions         :     1359
p-value of test                       :    0.55

-----------------------------
Total number of cells containing j balls

  j =  0                              :  131940795334479
  j =  1                              :        599997282
  j =  2                              :             1359
  j =  3                              :                0
  j =  4                              :                0
  j =  5                              :                0

-----------------------------------------------
CPU time used                    :  00:05:09.92

Generator state:




***********************************************************
Test smarsa_CollisionOver calling smultin_MultinomialOver

***********************************************************
HOST = node36.local.isima.fr, Linux

MersenneTwiter


smultin_MultinomialOver test:
-----------------------------------------------
   N = 30,  n = 20000000,  r = 28,   d =    4,   t = 21,
       Sparse =   TRUE

       GenerCell = smultin_GenerCellSerial
       Number of cells = d^t =      4398046511104
       Expected number per cell =  1 /  219902.33
       EColl = n^2 / (2k) =  45.47473509
       Hashing =   TRUE

       Collision test

       CollisionOver:   density = n / k =  1 /  219902.33
       Expected number of collisions = Mu =      45.47


-----------------------------------------------
Results of CollisionOver test:

POISSON approximation                 :
Expected number of collisions = N*Mu  :     1364.24
Observed number of collisions         :     1382
p-value of test                       :    0.32

-----------------------------
Total number of cells containing j balls

  j =  0                              :  131940795334502
  j =  1                              :        599997236
  j =  2                              :             1382
  j =  3                              :                0
  j =  4                              :                0
  j =  5                              :                0

-----------------------------------------------
CPU time used                    :  00:05:40.32

Generator state:




***********************************************************
HOST = node36.local.isima.fr, Linux

MersenneTwiter


smarsa_BirthdaySpacings test:
-----------------------------------------------
   N = 100,  n = 10000000,  r =  0,    d = 2147483648,    t = 2,    p = 1


      Number of cells = d^t = 4611686018427387904
      Lambda = Poisson mean =      54.2101


----------------------------------------------------
Total expected number = N*Lambda      :    5421.01
Total observed number                 :    5401
p-value of test                       :    0.60


-----------------------------------------------
CPU time used                    :  00:03:27.34

Generator state:




***********************************************************
HOST = node36.local.isima.fr, Linux

MersenneTwiter


smarsa_BirthdaySpacings test:
-----------------------------------------------
   N = 20,  n = 20000000,  r =  0,    d = 2097152,    t = 3,    p = 1


      Number of cells = d^t = 9223372036854775808
      Lambda = Poisson mean =     216.8404


----------------------------------------------------
Total expected number = N*Lambda      :    4336.81
Total observed number                 :    4415
p-value of test                       :    0.12


-----------------------------------------------
CPU time used                    :  00:01:27.90

Generator state:




***********************************************************
HOST = node36.local.isima.fr, Linux

MersenneTwiter


smarsa_BirthdaySpacings test:
-----------------------------------------------
   N = 20,  n = 30000000,  r = 14,    d = 65536,    t = 4,    p = 1


      Number of cells = d^t = 18446744073709551616
      Lambda = Poisson mean =     365.9182


----------------------------------------------------
Total expected number = N*Lambda      :    7318.36
Total observed number                 :    7364
p-value of test                       :    0.30


-----------------------------------------------
CPU time used                    :  00:02:21.32

Generator state:




***********************************************************
HOST = node36.local.isima.fr, Linux

MersenneTwiter


smarsa_BirthdaySpacings test:
-----------------------------------------------
   N = 20,  n = 20000000,  r =  0,    d = 512,    t = 7,    p = 1


      Number of cells = d^t = 9223372036854775808
      Lambda = Poisson mean =     216.8404


----------------------------------------------------
Total expected number = N*Lambda      :    4336.81
Total observed number                 :    4388
p-value of test                       :    0.22


-----------------------------------------------
CPU time used                    :  00:01:38.05

Generator state:




***********************************************************
HOST = node36.local.isima.fr, Linux

MersenneTwiter


smarsa_BirthdaySpacings test:
-----------------------------------------------
   N = 20,  n = 20000000,  r =  7,    d = 512,    t = 7,    p = 1


      Number of cells = d^t = 9223372036854775808
      Lambda = Poisson mean =     216.8404


----------------------------------------------------
Total expected number = N*Lambda      :    4336.81
Total observed number                 :    4231
p-value of test                       :    0.95


-----------------------------------------------
CPU time used                    :  00:01:42.57

Generator state:




***********************************************************
HOST = node36.local.isima.fr, Linux

MersenneTwiter


smarsa_BirthdaySpacings test:
-----------------------------------------------
   N = 20,  n = 30000000,  r = 14,    d = 256,    t = 8,    p = 1


      Number of cells = d^t = 18446744073709551616
      Lambda = Poisson mean =     365.9182


----------------------------------------------------
Total expected number = N*Lambda      :    7318.36
Total observed number                 :    7331
p-value of test                       :    0.44


-----------------------------------------------
CPU time used                    :  00:02:40.55

Generator state:




***********************************************************
HOST = node36.local.isima.fr, Linux

MersenneTwiter


smarsa_BirthdaySpacings test:
-----------------------------------------------
   N = 20,  n = 30000000,  r = 22,    d = 256,    t = 8,    p = 1


      Number of cells = d^t = 18446744073709551616
      Lambda = Poisson mean =     365.9182


----------------------------------------------------
Total expected number = N*Lambda      :    7318.36
Total observed number                 :    7202
p-value of test                       :    0.91


-----------------------------------------------
CPU time used                    :  00:02:40.39

Generator state:




***********************************************************
HOST = node36.local.isima.fr, Linux

MersenneTwiter


smarsa_BirthdaySpacings test:
-----------------------------------------------
   N = 20,  n = 30000000,  r =  0,    d = 16,    t = 16,    p = 1


      Number of cells = d^t = 18446744073709551616
      Lambda = Poisson mean =     365.9182


----------------------------------------------------
Total expected number = N*Lambda      :    7318.36
Total observed number                 :    7351
p-value of test                       :    0.35


-----------------------------------------------
CPU time used                    :  00:03:08.81

Generator state:




***********************************************************
HOST = node36.local.isima.fr, Linux

MersenneTwiter


smarsa_BirthdaySpacings test:
-----------------------------------------------
   N = 20,  n = 30000000,  r = 26,    d = 16,    t = 16,    p = 1


      Number of cells = d^t = 18446744073709551616
      Lambda = Poisson mean =     365.9182


----------------------------------------------------
Total expected number = N*Lambda      :    7318.36
Total observed number                 :    7470
p-value of test                       :    0.04


-----------------------------------------------
CPU time used                    :  00:03:22.72

Generator state:




***********************************************************
HOST = node36.local.isima.fr, Linux

MersenneTwiter


snpair_ClosePairs test:
-----------------------------------------------
   N = 30,  n = 6000000,  r =  0,  t = 3,  p = 0,  m = 30,  Torus =  TRUE


---------------------------------------
Test based on the 2 nearest points (NP):

Stat. AD on the N values (NP)         :    1.90
p-value of test                       :    0.11


A2 test based on the spacings between the
   successive jump times of process Y_n(t):

A2 test on the values of A2 (m-NP)    :    0.53
p-value of test                       :    0.71

Test on the Nm values of W_{n,i}(mNP1):    0.31
p-value of test                       :    0.93

Test on the jump times of Y
   (superposition of Yn):

Expected number of jumps of Y = mN    :     900
Number of jumps of Y                  :     876
p-value of test                       :    0.78

Stat. AD (mNP2)                       :    0.42
p-value of test                       :    0.83

Stat. AD after spacings (mNP2-S)      :    0.44
p-value of test                       :    0.81

-----------------------------------------------
CPU time used                    :  00:01:49.82

Generator state:




***********************************************************
HOST = node36.local.isima.fr, Linux

MersenneTwiter


snpair_ClosePairs test:
-----------------------------------------------
   N = 20,  n = 4000000,  r =  0,  t = 5,  p = 0,  m = 30,  Torus =  TRUE


---------------------------------------
Test based on the 2 nearest points (NP):

Stat. AD on the N values (NP)         :    0.40
p-value of test                       :    0.85


A2 test based on the spacings between the
   successive jump times of process Y_n(t):

A2 test on the values of A2 (m-NP)    :    1.54
p-value of test                       :    0.17

Test on the Nm values of W_{n,i}(mNP1):    1.07
p-value of test                       :    0.32

Test on the jump times of Y
   (superposition of Yn):

Expected number of jumps of Y = mN    :     600
Number of jumps of Y                  :     618
p-value of test                       :    0.24

Stat. AD (mNP2)                       :    0.42
p-value of test                       :    0.83

Stat. AD after spacings (mNP2-S)      :    0.52
p-value of test                       :    0.72

-----------------------------------------------
CPU time used                    :  00:01:11.81

Generator state:




***********************************************************
HOST = node36.local.isima.fr, Linux

MersenneTwiter


snpair_ClosePairs test:
-----------------------------------------------
   N = 10,  n = 3000000,  r =  0,  t = 9,  p = 0,  m = 30,  Torus =  TRUE


---------------------------------------
Test based on the 2 nearest points (NP):

Stat. AD on the N values (NP)         :    0.98
p-value of test                       :    0.37


A2 test based on the spacings between the
   successive jump times of process Y_n(t):

A2 test on the values of A2 (m-NP)    :    0.33
p-value of test                       :    0.91

Test on the Nm values of W_{n,i}(mNP1):    0.38
p-value of test                       :    0.87

Test on the jump times of Y
   (superposition of Yn):

Expected number of jumps of Y = mN    :     300
Number of jumps of Y                  :     287
p-value of test                       :    0.76

Stat. AD (mNP2)                       :    3.87
p-value of test                       :    0.01

Stat. AD after spacings (mNP2-S)      :    0.87
p-value of test                       :    0.43

-----------------------------------------------
CPU time used                    :  00:02:09.81

Generator state:




***********************************************************
HOST = node36.local.isima.fr, Linux

MersenneTwiter


snpair_ClosePairs test:
-----------------------------------------------
   N =  5,  n = 2000000,  r =  0,  t = 16,  p = 0,  m = 30,  Torus =  TRUE


---------------------------------------
Test based on the 2 nearest points (NP):

Stat. AD on the N values (NP)         :    0.92
p-value of test                       :    0.40


A2 test based on the spacings between the
   successive jump times of process Y_n(t):

A2 test on the values of A2 (m-NP)    :    0.77
p-value of test                       :    0.50

Test on the Nm values of W_{n,i}(mNP1):    0.49
p-value of test                       :    0.76

Test on the jump times of Y
   (superposition of Yn):

Expected number of jumps of Y = mN    :     150
Number of jumps of Y                  :     145
p-value of test                       :    0.64

Stat. AD (mNP2)                       :    0.62
p-value of test                       :    0.63

Stat. AD after spacings (mNP2-S)      :    2.10
p-value of test                       :    0.08

-----------------------------------------------
CPU time used                    :  00:02:34.68

Generator state:




***********************************************************
HOST = node36.local.isima.fr, Linux

MersenneTwiter


sknuth_SimpPoker test:
-----------------------------------------------
   N =  1,  n = 400000000,  r =  0,   d =    8,   k =    8


-----------------------------------------------
Number of degrees of freedom          :    7
Chi-square statistic                  :   10.02
p-value of test                       :    0.19

-----------------------------------------------
CPU time used                    :  00:00:43.36

Generator state:




***********************************************************
HOST = node36.local.isima.fr, Linux

MersenneTwiter


sknuth_SimpPoker test:
-----------------------------------------------
   N =  1,  n = 400000000,  r = 27,   d =    8,   k =    8


-----------------------------------------------
Number of degrees of freedom          :    7
Chi-square statistic                  :   10.41
p-value of test                       :    0.17

-----------------------------------------------
CPU time used                    :  00:00:53.64

Generator state:




***********************************************************
HOST = node36.local.isima.fr, Linux

MersenneTwiter


sknuth_SimpPoker test:
-----------------------------------------------
   N =  1,  n = 100000000,  r =  0,   d =   32,   k =   32


-----------------------------------------------
Number of degrees of freedom          :   18
Chi-square statistic                  :   11.39
p-value of test                       :    0.88

-----------------------------------------------
CPU time used                    :  00:00:45.63

Generator state:




***********************************************************
HOST = node36.local.isima.fr, Linux

MersenneTwiter


sknuth_SimpPoker test:
-----------------------------------------------
   N =  1,  n = 100000000,  r = 25,   d =   32,   k =   32


-----------------------------------------------
Number of degrees of freedom          :   18
Chi-square statistic                  :   18.10
p-value of test                       :    0.45

-----------------------------------------------
CPU time used                    :  00:00:58.52

Generator state:




***********************************************************
HOST = node36.local.isima.fr, Linux

MersenneTwiter


sknuth_CouponCollector test:
-----------------------------------------------
   N =  1,  n = 200000000,  r =  0,   d =    8


-----------------------------------------------
Number of degrees of freedom          :   54
Chi-square statistic                  :   45.16
p-value of test                       :    0.80

-----------------------------------------------
CPU time used                    :  00:00:52.31

Generator state:




***********************************************************
HOST = node36.local.isima.fr, Linux

MersenneTwiter


sknuth_CouponCollector test:
-----------------------------------------------
   N =  1,  n = 200000000,  r = 10,   d =    8


-----------------------------------------------
Number of degrees of freedom          :   54
Chi-square statistic                  :   46.71
p-value of test                       :    0.75

-----------------------------------------------
CPU time used                    :  00:01:05.81

Generator state:




***********************************************************
HOST = node36.local.isima.fr, Linux

MersenneTwiter


sknuth_CouponCollector test:
-----------------------------------------------
   N =  1,  n = 200000000,  r = 20,   d =    8


-----------------------------------------------
Number of degrees of freedom          :   54
Chi-square statistic                  :   45.97
p-value of test                       :    0.77

-----------------------------------------------
CPU time used                    :  00:01:05.77

Generator state:




***********************************************************
HOST = node36.local.isima.fr, Linux

MersenneTwiter


sknuth_CouponCollector test:
-----------------------------------------------
   N =  1,  n = 200000000,  r = 27,   d =    8


-----------------------------------------------
Number of degrees of freedom          :   54
Chi-square statistic                  :   53.94
p-value of test                       :    0.48

-----------------------------------------------
CPU time used                    :  00:01:05.69

Generator state:




***********************************************************
HOST = node36.local.isima.fr, Linux

MersenneTwiter


sknuth_Gap test:
-----------------------------------------------
   N =  1,  n = 500000000,  r =  0,   Alpha =        0,   Beta  =   0.0625


-----------------------------------------------
Number of degrees of freedom          :  232
Chi-square statistic                  :  215.01
p-value of test                       :    0.78

-----------------------------------------------
CPU time used                    :  00:00:55.67

Generator state:




***********************************************************
HOST = node36.local.isima.fr, Linux

MersenneTwiter


sknuth_Gap test:
-----------------------------------------------
   N =  1,  n = 300000000,  r = 25,   Alpha =        0,   Beta  =  0.03125


-----------------------------------------------
Number of degrees of freedom          :  434
Chi-square statistic                  :  479.87
p-value of test                       :    0.06

-----------------------------------------------
CPU time used                    :  00:01:18.52

Generator state:




***********************************************************
HOST = node36.local.isima.fr, Linux

MersenneTwiter


sknuth_Gap test:
-----------------------------------------------
   N =  1,  n = 100000000,  r =  0,   Alpha =        0,   Beta  = 0.0078125


-----------------------------------------------
Number of degrees of freedom          : 1437
Chi-square statistic                  : 1373.96
p-value of test                       :    0.88

-----------------------------------------------
CPU time used                    :  00:01:18.19

Generator state:




***********************************************************
HOST = node36.local.isima.fr, Linux

MersenneTwiter


sknuth_Gap test:
-----------------------------------------------
   N =  1,  n = 10000000,  r = 20,   Alpha =        0,   Beta  = 0.000976562


-----------------------------------------------
Number of degrees of freedom          : 7046
Chi-square statistic                  : 7020.10
p-value of test                       :    0.58

-----------------------------------------------
CPU time used                    :  00:01:16.47

Generator state:




***********************************************************
HOST = node36.local.isima.fr, Linux

MersenneTwiter


sknuth_Run test:
-----------------------------------------------
   N =  5,  n = 1000000000,  r =  0,   Up = FALSE


-----------------------------------------------

Kolmogorov-Smirnov+ statistic = D+    :    0.18
p-value of test                       :    0.65

Kolmogorov-Smirnov- statistic = D-    :    0.64
p-value of test                       :  7.6e-3

Anderson-Darling statistic = A2       :    3.04
p-value of test                       :    0.03

Test on the sum of all N observations
Number of degrees of freedom          :   30
Chi-square statistic                  :   43.28
p-value of test                       :    0.06

-----------------------------------------------
CPU time used                    :  00:01:00.53

Generator state:




***********************************************************
HOST = node36.local.isima.fr, Linux

MersenneTwiter


sknuth_Run test:
-----------------------------------------------
   N = 10,  n = 1000000000,  r = 15,   Up =  TRUE


-----------------------------------------------

Kolmogorov-Smirnov+ statistic = D+    :    0.21
p-value of test                       :    0.38

Kolmogorov-Smirnov- statistic = D-    :   0.080
p-value of test                       :    0.84

Anderson-Darling statistic = A2       :    0.60
p-value of test                       :    0.64

Test on the sum of all N observations
Number of degrees of freedom          :   60
Chi-square statistic                  :   49.58
p-value of test                       :    0.83

-----------------------------------------------
CPU time used                    :  00:02:35.50

Generator state:




***********************************************************
Test sknuth_Permutation calling smultin_Multinomial

***********************************************************
HOST = node36.local.isima.fr, Linux

MersenneTwiter


smultin_Multinomial test:
-----------------------------------------------
   N =  1,  n = 1000000000,  r =  5,   t =  3,
       Sparse =  FALSE

       GenerCell = smultin_GenerCellPermut
       Number of cells = t! =                  6
       Expected number per cell =  1.6666667e+08
       Hashing =  FALSE

   For Delta > -1, we use the ChiSquare approximation
   Correction factor of the ChiSquare: 
       Delta =     1,    Mu =  2.5000002e-09,    Sigma =          1

-----------------------------------------------
Test Results for Delta =   1.0000

Number of degrees of freedom          :    5
Value of the statistic                :    7.99
p-value of test                       :    0.16


-----------------------------------------------
CPU time used                    :  00:00:49.96

Generator state:




***********************************************************
Test sknuth_Permutation calling smultin_Multinomial

***********************************************************
HOST = node36.local.isima.fr, Linux

MersenneTwiter


smultin_Multinomial test:
-----------------------------------------------
   N =  1,  n = 1000000000,  r =  5,   t =  5,
       Sparse =  FALSE

       GenerCell = smultin_GenerCellPermut
       Number of cells = t! =                120
       Expected number per cell =   8333333.3
       Hashing =  FALSE

   For Delta > -1, we use the ChiSquare approximation
   Correction factor of the ChiSquare: 
       Delta =     1,    Mu =  5.9500005e-08,    Sigma =          1

-----------------------------------------------
Test Results for Delta =   1.0000

Number of degrees of freedom          :  119
Value of the statistic                :  100.89
p-value of test                       :    0.88


-----------------------------------------------
CPU time used                    :  00:01:21.39

Generator state:




***********************************************************
Test sknuth_Permutation calling smultin_Multinomial

***********************************************************
HOST = node36.local.isima.fr, Linux

MersenneTwiter


smultin_Multinomial test:
-----------------------------------------------
   N =  1,  n = 500000000,  r =  5,   t =  7,
       Sparse =  FALSE

       GenerCell = smultin_GenerCellPermut
       Number of cells = t! =               5040
       Expected number per cell =   99206.349
       Hashing =  FALSE

   For Delta > -1, we use the ChiSquare approximation
   Correction factor of the ChiSquare: 
       Delta =     1,    Mu =  5.0390004e-06,    Sigma =          1

-----------------------------------------------
Test Results for Delta =   1.0000

Number of degrees of freedom          : 5039
Value of the statistic                : 4967.50
p-value of test                       :    0.76


-----------------------------------------------
CPU time used                    :  00:01:04.60

Generator state:




***********************************************************
Test sknuth_Permutation calling smultin_Multinomial

***********************************************************
HOST = node36.local.isima.fr, Linux

MersenneTwiter


smultin_Multinomial test:
-----------------------------------------------
   N =  1,  n = 500000000,  r = 10,   t = 10,
       Sparse =  FALSE

       GenerCell = smultin_GenerCellPermut
       Number of cells = t! =            3628800
       Expected number per cell =    137.7866
       Hashing =  FALSE

   For Delta > -1, we use the ChiSquare approximation
   Correction factor of the ChiSquare: 
       Delta =     1,    Mu =   0.0036287993,    Sigma =          1

-----------------------------------------------
Test Results for Delta =   1.0000

Number of degrees of freedom          : 3628799
Value of the statistic                : 3.62e+6
p-value of test                       :    0.96


-----------------------------------------------
CPU time used                    :  00:02:49.72

Generator state:




***********************************************************
Test sknuth_CollisionPermut calling smultin_Multinomial

***********************************************************
HOST = node36.local.isima.fr, Linux

MersenneTwiter


smultin_Multinomial test:
-----------------------------------------------
   N = 20,  n = 20000000,  r =  0,   t = 14,
       Sparse =   TRUE

       GenerCell = smultin_GenerCellPermut
       Number of cells = t! =        87178291200
       Expected number per cell =  1 /  4358.9146
       EColl = n^2 / (2k) =   2294.14912
       Hashing =   TRUE

       Collision test,    Mu =      2293.9736,    Sigma =    47.8841

-----------------------------------------------
Test Results for Collisions

For the total number of collisions, we use
      the Poisson approximation:
Expected number of collisions = N*Mu  :    45879.47
Observed number of collisions         :    46079
p-value of test                       :    0.18


-----------------------------
Total number of cells containing j balls

  j =  0                              :    1743165870079
  j =  1                              :        399907844
  j =  2                              :            46075
  j =  3                              :                2
  j =  4                              :                0
  j =  5                              :                0

-----------------------------------------------
CPU time used                    :  00:04:33.78

Generator state:




***********************************************************
Test sknuth_CollisionPermut calling smultin_Multinomial

***********************************************************
HOST = node36.local.isima.fr, Linux

MersenneTwiter


smultin_Multinomial test:
-----------------------------------------------
   N = 20,  n = 20000000,  r = 10,   t = 14,
       Sparse =   TRUE

       GenerCell = smultin_GenerCellPermut
       Number of cells = t! =        87178291200
       Expected number per cell =  1 /  4358.9146
       EColl = n^2 / (2k) =   2294.14912
       Hashing =   TRUE

       Collision test,    Mu =      2293.9736,    Sigma =    47.8841

-----------------------------------------------
Test Results for Collisions

For the total number of collisions, we use
      the Poisson approximation:
Expected number of collisions = N*Mu  :    45879.47
Observed number of collisions         :    46060
p-value of test                       :    0.20


-----------------------------
Total number of cells containing j balls

  j =  0                              :    1743165870060
  j =  1                              :        399907884
  j =  2                              :            46052
  j =  3                              :                4
  j =  4                              :                0
  j =  5                              :                0

-----------------------------------------------
CPU time used                    :  00:04:41.75

Generator state:




***********************************************************
HOST = node36.local.isima.fr, Linux

MersenneTwiter


sknuth_MaxOft test:
-----------------------------------------------
   N = 40,  n = 10000000,  r =  0,   d = 100000,   t =  8

      Number of categories = 100000
      Expected number per category  = 100.00


-----------------------------------------------
Test results for chi2 with 99999 degrees of freedom:

Kolmogorov-Smirnov+ statistic = D+    :    0.12
p-value of test                       :    0.27

Kolmogorov-Smirnov- statistic = D-    :   0.069
p-value of test                       :    0.65

Anderson-Darling statistic = A2       :    0.88
p-value of test                       :    0.42

Test on the sum of all N observations
Number of degrees of freedom          : 3999960
Chi-square statistic                  : 4.00e+6
p-value of test                       :    0.83


-----------------------------------------------
Test results for Anderson-Darling:

Kolmogorov-Smirnov+ statistic = D+    :   0.022
p-value of test                       :    0.95

Kolmogorov-Smirnov- statistic = D-    :    0.20
p-value of test                       :    0.04

Anderson-Darling statistic = A2       :    1.17
p-value of test                       :    0.28


-----------------------------------------------
CPU time used                    :  00:01:33.51

Generator state:




***********************************************************
HOST = node36.local.isima.fr, Linux

MersenneTwiter


sknuth_MaxOft test:
-----------------------------------------------
   N = 30,  n = 10000000,  r =  0,   d = 100000,   t = 16

      Number of categories = 100000
      Expected number per category  = 100.00


-----------------------------------------------
Test results for chi2 with 99999 degrees of freedom:

Kolmogorov-Smirnov+ statistic = D+    :    0.15
p-value of test                       :    0.24

Kolmogorov-Smirnov- statistic = D-    :   0.059
p-value of test                       :    0.78

Anderson-Darling statistic = A2       :    0.61
p-value of test                       :    0.64

Test on the sum of all N observations
Number of degrees of freedom          : 2999970
Chi-square statistic                  : 3.00e+6
p-value of test                       :    0.60


-----------------------------------------------
Test results for Anderson-Darling:

Kolmogorov-Smirnov+ statistic = D+    :   0.049
p-value of test                       :    0.84

Kolmogorov-Smirnov- statistic = D-    :    0.11
p-value of test                       :    0.45

Anderson-Darling statistic = A2       :    0.30
p-value of test                       :    0.94


-----------------------------------------------
CPU time used                    :  00:01:25.31

Generator state:




***********************************************************
HOST = node36.local.isima.fr, Linux

MersenneTwiter


sknuth_MaxOft test:
-----------------------------------------------
   N = 20,  n = 10000000,  r =  0,   d = 100000,   t = 24

      Number of categories = 100000
      Expected number per category  = 100.00


-----------------------------------------------
Test results for chi2 with 99999 degrees of freedom:

Kolmogorov-Smirnov+ statistic = D+    :    0.12
p-value of test                       :    0.51

Kolmogorov-Smirnov- statistic = D-    :   0.095
p-value of test                       :    0.65

Anderson-Darling statistic = A2       :    0.50
p-value of test                       :    0.74

Test on the sum of all N observations
Number of degrees of freedom          : 1999980
Chi-square statistic                  : 2.00e+6
p-value of test                       :    0.75


-----------------------------------------------
Test results for Anderson-Darling:

Kolmogorov-Smirnov+ statistic = D+    :    0.11
p-value of test                       :    0.57

Kolmogorov-Smirnov- statistic = D-    :    0.18
p-value of test                       :    0.26

Anderson-Darling statistic = A2       :    1.02
p-value of test                       :    0.35


-----------------------------------------------
CPU time used                    :  00:01:05.07

Generator state:




***********************************************************
HOST = node36.local.isima.fr, Linux

MersenneTwiter


sknuth_MaxOft test:
-----------------------------------------------
   N = 20,  n = 10000000,  r =  0,   d = 100000,   t = 32

      Number of categories = 100000
      Expected number per category  = 100.00


-----------------------------------------------
Test results for chi2 with 99999 degrees of freedom:

Kolmogorov-Smirnov+ statistic = D+    :   0.072
p-value of test                       :    0.78

Kolmogorov-Smirnov- statistic = D-    :    0.26
p-value of test                       :    0.06

Anderson-Darling statistic = A2       :    2.18
p-value of test                       :    0.07

Test on the sum of all N observations
Number of degrees of freedom          : 1999980
Chi-square statistic                  : 2.00e+6
p-value of test                       :    0.04


-----------------------------------------------
Test results for Anderson-Darling:

Kolmogorov-Smirnov+ statistic = D+    :    0.19
p-value of test                       :    0.21

Kolmogorov-Smirnov- statistic = D-    :    0.15
p-value of test                       :    0.35

Anderson-Darling statistic = A2       :    1.09
p-value of test                       :    0.31


-----------------------------------------------
CPU time used                    :  00:01:14.26

Generator state:




***********************************************************
HOST = node36.local.isima.fr, Linux

MersenneTwiter


svaria_SampleProd test:
-----------------------------------------------
   N = 40,  n = 10000000,  r =  0,   t = 8


-----------------------------------------------

Kolmogorov-Smirnov+ statistic = D+    :    0.18
p-value of test                       :    0.07

Kolmogorov-Smirnov- statistic = D-    :   0.039
p-value of test                       :    0.86

Anderson-Darling statistic = A2       :    1.17
p-value of test                       :    0.28

-----------------------------------------------
CPU time used                    :  00:01:18.18

Generator state:




***********************************************************
HOST = node36.local.isima.fr, Linux

MersenneTwiter


svaria_SampleProd test:
-----------------------------------------------
   N = 20,  n = 10000000,  r =  0,   t = 16


-----------------------------------------------

Kolmogorov-Smirnov+ statistic = D+    :    0.25
p-value of test                       :    0.07

Kolmogorov-Smirnov- statistic = D-    :   0.069
p-value of test                       :    0.79

Anderson-Darling statistic = A2       :    1.34
p-value of test                       :    0.22

-----------------------------------------------
CPU time used                    :  00:00:51.94

Generator state:




***********************************************************
HOST = node36.local.isima.fr, Linux

MersenneTwiter


svaria_SampleProd test:
-----------------------------------------------
   N = 20,  n = 10000000,  r =  0,   t = 24


-----------------------------------------------

Kolmogorov-Smirnov+ statistic = D+    :   0.086
p-value of test                       :    0.70

Kolmogorov-Smirnov- statistic = D-    :    0.14
p-value of test                       :    0.42

Anderson-Darling statistic = A2       :    0.39
p-value of test                       :    0.86

-----------------------------------------------
CPU time used                    :  00:01:02.14

Generator state:




***********************************************************
HOST = node36.local.isima.fr, Linux

MersenneTwiter


svaria_SampleMean test:
-----------------------------------------------
   N = 20000000,  n = 30,  r =  0


-----------------------------------------------

Kolmogorov-Smirnov+ statistic = D+    : 1.25e-4
p-value of test                       :    0.54

Kolmogorov-Smirnov- statistic = D-    : 1.19e-4
p-value of test                       :    0.57

Anderson-Darling statistic = A2       :    0.48
p-value of test                       :    0.76

-----------------------------------------------
CPU time used                    :  00:00:11.57

Generator state:




***********************************************************
HOST = node36.local.isima.fr, Linux

MersenneTwiter


svaria_SampleMean test:
-----------------------------------------------
   N = 20000000,  n = 30,  r = 10


-----------------------------------------------

Kolmogorov-Smirnov+ statistic = D+    : 1.22e-4
p-value of test                       :    0.55

Kolmogorov-Smirnov- statistic = D-    : 8.78e-5
p-value of test                       :    0.73

Anderson-Darling statistic = A2       :    0.40
p-value of test                       :    0.85

-----------------------------------------------
CPU time used                    :  00:00:12.14

Generator state:




***********************************************************
HOST = node36.local.isima.fr, Linux

MersenneTwiter


svaria_SampleCorr test:
-----------------------------------------------
   N =  1,  n = 2000000000,  r =  0,   k = 1


-----------------------------------------------
Normal statistic                      :   -0.51
p-value of test                       :    0.70

-----------------------------------------------
CPU time used                    :  00:00:11.82

Generator state:




***********************************************************
HOST = node36.local.isima.fr, Linux

MersenneTwiter


svaria_SampleCorr test:
-----------------------------------------------
   N =  1,  n = 2000000000,  r =  0,   k = 2


-----------------------------------------------
Normal statistic                      :    0.32
p-value of test                       :    0.38

-----------------------------------------------
CPU time used                    :  00:00:11.84

Generator state:




***********************************************************
HOST = node36.local.isima.fr, Linux

MersenneTwiter


svaria_AppearanceSpacings test:
-----------------------------------------------
   N =  1,   Q = 10000000,   K = 1000000000,   r = 0,   s = 3,   L = 15

   Sequences of n = (K + Q)L =  15150000000 bits
   Q = 10000000 initialization blocks
   K = 1000000000 blocks for the test
   the blocks have L = 15 bits



-----------------------------------------------
Normal statistic                      :    0.99
p-value of test                       :    0.16

-----------------------------------------------
CPU time used                    :  00:00:46.35

Generator state:




***********************************************************
HOST = node36.local.isima.fr, Linux

MersenneTwiter


svaria_AppearanceSpacings test:
-----------------------------------------------
   N =  1,   Q = 10000000,   K = 1000000000,   r = 27,   s = 3,   L = 15

   Sequences of n = (K + Q)L =  15150000000 bits
   Q = 10000000 initialization blocks
   K = 1000000000 blocks for the test
   the blocks have L = 15 bits



-----------------------------------------------
Normal statistic                      :    0.27
p-value of test                       :    0.39

-----------------------------------------------
CPU time used                    :  00:00:48.46

Generator state:




***********************************************************
HOST = node36.local.isima.fr, Linux

MersenneTwiter


svaria_WeightDistrib test:
-----------------------------------------------
   N =  1,  n = 20000000,  r =  0,  k = 256,  Alpha =      0,  Beta =   0.25


-----------------------------------------------
Number of degrees of freedom          :   67
Chi-square statistic                  :   92.61
p-value of test                       :    0.02

-----------------------------------------------
CPU time used                    :  00:00:28.77

Generator state:




***********************************************************
HOST = node36.local.isima.fr, Linux

MersenneTwiter


svaria_WeightDistrib test:
-----------------------------------------------
   N =  1,  n = 20000000,  r = 20,  k = 256,  Alpha =      0,  Beta =   0.25


-----------------------------------------------
Number of degrees of freedom          :   67
Chi-square statistic                  :   56.06
p-value of test                       :    0.83

-----------------------------------------------
CPU time used                    :  00:00:38.11

Generator state:




***********************************************************
HOST = node36.local.isima.fr, Linux

MersenneTwiter


svaria_WeightDistrib test:
-----------------------------------------------
   N =  1,  n = 20000000,  r = 28,  k = 256,  Alpha =      0,  Beta =   0.25


-----------------------------------------------
Number of degrees of freedom          :   67
Chi-square statistic                  :   53.02
p-value of test                       :    0.89

-----------------------------------------------
CPU time used                    :  00:00:38.35

Generator state:




***********************************************************
HOST = node36.local.isima.fr, Linux

MersenneTwiter


svaria_WeightDistrib test:
-----------------------------------------------
   N =  1,  n = 20000000,  r =  0,  k = 256,  Alpha =      0,  Beta = 0.0625


-----------------------------------------------
Number of degrees of freedom          :   37
Chi-square statistic                  :   45.71
p-value of test                       :    0.15

-----------------------------------------------
CPU time used                    :  00:00:29.28

Generator state:




***********************************************************
HOST = node36.local.isima.fr, Linux

MersenneTwiter


svaria_WeightDistrib test:
-----------------------------------------------
   N =  1,  n = 20000000,  r = 10,  k = 256,  Alpha =      0,  Beta = 0.0625


-----------------------------------------------
Number of degrees of freedom          :   37
Chi-square statistic                  :   26.99
p-value of test                       :    0.89

-----------------------------------------------
CPU time used                    :  00:00:38.23

Generator state:




***********************************************************
HOST = node36.local.isima.fr, Linux

MersenneTwiter


svaria_WeightDistrib test:
-----------------------------------------------
   N =  1,  n = 20000000,  r = 26,  k = 256,  Alpha =      0,  Beta = 0.0625


-----------------------------------------------
Number of degrees of freedom          :   37
Chi-square statistic                  :   35.88
p-value of test                       :    0.52

-----------------------------------------------
CPU time used                    :  00:00:38.27

Generator state:




***********************************************************
HOST = node36.local.isima.fr, Linux

MersenneTwiter


svaria_SumCollector test:
-----------------------------------------------
   N =  1,  n = 500000000,  r =  0,   g = 10


-----------------------------------------------
Number of degrees of freedom          :   29
Chi-square statistic                  :   27.06
p-value of test                       :    0.57

-----------------------------------------------
CPU time used                    :  00:01:08.19

Generator state:




***********************************************************
HOST = node36.local.isima.fr, Linux

MersenneTwiter


smarsa_MatrixRank test:
-----------------------------------------------
   N = 10,  n = 1000000,  r =  0,    s = 5,    L = 30,    k = 30


-----------------------------------------------

Kolmogorov-Smirnov+ statistic = D+    :    0.12
p-value of test                       :    0.69

Kolmogorov-Smirnov- statistic = D-    :    0.44
p-value of test                       :    0.01

Anderson-Darling statistic = A2       :    2.77
p-value of test                       :    0.04

Test on the sum of all N observations
Number of degrees of freedom          :   40
Chi-square statistic                  :   51.06
p-value of test                       :    0.11

-----------------------------------------------
CPU time used                    :  00:00:58.38

Generator state:




***********************************************************
HOST = node36.local.isima.fr, Linux

MersenneTwiter


smarsa_MatrixRank test:
-----------------------------------------------
   N = 10,  n = 1000000,  r = 25,    s = 5,    L = 30,    k = 30


-----------------------------------------------

Kolmogorov-Smirnov+ statistic = D+    :    0.24
p-value of test                       :    0.27

Kolmogorov-Smirnov- statistic = D-    :    0.19
p-value of test                       :    0.45

Anderson-Darling statistic = A2       :    0.73
p-value of test                       :    0.53

Test on the sum of all N observations
Number of degrees of freedom          :   40
Chi-square statistic                  :   32.39
p-value of test                       :    0.80

-----------------------------------------------
CPU time used                    :  00:00:57.65

Generator state:




***********************************************************
HOST = node36.local.isima.fr, Linux

MersenneTwiter


smarsa_MatrixRank test:
-----------------------------------------------
   N =  1,  n = 5000,  r =  0,    s = 4,    L = 1000,    k = 1000


-----------------------------------------------
Number of degrees of freedom          :    3
Chi-square statistic                  :    4.83
p-value of test                       :    0.19

-----------------------------------------------
CPU time used                    :  00:01:20.61

Generator state:




***********************************************************
HOST = node36.local.isima.fr, Linux

MersenneTwiter


smarsa_MatrixRank test:
-----------------------------------------------
   N =  1,  n = 5000,  r = 26,    s = 4,    L = 1000,    k = 1000


-----------------------------------------------
Number of degrees of freedom          :    3
Chi-square statistic                  :    1.49
p-value of test                       :    0.69

-----------------------------------------------
CPU time used                    :  00:01:21.92

Generator state:




***********************************************************
HOST = node36.local.isima.fr, Linux

MersenneTwiter


smarsa_MatrixRank test:
-----------------------------------------------
   N =  1,  n = 80,  r = 15,    s = 15,    L = 5000,    k = 5000


-----------------------------------------------
Number of degrees of freedom          :    2
Chi-square statistic                  :    6.68
p-value of test                       :    0.04

-----------------------------------------------
CPU time used                    :  00:01:14.64

Generator state:




***********************************************************
HOST = node36.local.isima.fr, Linux

MersenneTwiter


smarsa_MatrixRank test:
-----------------------------------------------
   N =  1,  n = 80,  r =  0,    s = 30,    L = 5000,    k = 5000


-----------------------------------------------
Number of degrees of freedom          :    2
Chi-square statistic                  :    3.12
p-value of test                       :    0.21

-----------------------------------------------
CPU time used                    :  00:01:19.34

Generator state:




***********************************************************
HOST = node36.local.isima.fr, Linux

MersenneTwiter


smarsa_Savir2 test:
-----------------------------------------------
   N = 10,  n = 10000000,  r = 10,    m = 1048576,    t = 30


-----------------------------------------------

Kolmogorov-Smirnov+ statistic = D+    :    0.16
p-value of test                       :    0.54

Kolmogorov-Smirnov- statistic = D-    :   0.092
p-value of test                       :    0.80

Anderson-Darling statistic = A2       :    0.24
p-value of test                       :    0.98

Test on the sum of all N observations
Number of degrees of freedom          :  130
Chi-square statistic                  :  123.88
p-value of test                       :    0.63

-----------------------------------------------
CPU time used                    :  00:00:24.38

Generator state:




***********************************************************
HOST = node36.local.isima.fr, Linux

MersenneTwiter


smarsa_GCD test:
-----------------------------------------------
   N = 10,  n = 50000000,  r =  0,   s = 30


-----------------------------------------------
Test results for GCD values:

Kolmogorov-Smirnov+ statistic = D+    :    0.14
p-value of test                       :    0.62

Kolmogorov-Smirnov- statistic = D-    :    0.19
p-value of test                       :    0.44

Anderson-Darling statistic = A2       :    0.80
p-value of test                       :    0.48

Test on the sum of all N observations
Number of degrees of freedom          : 17430
Chi-square statistic                  :17527.64
p-value of test                       :    0.30



-----------------------------------------------
CPU time used                    :  00:00:52.14

Generator state:




***********************************************************
HOST = node36.local.isima.fr, Linux

MersenneTwiter


swalk_RandomWalk1 test:
-----------------------------------------------
   N =  1,  n = 100000000,  r =  0,   s = 5,   L0 =   50,   L1 =   50



-----------------------------------------------
Test on the values of the Statistic H

Number of degrees of freedom          :   36
ChiSquare statistic                   :   35.65
p-value of test                       :    0.48


-----------------------------------------------
Test on the values of the Statistic M

Number of degrees of freedom          :   35
ChiSquare statistic                   :   19.48
p-value of test                       :    0.98


-----------------------------------------------
Test on the values of the Statistic J

Number of degrees of freedom          :   25
ChiSquare statistic                   :   21.92
p-value of test                       :    0.64


-----------------------------------------------
Test on the values of the Statistic R

Number of degrees of freedom          :   24
ChiSquare statistic                   :   11.91
p-value of test                       :    0.98


-----------------------------------------------
Test on the values of the Statistic C

Number of degrees of freedom          :   17
ChiSquare statistic                   :   25.05
p-value of test                       :    0.09


-----------------------------------------------
CPU time used                    :  00:00:36.87

Generator state:




***********************************************************
HOST = node36.local.isima.fr, Linux

MersenneTwiter


swalk_RandomWalk1 test:
-----------------------------------------------
   N =  1,  n = 100000000,  r = 25,   s = 5,   L0 =   50,   L1 =   50



-----------------------------------------------
Test on the values of the Statistic H

Number of degrees of freedom          :   36
ChiSquare statistic                   :   26.43
p-value of test                       :    0.88


-----------------------------------------------
Test on the values of the Statistic M

Number of degrees of freedom          :   35
ChiSquare statistic                   :   37.97
p-value of test                       :    0.34


-----------------------------------------------
Test on the values of the Statistic J

Number of degrees of freedom          :   25
ChiSquare statistic                   :   30.18
p-value of test                       :    0.22


-----------------------------------------------
Test on the values of the Statistic R

Number of degrees of freedom          :   24
ChiSquare statistic                   :   22.99
p-value of test                       :    0.52


-----------------------------------------------
Test on the values of the Statistic C

Number of degrees of freedom          :   17
ChiSquare statistic                   :   26.08
p-value of test                       :    0.07


-----------------------------------------------
CPU time used                    :  00:00:37.09

Generator state:




***********************************************************
HOST = node36.local.isima.fr, Linux

MersenneTwiter


swalk_RandomWalk1 test:
-----------------------------------------------
   N =  1,  n = 10000000,  r =  0,   s = 10,   L0 = 1000,   L1 = 1000



-----------------------------------------------
Test on the values of the Statistic H

Number of degrees of freedom          :  146
ChiSquare statistic                   :  140.79
p-value of test                       :    0.61


-----------------------------------------------
Test on the values of the Statistic M

Number of degrees of freedom          :  146
ChiSquare statistic                   :  150.05
p-value of test                       :    0.39


-----------------------------------------------
Test on the values of the Statistic J

Number of degrees of freedom          :  500
ChiSquare statistic                   :  533.56
p-value of test                       :    0.14


-----------------------------------------------
Test on the values of the Statistic R

Number of degrees of freedom          :  136
ChiSquare statistic                   :  134.09
p-value of test                       :    0.53


-----------------------------------------------
Test on the values of the Statistic C

Number of degrees of freedom          :   74
ChiSquare statistic                   :   73.88
p-value of test                       :    0.48


-----------------------------------------------
CPU time used                    :  00:00:42.13

Generator state:




***********************************************************
HOST = node36.local.isima.fr, Linux

MersenneTwiter


swalk_RandomWalk1 test:
-----------------------------------------------
   N =  1,  n = 10000000,  r = 20,   s = 10,   L0 = 1000,   L1 = 1000



-----------------------------------------------
Test on the values of the Statistic H

Number of degrees of freedom          :  146
ChiSquare statistic                   :  139.77
p-value of test                       :    0.63


-----------------------------------------------
Test on the values of the Statistic M

Number of degrees of freedom          :  146
ChiSquare statistic                   :  137.56
p-value of test                       :    0.68


-----------------------------------------------
Test on the values of the Statistic J

Number of degrees of freedom          :  500
ChiSquare statistic                   :  482.61
p-value of test                       :    0.70


-----------------------------------------------
Test on the values of the Statistic R

Number of degrees of freedom          :  136
ChiSquare statistic                   :  127.98
p-value of test                       :    0.68


-----------------------------------------------
Test on the values of the Statistic C

Number of degrees of freedom          :   74
ChiSquare statistic                   :   62.60
p-value of test                       :    0.82


-----------------------------------------------
CPU time used                    :  00:00:42.95

Generator state:




***********************************************************
HOST = node36.local.isima.fr, Linux

MersenneTwiter


swalk_RandomWalk1 test:
-----------------------------------------------
   N =  1,  n = 1000000,  r =  0,   s = 15,   L0 = 10000,   L1 = 10000



-----------------------------------------------
Test on the values of the Statistic H

Number of degrees of freedom          :  384
ChiSquare statistic                   :  421.44
p-value of test                       :    0.09


-----------------------------------------------
Test on the values of the Statistic M

Number of degrees of freedom          :  384
ChiSquare statistic                   :  395.49
p-value of test                       :    0.33


-----------------------------------------------
Test on the values of the Statistic J

Number of degrees of freedom          : 5000
ChiSquare statistic                   : 5074.80
p-value of test                       :    0.23


-----------------------------------------------
Test on the values of the Statistic R

Number of degrees of freedom          :  378
ChiSquare statistic                   :  368.47
p-value of test                       :    0.63


-----------------------------------------------
Test on the values of the Statistic C

Number of degrees of freedom          :  200
ChiSquare statistic                   :  217.80
p-value of test                       :    0.18


-----------------------------------------------
CPU time used                    :  00:00:34.81

Generator state:




***********************************************************
HOST = node36.local.isima.fr, Linux

MersenneTwiter


swalk_RandomWalk1 test:
-----------------------------------------------
   N =  1,  n = 1000000,  r = 15,   s = 15,   L0 = 10000,   L1 = 10000



-----------------------------------------------
Test on the values of the Statistic H

Number of degrees of freedom          :  384
ChiSquare statistic                   :  380.45
p-value of test                       :    0.54


-----------------------------------------------
Test on the values of the Statistic M

Number of degrees of freedom          :  384
ChiSquare statistic                   :  378.26
p-value of test                       :    0.57


-----------------------------------------------
Test on the values of the Statistic J

Number of degrees of freedom          : 5000
ChiSquare statistic                   : 5069.68
p-value of test                       :    0.24


-----------------------------------------------
Test on the values of the Statistic R

Number of degrees of freedom          :  378
ChiSquare statistic                   :  362.26
p-value of test                       :    0.71


-----------------------------------------------
Test on the values of the Statistic C

Number of degrees of freedom          :  200
ChiSquare statistic                   :  169.70
p-value of test                       :    0.94


-----------------------------------------------
CPU time used                    :  00:00:34.43

Generator state:




***********************************************************
HOST = node36.local.isima.fr, Linux

MersenneTwiter


scomp_LinearComp test:
-----------------------------------------------
   N =  1,  n = 400020,  r =  0,    s = 1



-----------------------------------------------
Number of degrees of freedom          :   12
Chi2 statistic for size of jumps      :   12.21
p-value of test                       :    0.43


-----------------------------------------------
Normal statistic for number of jumps  : -402.34
p-value of test                       : 1 - eps1    *****



-----------------------------------------------
CPU time used                    :  00:00:06.12

Generator state:




***********************************************************
HOST = node36.local.isima.fr, Linux

MersenneTwiter


scomp_LinearComp test:
-----------------------------------------------
   N =  1,  n = 400020,  r = 29,    s = 1



-----------------------------------------------
Number of degrees of freedom          :   12
Chi2 statistic for size of jumps      :    6.52
p-value of test                       :    0.89


-----------------------------------------------
Normal statistic for number of jumps  : -402.90
p-value of test                       : 1 - eps1    *****



-----------------------------------------------
CPU time used                    :  00:00:06.13

Generator state:




***********************************************************
HOST = node36.local.isima.fr, Linux

MersenneTwiter


scomp_LempelZiv test:
-----------------------------------------------
   N = 10,  n = 134217728,  r =  0,   s =   30,   k =   27


-----------------------------------------------

Kolmogorov-Smirnov+ statistic = D+    :    0.13
p-value of test                       :    0.64

Kolmogorov-Smirnov- statistic = D-    :    0.27
p-value of test                       :    0.20

Anderson-Darling statistic = A2       :    0.70
p-value of test                       :    0.55

Tests on the sum of all N observations
Standardized normal statistic         :    0.59
p-value of test                       :    0.28

Sample variance                       :    0.63
p-value of test                       :    0.77

-----------------------------------------------
CPU time used                    :  00:01:21.95

Generator state:




***********************************************************
HOST = node36.local.isima.fr, Linux

MersenneTwiter


scomp_LempelZiv test:
-----------------------------------------------
   N = 10,  n = 134217728,  r = 15,   s =   15,   k =   27


-----------------------------------------------

Kolmogorov-Smirnov+ statistic = D+    :    0.31
p-value of test                       :    0.11

Kolmogorov-Smirnov- statistic = D-    :   0.055
p-value of test                       :    0.91

Anderson-Darling statistic = A2       :    1.42
p-value of test                       :    0.20

Tests on the sum of all N observations
Standardized normal statistic         :   -1.43
p-value of test                       :    0.92

Sample variance                       :    0.69
p-value of test                       :    0.72

-----------------------------------------------
CPU time used                    :  00:01:39.87

Generator state:




***********************************************************
HOST = node36.local.isima.fr, Linux

MersenneTwiter


sspectral_Fourier3 test:
-----------------------------------------------
   N = 100000,  n = 16384,  r =  0,   s =    3,   k =   14


-----------------------------------------------

Kolmogorov-Smirnov+ statistic = D+    : 9.56e-3
p-value of test                       :    0.47

Kolmogorov-Smirnov- statistic = D-    : 3.07e-3
p-value of test                       :    0.92

Anderson-Darling statistic = A2       :    0.44
p-value of test                       :    0.81

-----------------------------------------------
CPU time used                    :  00:00:47.47

Generator state:




***********************************************************
HOST = node36.local.isima.fr, Linux

MersenneTwiter


sspectral_Fourier3 test:
-----------------------------------------------
   N = 100000,  n = 16384,  r = 27,   s =    3,   k =   14


-----------------------------------------------

Kolmogorov-Smirnov+ statistic = D+    :   0.020
p-value of test                       :    0.04

Kolmogorov-Smirnov- statistic = D-    : 9.37e-3
p-value of test                       :    0.48

Anderson-Darling statistic = A2       :    2.42
p-value of test                       :    0.05

-----------------------------------------------
CPU time used                    :  00:00:47.05

Generator state:




***********************************************************
HOST = node36.local.isima.fr, Linux

MersenneTwiter


sstring_LongestHeadRun test:
-----------------------------------------------
   N =  1,  n = 1000,  r =  0,   s = 3,   L = 10000020


-----------------------------------------------
Number of degrees of freedom          :    8
Chi-square statistic                  :    4.15
p-value of test                       :    0.84

-----------------------------------------------
Global longest run of 1               :   32.00
p-value of test                       :    0.50



-----------------------------------------------
CPU time used                    :  00:01:18.12

Generator state:




***********************************************************
HOST = node36.local.isima.fr, Linux

MersenneTwiter


sstring_LongestHeadRun test:
-----------------------------------------------
   N =  1,  n = 1000,  r = 27,   s = 3,   L = 10000020


-----------------------------------------------
Number of degrees of freedom          :    8
Chi-square statistic                  :    6.35
p-value of test                       :    0.61

-----------------------------------------------
Global longest run of 1               :   37.00
p-value of test                       :    0.04



-----------------------------------------------
CPU time used                    :  00:01:18.51

Generator state:




***********************************************************
HOST = node36.local.isima.fr, Linux

MersenneTwiter


sstring_PeriodsInStrings test:
-----------------------------------------------
   N = 10,  n = 500000000,  r =  0,   s =   10


-----------------------------------------------

Kolmogorov-Smirnov+ statistic = D+    :    0.27
p-value of test                       :    0.20

Kolmogorov-Smirnov- statistic = D-    :   0.072
p-value of test                       :    0.86

Anderson-Darling statistic = A2       :    1.13
p-value of test                       :    0.29

Test on the sum of all N observations
Number of degrees of freedom          :  200
Chi-square statistic                  :  177.64
p-value of test                       :    0.87

-----------------------------------------------
CPU time used                    :  00:02:01.40

Generator state:




***********************************************************
HOST = node36.local.isima.fr, Linux

MersenneTwiter


sstring_PeriodsInStrings test:
-----------------------------------------------
   N = 10,  n = 500000000,  r = 20,   s =   10


-----------------------------------------------

Kolmogorov-Smirnov+ statistic = D+    :   0.066
p-value of test                       :    0.88

Kolmogorov-Smirnov- statistic = D-    :    0.22
p-value of test                       :    0.34

Anderson-Darling statistic = A2       :    0.68
p-value of test                       :    0.57

Test on the sum of all N observations
Number of degrees of freedom          :  200
Chi-square statistic                  :  215.18
p-value of test                       :    0.22

-----------------------------------------------
CPU time used                    :  00:02:04.70

Generator state:




***********************************************************
HOST = node36.local.isima.fr, Linux

MersenneTwiter


sstring_HammingWeight2 test:
-----------------------------------------------
   N = 10,  n = 1000000000,  r =  0,   s = 3,   L = 1000000


-----------------------------------------------

Kolmogorov-Smirnov+ statistic = D+    :   0.089
p-value of test                       :    0.81

Kolmogorov-Smirnov- statistic = D-    :    0.17
p-value of test                       :    0.50

Anderson-Darling statistic = A2       :    0.24
p-value of test                       :    0.98

Test on the sum of all N observations
Number of degrees of freedom          : 10000
Chi-square statistic                  :10026.45
p-value of test                       :    0.42

-----------------------------------------------
CPU time used                    :  00:00:46.90

Generator state:




***********************************************************
HOST = node36.local.isima.fr, Linux

MersenneTwiter


sstring_HammingWeight2 test:
-----------------------------------------------
   N = 10,  n = 1000000000,  r = 27,   s = 3,   L = 1000000


-----------------------------------------------

Kolmogorov-Smirnov+ statistic = D+    :   0.052
p-value of test                       :    0.92

Kolmogorov-Smirnov- statistic = D-    :    0.23
p-value of test                       :    0.29

Anderson-Darling statistic = A2       :    1.06
p-value of test                       :    0.32

Test on the sum of all N observations
Number of degrees of freedom          : 10000
Chi-square statistic                  :10202.08
p-value of test                       :    0.08

-----------------------------------------------
CPU time used                    :  00:00:48.61

Generator state:




***********************************************************
HOST = node36.local.isima.fr, Linux

MersenneTwiter


sstring_HammingCorr test:
-----------------------------------------------
   N =  1,  n = 1000000000,  r = 10,   s = 10,   L = 30



-----------------------------------------------
Normal statistic                      :   -0.92
p-value of test                       :    0.82

-----------------------------------------------
CPU time used                    :  00:01:00.35

Generator state:




***********************************************************
HOST = node36.local.isima.fr, Linux

MersenneTwiter


sstring_HammingCorr test:
-----------------------------------------------
   N =  1,  n = 100000000,  r = 10,   s = 10,   L = 300



-----------------------------------------------
Normal statistic                      :  -0.060
p-value of test                       :    0.52

-----------------------------------------------
CPU time used                    :  00:00:57.39

Generator state:




***********************************************************
HOST = node36.local.isima.fr, Linux

MersenneTwiter


sstring_HammingCorr test:
-----------------------------------------------
   N =  1,  n = 100000000,  r = 10,   s = 10,   L = 1200



-----------------------------------------------
Normal statistic                      :    1.29
p-value of test                       :    0.10

-----------------------------------------------
CPU time used                    :  00:03:51.06

Generator state:




***********************************************************
HOST = node36.local.isima.fr, Linux

MersenneTwiter


sstring_HammingIndep test:
-----------------------------------------------
   N = 10,  n = 30000000,  r =  0,   s = 3,   L = 30,   d = 0



Counters with expected numbers >= 10
-----------------------------------------------

Kolmogorov-Smirnov+ statistic = D+    :    0.17
p-value of test                       :    0.50

Kolmogorov-Smirnov- statistic = D-    :    0.15
p-value of test                       :    0.59

Anderson-Darling statistic = A2       :    0.46
p-value of test                       :    0.79

Test on the sum of all N observations
Number of degrees of freedom          : 4890
Chi-square statistic                  : 4861.04
p-value of test                       :    0.61

-----------------------------------------------
CPU time used                    :  00:01:33.55

Generator state:




***********************************************************
HOST = node36.local.isima.fr, Linux

MersenneTwiter


sstring_HammingIndep test:
-----------------------------------------------
   N = 10,  n = 30000000,  r = 27,   s = 3,   L = 30,   d = 0



Counters with expected numbers >= 10
-----------------------------------------------

Kolmogorov-Smirnov+ statistic = D+    :   0.074
p-value of test                       :    0.86

Kolmogorov-Smirnov- statistic = D-    :    0.21
p-value of test                       :    0.37

Anderson-Darling statistic = A2       :    0.44
p-value of test                       :    0.80

Test on the sum of all N observations
Number of degrees of freedom          : 4890
Chi-square statistic                  : 4945.11
p-value of test                       :    0.29

-----------------------------------------------
CPU time used                    :  00:01:35.37

Generator state:




***********************************************************
HOST = node36.local.isima.fr, Linux

MersenneTwiter


sstring_HammingIndep test:
-----------------------------------------------
   N =  1,  n = 30000000,  r =  0,   s = 4,   L = 300,   d = 0



Counters with expected numbers >= 10
-----------------------------------------------
Number of degrees of freedom          : 4117
Chi-square statistic                  : 3962.63
p-value of test                       :    0.96

-----------------------------------------------
CPU time used                    :  00:01:08.95

Generator state:




***********************************************************
HOST = node36.local.isima.fr, Linux

MersenneTwiter


sstring_HammingIndep test:
-----------------------------------------------
   N =  1,  n = 30000000,  r = 26,   s = 4,   L = 300,   d = 0



Counters with expected numbers >= 10
-----------------------------------------------
Number of degrees of freedom          : 4117
Chi-square statistic                  : 3952.63
p-value of test                       :    0.97

-----------------------------------------------
CPU time used                    :  00:01:10.73

Generator state:




***********************************************************
HOST = node36.local.isima.fr, Linux

MersenneTwiter


sstring_HammingIndep test:
-----------------------------------------------
   N =  1,  n = 10000000,  r =  0,   s = 5,   L = 1200,   d = 0



Counters with expected numbers >= 10
-----------------------------------------------
Number of degrees of freedom          : 11825
Chi-square statistic                  :11946.38
p-value of test                       :    0.21

-----------------------------------------------
CPU time used                    :  00:01:17.18

Generator state:




***********************************************************
HOST = node36.local.isima.fr, Linux

MersenneTwiter


sstring_HammingIndep test:
-----------------------------------------------
   N =  1,  n = 10000000,  r = 25,   s = 5,   L = 1200,   d = 0



Counters with expected numbers >= 10
-----------------------------------------------
Number of degrees of freedom          : 11825
Chi-square statistic                  :11728.78
p-value of test                       :    0.73

-----------------------------------------------
CPU time used                    :  00:01:18.72

Generator state:




***********************************************************
HOST = node36.local.isima.fr, Linux

MersenneTwiter


sstring_Run test:
-----------------------------------------------
   N =  1,  n = 2000000000,  r =  0,   s =    3


-----------------------------------------------
Total number of 1 runs:  2000000000

Number of degrees of freedom          :   54
Chi2 statistic for number of runs     :   73.92
p-value of test                       :    0.04


-----------------------------------------------
Total number of bits:  7999840296

Normal statistic for number of bits   :   -1.26
p-value of test                       :    0.90



-----------------------------------------------
CPU time used                    :  00:01:03.79

Generator state:




***********************************************************
HOST = node36.local.isima.fr, Linux

MersenneTwiter


sstring_Run test:
-----------------------------------------------
   N =  1,  n = 2000000000,  r = 27,   s =    3


-----------------------------------------------
Total number of 1 runs:  2000000000

Number of degrees of freedom          :   54
Chi2 statistic for number of runs     :   57.90
p-value of test                       :    0.33


-----------------------------------------------
Total number of bits:  7999991781

Normal statistic for number of bits   :  -0.065
p-value of test                       :    0.53



-----------------------------------------------
CPU time used                    :  00:01:05.78

Generator state:




***********************************************************
HOST = node36.local.isima.fr, Linux

MersenneTwiter


sstring_AutoCor test:
-----------------------------------------------
   N = 10,  n = 1000000030,  r =  0,   s = 3,   d = 1


-----------------------------------------------

Kolmogorov-Smirnov+ statistic = D+    :    0.16
p-value of test                       :    0.54

Kolmogorov-Smirnov- statistic = D-    :    0.17
p-value of test                       :    0.51

Anderson-Darling statistic = A2       :    0.50
p-value of test                       :    0.75

Tests on the sum of all N observations
Standardized normal statistic         :   0.098
p-value of test                       :    0.46

Sample variance                       :    1.33
p-value of test                       :    0.21

-----------------------------------------------
CPU time used                    :  00:01:17.04

Generator state:




***********************************************************
HOST = node36.local.isima.fr, Linux

MersenneTwiter


sstring_AutoCor test:
-----------------------------------------------
   N = 10,  n = 1000000029,  r =  0,   s = 3,   d = 3


-----------------------------------------------

Kolmogorov-Smirnov+ statistic = D+    :    0.12
p-value of test                       :    0.69

Kolmogorov-Smirnov- statistic = D-    :    0.22
p-value of test                       :    0.32

Anderson-Darling statistic = A2       :    0.55
p-value of test                       :    0.69

Tests on the sum of all N observations
Standardized normal statistic         :    0.64
p-value of test                       :    0.26

Sample variance                       :    1.15
p-value of test                       :    0.32

-----------------------------------------------
CPU time used                    :  00:01:00.73

Generator state:




***********************************************************
HOST = node36.local.isima.fr, Linux

MersenneTwiter


sstring_AutoCor test:
-----------------------------------------------
   N = 10,  n = 1000000030,  r = 27,   s = 3,   d = 1


-----------------------------------------------

Kolmogorov-Smirnov+ statistic = D+    :   0.014
p-value of test                       :    0.98

Kolmogorov-Smirnov- statistic = D-    :    0.27
p-value of test                       :    0.19

Anderson-Darling statistic = A2       :    2.01
p-value of test                       :    0.09

Tests on the sum of all N observations
Standardized normal statistic         :    1.93
p-value of test                       :    0.03

Sample variance                       :    1.14
p-value of test                       :    0.33

-----------------------------------------------
CPU time used                    :  00:01:24.31

Generator state:




***********************************************************
HOST = node36.local.isima.fr, Linux

MersenneTwiter


sstring_AutoCor test:
-----------------------------------------------
   N = 10,  n = 1000000029,  r = 27,   s = 3,   d = 3


-----------------------------------------------

Kolmogorov-Smirnov+ statistic = D+    :    0.15
p-value of test                       :    0.59

Kolmogorov-Smirnov- statistic = D-    :    0.17
p-value of test                       :    0.51

Anderson-Darling statistic = A2       :    0.41
p-value of test                       :    0.84

Tests on the sum of all N observations
Standardized normal statistic         :    0.36
p-value of test                       :    0.36

Sample variance                       :    0.84
p-value of test                       :    0.58

-----------------------------------------------
CPU time used                    :  00:01:07.73

Generator state:





========= Summary results of BigCrush =========

 Version:          TestU01 1.2.3
 Generator:        MersenneTwiter
 Number of statistics:  160
 Total CPU time:   02:57:06.97
 The following tests gave p-values outside [0.001, 0.9990]:
 (eps  means a value < 1.0e-300):
 (eps1 means a value < 1.0e-15):

       Test                          p-value
 ----------------------------------------------
 80  LinearComp, r = 0              1 - eps1
 81  LinearComp, r = 29             1 - eps1
 ----------------------------------------------
 All other tests were passed



