xxxxxxxxxxxxxxxxxxxxxxxxxxxxxxxxxxxxxxxxxxxxxxxxxxxxxxxxxxx
                 Starting BigCrush
                 Version: TestU01 1.2.3
xxxxxxxxxxxxxxxxxxxxxxxxxxxxxxxxxxxxxxxxxxxxxxxxxxxxxxxxxxx


***********************************************************
Test smarsa_SerialOver calling smultin_MultinomialOver

***********************************************************
HOST = node40.local.isima.fr, Linux

MersenneTwiter


smultin_MultinomialOver test:
-----------------------------------------------
   N =  1,  n = 1000000000,  r =  0,   d =  256,   t =  3,
       Sparse =  FALSE

       GenerCell = smultin_GenerCellSerial
       Number of cells = d^t =           16777216
       Expected number per cell =   59.604645
       Hashing =  FALSE

   For Delta > -1, we use the ChiSquare approximation
   Correction factor of the ChiSquare: 
       Delta =     1,    Mu =   0.0083558402,    Sigma =          1

-----------------------------------------------
Test Results for Delta =   1.0000

Number of degrees of freedom          : 16711680
Value of the statistic                : 1.67e+7
p-value of test                       :    0.39


-----------------------------------------------
CPU time used                    :  00:01:49.70

Generator state:




***********************************************************
Test smarsa_SerialOver calling smultin_MultinomialOver

***********************************************************
HOST = node40.local.isima.fr, Linux

MersenneTwiter


smultin_MultinomialOver test:
-----------------------------------------------
   N =  1,  n = 1000000000,  r = 22,   d =  256,   t =  3,
       Sparse =  FALSE

       GenerCell = smultin_GenerCellSerial
       Number of cells = d^t =           16777216
       Expected number per cell =   59.604645
       Hashing =  FALSE

   For Delta > -1, we use the ChiSquare approximation
   Correction factor of the ChiSquare: 
       Delta =     1,    Mu =   0.0083558402,    Sigma =          1

-----------------------------------------------
Test Results for Delta =   1.0000

Number of degrees of freedom          : 16711680
Value of the statistic                : 1.67e+7
p-value of test                       :    0.78


-----------------------------------------------
CPU time used                    :  00:01:52.37

Generator state:




***********************************************************
Test smarsa_CollisionOver calling smultin_MultinomialOver

***********************************************************
HOST = node40.local.isima.fr, Linux

MersenneTwiter


smultin_MultinomialOver test:
-----------------------------------------------
   N = 30,  n = 20000000,  r =  0,   d = 2097152,   t =  2,
       Sparse =   TRUE

       GenerCell = smultin_GenerCellSerial
       Number of cells = d^t =      4398046511104
       Expected number per cell =  1 /  219902.33
       EColl = n^2 / (2k) =  45.47473509
       Hashing =   TRUE

       Collision test

       CollisionOver:   density = n / k =  1 /  219902.33
       Expected number of collisions = Mu =      45.47


-----------------------------------------------
Results of CollisionOver test:

POISSON approximation                 :
Expected number of collisions = N*Mu  :     1364.24
Observed number of collisions         :     1342
p-value of test                       :    0.72

-----------------------------
Total number of cells containing j balls

  j =  0                              :  131940795334462
  j =  1                              :        599997316
  j =  2                              :             1342
  j =  3                              :                0
  j =  4                              :                0
  j =  5                              :                0

-----------------------------------------------
CPU time used                    :  00:05:59.80

Generator state:




***********************************************************
Test smarsa_CollisionOver calling smultin_MultinomialOver

***********************************************************
HOST = node40.local.isima.fr, Linux

MersenneTwiter


smultin_MultinomialOver test:
-----------------------------------------------
   N = 30,  n = 20000000,  r =  9,   d = 2097152,   t =  2,
       Sparse =   TRUE

       GenerCell = smultin_GenerCellSerial
       Number of cells = d^t =      4398046511104
       Expected number per cell =  1 /  219902.33
       EColl = n^2 / (2k) =  45.47473509
       Hashing =   TRUE

       Collision test

       CollisionOver:   density = n / k =  1 /  219902.33
       Expected number of collisions = Mu =      45.47


-----------------------------------------------
Results of CollisionOver test:

POISSON approximation                 :
Expected number of collisions = N*Mu  :     1364.24
Observed number of collisions         :     1372
p-value of test                       :    0.42

-----------------------------
Total number of cells containing j balls

  j =  0                              :  131940795334492
  j =  1                              :        599997256
  j =  2                              :             1372
  j =  3                              :                0
  j =  4                              :                0
  j =  5                              :                0

-----------------------------------------------
CPU time used                    :  00:05:58.01

Generator state:




***********************************************************
Test smarsa_CollisionOver calling smultin_MultinomialOver

***********************************************************
HOST = node40.local.isima.fr, Linux

MersenneTwiter


smultin_MultinomialOver test:
-----------------------------------------------
   N = 30,  n = 20000000,  r =  0,   d = 16384,   t =  3,
       Sparse =   TRUE

       GenerCell = smultin_GenerCellSerial
       Number of cells = d^t =      4398046511104
       Expected number per cell =  1 /  219902.33
       EColl = n^2 / (2k) =  45.47473509
       Hashing =   TRUE

       Collision test

       CollisionOver:   density = n / k =  1 /  219902.33
       Expected number of collisions = Mu =      45.47


-----------------------------------------------
Results of CollisionOver test:

POISSON approximation                 :
Expected number of collisions = N*Mu  :     1364.24
Observed number of collisions         :     1394
p-value of test                       :    0.21

-----------------------------
Total number of cells containing j balls

  j =  0                              :  131940795334514
  j =  1                              :        599997212
  j =  2                              :             1394
  j =  3                              :                0
  j =  4                              :                0
  j =  5                              :                0

-----------------------------------------------
CPU time used                    :  00:08:38.09

Generator state:




***********************************************************
Test smarsa_CollisionOver calling smultin_MultinomialOver

***********************************************************
HOST = node40.local.isima.fr, Linux

MersenneTwiter


smultin_MultinomialOver test:
-----------------------------------------------
   N = 30,  n = 20000000,  r = 16,   d = 16384,   t =  3,
       Sparse =   TRUE

       GenerCell = smultin_GenerCellSerial
       Number of cells = d^t =      4398046511104
       Expected number per cell =  1 /  219902.33
       EColl = n^2 / (2k) =  45.47473509
       Hashing =   TRUE

       Collision test

       CollisionOver:   density = n / k =  1 /  219902.33
       Expected number of collisions = Mu =      45.47


-----------------------------------------------
Results of CollisionOver test:

POISSON approximation                 :
Expected number of collisions = N*Mu  :     1364.24
Observed number of collisions         :     1391
p-value of test                       :    0.24

-----------------------------
Total number of cells containing j balls

  j =  0                              :  131940795334511
  j =  1                              :        599997218
  j =  2                              :             1391
  j =  3                              :                0
  j =  4                              :                0
  j =  5                              :                0

-----------------------------------------------
CPU time used                    :  00:08:35.89

Generator state:




***********************************************************
Test smarsa_CollisionOver calling smultin_MultinomialOver

***********************************************************
HOST = node40.local.isima.fr, Linux

MersenneTwiter


smultin_MultinomialOver test:
-----------------------------------------------
   N = 30,  n = 20000000,  r =  0,   d =   64,   t =  7,
       Sparse =   TRUE

       GenerCell = smultin_GenerCellSerial
       Number of cells = d^t =      4398046511104
       Expected number per cell =  1 /  219902.33
       EColl = n^2 / (2k) =  45.47473509
       Hashing =   TRUE

       Collision test

       CollisionOver:   density = n / k =  1 /  219902.33
       Expected number of collisions = Mu =      45.47


-----------------------------------------------
Results of CollisionOver test:

POISSON approximation                 :
Expected number of collisions = N*Mu  :     1364.24
Observed number of collisions         :     1351
p-value of test                       :    0.63

-----------------------------
Total number of cells containing j balls

  j =  0                              :  131940795334471
  j =  1                              :        599997298
  j =  2                              :             1351
  j =  3                              :                0
  j =  4                              :                0
  j =  5                              :                0

-----------------------------------------------
CPU time used                    :  00:08:42.09

Generator state:




***********************************************************
Test smarsa_CollisionOver calling smultin_MultinomialOver

***********************************************************
HOST = node40.local.isima.fr, Linux

MersenneTwiter


smultin_MultinomialOver test:
-----------------------------------------------
   N = 30,  n = 20000000,  r = 24,   d =   64,   t =  7,
       Sparse =   TRUE

       GenerCell = smultin_GenerCellSerial
       Number of cells = d^t =      4398046511104
       Expected number per cell =  1 /  219902.33
       EColl = n^2 / (2k) =  45.47473509
       Hashing =   TRUE

       Collision test

       CollisionOver:   density = n / k =  1 /  219902.33
       Expected number of collisions = Mu =      45.47


-----------------------------------------------
Results of CollisionOver test:

POISSON approximation                 :
Expected number of collisions = N*Mu  :     1364.24
Observed number of collisions         :     1372
p-value of test                       :    0.42

-----------------------------
Total number of cells containing j balls

  j =  0                              :  131940795334492
  j =  1                              :        599997256
  j =  2                              :             1372
  j =  3                              :                0
  j =  4                              :                0
  j =  5                              :                0

-----------------------------------------------
CPU time used                    :  00:08:40.05

Generator state:




***********************************************************
Test smarsa_CollisionOver calling smultin_MultinomialOver

***********************************************************
HOST = node40.local.isima.fr, Linux

MersenneTwiter


smultin_MultinomialOver test:
-----------------------------------------------
   N = 30,  n = 20000000,  r =  0,   d =    8,   t = 14,
       Sparse =   TRUE

       GenerCell = smultin_GenerCellSerial
       Number of cells = d^t =      4398046511104
       Expected number per cell =  1 /  219902.33
       EColl = n^2 / (2k) =  45.47473509
       Hashing =   TRUE

       Collision test

       CollisionOver:   density = n / k =  1 /  219902.33
       Expected number of collisions = Mu =      45.47


-----------------------------------------------
Results of CollisionOver test:

POISSON approximation                 :
Expected number of collisions = N*Mu  :     1364.24
Observed number of collisions         :     1400
p-value of test                       :    0.17

-----------------------------
Total number of cells containing j balls

  j =  0                              :  131940795334520
  j =  1                              :        599997200
  j =  2                              :             1400
  j =  3                              :                0
  j =  4                              :                0
  j =  5                              :                0

-----------------------------------------------
CPU time used                    :  00:08:46.42

Generator state:




***********************************************************
Test smarsa_CollisionOver calling smultin_MultinomialOver

***********************************************************
HOST = node40.local.isima.fr, Linux

MersenneTwiter


smultin_MultinomialOver test:
-----------------------------------------------
   N = 30,  n = 20000000,  r = 27,   d =    8,   t = 14,
       Sparse =   TRUE

       GenerCell = smultin_GenerCellSerial
       Number of cells = d^t =      4398046511104
       Expected number per cell =  1 /  219902.33
       EColl = n^2 / (2k) =  45.47473509
       Hashing =   TRUE

       Collision test

       CollisionOver:   density = n / k =  1 /  219902.33
       Expected number of collisions = Mu =      45.47


-----------------------------------------------
Results of CollisionOver test:

POISSON approximation                 :
Expected number of collisions = N*Mu  :     1364.24
Observed number of collisions         :     1327
p-value of test                       :    0.84

-----------------------------
Total number of cells containing j balls

  j =  0                              :  131940795334447
  j =  1                              :        599997346
  j =  2                              :             1327
  j =  3                              :                0
  j =  4                              :                0
  j =  5                              :                0

-----------------------------------------------
CPU time used                    :  00:08:42.05

Generator state:




***********************************************************
Test smarsa_CollisionOver calling smultin_MultinomialOver

***********************************************************
HOST = node40.local.isima.fr, Linux

MersenneTwiter


smultin_MultinomialOver test:
-----------------------------------------------
   N = 30,  n = 20000000,  r =  0,   d =    4,   t = 21,
       Sparse =   TRUE

       GenerCell = smultin_GenerCellSerial
       Number of cells = d^t =      4398046511104
       Expected number per cell =  1 /  219902.33
       EColl = n^2 / (2k) =  45.47473509
       Hashing =   TRUE

       Collision test

       CollisionOver:   density = n / k =  1 /  219902.33
       Expected number of collisions = Mu =      45.47


-----------------------------------------------
Results of CollisionOver test:

POISSON approximation                 :
Expected number of collisions = N*Mu  :     1364.24
Observed number of collisions         :     1278
p-value of test                       :    0.9904

-----------------------------
Total number of cells containing j balls

  j =  0                              :  131940795334398
  j =  1                              :        599997444
  j =  2                              :             1278
  j =  3                              :                0
  j =  4                              :                0
  j =  5                              :                0

-----------------------------------------------
CPU time used                    :  00:08:44.68

Generator state:




***********************************************************
Test smarsa_CollisionOver calling smultin_MultinomialOver

***********************************************************
HOST = node40.local.isima.fr, Linux

MersenneTwiter


smultin_MultinomialOver test:
-----------------------------------------------
   N = 30,  n = 20000000,  r = 28,   d =    4,   t = 21,
       Sparse =   TRUE

       GenerCell = smultin_GenerCellSerial
       Number of cells = d^t =      4398046511104
       Expected number per cell =  1 /  219902.33
       EColl = n^2 / (2k) =  45.47473509
       Hashing =   TRUE

       Collision test

       CollisionOver:   density = n / k =  1 /  219902.33
       Expected number of collisions = Mu =      45.47


-----------------------------------------------
Results of CollisionOver test:

POISSON approximation                 :
Expected number of collisions = N*Mu  :     1364.24
Observed number of collisions         :     1367
p-value of test                       :    0.47

-----------------------------
Total number of cells containing j balls

  j =  0                              :  131940795334487
  j =  1                              :        599997266
  j =  2                              :             1367
  j =  3                              :                0
  j =  4                              :                0
  j =  5                              :                0

-----------------------------------------------
CPU time used                    :  00:08:41.03

Generator state:




***********************************************************
HOST = node40.local.isima.fr, Linux

MersenneTwiter


smarsa_BirthdaySpacings test:
-----------------------------------------------
   N = 100,  n = 10000000,  r =  0,    d = 2147483648,    t = 2,    p = 1


      Number of cells = d^t = 4611686018427387904
      Lambda = Poisson mean =      54.2101


----------------------------------------------------
Total expected number = N*Lambda      :    5421.01
Total observed number                 :    5423
p-value of test                       :    0.49


-----------------------------------------------
CPU time used                    :  00:04:29.47

Generator state:




***********************************************************
HOST = node40.local.isima.fr, Linux

MersenneTwiter


smarsa_BirthdaySpacings test:
-----------------------------------------------
   N = 20,  n = 20000000,  r =  0,    d = 2097152,    t = 3,    p = 1


      Number of cells = d^t = 9223372036854775808
      Lambda = Poisson mean =     216.8404


----------------------------------------------------
Total expected number = N*Lambda      :    4336.81
Total observed number                 :    4355
p-value of test                       :    0.39


-----------------------------------------------
CPU time used                    :  00:01:56.35

Generator state:




***********************************************************
HOST = node40.local.isima.fr, Linux

MersenneTwiter


smarsa_BirthdaySpacings test:
-----------------------------------------------
   N = 20,  n = 30000000,  r = 14,    d = 65536,    t = 4,    p = 1


      Number of cells = d^t = 18446744073709551616
      Lambda = Poisson mean =     365.9182


----------------------------------------------------
Total expected number = N*Lambda      :    7318.36
Total observed number                 :    7440
p-value of test                       :    0.08


-----------------------------------------------
CPU time used                    :  00:03:15.84

Generator state:




***********************************************************
HOST = node40.local.isima.fr, Linux

MersenneTwiter


smarsa_BirthdaySpacings test:
-----------------------------------------------
   N = 20,  n = 20000000,  r =  0,    d = 512,    t = 7,    p = 1


      Number of cells = d^t = 9223372036854775808
      Lambda = Poisson mean =     216.8404


----------------------------------------------------
Total expected number = N*Lambda      :    4336.81
Total observed number                 :    4416
p-value of test                       :    0.12


-----------------------------------------------
CPU time used                    :  00:02:14.72

Generator state:




***********************************************************
HOST = node40.local.isima.fr, Linux

MersenneTwiter


smarsa_BirthdaySpacings test:
-----------------------------------------------
   N = 20,  n = 20000000,  r =  7,    d = 512,    t = 7,    p = 1


      Number of cells = d^t = 9223372036854775808
      Lambda = Poisson mean =     216.8404


----------------------------------------------------
Total expected number = N*Lambda      :    4336.81
Total observed number                 :    4373
p-value of test                       :    0.29


-----------------------------------------------
CPU time used                    :  00:02:24.77

Generator state:




***********************************************************
HOST = node40.local.isima.fr, Linux

MersenneTwiter


smarsa_BirthdaySpacings test:
-----------------------------------------------
   N = 20,  n = 30000000,  r = 14,    d = 256,    t = 8,    p = 1


      Number of cells = d^t = 18446744073709551616
      Lambda = Poisson mean =     365.9182


----------------------------------------------------
Total expected number = N*Lambda      :    7318.36
Total observed number                 :    7327
p-value of test                       :    0.46


-----------------------------------------------
CPU time used                    :  00:03:49.69

Generator state:




***********************************************************
HOST = node40.local.isima.fr, Linux

MersenneTwiter


smarsa_BirthdaySpacings test:
-----------------------------------------------
   N = 20,  n = 30000000,  r = 22,    d = 256,    t = 8,    p = 1


      Number of cells = d^t = 18446744073709551616
      Lambda = Poisson mean =     365.9182


----------------------------------------------------
Total expected number = N*Lambda      :    7318.36
Total observed number                 :    7297
p-value of test                       :    0.60


-----------------------------------------------
CPU time used                    :  00:03:50.30

Generator state:




***********************************************************
HOST = node40.local.isima.fr, Linux

MersenneTwiter


smarsa_BirthdaySpacings test:
-----------------------------------------------
   N = 20,  n = 30000000,  r =  0,    d = 16,    t = 16,    p = 1


      Number of cells = d^t = 18446744073709551616
      Lambda = Poisson mean =     365.9182


----------------------------------------------------
Total expected number = N*Lambda      :    7318.36
Total observed number                 :    7353
p-value of test                       :    0.34


-----------------------------------------------
CPU time used                    :  00:04:30.81

Generator state:




***********************************************************
HOST = node40.local.isima.fr, Linux

MersenneTwiter


smarsa_BirthdaySpacings test:
-----------------------------------------------
   N = 20,  n = 30000000,  r = 26,    d = 16,    t = 16,    p = 1


      Number of cells = d^t = 18446744073709551616
      Lambda = Poisson mean =     365.9182


----------------------------------------------------
Total expected number = N*Lambda      :    7318.36
Total observed number                 :    7495
p-value of test                       :    0.02


-----------------------------------------------
CPU time used                    :  00:05:02.94

Generator state:




***********************************************************
HOST = node40.local.isima.fr, Linux

MersenneTwiter


snpair_ClosePairs test:
-----------------------------------------------
   N = 30,  n = 6000000,  r =  0,  t = 3,  p = 0,  m = 30,  Torus =  TRUE


---------------------------------------
Test based on the 2 nearest points (NP):

Stat. AD on the N values (NP)         :    1.38
p-value of test                       :    0.21


A2 test based on the spacings between the
   successive jump times of process Y_n(t):

A2 test on the values of A2 (m-NP)    :    0.70
p-value of test                       :    0.55

Test on the Nm values of W_{n,i}(mNP1):    0.84
p-value of test                       :    0.45

Test on the jump times of Y
   (superposition of Yn):

Expected number of jumps of Y = mN    :     900
Number of jumps of Y                  :     895
p-value of test                       :    0.56

Stat. AD (mNP2)                       :    2.23
p-value of test                       :    0.07

Stat. AD after spacings (mNP2-S)      :    3.84
p-value of test                       :    0.01

-----------------------------------------------
CPU time used                    :  00:03:18.98

Generator state:




***********************************************************
HOST = node40.local.isima.fr, Linux

MersenneTwiter


snpair_ClosePairs test:
-----------------------------------------------
   N = 20,  n = 4000000,  r =  0,  t = 5,  p = 0,  m = 30,  Torus =  TRUE


---------------------------------------
Test based on the 2 nearest points (NP):

Stat. AD on the N values (NP)         :    0.65
p-value of test                       :    0.60


A2 test based on the spacings between the
   successive jump times of process Y_n(t):

A2 test on the values of A2 (m-NP)    :    0.56
p-value of test                       :    0.68

Test on the Nm values of W_{n,i}(mNP1):    0.42
p-value of test                       :    0.83

Test on the jump times of Y
   (superposition of Yn):

Expected number of jumps of Y = mN    :     600
Number of jumps of Y                  :     607
p-value of test                       :    0.39

Stat. AD (mNP2)                       :    0.58
p-value of test                       :    0.67

Stat. AD after spacings (mNP2-S)      :    0.31
p-value of test                       :    0.93

-----------------------------------------------
CPU time used                    :  00:02:03.34

Generator state:




***********************************************************
HOST = node40.local.isima.fr, Linux

MersenneTwiter


snpair_ClosePairs test:
-----------------------------------------------
   N = 10,  n = 3000000,  r =  0,  t = 9,  p = 0,  m = 30,  Torus =  TRUE


---------------------------------------
Test based on the 2 nearest points (NP):

Stat. AD on the N values (NP)         :    0.69
p-value of test                       :    0.57


A2 test based on the spacings between the
   successive jump times of process Y_n(t):

A2 test on the values of A2 (m-NP)    :    0.76
p-value of test                       :    0.51

Test on the Nm values of W_{n,i}(mNP1):    2.07
p-value of test                       :    0.08

Test on the jump times of Y
   (superposition of Yn):

Expected number of jumps of Y = mN    :     300
Number of jumps of Y                  :     273
p-value of test                       :    0.94

Stat. AD (mNP2)                       :    0.60
p-value of test                       :    0.65

Stat. AD after spacings (mNP2-S)      :    2.42
p-value of test                       :    0.05

-----------------------------------------------
CPU time used                    :  00:03:11.61

Generator state:




***********************************************************
HOST = node40.local.isima.fr, Linux

MersenneTwiter


snpair_ClosePairs test:
-----------------------------------------------
   N =  5,  n = 2000000,  r =  0,  t = 16,  p = 0,  m = 30,  Torus =  TRUE


---------------------------------------
Test based on the 2 nearest points (NP):

Stat. AD on the N values (NP)         :    1.41
p-value of test                       :    0.20


A2 test based on the spacings between the
   successive jump times of process Y_n(t):

A2 test on the values of A2 (m-NP)    :    1.15
p-value of test                       :    0.29

Test on the Nm values of W_{n,i}(mNP1):    1.28
p-value of test                       :    0.24

Test on the jump times of Y
   (superposition of Yn):

Expected number of jumps of Y = mN    :     150
Number of jumps of Y                  :     144
p-value of test                       :    0.67

Stat. AD (mNP2)                       :    1.36
p-value of test                       :    0.21

Stat. AD after spacings (mNP2-S)      :    0.52
p-value of test                       :    0.72

-----------------------------------------------
CPU time used                    :  00:03:33.85

Generator state:




***********************************************************
HOST = node40.local.isima.fr, Linux

MersenneTwiter


sknuth_SimpPoker test:
-----------------------------------------------
   N =  1,  n = 400000000,  r =  0,   d =    8,   k =    8


-----------------------------------------------
Number of degrees of freedom          :    7
Chi-square statistic                  :    4.37
p-value of test                       :    0.74

-----------------------------------------------
CPU time used                    :  00:00:58.32

Generator state:




***********************************************************
HOST = node40.local.isima.fr, Linux

MersenneTwiter


sknuth_SimpPoker test:
-----------------------------------------------
   N =  1,  n = 400000000,  r = 27,   d =    8,   k =    8


-----------------------------------------------
Number of degrees of freedom          :    7
Chi-square statistic                  :    8.07
p-value of test                       :    0.33

-----------------------------------------------
CPU time used                    :  00:01:14.32

Generator state:




***********************************************************
HOST = node40.local.isima.fr, Linux

MersenneTwiter


sknuth_SimpPoker test:
-----------------------------------------------
   N =  1,  n = 100000000,  r =  0,   d =   32,   k =   32


-----------------------------------------------
Number of degrees of freedom          :   18
Chi-square statistic                  :   18.82
p-value of test                       :    0.40

-----------------------------------------------
CPU time used                    :  00:01:03.22

Generator state:




***********************************************************
HOST = node40.local.isima.fr, Linux

MersenneTwiter


sknuth_SimpPoker test:
-----------------------------------------------
   N =  1,  n = 100000000,  r = 25,   d =   32,   k =   32


-----------------------------------------------
Number of degrees of freedom          :   18
Chi-square statistic                  :   11.38
p-value of test                       :    0.88

-----------------------------------------------
CPU time used                    :  00:01:17.05

Generator state:




***********************************************************
HOST = node40.local.isima.fr, Linux

MersenneTwiter


sknuth_CouponCollector test:
-----------------------------------------------
   N =  1,  n = 200000000,  r =  0,   d =    8


-----------------------------------------------
Number of degrees of freedom          :   54
Chi-square statistic                  :   56.75
p-value of test                       :    0.37

-----------------------------------------------
CPU time used                    :  00:01:16.64

Generator state:




***********************************************************
HOST = node40.local.isima.fr, Linux

MersenneTwiter


sknuth_CouponCollector test:
-----------------------------------------------
   N =  1,  n = 200000000,  r = 10,   d =    8


-----------------------------------------------
Number of degrees of freedom          :   54
Chi-square statistic                  :   43.62
p-value of test                       :    0.84

-----------------------------------------------
CPU time used                    :  00:01:34.77

Generator state:




***********************************************************
HOST = node40.local.isima.fr, Linux

MersenneTwiter


sknuth_CouponCollector test:
-----------------------------------------------
   N =  1,  n = 200000000,  r = 20,   d =    8


-----------------------------------------------
Number of degrees of freedom          :   54
Chi-square statistic                  :   44.13
p-value of test                       :    0.83

-----------------------------------------------
CPU time used                    :  00:01:34.29

Generator state:




***********************************************************
HOST = node40.local.isima.fr, Linux

MersenneTwiter


sknuth_CouponCollector test:
-----------------------------------------------
   N =  1,  n = 200000000,  r = 27,   d =    8


-----------------------------------------------
Number of degrees of freedom          :   54
Chi-square statistic                  :   52.89
p-value of test                       :    0.52

-----------------------------------------------
CPU time used                    :  00:01:34.31

Generator state:




***********************************************************
HOST = node40.local.isima.fr, Linux

MersenneTwiter


sknuth_Gap test:
-----------------------------------------------
   N =  1,  n = 500000000,  r =  0,   Alpha =        0,   Beta  =   0.0625


-----------------------------------------------
Number of degrees of freedom          :  232
Chi-square statistic                  :  260.13
p-value of test                       :    0.10

-----------------------------------------------
CPU time used                    :  00:01:31.89

Generator state:




***********************************************************
HOST = node40.local.isima.fr, Linux

MersenneTwiter


sknuth_Gap test:
-----------------------------------------------
   N =  1,  n = 300000000,  r = 25,   Alpha =        0,   Beta  =  0.03125


-----------------------------------------------
Number of degrees of freedom          :  434
Chi-square statistic                  :  372.02
p-value of test                       :    0.99

-----------------------------------------------
CPU time used                    :  00:02:22.60

Generator state:




***********************************************************
HOST = node40.local.isima.fr, Linux

MersenneTwiter


sknuth_Gap test:
-----------------------------------------------
   N =  1,  n = 100000000,  r =  0,   Alpha =        0,   Beta  = 0.0078125


-----------------------------------------------
Number of degrees of freedom          : 1437
Chi-square statistic                  : 1301.54
p-value of test                       :    0.9953

-----------------------------------------------
CPU time used                    :  00:02:16.79

Generator state:




***********************************************************
HOST = node40.local.isima.fr, Linux

MersenneTwiter


sknuth_Gap test:
-----------------------------------------------
   N =  1,  n = 10000000,  r = 20,   Alpha =        0,   Beta  = 0.000976562


-----------------------------------------------
Number of degrees of freedom          : 7046
Chi-square statistic                  : 6966.68
p-value of test                       :    0.75

-----------------------------------------------
CPU time used                    :  00:02:24.26

Generator state:




***********************************************************
HOST = node40.local.isima.fr, Linux

MersenneTwiter


sknuth_Run test:
-----------------------------------------------
   N =  5,  n = 1000000000,  r =  0,   Up = FALSE


-----------------------------------------------

Kolmogorov-Smirnov+ statistic = D+    :    0.18
p-value of test                       :    0.64

Kolmogorov-Smirnov- statistic = D-    :    0.19
p-value of test                       :    0.62

Anderson-Darling statistic = A2       :    0.64
p-value of test                       :    0.61

Test on the sum of all N observations
Number of degrees of freedom          :   30
Chi-square statistic                  :   35.52
p-value of test                       :    0.22

-----------------------------------------------
CPU time used                    :  00:01:22.59

Generator state:




***********************************************************
HOST = node40.local.isima.fr, Linux

MersenneTwiter


sknuth_Run test:
-----------------------------------------------
   N = 10,  n = 1000000000,  r = 15,   Up =  TRUE


-----------------------------------------------

Kolmogorov-Smirnov+ statistic = D+    :   0.077
p-value of test                       :    0.85

Kolmogorov-Smirnov- statistic = D-    :    0.31
p-value of test                       :    0.11

Anderson-Darling statistic = A2       :    1.30
p-value of test                       :    0.23

Test on the sum of all N observations
Number of degrees of freedom          :   60
Chi-square statistic                  :   74.29
p-value of test                       :    0.10

-----------------------------------------------
CPU time used                    :  00:03:27.73

Generator state:




***********************************************************
Test sknuth_Permutation calling smultin_Multinomial

***********************************************************
HOST = node40.local.isima.fr, Linux

MersenneTwiter


smultin_Multinomial test:
-----------------------------------------------
   N =  1,  n = 1000000000,  r =  5,   t =  3,
       Sparse =  FALSE

       GenerCell = smultin_GenerCellPermut
       Number of cells = t! =                  6
       Expected number per cell =  1.6666667e+08
       Hashing =  FALSE

   For Delta > -1, we use the ChiSquare approximation
   Correction factor of the ChiSquare: 
       Delta =     1,    Mu =  2.5000002e-09,    Sigma =          1

-----------------------------------------------
Test Results for Delta =   1.0000

Number of degrees of freedom          :    5
Value of the statistic                :    7.09
p-value of test                       :    0.21


-----------------------------------------------
CPU time used                    :  00:01:08.11

Generator state:




***********************************************************
Test sknuth_Permutation calling smultin_Multinomial

***********************************************************
HOST = node40.local.isima.fr, Linux

MersenneTwiter


smultin_Multinomial test:
-----------------------------------------------
   N =  1,  n = 1000000000,  r =  5,   t =  5,
       Sparse =  FALSE

       GenerCell = smultin_GenerCellPermut
       Number of cells = t! =                120
       Expected number per cell =   8333333.3
       Hashing =  FALSE

   For Delta > -1, we use the ChiSquare approximation
   Correction factor of the ChiSquare: 
       Delta =     1,    Mu =  5.9500005e-08,    Sigma =          1

-----------------------------------------------
Test Results for Delta =   1.0000

Number of degrees of freedom          :  119
Value of the statistic                :  130.55
p-value of test                       :    0.22


-----------------------------------------------
CPU time used                    :  00:02:02.89

Generator state:




***********************************************************
Test sknuth_Permutation calling smultin_Multinomial

***********************************************************
HOST = node40.local.isima.fr, Linux

MersenneTwiter


smultin_Multinomial test:
-----------------------------------------------
   N =  1,  n = 500000000,  r =  5,   t =  7,
       Sparse =  FALSE

       GenerCell = smultin_GenerCellPermut
       Number of cells = t! =               5040
       Expected number per cell =   99206.349
       Hashing =  FALSE

   For Delta > -1, we use the ChiSquare approximation
   Correction factor of the ChiSquare: 
       Delta =     1,    Mu =  5.0390004e-06,    Sigma =          1

-----------------------------------------------
Test Results for Delta =   1.0000

Number of degrees of freedom          : 5039
Value of the statistic                : 5050.16
p-value of test                       :    0.45


-----------------------------------------------
CPU time used                    :  00:01:36.95

Generator state:




***********************************************************
Test sknuth_Permutation calling smultin_Multinomial

***********************************************************
HOST = node40.local.isima.fr, Linux

MersenneTwiter


smultin_Multinomial test:
-----------------------------------------------
   N =  1,  n = 500000000,  r = 10,   t = 10,
       Sparse =  FALSE

       GenerCell = smultin_GenerCellPermut
       Number of cells = t! =            3628800
       Expected number per cell =    137.7866
       Hashing =  FALSE

   For Delta > -1, we use the ChiSquare approximation
   Correction factor of the ChiSquare: 
       Delta =     1,    Mu =   0.0036287993,    Sigma =          1

-----------------------------------------------
Test Results for Delta =   1.0000

Number of degrees of freedom          : 3628799
Value of the statistic                : 3.63e+6
p-value of test                       :    0.42


-----------------------------------------------
CPU time used                    :  00:03:47.97

Generator state:




***********************************************************
Test sknuth_CollisionPermut calling smultin_Multinomial

***********************************************************
HOST = node40.local.isima.fr, Linux

MersenneTwiter


smultin_Multinomial test:
-----------------------------------------------
   N = 20,  n = 20000000,  r =  0,   t = 14,
       Sparse =   TRUE

       GenerCell = smultin_GenerCellPermut
       Number of cells = t! =        87178291200
       Expected number per cell =  1 /  4358.9146
       EColl = n^2 / (2k) =   2294.14912
       Hashing =   TRUE

       Collision test,    Mu =      2293.9736,    Sigma =    47.8841

-----------------------------------------------
Test Results for Collisions

For the total number of collisions, we use
      the Poisson approximation:
Expected number of collisions = N*Mu  :    45879.47
Observed number of collisions         :    45747
p-value of test                       :    0.73


-----------------------------
Total number of cells containing j balls

  j =  0                              :    1743165869747
  j =  1                              :        399908511
  j =  2                              :            45737
  j =  3                              :                5
  j =  4                              :                0
  j =  5                              :                0

-----------------------------------------------
CPU time used                    :  00:05:45.95

Generator state:




***********************************************************
Test sknuth_CollisionPermut calling smultin_Multinomial

***********************************************************
HOST = node40.local.isima.fr, Linux

MersenneTwiter


smultin_Multinomial test:
-----------------------------------------------
   N = 20,  n = 20000000,  r = 10,   t = 14,
       Sparse =   TRUE

       GenerCell = smultin_GenerCellPermut
       Number of cells = t! =        87178291200
       Expected number per cell =  1 /  4358.9146
       EColl = n^2 / (2k) =   2294.14912
       Hashing =   TRUE

       Collision test,    Mu =      2293.9736,    Sigma =    47.8841

-----------------------------------------------
Test Results for Collisions

For the total number of collisions, we use
      the Poisson approximation:
Expected number of collisions = N*Mu  :    45879.47
Observed number of collisions         :    46210
p-value of test                       :    0.06


-----------------------------
Total number of cells containing j balls

  j =  0                              :    1743165870210
  j =  1                              :        399907583
  j =  2                              :            46204
  j =  3                              :                3
  j =  4                              :                0
  j =  5                              :                0

-----------------------------------------------
CPU time used                    :  00:06:06.46

Generator state:




***********************************************************
HOST = node40.local.isima.fr, Linux

MersenneTwiter


sknuth_MaxOft test:
-----------------------------------------------
   N = 40,  n = 10000000,  r =  0,   d = 100000,   t =  8

      Number of categories = 100000
      Expected number per category  = 100.00


-----------------------------------------------
Test results for chi2 with 99999 degrees of freedom:

Kolmogorov-Smirnov+ statistic = D+    :    0.12
p-value of test                       :    0.28

Kolmogorov-Smirnov- statistic = D-    :    0.13
p-value of test                       :    0.26

Anderson-Darling statistic = A2       :    1.56
p-value of test                       :    0.16

Test on the sum of all N observations
Number of degrees of freedom          : 3999960
Chi-square statistic                  : 4.00e+6
p-value of test                       :    0.41


-----------------------------------------------
Test results for Anderson-Darling:

Kolmogorov-Smirnov+ statistic = D+    :   0.056
p-value of test                       :    0.75

Kolmogorov-Smirnov- statistic = D-    :   0.052
p-value of test                       :    0.78

Anderson-Darling statistic = A2       :    0.16
p-value of test                       :    0.9978


-----------------------------------------------
CPU time used                    :  00:02:07.09

Generator state:




***********************************************************
HOST = node40.local.isima.fr, Linux

MersenneTwiter


sknuth_MaxOft test:
-----------------------------------------------
   N = 30,  n = 10000000,  r =  0,   d = 100000,   t = 16

      Number of categories = 100000
      Expected number per category  = 100.00


-----------------------------------------------
Test results for chi2 with 99999 degrees of freedom:

Kolmogorov-Smirnov+ statistic = D+    :    0.24
p-value of test                       :    0.03

Kolmogorov-Smirnov- statistic = D-    :   0.059
p-value of test                       :    0.78

Anderson-Darling statistic = A2       :    2.80
p-value of test                       :    0.03

Test on the sum of all N observations
Number of degrees of freedom          : 2999970
Chi-square statistic                  : 3.00e+6
p-value of test                       :    0.97


-----------------------------------------------
Test results for Anderson-Darling:

Kolmogorov-Smirnov+ statistic = D+    :   0.087
p-value of test                       :    0.60

Kolmogorov-Smirnov- statistic = D-    :   0.058
p-value of test                       :    0.79

Anderson-Darling statistic = A2       :    0.28
p-value of test                       :    0.95


-----------------------------------------------
CPU time used                    :  00:02:01.79

Generator state:




***********************************************************
HOST = node40.local.isima.fr, Linux

MersenneTwiter


sknuth_MaxOft test:
-----------------------------------------------
   N = 20,  n = 10000000,  r =  0,   d = 100000,   t = 24

      Number of categories = 100000
      Expected number per category  = 100.00


-----------------------------------------------
Test results for chi2 with 99999 degrees of freedom:

Kolmogorov-Smirnov+ statistic = D+    :    0.11
p-value of test                       :    0.59

Kolmogorov-Smirnov- statistic = D-    :    0.11
p-value of test                       :    0.60

Anderson-Darling statistic = A2       :    0.50
p-value of test                       :    0.75

Test on the sum of all N observations
Number of degrees of freedom          : 1999980
Chi-square statistic                  : 2.00e+6
p-value of test                       :    0.51


-----------------------------------------------
Test results for Anderson-Darling:

Kolmogorov-Smirnov+ statistic = D+    :   0.094
p-value of test                       :    0.66

Kolmogorov-Smirnov- statistic = D-    :    0.17
p-value of test                       :    0.27

Anderson-Darling statistic = A2       :    0.82
p-value of test                       :    0.46


-----------------------------------------------
CPU time used                    :  00:01:36.68

Generator state:




***********************************************************
HOST = node40.local.isima.fr, Linux

MersenneTwiter


sknuth_MaxOft test:
-----------------------------------------------
   N = 20,  n = 10000000,  r =  0,   d = 100000,   t = 32

      Number of categories = 100000
      Expected number per category  = 100.00


-----------------------------------------------
Test results for chi2 with 99999 degrees of freedom:

Kolmogorov-Smirnov+ statistic = D+    :   0.091
p-value of test                       :    0.68

Kolmogorov-Smirnov- statistic = D-    :   0.071
p-value of test                       :    0.78

Anderson-Darling statistic = A2       :    0.21
p-value of test                       :    0.99

Test on the sum of all N observations
Number of degrees of freedom          : 1999980
Chi-square statistic                  : 2.00e+6
p-value of test                       :    0.56


-----------------------------------------------
Test results for Anderson-Darling:

Kolmogorov-Smirnov+ statistic = D+    :   0.045
p-value of test                       :    0.90

Kolmogorov-Smirnov- statistic = D-    :    0.20
p-value of test                       :    0.18

Anderson-Darling statistic = A2       :    1.30
p-value of test                       :    0.23


-----------------------------------------------
CPU time used                    :  00:01:54.27

Generator state:




***********************************************************
HOST = node40.local.isima.fr, Linux

MersenneTwiter


svaria_SampleProd test:
-----------------------------------------------
   N = 40,  n = 10000000,  r =  0,   t = 8


-----------------------------------------------

Kolmogorov-Smirnov+ statistic = D+    :   0.063
p-value of test                       :    0.70

Kolmogorov-Smirnov- statistic = D-    :    0.15
p-value of test                       :    0.17

Anderson-Darling statistic = A2       :    1.17
p-value of test                       :    0.28

-----------------------------------------------
CPU time used                    :  00:01:52.28

Generator state:




***********************************************************
HOST = node40.local.isima.fr, Linux

MersenneTwiter


svaria_SampleProd test:
-----------------------------------------------
   N = 20,  n = 10000000,  r =  0,   t = 16


-----------------------------------------------

Kolmogorov-Smirnov+ statistic = D+    :    0.23
p-value of test                       :    0.11

Kolmogorov-Smirnov- statistic = D-    :    0.13
p-value of test                       :    0.48

Anderson-Darling statistic = A2       :    1.43
p-value of test                       :    0.19

-----------------------------------------------
CPU time used                    :  00:01:14.63

Generator state:




***********************************************************
HOST = node40.local.isima.fr, Linux

MersenneTwiter


svaria_SampleProd test:
-----------------------------------------------
   N = 20,  n = 10000000,  r =  0,   t = 24


-----------------------------------------------

Kolmogorov-Smirnov+ statistic = D+    :    0.14
p-value of test                       :    0.44

Kolmogorov-Smirnov- statistic = D-    :    0.21
p-value of test                       :    0.15

Anderson-Darling statistic = A2       :    1.43
p-value of test                       :    0.19

-----------------------------------------------
CPU time used                    :  00:01:36.20

Generator state:




***********************************************************
HOST = node40.local.isima.fr, Linux

MersenneTwiter


svaria_SampleMean test:
-----------------------------------------------
   N = 20000000,  n = 30,  r =  0


-----------------------------------------------

Kolmogorov-Smirnov+ statistic = D+    : 2.09e-4
p-value of test                       :    0.18

Kolmogorov-Smirnov- statistic = D-    : 4.33e-5
p-value of test                       :    0.93

Anderson-Darling statistic = A2       :    1.08
p-value of test                       :    0.32

-----------------------------------------------
CPU time used                    :  00:00:17.57

Generator state:




***********************************************************
HOST = node40.local.isima.fr, Linux

MersenneTwiter


svaria_SampleMean test:
-----------------------------------------------
   N = 20000000,  n = 30,  r = 10


-----------------------------------------------

Kolmogorov-Smirnov+ statistic = D+    : 1.22e-4
p-value of test                       :    0.55

Kolmogorov-Smirnov- statistic = D-    : 1.60e-4
p-value of test                       :    0.36

Anderson-Darling statistic = A2       :    0.47
p-value of test                       :    0.78

-----------------------------------------------
CPU time used                    :  00:00:19.76

Generator state:




***********************************************************
HOST = node40.local.isima.fr, Linux

MersenneTwiter


svaria_SampleCorr test:
-----------------------------------------------
   N =  1,  n = 2000000000,  r =  0,   k = 1


-----------------------------------------------
Normal statistic                      :    0.30
p-value of test                       :    0.38

-----------------------------------------------
CPU time used                    :  00:00:22.82

Generator state:




***********************************************************
HOST = node40.local.isima.fr, Linux

MersenneTwiter


svaria_SampleCorr test:
-----------------------------------------------
   N =  1,  n = 2000000000,  r =  0,   k = 2


-----------------------------------------------
Normal statistic                      :    0.51
p-value of test                       :    0.31

-----------------------------------------------
CPU time used                    :  00:00:22.63

Generator state:




***********************************************************
HOST = node40.local.isima.fr, Linux

MersenneTwiter


svaria_AppearanceSpacings test:
-----------------------------------------------
   N =  1,   Q = 10000000,   K = 1000000000,   r = 0,   s = 3,   L = 15

   Sequences of n = (K + Q)L =  15150000000 bits
   Q = 10000000 initialization blocks
   K = 1000000000 blocks for the test
   the blocks have L = 15 bits



-----------------------------------------------
Normal statistic                      :    0.28
p-value of test                       :    0.39

-----------------------------------------------
CPU time used                    :  00:01:20.79

Generator state:




***********************************************************
HOST = node40.local.isima.fr, Linux

MersenneTwiter


svaria_AppearanceSpacings test:
-----------------------------------------------
   N =  1,   Q = 10000000,   K = 1000000000,   r = 27,   s = 3,   L = 15

   Sequences of n = (K + Q)L =  15150000000 bits
   Q = 10000000 initialization blocks
   K = 1000000000 blocks for the test
   the blocks have L = 15 bits



-----------------------------------------------
Normal statistic                      :   -0.75
p-value of test                       :    0.77

-----------------------------------------------
CPU time used                    :  00:01:20.92

Generator state:




***********************************************************
HOST = node40.local.isima.fr, Linux

MersenneTwiter


svaria_WeightDistrib test:
-----------------------------------------------
   N =  1,  n = 20000000,  r =  0,  k = 256,  Alpha =      0,  Beta =   0.25


-----------------------------------------------
Number of degrees of freedom          :   67
Chi-square statistic                  :   46.52
p-value of test                       :    0.97

-----------------------------------------------
CPU time used                    :  00:00:54.89

Generator state:




***********************************************************
HOST = node40.local.isima.fr, Linux

MersenneTwiter


svaria_WeightDistrib test:
-----------------------------------------------
   N =  1,  n = 20000000,  r = 20,  k = 256,  Alpha =      0,  Beta =   0.25


-----------------------------------------------
Number of degrees of freedom          :   67
Chi-square statistic                  :   70.72
p-value of test                       :    0.35

-----------------------------------------------
CPU time used                    :  00:01:15.88

Generator state:




***********************************************************
HOST = node40.local.isima.fr, Linux

MersenneTwiter


svaria_WeightDistrib test:
-----------------------------------------------
   N =  1,  n = 20000000,  r = 28,  k = 256,  Alpha =      0,  Beta =   0.25


-----------------------------------------------
Number of degrees of freedom          :   67
Chi-square statistic                  :   68.73
p-value of test                       :    0.42

-----------------------------------------------
CPU time used                    :  00:01:15.40

Generator state:




***********************************************************
HOST = node40.local.isima.fr, Linux

MersenneTwiter


svaria_WeightDistrib test:
-----------------------------------------------
   N =  1,  n = 20000000,  r =  0,  k = 256,  Alpha =      0,  Beta = 0.0625


-----------------------------------------------
Number of degrees of freedom          :   37
Chi-square statistic                  :   47.56
p-value of test                       :    0.11

-----------------------------------------------
CPU time used                    :  00:00:54.81

Generator state:




***********************************************************
HOST = node40.local.isima.fr, Linux

MersenneTwiter


svaria_WeightDistrib test:
-----------------------------------------------
   N =  1,  n = 20000000,  r = 10,  k = 256,  Alpha =      0,  Beta = 0.0625


-----------------------------------------------
Number of degrees of freedom          :   37
Chi-square statistic                  :   34.23
p-value of test                       :    0.60

-----------------------------------------------
CPU time used                    :  00:01:15.63

Generator state:




***********************************************************
HOST = node40.local.isima.fr, Linux

MersenneTwiter


svaria_WeightDistrib test:
-----------------------------------------------
   N =  1,  n = 20000000,  r = 26,  k = 256,  Alpha =      0,  Beta = 0.0625


-----------------------------------------------
Number of degrees of freedom          :   37
Chi-square statistic                  :   48.70
p-value of test                       :    0.09

-----------------------------------------------
CPU time used                    :  00:01:15.28

Generator state:




***********************************************************
HOST = node40.local.isima.fr, Linux

MersenneTwiter


svaria_SumCollector test:
-----------------------------------------------
   N =  1,  n = 500000000,  r =  0,   g = 10


-----------------------------------------------
Number of degrees of freedom          :   29
Chi-square statistic                  :   24.51
p-value of test                       :    0.70

-----------------------------------------------
CPU time used                    :  00:01:55.04

Generator state:




***********************************************************
HOST = node40.local.isima.fr, Linux

MersenneTwiter


smarsa_MatrixRank test:
-----------------------------------------------
   N = 10,  n = 1000000,  r =  0,    s = 5,    L = 30,    k = 30


-----------------------------------------------

Kolmogorov-Smirnov+ statistic = D+    :    0.27
p-value of test                       :    0.18

Kolmogorov-Smirnov- statistic = D-    :    0.16
p-value of test                       :    0.54

Anderson-Darling statistic = A2       :    0.88
p-value of test                       :    0.43

Test on the sum of all N observations
Number of degrees of freedom          :   40
Chi-square statistic                  :   33.37
p-value of test                       :    0.76

-----------------------------------------------
CPU time used                    :  00:01:24.36

Generator state:




***********************************************************
HOST = node40.local.isima.fr, Linux

MersenneTwiter


smarsa_MatrixRank test:
-----------------------------------------------
   N = 10,  n = 1000000,  r = 25,    s = 5,    L = 30,    k = 30


-----------------------------------------------

Kolmogorov-Smirnov+ statistic = D+    :    0.21
p-value of test                       :    0.36

Kolmogorov-Smirnov- statistic = D-    :    0.18
p-value of test                       :    0.47

Anderson-Darling statistic = A2       :    0.53
p-value of test                       :    0.72

Test on the sum of all N observations
Number of degrees of freedom          :   40
Chi-square statistic                  :   35.93
p-value of test                       :    0.65

-----------------------------------------------
CPU time used                    :  00:01:24.17

Generator state:




***********************************************************
HOST = node40.local.isima.fr, Linux

MersenneTwiter


smarsa_MatrixRank test:
-----------------------------------------------
   N =  1,  n = 5000,  r =  0,    s = 4,    L = 1000,    k = 1000


-----------------------------------------------
Number of degrees of freedom          :    3
Chi-square statistic                  :    6.32
p-value of test                       :    0.10

-----------------------------------------------
CPU time used                    :  00:02:17.75

Generator state:




***********************************************************
HOST = node40.local.isima.fr, Linux

MersenneTwiter


smarsa_MatrixRank test:
-----------------------------------------------
   N =  1,  n = 5000,  r = 26,    s = 4,    L = 1000,    k = 1000


-----------------------------------------------
Number of degrees of freedom          :    3
Chi-square statistic                  :    0.22
p-value of test                       :    0.97

-----------------------------------------------
CPU time used                    :  00:02:18.52

Generator state:




***********************************************************
HOST = node40.local.isima.fr, Linux

MersenneTwiter


smarsa_MatrixRank test:
-----------------------------------------------
   N =  1,  n = 80,  r = 15,    s = 15,    L = 5000,    k = 5000


-----------------------------------------------
Number of degrees of freedom          :    2
Chi-square statistic                  :    6.23
p-value of test                       :    0.04

-----------------------------------------------
CPU time used                    :  00:06:24.05

Generator state:




***********************************************************
HOST = node40.local.isima.fr, Linux

MersenneTwiter


smarsa_MatrixRank test:
-----------------------------------------------
   N =  1,  n = 80,  r =  0,    s = 30,    L = 5000,    k = 5000


-----------------------------------------------
Number of degrees of freedom          :    2
Chi-square statistic                  :    3.12
p-value of test                       :    0.21

-----------------------------------------------
CPU time used                    :  00:06:36.09

Generator state:




***********************************************************
HOST = node40.local.isima.fr, Linux

MersenneTwiter


smarsa_Savir2 test:
-----------------------------------------------
   N = 10,  n = 10000000,  r = 10,    m = 1048576,    t = 30


-----------------------------------------------

Kolmogorov-Smirnov+ statistic = D+    : 7.94e-3
p-value of test                       :    0.9915

Kolmogorov-Smirnov- statistic = D-    :    0.28
p-value of test                       :    0.17

Anderson-Darling statistic = A2       :    1.31
p-value of test                       :    0.23

Test on the sum of all N observations
Number of degrees of freedom          :  130
Chi-square statistic                  :  158.40
p-value of test                       :    0.05

-----------------------------------------------
CPU time used                    :  00:00:44.26

Generator state:




***********************************************************
HOST = node40.local.isima.fr, Linux

MersenneTwiter


smarsa_GCD test:
-----------------------------------------------
   N = 10,  n = 50000000,  r =  0,   s = 30


-----------------------------------------------
Test results for GCD values:

Kolmogorov-Smirnov+ statistic = D+    :    0.13
p-value of test                       :    0.66

Kolmogorov-Smirnov- statistic = D-    :    0.13
p-value of test                       :    0.67

Anderson-Darling statistic = A2       :    0.22
p-value of test                       :    0.98

Test on the sum of all N observations
Number of degrees of freedom          : 17430
Chi-square statistic                  :17409.67
p-value of test                       :    0.54



-----------------------------------------------
CPU time used                    :  00:01:17.21

Generator state:




***********************************************************
HOST = node40.local.isima.fr, Linux

MersenneTwiter


swalk_RandomWalk1 test:
-----------------------------------------------
   N =  1,  n = 100000000,  r =  0,   s = 5,   L0 =   50,   L1 =   50



-----------------------------------------------
Test on the values of the Statistic H

Number of degrees of freedom          :   36
ChiSquare statistic                   :   21.21
p-value of test                       :    0.98


-----------------------------------------------
Test on the values of the Statistic M

Number of degrees of freedom          :   35
ChiSquare statistic                   :   28.99
p-value of test                       :    0.75


-----------------------------------------------
Test on the values of the Statistic J

Number of degrees of freedom          :   25
ChiSquare statistic                   :   37.32
p-value of test                       :    0.05


-----------------------------------------------
Test on the values of the Statistic R

Number of degrees of freedom          :   24
ChiSquare statistic                   :   25.70
p-value of test                       :    0.37


-----------------------------------------------
Test on the values of the Statistic C

Number of degrees of freedom          :   17
ChiSquare statistic                   :   15.22
p-value of test                       :    0.58


-----------------------------------------------
CPU time used                    :  00:00:53.78

Generator state:




***********************************************************
HOST = node40.local.isima.fr, Linux

MersenneTwiter


swalk_RandomWalk1 test:
-----------------------------------------------
   N =  1,  n = 100000000,  r = 25,   s = 5,   L0 =   50,   L1 =   50



-----------------------------------------------
Test on the values of the Statistic H

Number of degrees of freedom          :   36
ChiSquare statistic                   :   43.07
p-value of test                       :    0.19


-----------------------------------------------
Test on the values of the Statistic M

Number of degrees of freedom          :   35
ChiSquare statistic                   :   42.46
p-value of test                       :    0.18


-----------------------------------------------
Test on the values of the Statistic J

Number of degrees of freedom          :   25
ChiSquare statistic                   :   26.32
p-value of test                       :    0.39


-----------------------------------------------
Test on the values of the Statistic R

Number of degrees of freedom          :   24
ChiSquare statistic                   :   13.15
p-value of test                       :    0.96


-----------------------------------------------
Test on the values of the Statistic C

Number of degrees of freedom          :   17
ChiSquare statistic                   :   26.64
p-value of test                       :    0.06


-----------------------------------------------
CPU time used                    :  00:00:57.95

Generator state:




***********************************************************
HOST = node40.local.isima.fr, Linux

MersenneTwiter


swalk_RandomWalk1 test:
-----------------------------------------------
   N =  1,  n = 10000000,  r =  0,   s = 10,   L0 = 1000,   L1 = 1000



-----------------------------------------------
Test on the values of the Statistic H

Number of degrees of freedom          :  146
ChiSquare statistic                   :  140.55
p-value of test                       :    0.61


-----------------------------------------------
Test on the values of the Statistic M

Number of degrees of freedom          :  146
ChiSquare statistic                   :  126.15
p-value of test                       :    0.88


-----------------------------------------------
Test on the values of the Statistic J

Number of degrees of freedom          :  500
ChiSquare statistic                   :  504.91
p-value of test                       :    0.43


-----------------------------------------------
Test on the values of the Statistic R

Number of degrees of freedom          :  136
ChiSquare statistic                   :  143.65
p-value of test                       :    0.31


-----------------------------------------------
Test on the values of the Statistic C

Number of degrees of freedom          :   74
ChiSquare statistic                   :   61.94
p-value of test                       :    0.84


-----------------------------------------------
CPU time used                    :  00:01:15.87

Generator state:




***********************************************************
HOST = node40.local.isima.fr, Linux

MersenneTwiter


swalk_RandomWalk1 test:
-----------------------------------------------
   N =  1,  n = 10000000,  r = 20,   s = 10,   L0 = 1000,   L1 = 1000



-----------------------------------------------
Test on the values of the Statistic H

Number of degrees of freedom          :  146
ChiSquare statistic                   :  125.46
p-value of test                       :    0.89


-----------------------------------------------
Test on the values of the Statistic M

Number of degrees of freedom          :  146
ChiSquare statistic                   :  151.88
p-value of test                       :    0.35


-----------------------------------------------
Test on the values of the Statistic J

Number of degrees of freedom          :  500
ChiSquare statistic                   :  545.57
p-value of test                       :    0.08


-----------------------------------------------
Test on the values of the Statistic R

Number of degrees of freedom          :  136
ChiSquare statistic                   :  160.45
p-value of test                       :    0.07


-----------------------------------------------
Test on the values of the Statistic C

Number of degrees of freedom          :   74
ChiSquare statistic                   :   89.51
p-value of test                       :    0.11


-----------------------------------------------
CPU time used                    :  00:01:17.06

Generator state:




***********************************************************
HOST = node40.local.isima.fr, Linux

MersenneTwiter


swalk_RandomWalk1 test:
-----------------------------------------------
   N =  1,  n = 1000000,  r =  0,   s = 15,   L0 = 10000,   L1 = 10000



-----------------------------------------------
Test on the values of the Statistic H

Number of degrees of freedom          :  384
ChiSquare statistic                   :  459.99
p-value of test                       :  4.6e-3


-----------------------------------------------
Test on the values of the Statistic M

Number of degrees of freedom          :  384
ChiSquare statistic                   :  400.53
p-value of test                       :    0.27


-----------------------------------------------
Test on the values of the Statistic J

Number of degrees of freedom          : 5000
ChiSquare statistic                   : 4905.98
p-value of test                       :    0.83


-----------------------------------------------
Test on the values of the Statistic R

Number of degrees of freedom          :  378
ChiSquare statistic                   :  373.60
p-value of test                       :    0.55


-----------------------------------------------
Test on the values of the Statistic C

Number of degrees of freedom          :  200
ChiSquare statistic                   :  193.49
p-value of test                       :    0.62


-----------------------------------------------
CPU time used                    :  00:01:06.64

Generator state:




***********************************************************
HOST = node40.local.isima.fr, Linux

MersenneTwiter


swalk_RandomWalk1 test:
-----------------------------------------------
   N =  1,  n = 1000000,  r = 15,   s = 15,   L0 = 10000,   L1 = 10000



-----------------------------------------------
Test on the values of the Statistic H

Number of degrees of freedom          :  384
ChiSquare statistic                   :  308.38
p-value of test                       :    0.9982


-----------------------------------------------
Test on the values of the Statistic M

Number of degrees of freedom          :  384
ChiSquare statistic                   :  402.78
p-value of test                       :    0.24


-----------------------------------------------
Test on the values of the Statistic J

Number of degrees of freedom          : 5000
ChiSquare statistic                   : 5066.06
p-value of test                       :    0.25


-----------------------------------------------
Test on the values of the Statistic R

Number of degrees of freedom          :  378
ChiSquare statistic                   :  394.79
p-value of test                       :    0.27


-----------------------------------------------
Test on the values of the Statistic C

Number of degrees of freedom          :  200
ChiSquare statistic                   :  183.03
p-value of test                       :    0.80


-----------------------------------------------
CPU time used                    :  00:01:05.55

Generator state:




***********************************************************
HOST = node40.local.isima.fr, Linux

MersenneTwiter


scomp_LinearComp test:
-----------------------------------------------
   N =  1,  n = 400020,  r =  0,    s = 1



-----------------------------------------------
Number of degrees of freedom          :   12
Chi2 statistic for size of jumps      :   13.52
p-value of test                       :    0.33


-----------------------------------------------
Normal statistic for number of jumps  : -402.28
p-value of test                       : 1 - eps1    *****



-----------------------------------------------
CPU time used                    :  00:00:10.70

Generator state:




***********************************************************
HOST = node40.local.isima.fr, Linux

MersenneTwiter


scomp_LinearComp test:
-----------------------------------------------
   N =  1,  n = 400020,  r = 29,    s = 1



-----------------------------------------------
Number of degrees of freedom          :   12
Chi2 statistic for size of jumps      :    6.68
p-value of test                       :    0.88


-----------------------------------------------
Normal statistic for number of jumps  : -402.89
p-value of test                       : 1 - eps1    *****



-----------------------------------------------
CPU time used                    :  00:00:10.55

Generator state:




***********************************************************
HOST = node40.local.isima.fr, Linux

MersenneTwiter


scomp_LempelZiv test:
-----------------------------------------------
   N = 10,  n = 134217728,  r =  0,   s =   30,   k =   27


-----------------------------------------------

Kolmogorov-Smirnov+ statistic = D+    :   0.070
p-value of test                       :    0.87

Kolmogorov-Smirnov- statistic = D-    :    0.26
p-value of test                       :    0.21

Anderson-Darling statistic = A2       :    0.59
p-value of test                       :    0.65

Tests on the sum of all N observations
Standardized normal statistic         :    0.73
p-value of test                       :    0.23

Sample variance                       :    1.27
p-value of test                       :    0.25

-----------------------------------------------
CPU time used                    :  00:01:59.45

Generator state:




***********************************************************
HOST = node40.local.isima.fr, Linux

MersenneTwiter


scomp_LempelZiv test:
-----------------------------------------------
   N = 10,  n = 134217728,  r = 15,   s =   15,   k =   27


-----------------------------------------------

Kolmogorov-Smirnov+ statistic = D+    :   0.096
p-value of test                       :    0.78

Kolmogorov-Smirnov- statistic = D-    :    0.30
p-value of test                       :    0.14

Anderson-Darling statistic = A2       :    1.51
p-value of test                       :    0.17

Tests on the sum of all N observations
Standardized normal statistic         :    1.20
p-value of test                       :    0.12

Sample variance                       :    2.18
p-value of test                       :    0.02

-----------------------------------------------
CPU time used                    :  00:02:04.21

Generator state:




***********************************************************
HOST = node40.local.isima.fr, Linux

MersenneTwiter


sspectral_Fourier3 test:
-----------------------------------------------
   N = 100000,  n = 16384,  r =  0,   s =    3,   k =   14


-----------------------------------------------

Kolmogorov-Smirnov+ statistic = D+    :   0.011
p-value of test                       :    0.36

Kolmogorov-Smirnov- statistic = D-    : 5.26e-3
p-value of test                       :    0.79

Anderson-Darling statistic = A2       :    0.39
p-value of test                       :    0.85

-----------------------------------------------
CPU time used                    :  00:00:48.42

Generator state:




***********************************************************
HOST = node40.local.isima.fr, Linux

MersenneTwiter


sspectral_Fourier3 test:
-----------------------------------------------
   N = 100000,  n = 16384,  r = 27,   s =    3,   k =   14


-----------------------------------------------

Kolmogorov-Smirnov+ statistic = D+    : 6.31e-3
p-value of test                       :    0.72

Kolmogorov-Smirnov- statistic = D-    : 6.82e-3
p-value of test                       :    0.68

Anderson-Darling statistic = A2       :    0.26
p-value of test                       :    0.97

-----------------------------------------------
CPU time used                    :  00:00:50.29

Generator state:




***********************************************************
HOST = node40.local.isima.fr, Linux

MersenneTwiter


sstring_LongestHeadRun test:
-----------------------------------------------
   N =  1,  n = 1000,  r =  0,   s = 3,   L = 10000020


-----------------------------------------------
Number of degrees of freedom          :    8
Chi-square statistic                  :    3.61
p-value of test                       :    0.89

-----------------------------------------------
Global longest run of 1               :   30.00
p-value of test                       :    0.90



-----------------------------------------------
CPU time used                    :  00:01:38.88

Generator state:




***********************************************************
HOST = node40.local.isima.fr, Linux

MersenneTwiter


sstring_LongestHeadRun test:
-----------------------------------------------
   N =  1,  n = 1000,  r = 27,   s = 3,   L = 10000020


-----------------------------------------------
Number of degrees of freedom          :    8
Chi-square statistic                  :    7.38
p-value of test                       :    0.50

-----------------------------------------------
Global longest run of 1               :   36.00
p-value of test                       :    0.07



-----------------------------------------------
CPU time used                    :  00:01:40.47

Generator state:




***********************************************************
HOST = node40.local.isima.fr, Linux

MersenneTwiter


sstring_PeriodsInStrings test:
-----------------------------------------------
   N = 10,  n = 500000000,  r =  0,   s =   10


-----------------------------------------------

Kolmogorov-Smirnov+ statistic = D+    :   0.093
p-value of test                       :    0.79

Kolmogorov-Smirnov- statistic = D-    :    0.28
p-value of test                       :    0.17

Anderson-Darling statistic = A2       :    0.93
p-value of test                       :    0.39

Test on the sum of all N observations
Number of degrees of freedom          :  200
Chi-square statistic                  :  220.43
p-value of test                       :    0.15

-----------------------------------------------
CPU time used                    :  00:02:53.57

Generator state:




***********************************************************
HOST = node40.local.isima.fr, Linux

MersenneTwiter


sstring_PeriodsInStrings test:
-----------------------------------------------
   N = 10,  n = 500000000,  r = 20,   s =   10


-----------------------------------------------

Kolmogorov-Smirnov+ statistic = D+    :    0.28
p-value of test                       :    0.18

Kolmogorov-Smirnov- statistic = D-    :    0.10
p-value of test                       :    0.76

Anderson-Darling statistic = A2       :    0.83
p-value of test                       :    0.45

Test on the sum of all N observations
Number of degrees of freedom          :  200
Chi-square statistic                  :  180.14
p-value of test                       :    0.84

-----------------------------------------------
CPU time used                    :  00:03:00.44

Generator state:




***********************************************************
HOST = node40.local.isima.fr, Linux

MersenneTwiter


sstring_HammingWeight2 test:
-----------------------------------------------
   N = 10,  n = 1000000000,  r =  0,   s = 3,   L = 1000000


-----------------------------------------------

Kolmogorov-Smirnov+ statistic = D+    :   0.062
p-value of test                       :    0.89

Kolmogorov-Smirnov- statistic = D-    :    0.25
p-value of test                       :    0.26

Anderson-Darling statistic = A2       :    0.70
p-value of test                       :    0.55

Test on the sum of all N observations
Number of degrees of freedom          : 10000
Chi-square statistic                  :10123.09
p-value of test                       :    0.19

-----------------------------------------------
CPU time used                    :  00:01:01.63

Generator state:




***********************************************************
HOST = node40.local.isima.fr, Linux

MersenneTwiter


sstring_HammingWeight2 test:
-----------------------------------------------
   N = 10,  n = 1000000000,  r = 27,   s = 3,   L = 1000000


-----------------------------------------------

Kolmogorov-Smirnov+ statistic = D+    :   0.023
p-value of test                       :    0.97

Kolmogorov-Smirnov- statistic = D-    :    0.31
p-value of test                       :    0.13

Anderson-Darling statistic = A2       :    1.38
p-value of test                       :    0.21

Test on the sum of all N observations
Number of degrees of freedom          : 10000
Chi-square statistic                  :10206.45
p-value of test                       :    0.07

-----------------------------------------------
CPU time used                    :  00:01:04.31

Generator state:




***********************************************************
HOST = node40.local.isima.fr, Linux

MersenneTwiter


sstring_HammingCorr test:
-----------------------------------------------
   N =  1,  n = 1000000000,  r = 10,   s = 10,   L = 30



-----------------------------------------------
Normal statistic                      :   -0.14
p-value of test                       :    0.56

-----------------------------------------------
CPU time used                    :  00:01:17.37

Generator state:




***********************************************************
HOST = node40.local.isima.fr, Linux

MersenneTwiter


sstring_HammingCorr test:
-----------------------------------------------
   N =  1,  n = 100000000,  r = 10,   s = 10,   L = 300



-----------------------------------------------
Normal statistic                      :    0.85
p-value of test                       :    0.20

-----------------------------------------------
CPU time used                    :  00:01:14.03

Generator state:




***********************************************************
HOST = node40.local.isima.fr, Linux

MersenneTwiter


sstring_HammingCorr test:
-----------------------------------------------
   N =  1,  n = 100000000,  r = 10,   s = 10,   L = 1200



-----------------------------------------------
Normal statistic                      :    0.69
p-value of test                       :    0.25

-----------------------------------------------
CPU time used                    :  00:04:55.38

Generator state:




***********************************************************
HOST = node40.local.isima.fr, Linux

MersenneTwiter


sstring_HammingIndep test:
-----------------------------------------------
   N = 10,  n = 30000000,  r =  0,   s = 3,   L = 30,   d = 0



Counters with expected numbers >= 10
-----------------------------------------------

Kolmogorov-Smirnov+ statistic = D+    :    0.24
p-value of test                       :    0.28

Kolmogorov-Smirnov- statistic = D-    :   0.053
p-value of test                       :    0.92

Anderson-Darling statistic = A2       :    0.74
p-value of test                       :    0.52

Test on the sum of all N observations
Number of degrees of freedom          : 4890
Chi-square statistic                  : 4801.17
p-value of test                       :    0.82

-----------------------------------------------
CPU time used                    :  00:02:03.61

Generator state:




***********************************************************
HOST = node40.local.isima.fr, Linux

MersenneTwiter


sstring_HammingIndep test:
-----------------------------------------------
   N = 10,  n = 30000000,  r = 27,   s = 3,   L = 30,   d = 0



Counters with expected numbers >= 10
-----------------------------------------------

Kolmogorov-Smirnov+ statistic = D+    :    0.49
p-value of test                       :  5.4e-3

Kolmogorov-Smirnov- statistic = D-    : 3.95e-3
p-value of test                       :    0.9959

Anderson-Darling statistic = A2       :    5.37
p-value of test                       :  2.0e-3

Test on the sum of all N observations
Number of degrees of freedom          : 4890
Chi-square statistic                  : 4564.54
p-value of test                       :    0.9996    *****

-----------------------------------------------
CPU time used                    :  00:02:08.40

Generator state:




***********************************************************
HOST = node40.local.isima.fr, Linux

MersenneTwiter


sstring_HammingIndep test:
-----------------------------------------------
   N =  1,  n = 30000000,  r =  0,   s = 4,   L = 300,   d = 0



Counters with expected numbers >= 10
-----------------------------------------------
Number of degrees of freedom          : 4117
Chi-square statistic                  : 4022.25
p-value of test                       :    0.85

-----------------------------------------------
CPU time used                    :  00:01:31.80

Generator state:




***********************************************************
HOST = node40.local.isima.fr, Linux

MersenneTwiter


sstring_HammingIndep test:
-----------------------------------------------
   N =  1,  n = 30000000,  r = 26,   s = 4,   L = 300,   d = 0



Counters with expected numbers >= 10
-----------------------------------------------
Number of degrees of freedom          : 4117
Chi-square statistic                  : 4132.44
p-value of test                       :    0.43

-----------------------------------------------
CPU time used                    :  00:01:36.09

Generator state:




***********************************************************
HOST = node40.local.isima.fr, Linux

MersenneTwiter


sstring_HammingIndep test:
-----------------------------------------------
   N =  1,  n = 10000000,  r =  0,   s = 5,   L = 1200,   d = 0



Counters with expected numbers >= 10
-----------------------------------------------
Number of degrees of freedom          : 11825
Chi-square statistic                  :11716.74
p-value of test                       :    0.76

-----------------------------------------------
CPU time used                    :  00:01:41.71

Generator state:




***********************************************************
HOST = node40.local.isima.fr, Linux

MersenneTwiter


sstring_HammingIndep test:
-----------------------------------------------
   N =  1,  n = 10000000,  r = 25,   s = 5,   L = 1200,   d = 0



Counters with expected numbers >= 10
-----------------------------------------------
Number of degrees of freedom          : 11825
Chi-square statistic                  :11551.18
p-value of test                       :    0.96

-----------------------------------------------
CPU time used                    :  00:01:43.50

Generator state:




***********************************************************
HOST = node40.local.isima.fr, Linux

MersenneTwiter


sstring_Run test:
-----------------------------------------------
   N =  1,  n = 2000000000,  r =  0,   s =    3


-----------------------------------------------
Total number of 1 runs:  2000000000

Number of degrees of freedom          :   54
Chi2 statistic for number of runs     :   65.59
p-value of test                       :    0.13


-----------------------------------------------
Total number of bits:  8000116524

Normal statistic for number of bits   :    0.92
p-value of test                       :    0.18



-----------------------------------------------
CPU time used                    :  00:01:23.50

Generator state:




***********************************************************
HOST = node40.local.isima.fr, Linux

MersenneTwiter


sstring_Run test:
-----------------------------------------------
   N =  1,  n = 2000000000,  r = 27,   s =    3


-----------------------------------------------
Total number of 1 runs:  2000000000

Number of degrees of freedom          :   54
Chi2 statistic for number of runs     :   58.01
p-value of test                       :    0.33


-----------------------------------------------
Total number of bits:  8000055075

Normal statistic for number of bits   :    0.44
p-value of test                       :    0.33



-----------------------------------------------
CPU time used                    :  00:01:28.15

Generator state:




***********************************************************
HOST = node40.local.isima.fr, Linux

MersenneTwiter


sstring_AutoCor test:
-----------------------------------------------
   N = 10,  n = 1000000030,  r =  0,   s = 3,   d = 1


-----------------------------------------------

Kolmogorov-Smirnov+ statistic = D+    :    0.12
p-value of test                       :    0.71

Kolmogorov-Smirnov- statistic = D-    :    0.18
p-value of test                       :    0.48

Anderson-Darling statistic = A2       :    0.53
p-value of test                       :    0.71

Tests on the sum of all N observations
Standardized normal statistic         :    0.71
p-value of test                       :    0.24

Sample variance                       :    1.62
p-value of test                       :    0.10

-----------------------------------------------
CPU time used                    :  00:01:48.75

Generator state:




***********************************************************
HOST = node40.local.isima.fr, Linux

MersenneTwiter


sstring_AutoCor test:
-----------------------------------------------
   N = 10,  n = 1000000029,  r =  0,   s = 3,   d = 3


-----------------------------------------------

Kolmogorov-Smirnov+ statistic = D+    :   0.038
p-value of test                       :    0.95

Kolmogorov-Smirnov- statistic = D-    :    0.21
p-value of test                       :    0.35

Anderson-Darling statistic = A2       :    0.64
p-value of test                       :    0.61

Tests on the sum of all N observations
Standardized normal statistic         :    0.96
p-value of test                       :    0.17

Sample variance                       :    0.82
p-value of test                       :    0.60

-----------------------------------------------
CPU time used                    :  00:01:28.40

Generator state:




***********************************************************
HOST = node40.local.isima.fr, Linux

MersenneTwiter


sstring_AutoCor test:
-----------------------------------------------
   N = 10,  n = 1000000030,  r = 27,   s = 3,   d = 1


-----------------------------------------------

Kolmogorov-Smirnov+ statistic = D+    :   0.057
p-value of test                       :    0.91

Kolmogorov-Smirnov- statistic = D-    :    0.31
p-value of test                       :    0.12

Anderson-Darling statistic = A2       :    1.27
p-value of test                       :    0.24

Tests on the sum of all N observations
Standardized normal statistic         :    1.26
p-value of test                       :    0.10

Sample variance                       :    0.76
p-value of test                       :    0.66

-----------------------------------------------
CPU time used                    :  00:01:49.92

Generator state:




***********************************************************
HOST = node40.local.isima.fr, Linux

MersenneTwiter


sstring_AutoCor test:
-----------------------------------------------
   N = 10,  n = 1000000029,  r = 27,   s = 3,   d = 3


-----------------------------------------------

Kolmogorov-Smirnov+ statistic = D+    :    0.26
p-value of test                       :    0.22

Kolmogorov-Smirnov- statistic = D-    :   0.017
p-value of test                       :    0.98

Anderson-Darling statistic = A2       :    1.26
p-value of test                       :    0.24

Tests on the sum of all N observations
Standardized normal statistic         :   -1.49
p-value of test                       :    0.93

Sample variance                       :    0.89
p-value of test                       :    0.53

-----------------------------------------------
CPU time used                    :  00:01:22.51

Generator state:





========= Summary results of BigCrush =========

 Version:          TestU01 1.2.3
 Generator:        MersenneTwiter
 Number of statistics:  160
 Total CPU time:   04:32:36.34
 The following tests gave p-values outside [0.001, 0.9990]:
 (eps  means a value < 1.0e-300):
 (eps1 means a value < 1.0e-15):

       Test                          p-value
 ----------------------------------------------
 80  LinearComp, r = 0              1 - eps1
 81  LinearComp, r = 29             1 - eps1
 96  HammingIndep, L=30, r=27        0.9996 
 ----------------------------------------------
 All other tests were passed



