xxxxxxxxxxxxxxxxxxxxxxxxxxxxxxxxxxxxxxxxxxxxxxxxxxxxxxxxxxx
                 Starting BigCrush
                 Version: TestU01 1.2.3
xxxxxxxxxxxxxxxxxxxxxxxxxxxxxxxxxxxxxxxxxxxxxxxxxxxxxxxxxxx


***********************************************************
Test smarsa_SerialOver calling smultin_MultinomialOver

***********************************************************
HOST = node40.local.isima.fr, Linux

MersenneTwiter


smultin_MultinomialOver test:
-----------------------------------------------
   N =  1,  n = 1000000000,  r =  0,   d =  256,   t =  3,
       Sparse =  FALSE

       GenerCell = smultin_GenerCellSerial
       Number of cells = d^t =           16777216
       Expected number per cell =   59.604645
       Hashing =  FALSE

   For Delta > -1, we use the ChiSquare approximation
   Correction factor of the ChiSquare: 
       Delta =     1,    Mu =   0.0083558402,    Sigma =          1

-----------------------------------------------
Test Results for Delta =   1.0000

Number of degrees of freedom          : 16711680
Value of the statistic                : 1.67e+7
p-value of test                       :    0.32


-----------------------------------------------
CPU time used                    :  00:01:48.59

Generator state:




***********************************************************
Test smarsa_SerialOver calling smultin_MultinomialOver

***********************************************************
HOST = node40.local.isima.fr, Linux

MersenneTwiter


smultin_MultinomialOver test:
-----------------------------------------------
   N =  1,  n = 1000000000,  r = 22,   d =  256,   t =  3,
       Sparse =  FALSE

       GenerCell = smultin_GenerCellSerial
       Number of cells = d^t =           16777216
       Expected number per cell =   59.604645
       Hashing =  FALSE

   For Delta > -1, we use the ChiSquare approximation
   Correction factor of the ChiSquare: 
       Delta =     1,    Mu =   0.0083558402,    Sigma =          1

-----------------------------------------------
Test Results for Delta =   1.0000

Number of degrees of freedom          : 16711680
Value of the statistic                : 1.67e+7
p-value of test                       :    0.09


-----------------------------------------------
CPU time used                    :  00:01:50.94

Generator state:




***********************************************************
Test smarsa_CollisionOver calling smultin_MultinomialOver

***********************************************************
HOST = node40.local.isima.fr, Linux

MersenneTwiter


smultin_MultinomialOver test:
-----------------------------------------------
   N = 30,  n = 20000000,  r =  0,   d = 2097152,   t =  2,
       Sparse =   TRUE

       GenerCell = smultin_GenerCellSerial
       Number of cells = d^t =      4398046511104
       Expected number per cell =  1 /  219902.33
       EColl = n^2 / (2k) =  45.47473509
       Hashing =   TRUE

       Collision test

       CollisionOver:   density = n / k =  1 /  219902.33
       Expected number of collisions = Mu =      45.47


-----------------------------------------------
Results of CollisionOver test:

POISSON approximation                 :
Expected number of collisions = N*Mu  :     1364.24
Observed number of collisions         :     1443
p-value of test                       :    0.02

-----------------------------
Total number of cells containing j balls

  j =  0                              :  131940795334563
  j =  1                              :        599997114
  j =  2                              :             1443
  j =  3                              :                0
  j =  4                              :                0
  j =  5                              :                0

-----------------------------------------------
CPU time used                    :  00:05:59.05

Generator state:




***********************************************************
Test smarsa_CollisionOver calling smultin_MultinomialOver

***********************************************************
HOST = node40.local.isima.fr, Linux

MersenneTwiter


smultin_MultinomialOver test:
-----------------------------------------------
   N = 30,  n = 20000000,  r =  9,   d = 2097152,   t =  2,
       Sparse =   TRUE

       GenerCell = smultin_GenerCellSerial
       Number of cells = d^t =      4398046511104
       Expected number per cell =  1 /  219902.33
       EColl = n^2 / (2k) =  45.47473509
       Hashing =   TRUE

       Collision test

       CollisionOver:   density = n / k =  1 /  219902.33
       Expected number of collisions = Mu =      45.47


-----------------------------------------------
Results of CollisionOver test:

POISSON approximation                 :
Expected number of collisions = N*Mu  :     1364.24
Observed number of collisions         :     1406
p-value of test                       :    0.13

-----------------------------
Total number of cells containing j balls

  j =  0                              :  131940795334526
  j =  1                              :        599997188
  j =  2                              :             1406
  j =  3                              :                0
  j =  4                              :                0
  j =  5                              :                0

-----------------------------------------------
CPU time used                    :  00:05:53.87

Generator state:




***********************************************************
Test smarsa_CollisionOver calling smultin_MultinomialOver

***********************************************************
HOST = node40.local.isima.fr, Linux

MersenneTwiter


smultin_MultinomialOver test:
-----------------------------------------------
   N = 30,  n = 20000000,  r =  0,   d = 16384,   t =  3,
       Sparse =   TRUE

       GenerCell = smultin_GenerCellSerial
       Number of cells = d^t =      4398046511104
       Expected number per cell =  1 /  219902.33
       EColl = n^2 / (2k) =  45.47473509
       Hashing =   TRUE

       Collision test

       CollisionOver:   density = n / k =  1 /  219902.33
       Expected number of collisions = Mu =      45.47


-----------------------------------------------
Results of CollisionOver test:

POISSON approximation                 :
Expected number of collisions = N*Mu  :     1364.24
Observed number of collisions         :     1424
p-value of test                       :    0.06

-----------------------------
Total number of cells containing j balls

  j =  0                              :  131940795334544
  j =  1                              :        599997152
  j =  2                              :             1424
  j =  3                              :                0
  j =  4                              :                0
  j =  5                              :                0

-----------------------------------------------
CPU time used                    :  00:08:37.81

Generator state:




***********************************************************
Test smarsa_CollisionOver calling smultin_MultinomialOver

***********************************************************
HOST = node40.local.isima.fr, Linux

MersenneTwiter


smultin_MultinomialOver test:
-----------------------------------------------
   N = 30,  n = 20000000,  r = 16,   d = 16384,   t =  3,
       Sparse =   TRUE

       GenerCell = smultin_GenerCellSerial
       Number of cells = d^t =      4398046511104
       Expected number per cell =  1 /  219902.33
       EColl = n^2 / (2k) =  45.47473509
       Hashing =   TRUE

       Collision test

       CollisionOver:   density = n / k =  1 /  219902.33
       Expected number of collisions = Mu =      45.47


-----------------------------------------------
Results of CollisionOver test:

POISSON approximation                 :
Expected number of collisions = N*Mu  :     1364.24
Observed number of collisions         :     1358
p-value of test                       :    0.56

-----------------------------
Total number of cells containing j balls

  j =  0                              :  131940795334478
  j =  1                              :        599997285
  j =  2                              :             1356
  j =  3                              :                1
  j =  4                              :                0
  j =  5                              :                0

-----------------------------------------------
CPU time used                    :  00:08:33.28

Generator state:




***********************************************************
Test smarsa_CollisionOver calling smultin_MultinomialOver

***********************************************************
HOST = node40.local.isima.fr, Linux

MersenneTwiter


smultin_MultinomialOver test:
-----------------------------------------------
   N = 30,  n = 20000000,  r =  0,   d =   64,   t =  7,
       Sparse =   TRUE

       GenerCell = smultin_GenerCellSerial
       Number of cells = d^t =      4398046511104
       Expected number per cell =  1 /  219902.33
       EColl = n^2 / (2k) =  45.47473509
       Hashing =   TRUE

       Collision test

       CollisionOver:   density = n / k =  1 /  219902.33
       Expected number of collisions = Mu =      45.47


-----------------------------------------------
Results of CollisionOver test:

POISSON approximation                 :
Expected number of collisions = N*Mu  :     1364.24
Observed number of collisions         :     1400
p-value of test                       :    0.17

-----------------------------
Total number of cells containing j balls

  j =  0                              :  131940795334520
  j =  1                              :        599997200
  j =  2                              :             1400
  j =  3                              :                0
  j =  4                              :                0
  j =  5                              :                0

-----------------------------------------------
CPU time used                    :  00:08:44.34

Generator state:




***********************************************************
Test smarsa_CollisionOver calling smultin_MultinomialOver

***********************************************************
HOST = node40.local.isima.fr, Linux

MersenneTwiter


smultin_MultinomialOver test:
-----------------------------------------------
   N = 30,  n = 20000000,  r = 24,   d =   64,   t =  7,
       Sparse =   TRUE

       GenerCell = smultin_GenerCellSerial
       Number of cells = d^t =      4398046511104
       Expected number per cell =  1 /  219902.33
       EColl = n^2 / (2k) =  45.47473509
       Hashing =   TRUE

       Collision test

       CollisionOver:   density = n / k =  1 /  219902.33
       Expected number of collisions = Mu =      45.47


-----------------------------------------------
Results of CollisionOver test:

POISSON approximation                 :
Expected number of collisions = N*Mu  :     1364.24
Observed number of collisions         :     1352
p-value of test                       :    0.62

-----------------------------
Total number of cells containing j balls

  j =  0                              :  131940795334472
  j =  1                              :        599997296
  j =  2                              :             1352
  j =  3                              :                0
  j =  4                              :                0
  j =  5                              :                0

-----------------------------------------------
CPU time used                    :  00:08:40.88

Generator state:




***********************************************************
Test smarsa_CollisionOver calling smultin_MultinomialOver

***********************************************************
HOST = node40.local.isima.fr, Linux

MersenneTwiter


smultin_MultinomialOver test:
-----------------------------------------------
   N = 30,  n = 20000000,  r =  0,   d =    8,   t = 14,
       Sparse =   TRUE

       GenerCell = smultin_GenerCellSerial
       Number of cells = d^t =      4398046511104
       Expected number per cell =  1 /  219902.33
       EColl = n^2 / (2k) =  45.47473509
       Hashing =   TRUE

       Collision test

       CollisionOver:   density = n / k =  1 /  219902.33
       Expected number of collisions = Mu =      45.47


-----------------------------------------------
Results of CollisionOver test:

POISSON approximation                 :
Expected number of collisions = N*Mu  :     1364.24
Observed number of collisions         :     1397
p-value of test                       :    0.19

-----------------------------
Total number of cells containing j balls

  j =  0                              :  131940795334517
  j =  1                              :        599997206
  j =  2                              :             1397
  j =  3                              :                0
  j =  4                              :                0
  j =  5                              :                0

-----------------------------------------------
CPU time used                    :  00:08:44.15

Generator state:




***********************************************************
Test smarsa_CollisionOver calling smultin_MultinomialOver

***********************************************************
HOST = node40.local.isima.fr, Linux

MersenneTwiter


smultin_MultinomialOver test:
-----------------------------------------------
   N = 30,  n = 20000000,  r = 27,   d =    8,   t = 14,
       Sparse =   TRUE

       GenerCell = smultin_GenerCellSerial
       Number of cells = d^t =      4398046511104
       Expected number per cell =  1 /  219902.33
       EColl = n^2 / (2k) =  45.47473509
       Hashing =   TRUE

       Collision test

       CollisionOver:   density = n / k =  1 /  219902.33
       Expected number of collisions = Mu =      45.47


-----------------------------------------------
Results of CollisionOver test:

POISSON approximation                 :
Expected number of collisions = N*Mu  :     1364.24
Observed number of collisions         :     1318
p-value of test                       :    0.89

-----------------------------
Total number of cells containing j balls

  j =  0                              :  131940795334438
  j =  1                              :        599997364
  j =  2                              :             1318
  j =  3                              :                0
  j =  4                              :                0
  j =  5                              :                0

-----------------------------------------------
CPU time used                    :  00:08:41.57

Generator state:




***********************************************************
Test smarsa_CollisionOver calling smultin_MultinomialOver

***********************************************************
HOST = node40.local.isima.fr, Linux

MersenneTwiter


smultin_MultinomialOver test:
-----------------------------------------------
   N = 30,  n = 20000000,  r =  0,   d =    4,   t = 21,
       Sparse =   TRUE

       GenerCell = smultin_GenerCellSerial
       Number of cells = d^t =      4398046511104
       Expected number per cell =  1 /  219902.33
       EColl = n^2 / (2k) =  45.47473509
       Hashing =   TRUE

       Collision test

       CollisionOver:   density = n / k =  1 /  219902.33
       Expected number of collisions = Mu =      45.47


-----------------------------------------------
Results of CollisionOver test:

POISSON approximation                 :
Expected number of collisions = N*Mu  :     1364.24
Observed number of collisions         :     1409
p-value of test                       :    0.12

-----------------------------
Total number of cells containing j balls

  j =  0                              :  131940795334529
  j =  1                              :        599997182
  j =  2                              :             1409
  j =  3                              :                0
  j =  4                              :                0
  j =  5                              :                0

-----------------------------------------------
CPU time used                    :  00:08:44.65

Generator state:




***********************************************************
Test smarsa_CollisionOver calling smultin_MultinomialOver

***********************************************************
HOST = node40.local.isima.fr, Linux

MersenneTwiter


smultin_MultinomialOver test:
-----------------------------------------------
   N = 30,  n = 20000000,  r = 28,   d =    4,   t = 21,
       Sparse =   TRUE

       GenerCell = smultin_GenerCellSerial
       Number of cells = d^t =      4398046511104
       Expected number per cell =  1 /  219902.33
       EColl = n^2 / (2k) =  45.47473509
       Hashing =   TRUE

       Collision test

       CollisionOver:   density = n / k =  1 /  219902.33
       Expected number of collisions = Mu =      45.47


-----------------------------------------------
Results of CollisionOver test:

POISSON approximation                 :
Expected number of collisions = N*Mu  :     1364.24
Observed number of collisions         :     1311
p-value of test                       :    0.92

-----------------------------
Total number of cells containing j balls

  j =  0                              :  131940795334431
  j =  1                              :        599997378
  j =  2                              :             1311
  j =  3                              :                0
  j =  4                              :                0
  j =  5                              :                0

-----------------------------------------------
CPU time used                    :  00:08:39.55

Generator state:




***********************************************************
HOST = node40.local.isima.fr, Linux

MersenneTwiter


smarsa_BirthdaySpacings test:
-----------------------------------------------
   N = 100,  n = 10000000,  r =  0,    d = 2147483648,    t = 2,    p = 1


      Number of cells = d^t = 4611686018427387904
      Lambda = Poisson mean =      54.2101


----------------------------------------------------
Total expected number = N*Lambda      :    5421.01
Total observed number                 :    5450
p-value of test                       :    0.35


-----------------------------------------------
CPU time used                    :  00:04:33.32

Generator state:




***********************************************************
HOST = node40.local.isima.fr, Linux

MersenneTwiter


smarsa_BirthdaySpacings test:
-----------------------------------------------
   N = 20,  n = 20000000,  r =  0,    d = 2097152,    t = 3,    p = 1


      Number of cells = d^t = 9223372036854775808
      Lambda = Poisson mean =     216.8404


----------------------------------------------------
Total expected number = N*Lambda      :    4336.81
Total observed number                 :    4328
p-value of test                       :    0.55


-----------------------------------------------
CPU time used                    :  00:01:59.31

Generator state:




***********************************************************
HOST = node40.local.isima.fr, Linux

MersenneTwiter


smarsa_BirthdaySpacings test:
-----------------------------------------------
   N = 20,  n = 30000000,  r = 14,    d = 65536,    t = 4,    p = 1


      Number of cells = d^t = 18446744073709551616
      Lambda = Poisson mean =     365.9182


----------------------------------------------------
Total expected number = N*Lambda      :    7318.36
Total observed number                 :    7190
p-value of test                       :    0.93


-----------------------------------------------
CPU time used                    :  00:03:17.19

Generator state:




***********************************************************
HOST = node40.local.isima.fr, Linux

MersenneTwiter


smarsa_BirthdaySpacings test:
-----------------------------------------------
   N = 20,  n = 20000000,  r =  0,    d = 512,    t = 7,    p = 1


      Number of cells = d^t = 9223372036854775808
      Lambda = Poisson mean =     216.8404


----------------------------------------------------
Total expected number = N*Lambda      :    4336.81
Total observed number                 :    4378
p-value of test                       :    0.27


-----------------------------------------------
CPU time used                    :  00:02:21.40

Generator state:




***********************************************************
HOST = node40.local.isima.fr, Linux

MersenneTwiter


smarsa_BirthdaySpacings test:
-----------------------------------------------
   N = 20,  n = 20000000,  r =  7,    d = 512,    t = 7,    p = 1


      Number of cells = d^t = 9223372036854775808
      Lambda = Poisson mean =     216.8404


----------------------------------------------------
Total expected number = N*Lambda      :    4336.81
Total observed number                 :    4404
p-value of test                       :    0.16


-----------------------------------------------
CPU time used                    :  00:02:28.11

Generator state:




***********************************************************
HOST = node40.local.isima.fr, Linux

MersenneTwiter


smarsa_BirthdaySpacings test:
-----------------------------------------------
   N = 20,  n = 30000000,  r = 14,    d = 256,    t = 8,    p = 1


      Number of cells = d^t = 18446744073709551616
      Lambda = Poisson mean =     365.9182


----------------------------------------------------
Total expected number = N*Lambda      :    7318.36
Total observed number                 :    7328
p-value of test                       :    0.46


-----------------------------------------------
CPU time used                    :  00:03:55.28

Generator state:




***********************************************************
HOST = node40.local.isima.fr, Linux

MersenneTwiter


smarsa_BirthdaySpacings test:
-----------------------------------------------
   N = 20,  n = 30000000,  r = 22,    d = 256,    t = 8,    p = 1


      Number of cells = d^t = 18446744073709551616
      Lambda = Poisson mean =     365.9182


----------------------------------------------------
Total expected number = N*Lambda      :    7318.36
Total observed number                 :    7163
p-value of test                       :    0.97


-----------------------------------------------
CPU time used                    :  00:03:56.10

Generator state:




***********************************************************
HOST = node40.local.isima.fr, Linux

MersenneTwiter


smarsa_BirthdaySpacings test:
-----------------------------------------------
   N = 20,  n = 30000000,  r =  0,    d = 16,    t = 16,    p = 1


      Number of cells = d^t = 18446744073709551616
      Lambda = Poisson mean =     365.9182


----------------------------------------------------
Total expected number = N*Lambda      :    7318.36
Total observed number                 :    7306
p-value of test                       :    0.55


-----------------------------------------------
CPU time used                    :  00:04:55.71

Generator state:




***********************************************************
HOST = node40.local.isima.fr, Linux

MersenneTwiter


smarsa_BirthdaySpacings test:
-----------------------------------------------
   N = 20,  n = 30000000,  r = 26,    d = 16,    t = 16,    p = 1


      Number of cells = d^t = 18446744073709551616
      Lambda = Poisson mean =     365.9182


----------------------------------------------------
Total expected number = N*Lambda      :    7318.36
Total observed number                 :    7308
p-value of test                       :    0.55


-----------------------------------------------
CPU time used                    :  00:05:13.32

Generator state:




***********************************************************
HOST = node40.local.isima.fr, Linux

MersenneTwiter


snpair_ClosePairs test:
-----------------------------------------------
   N = 30,  n = 6000000,  r =  0,  t = 3,  p = 0,  m = 30,  Torus =  TRUE


---------------------------------------
Test based on the 2 nearest points (NP):

Stat. AD on the N values (NP)         :    0.31
p-value of test                       :    0.93


A2 test based on the spacings between the
   successive jump times of process Y_n(t):

A2 test on the values of A2 (m-NP)    :    1.84
p-value of test                       :    0.11

Test on the Nm values of W_{n,i}(mNP1):    2.23
p-value of test                       :    0.07

Test on the jump times of Y
   (superposition of Yn):

Expected number of jumps of Y = mN    :     900
Number of jumps of Y                  :     882
p-value of test                       :    0.72

Stat. AD (mNP2)                       :    0.77
p-value of test                       :    0.50

Stat. AD after spacings (mNP2-S)      :    1.13
p-value of test                       :    0.30

-----------------------------------------------
CPU time used                    :  00:03:21.34

Generator state:




***********************************************************
HOST = node40.local.isima.fr, Linux

MersenneTwiter


snpair_ClosePairs test:
-----------------------------------------------
   N = 20,  n = 4000000,  r =  0,  t = 5,  p = 0,  m = 30,  Torus =  TRUE


---------------------------------------
Test based on the 2 nearest points (NP):

Stat. AD on the N values (NP)         :    3.29
p-value of test                       :    0.02


A2 test based on the spacings between the
   successive jump times of process Y_n(t):

A2 test on the values of A2 (m-NP)    :    1.08
p-value of test                       :    0.32

Test on the Nm values of W_{n,i}(mNP1):    0.53
p-value of test                       :    0.72

Test on the jump times of Y
   (superposition of Yn):

Expected number of jumps of Y = mN    :     600
Number of jumps of Y                  :     612
p-value of test                       :    0.32

Stat. AD (mNP2)                       :    1.30
p-value of test                       :    0.23

Stat. AD after spacings (mNP2-S)      :    0.71
p-value of test                       :    0.55

-----------------------------------------------
CPU time used                    :  00:01:59.56

Generator state:




***********************************************************
HOST = node40.local.isima.fr, Linux

MersenneTwiter


snpair_ClosePairs test:
-----------------------------------------------
   N = 10,  n = 3000000,  r =  0,  t = 9,  p = 0,  m = 30,  Torus =  TRUE


---------------------------------------
Test based on the 2 nearest points (NP):

Stat. AD on the N values (NP)         :    0.71
p-value of test                       :    0.55


A2 test based on the spacings between the
   successive jump times of process Y_n(t):

A2 test on the values of A2 (m-NP)    :    0.66
p-value of test                       :    0.59

Test on the Nm values of W_{n,i}(mNP1):    0.65
p-value of test                       :    0.60

Test on the jump times of Y
   (superposition of Yn):

Expected number of jumps of Y = mN    :     300
Number of jumps of Y                  :     299
p-value of test                       :    0.51

Stat. AD (mNP2)                       :    1.67
p-value of test                       :    0.14

Stat. AD after spacings (mNP2-S)      :    0.62
p-value of test                       :    0.63

-----------------------------------------------
CPU time used                    :  00:03:10.09

Generator state:




***********************************************************
HOST = node40.local.isima.fr, Linux

MersenneTwiter


snpair_ClosePairs test:
-----------------------------------------------
   N =  5,  n = 2000000,  r =  0,  t = 16,  p = 0,  m = 30,  Torus =  TRUE


---------------------------------------
Test based on the 2 nearest points (NP):

Stat. AD on the N values (NP)         :    0.97
p-value of test                       :    0.37


A2 test based on the spacings between the
   successive jump times of process Y_n(t):

A2 test on the values of A2 (m-NP)    :    0.64
p-value of test                       :    0.60

Test on the Nm values of W_{n,i}(mNP1):    0.38
p-value of test                       :    0.87

Test on the jump times of Y
   (superposition of Yn):

Expected number of jumps of Y = mN    :     150
Number of jumps of Y                  :     150
p-value of test                       :    0.51

Stat. AD (mNP2)                       :    0.63
p-value of test                       :    0.62

Stat. AD after spacings (mNP2-S)      :    1.49
p-value of test                       :    0.18

-----------------------------------------------
CPU time used                    :  00:03:33.80

Generator state:




***********************************************************
HOST = node40.local.isima.fr, Linux

MersenneTwiter


sknuth_SimpPoker test:
-----------------------------------------------
   N =  1,  n = 400000000,  r =  0,   d =    8,   k =    8


-----------------------------------------------
Number of degrees of freedom          :    7
Chi-square statistic                  :    6.08
p-value of test                       :    0.53

-----------------------------------------------
CPU time used                    :  00:01:01.60

Generator state:




***********************************************************
HOST = node40.local.isima.fr, Linux

MersenneTwiter


sknuth_SimpPoker test:
-----------------------------------------------
   N =  1,  n = 400000000,  r = 27,   d =    8,   k =    8


-----------------------------------------------
Number of degrees of freedom          :    7
Chi-square statistic                  :    7.31
p-value of test                       :    0.40

-----------------------------------------------
CPU time used                    :  00:01:14.06

Generator state:




***********************************************************
HOST = node40.local.isima.fr, Linux

MersenneTwiter


sknuth_SimpPoker test:
-----------------------------------------------
   N =  1,  n = 100000000,  r =  0,   d =   32,   k =   32


-----------------------------------------------
Number of degrees of freedom          :   18
Chi-square statistic                  :   28.97
p-value of test                       :    0.05

-----------------------------------------------
CPU time used                    :  00:01:03.35

Generator state:




***********************************************************
HOST = node40.local.isima.fr, Linux

MersenneTwiter


sknuth_SimpPoker test:
-----------------------------------------------
   N =  1,  n = 100000000,  r = 25,   d =   32,   k =   32


-----------------------------------------------
Number of degrees of freedom          :   18
Chi-square statistic                  :   13.40
p-value of test                       :    0.77

-----------------------------------------------
CPU time used                    :  00:01:17.48

Generator state:




***********************************************************
HOST = node40.local.isima.fr, Linux

MersenneTwiter


sknuth_CouponCollector test:
-----------------------------------------------
   N =  1,  n = 200000000,  r =  0,   d =    8


-----------------------------------------------
Number of degrees of freedom          :   54
Chi-square statistic                  :   59.44
p-value of test                       :    0.28

-----------------------------------------------
CPU time used                    :  00:01:16.61

Generator state:




***********************************************************
HOST = node40.local.isima.fr, Linux

MersenneTwiter


sknuth_CouponCollector test:
-----------------------------------------------
   N =  1,  n = 200000000,  r = 10,   d =    8


-----------------------------------------------
Number of degrees of freedom          :   54
Chi-square statistic                  :   67.97
p-value of test                       :    0.10

-----------------------------------------------
CPU time used                    :  00:01:34.87

Generator state:




***********************************************************
HOST = node40.local.isima.fr, Linux

MersenneTwiter


sknuth_CouponCollector test:
-----------------------------------------------
   N =  1,  n = 200000000,  r = 20,   d =    8


-----------------------------------------------
Number of degrees of freedom          :   54
Chi-square statistic                  :   50.55
p-value of test                       :    0.61

-----------------------------------------------
CPU time used                    :  00:01:34.86

Generator state:




***********************************************************
HOST = node40.local.isima.fr, Linux

MersenneTwiter


sknuth_CouponCollector test:
-----------------------------------------------
   N =  1,  n = 200000000,  r = 27,   d =    8


-----------------------------------------------
Number of degrees of freedom          :   54
Chi-square statistic                  :   58.12
p-value of test                       :    0.33

-----------------------------------------------
CPU time used                    :  00:01:36.31

Generator state:




***********************************************************
HOST = node40.local.isima.fr, Linux

MersenneTwiter


sknuth_Gap test:
-----------------------------------------------
   N =  1,  n = 500000000,  r =  0,   Alpha =        0,   Beta  =   0.0625


-----------------------------------------------
Number of degrees of freedom          :  232
Chi-square statistic                  :  227.19
p-value of test                       :    0.58

-----------------------------------------------
CPU time used                    :  00:01:35.20

Generator state:




***********************************************************
HOST = node40.local.isima.fr, Linux

MersenneTwiter


sknuth_Gap test:
-----------------------------------------------
   N =  1,  n = 300000000,  r = 25,   Alpha =        0,   Beta  =  0.03125


-----------------------------------------------
Number of degrees of freedom          :  434
Chi-square statistic                  :  460.54
p-value of test                       :    0.18

-----------------------------------------------
CPU time used                    :  00:02:20.12

Generator state:




***********************************************************
HOST = node40.local.isima.fr, Linux

MersenneTwiter


sknuth_Gap test:
-----------------------------------------------
   N =  1,  n = 100000000,  r =  0,   Alpha =        0,   Beta  = 0.0078125


-----------------------------------------------
Number of degrees of freedom          : 1437
Chi-square statistic                  : 1418.69
p-value of test                       :    0.63

-----------------------------------------------
CPU time used                    :  00:02:18.25

Generator state:




***********************************************************
HOST = node40.local.isima.fr, Linux

MersenneTwiter


sknuth_Gap test:
-----------------------------------------------
   N =  1,  n = 10000000,  r = 20,   Alpha =        0,   Beta  = 0.000976562


-----------------------------------------------
Number of degrees of freedom          : 7046
Chi-square statistic                  : 7156.28
p-value of test                       :    0.18

-----------------------------------------------
CPU time used                    :  00:02:22.20

Generator state:




***********************************************************
HOST = node40.local.isima.fr, Linux

MersenneTwiter


sknuth_Run test:
-----------------------------------------------
   N =  5,  n = 1000000000,  r =  0,   Up = FALSE


-----------------------------------------------

Kolmogorov-Smirnov+ statistic = D+    :    0.39
p-value of test                       :    0.17

Kolmogorov-Smirnov- statistic = D-    : 4.37e-3
p-value of test                       :    0.9956

Anderson-Darling statistic = A2       :    2.69
p-value of test                       :    0.04

Test on the sum of all N observations
Number of degrees of freedom          :   30
Chi-square statistic                  :   18.81
p-value of test                       :    0.94

-----------------------------------------------
CPU time used                    :  00:01:22.26

Generator state:




***********************************************************
HOST = node40.local.isima.fr, Linux

MersenneTwiter


sknuth_Run test:
-----------------------------------------------
   N = 10,  n = 1000000000,  r = 15,   Up =  TRUE


-----------------------------------------------

Kolmogorov-Smirnov+ statistic = D+    :    0.27
p-value of test                       :    0.20

Kolmogorov-Smirnov- statistic = D-    :    0.19
p-value of test                       :    0.43

Anderson-Darling statistic = A2       :    0.68
p-value of test                       :    0.58

Test on the sum of all N observations
Number of degrees of freedom          :   60
Chi-square statistic                  :   56.41
p-value of test                       :    0.61

-----------------------------------------------
CPU time used                    :  00:03:28.47

Generator state:




***********************************************************
Test sknuth_Permutation calling smultin_Multinomial

***********************************************************
HOST = node40.local.isima.fr, Linux

MersenneTwiter


smultin_Multinomial test:
-----------------------------------------------
   N =  1,  n = 1000000000,  r =  5,   t =  3,
       Sparse =  FALSE

       GenerCell = smultin_GenerCellPermut
       Number of cells = t! =                  6
       Expected number per cell =  1.6666667e+08
       Hashing =  FALSE

   For Delta > -1, we use the ChiSquare approximation
   Correction factor of the ChiSquare: 
       Delta =     1,    Mu =  2.5000002e-09,    Sigma =          1

-----------------------------------------------
Test Results for Delta =   1.0000

Number of degrees of freedom          :    5
Value of the statistic                :    4.85
p-value of test                       :    0.43


-----------------------------------------------
CPU time used                    :  00:01:08.56

Generator state:




***********************************************************
Test sknuth_Permutation calling smultin_Multinomial

***********************************************************
HOST = node40.local.isima.fr, Linux

MersenneTwiter


smultin_Multinomial test:
-----------------------------------------------
   N =  1,  n = 1000000000,  r =  5,   t =  5,
       Sparse =  FALSE

       GenerCell = smultin_GenerCellPermut
       Number of cells = t! =                120
       Expected number per cell =   8333333.3
       Hashing =  FALSE

   For Delta > -1, we use the ChiSquare approximation
   Correction factor of the ChiSquare: 
       Delta =     1,    Mu =  5.9500005e-08,    Sigma =          1

-----------------------------------------------
Test Results for Delta =   1.0000

Number of degrees of freedom          :  119
Value of the statistic                :  133.10
p-value of test                       :    0.18


-----------------------------------------------
CPU time used                    :  00:02:01.84

Generator state:




***********************************************************
Test sknuth_Permutation calling smultin_Multinomial

***********************************************************
HOST = node40.local.isima.fr, Linux

MersenneTwiter


smultin_Multinomial test:
-----------------------------------------------
   N =  1,  n = 500000000,  r =  5,   t =  7,
       Sparse =  FALSE

       GenerCell = smultin_GenerCellPermut
       Number of cells = t! =               5040
       Expected number per cell =   99206.349
       Hashing =  FALSE

   For Delta > -1, we use the ChiSquare approximation
   Correction factor of the ChiSquare: 
       Delta =     1,    Mu =  5.0390004e-06,    Sigma =          1

-----------------------------------------------
Test Results for Delta =   1.0000

Number of degrees of freedom          : 5039
Value of the statistic                : 5005.99
p-value of test                       :    0.63


-----------------------------------------------
CPU time used                    :  00:01:35.63

Generator state:




***********************************************************
Test sknuth_Permutation calling smultin_Multinomial

***********************************************************
HOST = node40.local.isima.fr, Linux

MersenneTwiter


smultin_Multinomial test:
-----------------------------------------------
   N =  1,  n = 500000000,  r = 10,   t = 10,
       Sparse =  FALSE

       GenerCell = smultin_GenerCellPermut
       Number of cells = t! =            3628800
       Expected number per cell =    137.7866
       Hashing =  FALSE

   For Delta > -1, we use the ChiSquare approximation
   Correction factor of the ChiSquare: 
       Delta =     1,    Mu =   0.0036287993,    Sigma =          1

-----------------------------------------------
Test Results for Delta =   1.0000

Number of degrees of freedom          : 3628799
Value of the statistic                : 3.63e+6
p-value of test                       :    0.87


-----------------------------------------------
CPU time used                    :  00:03:52.95

Generator state:




***********************************************************
Test sknuth_CollisionPermut calling smultin_Multinomial

***********************************************************
HOST = node40.local.isima.fr, Linux

MersenneTwiter


smultin_Multinomial test:
-----------------------------------------------
   N = 20,  n = 20000000,  r =  0,   t = 14,
       Sparse =   TRUE

       GenerCell = smultin_GenerCellPermut
       Number of cells = t! =        87178291200
       Expected number per cell =  1 /  4358.9146
       EColl = n^2 / (2k) =   2294.14912
       Hashing =   TRUE

       Collision test,    Mu =      2293.9736,    Sigma =    47.8841

-----------------------------------------------
Test Results for Collisions

For the total number of collisions, we use
      the Poisson approximation:
Expected number of collisions = N*Mu  :    45879.47
Observed number of collisions         :    46195
p-value of test                       :    0.07


-----------------------------
Total number of cells containing j balls

  j =  0                              :    1743165870195
  j =  1                              :        399907617
  j =  2                              :            46181
  j =  3                              :                7
  j =  4                              :                0
  j =  5                              :                0

-----------------------------------------------
CPU time used                    :  00:05:44.30

Generator state:




***********************************************************
Test sknuth_CollisionPermut calling smultin_Multinomial

***********************************************************
HOST = node40.local.isima.fr, Linux

MersenneTwiter


smultin_Multinomial test:
-----------------------------------------------
   N = 20,  n = 20000000,  r = 10,   t = 14,
       Sparse =   TRUE

       GenerCell = smultin_GenerCellPermut
       Number of cells = t! =        87178291200
       Expected number per cell =  1 /  4358.9146
       EColl = n^2 / (2k) =   2294.14912
       Hashing =   TRUE

       Collision test,    Mu =      2293.9736,    Sigma =    47.8841

-----------------------------------------------
Test Results for Collisions

For the total number of collisions, we use
      the Poisson approximation:
Expected number of collisions = N*Mu  :    45879.47
Observed number of collisions         :    45444
p-value of test                       :    0.98


-----------------------------
Total number of cells containing j balls

  j =  0                              :    1743165869444
  j =  1                              :        399909117
  j =  2                              :            45434
  j =  3                              :                5
  j =  4                              :                0
  j =  5                              :                0

-----------------------------------------------
CPU time used                    :  00:06:04.67

Generator state:




***********************************************************
HOST = node40.local.isima.fr, Linux

MersenneTwiter


sknuth_MaxOft test:
-----------------------------------------------
   N = 40,  n = 10000000,  r =  0,   d = 100000,   t =  8

      Number of categories = 100000
      Expected number per category  = 100.00


-----------------------------------------------
Test results for chi2 with 99999 degrees of freedom:

Kolmogorov-Smirnov+ statistic = D+    :   0.073
p-value of test                       :    0.62

Kolmogorov-Smirnov- statistic = D-    :    0.25
p-value of test                       :  6.7e-3

Anderson-Darling statistic = A2       :    3.30
p-value of test                       :    0.02

Test on the sum of all N observations
Number of degrees of freedom          : 3999960
Chi-square statistic                  : 4.01e+6
p-value of test                       :    0.03


-----------------------------------------------
Test results for Anderson-Darling:

Kolmogorov-Smirnov+ statistic = D+    :   0.025
p-value of test                       :    0.93

Kolmogorov-Smirnov- statistic = D-    :    0.17
p-value of test                       :    0.08

Anderson-Darling statistic = A2       :    2.02
p-value of test                       :    0.09


-----------------------------------------------
CPU time used                    :  00:02:09.26

Generator state:




***********************************************************
HOST = node40.local.isima.fr, Linux

MersenneTwiter


sknuth_MaxOft test:
-----------------------------------------------
   N = 30,  n = 10000000,  r =  0,   d = 100000,   t = 16

      Number of categories = 100000
      Expected number per category  = 100.00


-----------------------------------------------
Test results for chi2 with 99999 degrees of freedom:

Kolmogorov-Smirnov+ statistic = D+    :    0.14
p-value of test                       :    0.26

Kolmogorov-Smirnov- statistic = D-    :    0.18
p-value of test                       :    0.13

Anderson-Darling statistic = A2       :    2.21
p-value of test                       :    0.07

Test on the sum of all N observations
Number of degrees of freedom          : 2999970
Chi-square statistic                  : 3.00e+6
p-value of test                       :    0.36


-----------------------------------------------
Test results for Anderson-Darling:

Kolmogorov-Smirnov+ statistic = D+    :   0.036
p-value of test                       :    0.90

Kolmogorov-Smirnov- statistic = D-    :    0.12
p-value of test                       :    0.42

Anderson-Darling statistic = A2       :    0.84
p-value of test                       :    0.45


-----------------------------------------------
CPU time used                    :  00:02:04.61

Generator state:




***********************************************************
HOST = node40.local.isima.fr, Linux

MersenneTwiter


sknuth_MaxOft test:
-----------------------------------------------
   N = 20,  n = 10000000,  r =  0,   d = 100000,   t = 24

      Number of categories = 100000
      Expected number per category  = 100.00


-----------------------------------------------
Test results for chi2 with 99999 degrees of freedom:

Kolmogorov-Smirnov+ statistic = D+    :    0.15
p-value of test                       :    0.35

Kolmogorov-Smirnov- statistic = D-    :    0.17
p-value of test                       :    0.27

Anderson-Darling statistic = A2       :    0.61
p-value of test                       :    0.64

Test on the sum of all N observations
Number of degrees of freedom          : 1999980
Chi-square statistic                  : 2.00e+6
p-value of test                       :    0.59


-----------------------------------------------
Test results for Anderson-Darling:

Kolmogorov-Smirnov+ statistic = D+    :   0.073
p-value of test                       :    0.77

Kolmogorov-Smirnov- statistic = D-    :    0.24
p-value of test                       :    0.09

Anderson-Darling statistic = A2       :    1.45
p-value of test                       :    0.19


-----------------------------------------------
CPU time used                    :  00:01:36.56

Generator state:




***********************************************************
HOST = node40.local.isima.fr, Linux

MersenneTwiter


sknuth_MaxOft test:
-----------------------------------------------
   N = 20,  n = 10000000,  r =  0,   d = 100000,   t = 32

      Number of categories = 100000
      Expected number per category  = 100.00


-----------------------------------------------
Test results for chi2 with 99999 degrees of freedom:

Kolmogorov-Smirnov+ statistic = D+    :    0.13
p-value of test                       :    0.45

Kolmogorov-Smirnov- statistic = D-    :   0.090
p-value of test                       :    0.69

Anderson-Darling statistic = A2       :    0.32
p-value of test                       :    0.92

Test on the sum of all N observations
Number of degrees of freedom          : 1999980
Chi-square statistic                  : 2.00e+6
p-value of test                       :    0.50


-----------------------------------------------
Test results for Anderson-Darling:

Kolmogorov-Smirnov+ statistic = D+    :    0.11
p-value of test                       :    0.57

Kolmogorov-Smirnov- statistic = D-    :    0.12
p-value of test                       :    0.52

Anderson-Darling statistic = A2       :    0.46
p-value of test                       :    0.79


-----------------------------------------------
CPU time used                    :  00:01:53.68

Generator state:




***********************************************************
HOST = node40.local.isima.fr, Linux

MersenneTwiter


svaria_SampleProd test:
-----------------------------------------------
   N = 40,  n = 10000000,  r =  0,   t = 8


-----------------------------------------------

Kolmogorov-Smirnov+ statistic = D+    :   0.096
p-value of test                       :    0.45

Kolmogorov-Smirnov- statistic = D-    :   0.092
p-value of test                       :    0.48

Anderson-Darling statistic = A2       :    0.45
p-value of test                       :    0.79

-----------------------------------------------
CPU time used                    :  00:01:49.44

Generator state:




***********************************************************
HOST = node40.local.isima.fr, Linux

MersenneTwiter


svaria_SampleProd test:
-----------------------------------------------
   N = 20,  n = 10000000,  r =  0,   t = 16


-----------------------------------------------

Kolmogorov-Smirnov+ statistic = D+    :   0.085
p-value of test                       :    0.71

Kolmogorov-Smirnov- statistic = D-    :    0.23
p-value of test                       :    0.10

Anderson-Darling statistic = A2       :    1.23
p-value of test                       :    0.26

-----------------------------------------------
CPU time used                    :  00:01:15.12

Generator state:




***********************************************************
HOST = node40.local.isima.fr, Linux

MersenneTwiter


svaria_SampleProd test:
-----------------------------------------------
   N = 20,  n = 10000000,  r =  0,   t = 24


-----------------------------------------------

Kolmogorov-Smirnov+ statistic = D+    :    0.16
p-value of test                       :    0.32

Kolmogorov-Smirnov- statistic = D-    :   0.029
p-value of test                       :    0.95

Anderson-Darling statistic = A2       :    0.73
p-value of test                       :    0.54

-----------------------------------------------
CPU time used                    :  00:01:34.39

Generator state:




***********************************************************
HOST = node40.local.isima.fr, Linux

MersenneTwiter


svaria_SampleMean test:
-----------------------------------------------
   N = 20000000,  n = 30,  r =  0


-----------------------------------------------

Kolmogorov-Smirnov+ statistic = D+    : 1.38e-4
p-value of test                       :    0.47

Kolmogorov-Smirnov- statistic = D-    : 1.46e-4
p-value of test                       :    0.43

Anderson-Darling statistic = A2       :    0.78
p-value of test                       :    0.49

-----------------------------------------------
CPU time used                    :  00:00:17.45

Generator state:




***********************************************************
HOST = node40.local.isima.fr, Linux

MersenneTwiter


svaria_SampleMean test:
-----------------------------------------------
   N = 20000000,  n = 30,  r = 10


-----------------------------------------------

Kolmogorov-Smirnov+ statistic = D+    : 1.74e-4
p-value of test                       :    0.30

Kolmogorov-Smirnov- statistic = D-    : 8.17e-5
p-value of test                       :    0.77

Anderson-Darling statistic = A2       :    0.82
p-value of test                       :    0.47

-----------------------------------------------
CPU time used                    :  00:00:19.84

Generator state:




***********************************************************
HOST = node40.local.isima.fr, Linux

MersenneTwiter


svaria_SampleCorr test:
-----------------------------------------------
   N =  1,  n = 2000000000,  r =  0,   k = 1


-----------------------------------------------
Normal statistic                      :    0.38
p-value of test                       :    0.35

-----------------------------------------------
CPU time used                    :  00:00:22.70

Generator state:




***********************************************************
HOST = node40.local.isima.fr, Linux

MersenneTwiter


svaria_SampleCorr test:
-----------------------------------------------
   N =  1,  n = 2000000000,  r =  0,   k = 2


-----------------------------------------------
Normal statistic                      :   -1.04
p-value of test                       :    0.85

-----------------------------------------------
CPU time used                    :  00:00:21.96

Generator state:




***********************************************************
HOST = node40.local.isima.fr, Linux

MersenneTwiter


svaria_AppearanceSpacings test:
-----------------------------------------------
   N =  1,   Q = 10000000,   K = 1000000000,   r = 0,   s = 3,   L = 15

   Sequences of n = (K + Q)L =  15150000000 bits
   Q = 10000000 initialization blocks
   K = 1000000000 blocks for the test
   the blocks have L = 15 bits



-----------------------------------------------
Normal statistic                      :   -0.60
p-value of test                       :    0.72

-----------------------------------------------
CPU time used                    :  00:01:20.00

Generator state:




***********************************************************
HOST = node40.local.isima.fr, Linux

MersenneTwiter


svaria_AppearanceSpacings test:
-----------------------------------------------
   N =  1,   Q = 10000000,   K = 1000000000,   r = 27,   s = 3,   L = 15

   Sequences of n = (K + Q)L =  15150000000 bits
   Q = 10000000 initialization blocks
   K = 1000000000 blocks for the test
   the blocks have L = 15 bits



-----------------------------------------------
Normal statistic                      :    0.64
p-value of test                       :    0.26

-----------------------------------------------
CPU time used                    :  00:01:21.26

Generator state:




***********************************************************
HOST = node40.local.isima.fr, Linux

MersenneTwiter


svaria_WeightDistrib test:
-----------------------------------------------
   N =  1,  n = 20000000,  r =  0,  k = 256,  Alpha =      0,  Beta =   0.25


-----------------------------------------------
Number of degrees of freedom          :   67
Chi-square statistic                  :  107.00
p-value of test                       :  1.4e-3

-----------------------------------------------
CPU time used                    :  00:00:54.48

Generator state:




***********************************************************
HOST = node40.local.isima.fr, Linux

MersenneTwiter


svaria_WeightDistrib test:
-----------------------------------------------
   N =  1,  n = 20000000,  r = 20,  k = 256,  Alpha =      0,  Beta =   0.25


-----------------------------------------------
Number of degrees of freedom          :   67
Chi-square statistic                  :   65.52
p-value of test                       :    0.53

-----------------------------------------------
CPU time used                    :  00:01:15.80

Generator state:




***********************************************************
HOST = node40.local.isima.fr, Linux

MersenneTwiter


svaria_WeightDistrib test:
-----------------------------------------------
   N =  1,  n = 20000000,  r = 28,  k = 256,  Alpha =      0,  Beta =   0.25


-----------------------------------------------
Number of degrees of freedom          :   67
Chi-square statistic                  :   76.10
p-value of test                       :    0.21

-----------------------------------------------
CPU time used                    :  00:01:16.28

Generator state:




***********************************************************
HOST = node40.local.isima.fr, Linux

MersenneTwiter


svaria_WeightDistrib test:
-----------------------------------------------
   N =  1,  n = 20000000,  r =  0,  k = 256,  Alpha =      0,  Beta = 0.0625


-----------------------------------------------
Number of degrees of freedom          :   37
Chi-square statistic                  :   40.86
p-value of test                       :    0.30

-----------------------------------------------
CPU time used                    :  00:00:54.45

Generator state:




***********************************************************
HOST = node40.local.isima.fr, Linux

MersenneTwiter


svaria_WeightDistrib test:
-----------------------------------------------
   N =  1,  n = 20000000,  r = 10,  k = 256,  Alpha =      0,  Beta = 0.0625


-----------------------------------------------
Number of degrees of freedom          :   37
Chi-square statistic                  :   42.29
p-value of test                       :    0.25

-----------------------------------------------
CPU time used                    :  00:01:15.73

Generator state:




***********************************************************
HOST = node40.local.isima.fr, Linux

MersenneTwiter


svaria_WeightDistrib test:
-----------------------------------------------
   N =  1,  n = 20000000,  r = 26,  k = 256,  Alpha =      0,  Beta = 0.0625


-----------------------------------------------
Number of degrees of freedom          :   37
Chi-square statistic                  :   33.58
p-value of test                       :    0.63

-----------------------------------------------
CPU time used                    :  00:01:16.45

Generator state:




***********************************************************
HOST = node40.local.isima.fr, Linux

MersenneTwiter


svaria_SumCollector test:
-----------------------------------------------
   N =  1,  n = 500000000,  r =  0,   g = 10


-----------------------------------------------
Number of degrees of freedom          :   29
Chi-square statistic                  :   38.09
p-value of test                       :    0.12

-----------------------------------------------
CPU time used                    :  00:01:54.29

Generator state:




***********************************************************
HOST = node40.local.isima.fr, Linux

MersenneTwiter


smarsa_MatrixRank test:
-----------------------------------------------
   N = 10,  n = 1000000,  r =  0,    s = 5,    L = 30,    k = 30


-----------------------------------------------

Kolmogorov-Smirnov+ statistic = D+    :    0.26
p-value of test                       :    0.21

Kolmogorov-Smirnov- statistic = D-    :    0.19
p-value of test                       :    0.42

Anderson-Darling statistic = A2       :    1.34
p-value of test                       :    0.22

Test on the sum of all N observations
Number of degrees of freedom          :   40
Chi-square statistic                  :   38.29
p-value of test                       :    0.55

-----------------------------------------------
CPU time used                    :  00:01:23.70

Generator state:




***********************************************************
HOST = node40.local.isima.fr, Linux

MersenneTwiter


smarsa_MatrixRank test:
-----------------------------------------------
   N = 10,  n = 1000000,  r = 25,    s = 5,    L = 30,    k = 30


-----------------------------------------------

Kolmogorov-Smirnov+ statistic = D+    :    0.21
p-value of test                       :    0.37

Kolmogorov-Smirnov- statistic = D-    :    0.11
p-value of test                       :    0.71

Anderson-Darling statistic = A2       :    0.42
p-value of test                       :    0.83

Test on the sum of all N observations
Number of degrees of freedom          :   40
Chi-square statistic                  :   33.86
p-value of test                       :    0.74

-----------------------------------------------
CPU time used                    :  00:01:25.09

Generator state:




***********************************************************
HOST = node40.local.isima.fr, Linux

MersenneTwiter


smarsa_MatrixRank test:
-----------------------------------------------
   N =  1,  n = 5000,  r =  0,    s = 4,    L = 1000,    k = 1000


-----------------------------------------------
Number of degrees of freedom          :    3
Chi-square statistic                  :    0.99
p-value of test                       :    0.80

-----------------------------------------------
CPU time used                    :  00:02:14.75

Generator state:




***********************************************************
HOST = node40.local.isima.fr, Linux

MersenneTwiter


smarsa_MatrixRank test:
-----------------------------------------------
   N =  1,  n = 5000,  r = 26,    s = 4,    L = 1000,    k = 1000


-----------------------------------------------
Number of degrees of freedom          :    3
Chi-square statistic                  :    4.84
p-value of test                       :    0.18

-----------------------------------------------
CPU time used                    :  00:02:17.13

Generator state:




***********************************************************
HOST = node40.local.isima.fr, Linux

MersenneTwiter


smarsa_MatrixRank test:
-----------------------------------------------
   N =  1,  n = 80,  r = 15,    s = 15,    L = 5000,    k = 5000


-----------------------------------------------
Number of degrees of freedom          :    2
Chi-square statistic                  :    1.03
p-value of test                       :    0.60

-----------------------------------------------
CPU time used                    :  00:07:53.11

Generator state:




***********************************************************
HOST = node40.local.isima.fr, Linux

MersenneTwiter


smarsa_MatrixRank test:
-----------------------------------------------
   N =  1,  n = 80,  r =  0,    s = 30,    L = 5000,    k = 5000


-----------------------------------------------
Number of degrees of freedom          :    2
Chi-square statistic                  :   0.059
p-value of test                       :    0.97

-----------------------------------------------
CPU time used                    :  00:04:32.82

Generator state:




***********************************************************
HOST = node40.local.isima.fr, Linux

MersenneTwiter


smarsa_Savir2 test:
-----------------------------------------------
   N = 10,  n = 10000000,  r = 10,    m = 1048576,    t = 30


-----------------------------------------------

Kolmogorov-Smirnov+ statistic = D+    :    0.22
p-value of test                       :    0.33

Kolmogorov-Smirnov- statistic = D-    :    0.20
p-value of test                       :    0.40

Anderson-Darling statistic = A2       :    0.69
p-value of test                       :    0.56

Test on the sum of all N observations
Number of degrees of freedom          :  130
Chi-square statistic                  :  121.55
p-value of test                       :    0.69

-----------------------------------------------
CPU time used                    :  00:00:42.32

Generator state:




***********************************************************
HOST = node40.local.isima.fr, Linux

MersenneTwiter


smarsa_GCD test:
-----------------------------------------------
   N = 10,  n = 50000000,  r =  0,   s = 30


-----------------------------------------------
Test results for GCD values:

Kolmogorov-Smirnov+ statistic = D+    :    0.32
p-value of test                       :    0.10

Kolmogorov-Smirnov- statistic = D-    : 5.08e-3
p-value of test                       :    0.9947

Anderson-Darling statistic = A2       :    3.26
p-value of test                       :    0.02

Test on the sum of all N observations
Number of degrees of freedom          : 17430
Chi-square statistic                  :16951.78
p-value of test                       :    0.9951



-----------------------------------------------
CPU time used                    :  00:01:22.18

Generator state:




***********************************************************
HOST = node40.local.isima.fr, Linux

MersenneTwiter


swalk_RandomWalk1 test:
-----------------------------------------------
   N =  1,  n = 100000000,  r =  0,   s = 5,   L0 =   50,   L1 =   50



-----------------------------------------------
Test on the values of the Statistic H

Number of degrees of freedom          :   36
ChiSquare statistic                   :   36.65
p-value of test                       :    0.44


-----------------------------------------------
Test on the values of the Statistic M

Number of degrees of freedom          :   35
ChiSquare statistic                   :   34.28
p-value of test                       :    0.50


-----------------------------------------------
Test on the values of the Statistic J

Number of degrees of freedom          :   25
ChiSquare statistic                   :    7.70
p-value of test                       :    0.9996    *****


-----------------------------------------------
Test on the values of the Statistic R

Number of degrees of freedom          :   24
ChiSquare statistic                   :   33.38
p-value of test                       :    0.10


-----------------------------------------------
Test on the values of the Statistic C

Number of degrees of freedom          :   17
ChiSquare statistic                   :   11.57
p-value of test                       :    0.83


-----------------------------------------------
CPU time used                    :  00:00:57.59

Generator state:




***********************************************************
HOST = node40.local.isima.fr, Linux

MersenneTwiter


swalk_RandomWalk1 test:
-----------------------------------------------
   N =  1,  n = 100000000,  r = 25,   s = 5,   L0 =   50,   L1 =   50



-----------------------------------------------
Test on the values of the Statistic H

Number of degrees of freedom          :   36
ChiSquare statistic                   :   36.81
p-value of test                       :    0.43


-----------------------------------------------
Test on the values of the Statistic M

Number of degrees of freedom          :   35
ChiSquare statistic                   :   28.58
p-value of test                       :    0.77


-----------------------------------------------
Test on the values of the Statistic J

Number of degrees of freedom          :   25
ChiSquare statistic                   :   20.76
p-value of test                       :    0.71


-----------------------------------------------
Test on the values of the Statistic R

Number of degrees of freedom          :   24
ChiSquare statistic                   :   26.11
p-value of test                       :    0.35


-----------------------------------------------
Test on the values of the Statistic C

Number of degrees of freedom          :   17
ChiSquare statistic                   :   13.29
p-value of test                       :    0.72


-----------------------------------------------
CPU time used                    :  00:00:58.77

Generator state:




***********************************************************
HOST = node40.local.isima.fr, Linux

MersenneTwiter


swalk_RandomWalk1 test:
-----------------------------------------------
   N =  1,  n = 10000000,  r =  0,   s = 10,   L0 = 1000,   L1 = 1000



-----------------------------------------------
Test on the values of the Statistic H

Number of degrees of freedom          :  146
ChiSquare statistic                   :  127.45
p-value of test                       :    0.86


-----------------------------------------------
Test on the values of the Statistic M

Number of degrees of freedom          :  146
ChiSquare statistic                   :  165.03
p-value of test                       :    0.13


-----------------------------------------------
Test on the values of the Statistic J

Number of degrees of freedom          :  500
ChiSquare statistic                   :  476.43
p-value of test                       :    0.77


-----------------------------------------------
Test on the values of the Statistic R

Number of degrees of freedom          :  136
ChiSquare statistic                   :  146.29
p-value of test                       :    0.26


-----------------------------------------------
Test on the values of the Statistic C

Number of degrees of freedom          :   74
ChiSquare statistic                   :   64.91
p-value of test                       :    0.77


-----------------------------------------------
CPU time used                    :  00:01:17.25

Generator state:




***********************************************************
HOST = node40.local.isima.fr, Linux

MersenneTwiter


swalk_RandomWalk1 test:
-----------------------------------------------
   N =  1,  n = 10000000,  r = 20,   s = 10,   L0 = 1000,   L1 = 1000



-----------------------------------------------
Test on the values of the Statistic H

Number of degrees of freedom          :  146
ChiSquare statistic                   :  160.35
p-value of test                       :    0.20


-----------------------------------------------
Test on the values of the Statistic M

Number of degrees of freedom          :  146
ChiSquare statistic                   :  133.82
p-value of test                       :    0.76


-----------------------------------------------
Test on the values of the Statistic J

Number of degrees of freedom          :  500
ChiSquare statistic                   :  437.86
p-value of test                       :    0.98


-----------------------------------------------
Test on the values of the Statistic R

Number of degrees of freedom          :  136
ChiSquare statistic                   :  120.58
p-value of test                       :    0.82


-----------------------------------------------
Test on the values of the Statistic C

Number of degrees of freedom          :   74
ChiSquare statistic                   :   70.76
p-value of test                       :    0.59


-----------------------------------------------
CPU time used                    :  00:01:17.11

Generator state:




***********************************************************
HOST = node40.local.isima.fr, Linux

MersenneTwiter


swalk_RandomWalk1 test:
-----------------------------------------------
   N =  1,  n = 1000000,  r =  0,   s = 15,   L0 = 10000,   L1 = 10000



-----------------------------------------------
Test on the values of the Statistic H

Number of degrees of freedom          :  384
ChiSquare statistic                   :  368.80
p-value of test                       :    0.70


-----------------------------------------------
Test on the values of the Statistic M

Number of degrees of freedom          :  384
ChiSquare statistic                   :  372.35
p-value of test                       :    0.66


-----------------------------------------------
Test on the values of the Statistic J

Number of degrees of freedom          : 5000
ChiSquare statistic                   : 5112.26
p-value of test                       :    0.13


-----------------------------------------------
Test on the values of the Statistic R

Number of degrees of freedom          :  378
ChiSquare statistic                   :  340.27
p-value of test                       :    0.92


-----------------------------------------------
Test on the values of the Statistic C

Number of degrees of freedom          :  200
ChiSquare statistic                   :  164.40
p-value of test                       :    0.97


-----------------------------------------------
CPU time used                    :  00:01:06.22

Generator state:




***********************************************************
HOST = node40.local.isima.fr, Linux

MersenneTwiter


swalk_RandomWalk1 test:
-----------------------------------------------
   N =  1,  n = 1000000,  r = 15,   s = 15,   L0 = 10000,   L1 = 10000



-----------------------------------------------
Test on the values of the Statistic H

Number of degrees of freedom          :  384
ChiSquare statistic                   :  456.92
p-value of test                       :  6.1e-3


-----------------------------------------------
Test on the values of the Statistic M

Number of degrees of freedom          :  384
ChiSquare statistic                   :  351.89
p-value of test                       :    0.88


-----------------------------------------------
Test on the values of the Statistic J

Number of degrees of freedom          : 5000
ChiSquare statistic                   : 4976.67
p-value of test                       :    0.59


-----------------------------------------------
Test on the values of the Statistic R

Number of degrees of freedom          :  378
ChiSquare statistic                   :  376.93
p-value of test                       :    0.51


-----------------------------------------------
Test on the values of the Statistic C

Number of degrees of freedom          :  200
ChiSquare statistic                   :  185.04
p-value of test                       :    0.77


-----------------------------------------------
CPU time used                    :  00:01:04.68

Generator state:




***********************************************************
HOST = node40.local.isima.fr, Linux

MersenneTwiter


scomp_LinearComp test:
-----------------------------------------------
   N =  1,  n = 400020,  r =  0,    s = 1



-----------------------------------------------
Number of degrees of freedom          :   12
Chi2 statistic for size of jumps      :    6.64
p-value of test                       :    0.88


-----------------------------------------------
Normal statistic for number of jumps  : -402.76
p-value of test                       : 1 - eps1    *****



-----------------------------------------------
CPU time used                    :  00:00:10.44

Generator state:




***********************************************************
HOST = node40.local.isima.fr, Linux

MersenneTwiter


scomp_LinearComp test:
-----------------------------------------------
   N =  1,  n = 400020,  r = 29,    s = 1



-----------------------------------------------
Number of degrees of freedom          :   12
Chi2 statistic for size of jumps      :   15.86
p-value of test                       :    0.20


-----------------------------------------------
Normal statistic for number of jumps  : -402.94
p-value of test                       : 1 - eps1    *****



-----------------------------------------------
CPU time used                    :  00:00:10.11

Generator state:




***********************************************************
HOST = node40.local.isima.fr, Linux

MersenneTwiter


scomp_LempelZiv test:
-----------------------------------------------
   N = 10,  n = 134217728,  r =  0,   s =   30,   k =   27


-----------------------------------------------

Kolmogorov-Smirnov+ statistic = D+    :    0.17
p-value of test                       :    0.51

Kolmogorov-Smirnov- statistic = D-    :    0.19
p-value of test                       :    0.42

Anderson-Darling statistic = A2       :    0.54
p-value of test                       :    0.70

Tests on the sum of all N observations
Standardized normal statistic         :   0.071
p-value of test                       :    0.47

Sample variance                       :    1.60
p-value of test                       :    0.11

-----------------------------------------------
CPU time used                    :  00:01:55.87

Generator state:




***********************************************************
HOST = node40.local.isima.fr, Linux

MersenneTwiter


scomp_LempelZiv test:
-----------------------------------------------
   N = 10,  n = 134217728,  r = 15,   s =   15,   k =   27


-----------------------------------------------

Kolmogorov-Smirnov+ statistic = D+    :    0.41
p-value of test                       :    0.03

Kolmogorov-Smirnov- statistic = D-    :   0.015
p-value of test                       :    0.98

Anderson-Darling statistic = A2       :    4.02
p-value of test                       :  8.9e-3

Tests on the sum of all N observations
Standardized normal statistic         :   -2.78
p-value of test                       :    0.9973

Sample variance                       :    0.92
p-value of test                       :    0.50

-----------------------------------------------
CPU time used                    :  00:01:51.25

Generator state:




***********************************************************
HOST = node40.local.isima.fr, Linux

MersenneTwiter


sspectral_Fourier3 test:
-----------------------------------------------
   N = 100000,  n = 16384,  r =  0,   s =    3,   k =   14


-----------------------------------------------

Kolmogorov-Smirnov+ statistic = D+    : 9.08e-3
p-value of test                       :    0.51

Kolmogorov-Smirnov- statistic = D-    : 9.80e-3
p-value of test                       :    0.45

Anderson-Darling statistic = A2       :    0.52
p-value of test                       :    0.72

-----------------------------------------------
CPU time used                    :  00:00:50.38

Generator state:




***********************************************************
HOST = node40.local.isima.fr, Linux

MersenneTwiter


sspectral_Fourier3 test:
-----------------------------------------------
   N = 100000,  n = 16384,  r = 27,   s =    3,   k =   14


-----------------------------------------------

Kolmogorov-Smirnov+ statistic = D+    : 7.30e-3
p-value of test                       :    0.64

Kolmogorov-Smirnov- statistic = D-    :   0.018
p-value of test                       :    0.06

Anderson-Darling statistic = A2       :    1.97
p-value of test                       :    0.10

-----------------------------------------------
CPU time used                    :  00:00:48.22

Generator state:




***********************************************************
HOST = node40.local.isima.fr, Linux

MersenneTwiter


sstring_LongestHeadRun test:
-----------------------------------------------
   N =  1,  n = 1000,  r =  0,   s = 3,   L = 10000020


-----------------------------------------------
Number of degrees of freedom          :    8
Chi-square statistic                  :    8.92
p-value of test                       :    0.35

-----------------------------------------------
Global longest run of 1               :   32.00
p-value of test                       :    0.50



-----------------------------------------------
CPU time used                    :  00:01:37.79

Generator state:




***********************************************************
HOST = node40.local.isima.fr, Linux

MersenneTwiter


sstring_LongestHeadRun test:
-----------------------------------------------
   N =  1,  n = 1000,  r = 27,   s = 3,   L = 10000020


-----------------------------------------------
Number of degrees of freedom          :    8
Chi-square statistic                  :    2.91
p-value of test                       :    0.94

-----------------------------------------------
Global longest run of 1               :   33.00
p-value of test                       :    0.44



-----------------------------------------------
CPU time used                    :  00:01:40.54

Generator state:




***********************************************************
HOST = node40.local.isima.fr, Linux

MersenneTwiter


sstring_PeriodsInStrings test:
-----------------------------------------------
   N = 10,  n = 500000000,  r =  0,   s =   10


-----------------------------------------------

Kolmogorov-Smirnov+ statistic = D+    :    0.15
p-value of test                       :    0.59

Kolmogorov-Smirnov- statistic = D-    :    0.15
p-value of test                       :    0.59

Anderson-Darling statistic = A2       :    0.24
p-value of test                       :    0.98

Test on the sum of all N observations
Number of degrees of freedom          :  200
Chi-square statistic                  :  197.78
p-value of test                       :    0.53

-----------------------------------------------
CPU time used                    :  00:02:51.61

Generator state:




***********************************************************
HOST = node40.local.isima.fr, Linux

MersenneTwiter


sstring_PeriodsInStrings test:
-----------------------------------------------
   N = 10,  n = 500000000,  r = 20,   s =   10


-----------------------------------------------

Kolmogorov-Smirnov+ statistic = D+    :   0.083
p-value of test                       :    0.83

Kolmogorov-Smirnov- statistic = D-    :    0.29
p-value of test                       :    0.16

Anderson-Darling statistic = A2       :    0.84
p-value of test                       :    0.45

Test on the sum of all N observations
Number of degrees of freedom          :  200
Chi-square statistic                  :  216.00
p-value of test                       :    0.21

-----------------------------------------------
CPU time used                    :  00:02:57.63

Generator state:




***********************************************************
HOST = node40.local.isima.fr, Linux

MersenneTwiter


sstring_HammingWeight2 test:
-----------------------------------------------
   N = 10,  n = 1000000000,  r =  0,   s = 3,   L = 1000000


-----------------------------------------------

Kolmogorov-Smirnov+ statistic = D+    :    0.18
p-value of test                       :    0.47

Kolmogorov-Smirnov- statistic = D-    :    0.15
p-value of test                       :    0.57

Anderson-Darling statistic = A2       :    0.72
p-value of test                       :    0.54

Test on the sum of all N observations
Number of degrees of freedom          : 10000
Chi-square statistic                  : 9940.39
p-value of test                       :    0.66

-----------------------------------------------
CPU time used                    :  00:01:02.03

Generator state:




***********************************************************
HOST = node40.local.isima.fr, Linux

MersenneTwiter


sstring_HammingWeight2 test:
-----------------------------------------------
   N = 10,  n = 1000000000,  r = 27,   s = 3,   L = 1000000


-----------------------------------------------

Kolmogorov-Smirnov+ statistic = D+    :    0.11
p-value of test                       :    0.75

Kolmogorov-Smirnov- statistic = D-    :    0.25
p-value of test                       :    0.26

Anderson-Darling statistic = A2       :    0.71
p-value of test                       :    0.55

Test on the sum of all N observations
Number of degrees of freedom          : 10000
Chi-square statistic                  :10091.43
p-value of test                       :    0.26

-----------------------------------------------
CPU time used                    :  00:01:04.65

Generator state:




***********************************************************
HOST = node40.local.isima.fr, Linux

MersenneTwiter


sstring_HammingCorr test:
-----------------------------------------------
   N =  1,  n = 1000000000,  r = 10,   s = 10,   L = 30



-----------------------------------------------
Normal statistic                      :    1.04
p-value of test                       :    0.15

-----------------------------------------------
CPU time used                    :  00:01:17.30

Generator state:




***********************************************************
HOST = node40.local.isima.fr, Linux

MersenneTwiter


sstring_HammingCorr test:
-----------------------------------------------
   N =  1,  n = 100000000,  r = 10,   s = 10,   L = 300



-----------------------------------------------
Normal statistic                      :    0.38
p-value of test                       :    0.35

-----------------------------------------------
CPU time used                    :  00:01:14.09

Generator state:




***********************************************************
HOST = node40.local.isima.fr, Linux

MersenneTwiter


sstring_HammingCorr test:
-----------------------------------------------
   N =  1,  n = 100000000,  r = 10,   s = 10,   L = 1200



-----------------------------------------------
Normal statistic                      :   -0.68
p-value of test                       :    0.75

-----------------------------------------------
CPU time used                    :  00:04:55.76

Generator state:




***********************************************************
HOST = node40.local.isima.fr, Linux

MersenneTwiter


sstring_HammingIndep test:
-----------------------------------------------
   N = 10,  n = 30000000,  r =  0,   s = 3,   L = 30,   d = 0



Counters with expected numbers >= 10
-----------------------------------------------

Kolmogorov-Smirnov+ statistic = D+    :    0.28
p-value of test                       :    0.18

Kolmogorov-Smirnov- statistic = D-    :    0.15
p-value of test                       :    0.59

Anderson-Darling statistic = A2       :    0.86
p-value of test                       :    0.44

Test on the sum of all N observations
Number of degrees of freedom          : 4890
Chi-square statistic                  : 4831.34
p-value of test                       :    0.72

-----------------------------------------------
CPU time used                    :  00:02:03.39

Generator state:




***********************************************************
HOST = node40.local.isima.fr, Linux

MersenneTwiter


sstring_HammingIndep test:
-----------------------------------------------
   N = 10,  n = 30000000,  r = 27,   s = 3,   L = 30,   d = 0



Counters with expected numbers >= 10
-----------------------------------------------

Kolmogorov-Smirnov+ statistic = D+    :   0.041
p-value of test                       :    0.94

Kolmogorov-Smirnov- statistic = D-    :    0.37
p-value of test                       :    0.05

Anderson-Darling statistic = A2       :    1.84
p-value of test                       :    0.11

Test on the sum of all N observations
Number of degrees of freedom          : 4890
Chi-square statistic                  : 5047.11
p-value of test                       :    0.06

-----------------------------------------------
CPU time used                    :  00:02:08.62

Generator state:




***********************************************************
HOST = node40.local.isima.fr, Linux

MersenneTwiter


sstring_HammingIndep test:
-----------------------------------------------
   N =  1,  n = 30000000,  r =  0,   s = 4,   L = 300,   d = 0



Counters with expected numbers >= 10
-----------------------------------------------
Number of degrees of freedom          : 4117
Chi-square statistic                  : 4122.67
p-value of test                       :    0.47

-----------------------------------------------
CPU time used                    :  00:01:31.92

Generator state:




***********************************************************
HOST = node40.local.isima.fr, Linux

MersenneTwiter


sstring_HammingIndep test:
-----------------------------------------------
   N =  1,  n = 30000000,  r = 26,   s = 4,   L = 300,   d = 0



Counters with expected numbers >= 10
-----------------------------------------------
Number of degrees of freedom          : 4117
Chi-square statistic                  : 4249.14
p-value of test                       :    0.07

-----------------------------------------------
CPU time used                    :  00:01:36.06

Generator state:




***********************************************************
HOST = node40.local.isima.fr, Linux

MersenneTwiter


sstring_HammingIndep test:
-----------------------------------------------
   N =  1,  n = 10000000,  r =  0,   s = 5,   L = 1200,   d = 0



Counters with expected numbers >= 10
-----------------------------------------------
Number of degrees of freedom          : 11825
Chi-square statistic                  :12062.28
p-value of test                       :    0.06

-----------------------------------------------
CPU time used                    :  00:01:42.43

Generator state:




***********************************************************
HOST = node40.local.isima.fr, Linux

MersenneTwiter


sstring_HammingIndep test:
-----------------------------------------------
   N =  1,  n = 10000000,  r = 25,   s = 5,   L = 1200,   d = 0



Counters with expected numbers >= 10
-----------------------------------------------
Number of degrees of freedom          : 11825
Chi-square statistic                  :11749.00
p-value of test                       :    0.69

-----------------------------------------------
CPU time used                    :  00:01:44.96

Generator state:




***********************************************************
HOST = node40.local.isima.fr, Linux

MersenneTwiter


sstring_Run test:
-----------------------------------------------
   N =  1,  n = 2000000000,  r =  0,   s =    3


-----------------------------------------------
Total number of 1 runs:  2000000000

Number of degrees of freedom          :   54
Chi2 statistic for number of runs     :   51.18
p-value of test                       :    0.58


-----------------------------------------------
Total number of bits:  8000069286

Normal statistic for number of bits   :    0.55
p-value of test                       :    0.29



-----------------------------------------------
CPU time used                    :  00:01:20.36

Generator state:




***********************************************************
HOST = node40.local.isima.fr, Linux

MersenneTwiter


sstring_Run test:
-----------------------------------------------
   N =  1,  n = 2000000000,  r = 27,   s =    3


-----------------------------------------------
Total number of 1 runs:  2000000000

Number of degrees of freedom          :   54
Chi2 statistic for number of runs     :   31.91
p-value of test                       :    0.9928


-----------------------------------------------
Total number of bits:  7999999926

Normal statistic for number of bits   : -5.85e-4
p-value of test                       :    0.50



-----------------------------------------------
CPU time used                    :  00:01:27.22

Generator state:




***********************************************************
HOST = node40.local.isima.fr, Linux

MersenneTwiter


sstring_AutoCor test:
-----------------------------------------------
   N = 10,  n = 1000000030,  r =  0,   s = 3,   d = 1


-----------------------------------------------

Kolmogorov-Smirnov+ statistic = D+    :    0.31
p-value of test                       :    0.12

Kolmogorov-Smirnov- statistic = D-    :    0.16
p-value of test                       :    0.55

Anderson-Darling statistic = A2       :    1.18
p-value of test                       :    0.27

Tests on the sum of all N observations
Standardized normal statistic         :   -0.65
p-value of test                       :    0.74

Sample variance                       :    0.25
p-value of test                       :    0.99

-----------------------------------------------
CPU time used                    :  00:01:48.73

Generator state:




***********************************************************
HOST = node40.local.isima.fr, Linux

MersenneTwiter


sstring_AutoCor test:
-----------------------------------------------
   N = 10,  n = 1000000029,  r =  0,   s = 3,   d = 3


-----------------------------------------------

Kolmogorov-Smirnov+ statistic = D+    :   0.099
p-value of test                       :    0.77

Kolmogorov-Smirnov- statistic = D-    :    0.31
p-value of test                       :    0.12

Anderson-Darling statistic = A2       :    1.46
p-value of test                       :    0.19

Tests on the sum of all N observations
Standardized normal statistic         :    1.26
p-value of test                       :    0.10

Sample variance                       :    0.37
p-value of test                       :    0.95

-----------------------------------------------
CPU time used                    :  00:01:27.62

Generator state:




***********************************************************
HOST = node40.local.isima.fr, Linux

MersenneTwiter


sstring_AutoCor test:
-----------------------------------------------
   N = 10,  n = 1000000030,  r = 27,   s = 3,   d = 1


-----------------------------------------------

Kolmogorov-Smirnov+ statistic = D+    :    0.27
p-value of test                       :    0.20

Kolmogorov-Smirnov- statistic = D-    :   0.087
p-value of test                       :    0.81

Anderson-Darling statistic = A2       :    1.25
p-value of test                       :    0.25

Tests on the sum of all N observations
Standardized normal statistic         :   -1.15
p-value of test                       :    0.87

Sample variance                       :    1.95
p-value of test                       :    0.04

-----------------------------------------------
CPU time used                    :  00:01:40.50

Generator state:




***********************************************************
HOST = node40.local.isima.fr, Linux

MersenneTwiter


sstring_AutoCor test:
-----------------------------------------------
   N = 10,  n = 1000000029,  r = 27,   s = 3,   d = 3


-----------------------------------------------

Kolmogorov-Smirnov+ statistic = D+    :   0.065
p-value of test                       :    0.89

Kolmogorov-Smirnov- statistic = D-    :    0.24
p-value of test                       :    0.27

Anderson-Darling statistic = A2       :    0.65
p-value of test                       :    0.60

Tests on the sum of all N observations
Standardized normal statistic         :    0.75
p-value of test                       :    0.23

Sample variance                       :    1.12
p-value of test                       :    0.35

-----------------------------------------------
CPU time used                    :  00:01:07.36

Generator state:





========= Summary results of BigCrush =========

 Version:          TestU01 1.2.3
 Generator:        MersenneTwiter
 Number of statistics:  160
 Total CPU time:   04:32:12.53
 The following tests gave p-values outside [0.001, 0.9990]:
 (eps  means a value < 1.0e-300):
 (eps1 means a value < 1.0e-15):

       Test                          p-value
 ----------------------------------------------
 74  RandomWalk1 J (L=50, r=0)       0.9996 
 80  LinearComp, r = 0              1 - eps1
 81  LinearComp, r = 29             1 - eps1
 ----------------------------------------------
 All other tests were passed



