xxxxxxxxxxxxxxxxxxxxxxxxxxxxxxxxxxxxxxxxxxxxxxxxxxxxxxxxxxx
                 Starting BigCrush
                 Version: TestU01 1.2.3
xxxxxxxxxxxxxxxxxxxxxxxxxxxxxxxxxxxxxxxxxxxxxxxxxxxxxxxxxxx


***********************************************************
Test smarsa_SerialOver calling smultin_MultinomialOver

***********************************************************
HOST = node40.local.isima.fr, Linux

MersenneTwiter


smultin_MultinomialOver test:
-----------------------------------------------
   N =  1,  n = 1000000000,  r =  0,   d =  256,   t =  3,
       Sparse =  FALSE

       GenerCell = smultin_GenerCellSerial
       Number of cells = d^t =           16777216
       Expected number per cell =   59.604645
       Hashing =  FALSE

   For Delta > -1, we use the ChiSquare approximation
   Correction factor of the ChiSquare: 
       Delta =     1,    Mu =   0.0083558402,    Sigma =          1

-----------------------------------------------
Test Results for Delta =   1.0000

Number of degrees of freedom          : 16711680
Value of the statistic                : 1.67e+7
p-value of test                       :    0.34


-----------------------------------------------
CPU time used                    :  00:01:48.71

Generator state:




***********************************************************
Test smarsa_SerialOver calling smultin_MultinomialOver

***********************************************************
HOST = node40.local.isima.fr, Linux

MersenneTwiter


smultin_MultinomialOver test:
-----------------------------------------------
   N =  1,  n = 1000000000,  r = 22,   d =  256,   t =  3,
       Sparse =  FALSE

       GenerCell = smultin_GenerCellSerial
       Number of cells = d^t =           16777216
       Expected number per cell =   59.604645
       Hashing =  FALSE

   For Delta > -1, we use the ChiSquare approximation
   Correction factor of the ChiSquare: 
       Delta =     1,    Mu =   0.0083558402,    Sigma =          1

-----------------------------------------------
Test Results for Delta =   1.0000

Number of degrees of freedom          : 16711680
Value of the statistic                : 1.67e+7
p-value of test                       :    0.65


-----------------------------------------------
CPU time used                    :  00:01:52.41

Generator state:




***********************************************************
Test smarsa_CollisionOver calling smultin_MultinomialOver

***********************************************************
HOST = node40.local.isima.fr, Linux

MersenneTwiter


smultin_MultinomialOver test:
-----------------------------------------------
   N = 30,  n = 20000000,  r =  0,   d = 2097152,   t =  2,
       Sparse =   TRUE

       GenerCell = smultin_GenerCellSerial
       Number of cells = d^t =      4398046511104
       Expected number per cell =  1 /  219902.33
       EColl = n^2 / (2k) =  45.47473509
       Hashing =   TRUE

       Collision test

       CollisionOver:   density = n / k =  1 /  219902.33
       Expected number of collisions = Mu =      45.47


-----------------------------------------------
Results of CollisionOver test:

POISSON approximation                 :
Expected number of collisions = N*Mu  :     1364.24
Observed number of collisions         :     1412
p-value of test                       :    0.10

-----------------------------
Total number of cells containing j balls

  j =  0                              :  131940795334532
  j =  1                              :        599997176
  j =  2                              :             1412
  j =  3                              :                0
  j =  4                              :                0
  j =  5                              :                0

-----------------------------------------------
CPU time used                    :  00:05:58.86

Generator state:




***********************************************************
Test smarsa_CollisionOver calling smultin_MultinomialOver

***********************************************************
HOST = node40.local.isima.fr, Linux

MersenneTwiter


smultin_MultinomialOver test:
-----------------------------------------------
   N = 30,  n = 20000000,  r =  9,   d = 2097152,   t =  2,
       Sparse =   TRUE

       GenerCell = smultin_GenerCellSerial
       Number of cells = d^t =      4398046511104
       Expected number per cell =  1 /  219902.33
       EColl = n^2 / (2k) =  45.47473509
       Hashing =   TRUE

       Collision test

       CollisionOver:   density = n / k =  1 /  219902.33
       Expected number of collisions = Mu =      45.47


-----------------------------------------------
Results of CollisionOver test:

POISSON approximation                 :
Expected number of collisions = N*Mu  :     1364.24
Observed number of collisions         :     1405
p-value of test                       :    0.14

-----------------------------
Total number of cells containing j balls

  j =  0                              :  131940795334525
  j =  1                              :        599997190
  j =  2                              :             1405
  j =  3                              :                0
  j =  4                              :                0
  j =  5                              :                0

-----------------------------------------------
CPU time used                    :  00:05:55.13

Generator state:




***********************************************************
Test smarsa_CollisionOver calling smultin_MultinomialOver

***********************************************************
HOST = node40.local.isima.fr, Linux

MersenneTwiter


smultin_MultinomialOver test:
-----------------------------------------------
   N = 30,  n = 20000000,  r =  0,   d = 16384,   t =  3,
       Sparse =   TRUE

       GenerCell = smultin_GenerCellSerial
       Number of cells = d^t =      4398046511104
       Expected number per cell =  1 /  219902.33
       EColl = n^2 / (2k) =  45.47473509
       Hashing =   TRUE

       Collision test

       CollisionOver:   density = n / k =  1 /  219902.33
       Expected number of collisions = Mu =      45.47


-----------------------------------------------
Results of CollisionOver test:

POISSON approximation                 :
Expected number of collisions = N*Mu  :     1364.24
Observed number of collisions         :     1344
p-value of test                       :    0.70

-----------------------------
Total number of cells containing j balls

  j =  0                              :  131940795334464
  j =  1                              :        599997312
  j =  2                              :             1344
  j =  3                              :                0
  j =  4                              :                0
  j =  5                              :                0

-----------------------------------------------
CPU time used                    :  00:08:34.42

Generator state:




***********************************************************
Test smarsa_CollisionOver calling smultin_MultinomialOver

***********************************************************
HOST = node40.local.isima.fr, Linux

MersenneTwiter


smultin_MultinomialOver test:
-----------------------------------------------
   N = 30,  n = 20000000,  r = 16,   d = 16384,   t =  3,
       Sparse =   TRUE

       GenerCell = smultin_GenerCellSerial
       Number of cells = d^t =      4398046511104
       Expected number per cell =  1 /  219902.33
       EColl = n^2 / (2k) =  45.47473509
       Hashing =   TRUE

       Collision test

       CollisionOver:   density = n / k =  1 /  219902.33
       Expected number of collisions = Mu =      45.47


-----------------------------------------------
Results of CollisionOver test:

POISSON approximation                 :
Expected number of collisions = N*Mu  :     1364.24
Observed number of collisions         :     1328
p-value of test                       :    0.83

-----------------------------
Total number of cells containing j balls

  j =  0                              :  131940795334448
  j =  1                              :        599997344
  j =  2                              :             1328
  j =  3                              :                0
  j =  4                              :                0
  j =  5                              :                0

-----------------------------------------------
CPU time used                    :  00:08:30.66

Generator state:




***********************************************************
Test smarsa_CollisionOver calling smultin_MultinomialOver

***********************************************************
HOST = node40.local.isima.fr, Linux

MersenneTwiter


smultin_MultinomialOver test:
-----------------------------------------------
   N = 30,  n = 20000000,  r =  0,   d =   64,   t =  7,
       Sparse =   TRUE

       GenerCell = smultin_GenerCellSerial
       Number of cells = d^t =      4398046511104
       Expected number per cell =  1 /  219902.33
       EColl = n^2 / (2k) =  45.47473509
       Hashing =   TRUE

       Collision test

       CollisionOver:   density = n / k =  1 /  219902.33
       Expected number of collisions = Mu =      45.47


-----------------------------------------------
Results of CollisionOver test:

POISSON approximation                 :
Expected number of collisions = N*Mu  :     1364.24
Observed number of collisions         :     1379
p-value of test                       :    0.35

-----------------------------
Total number of cells containing j balls

  j =  0                              :  131940795334499
  j =  1                              :        599997242
  j =  2                              :             1379
  j =  3                              :                0
  j =  4                              :                0
  j =  5                              :                0

-----------------------------------------------
CPU time used                    :  00:08:43.34

Generator state:




***********************************************************
Test smarsa_CollisionOver calling smultin_MultinomialOver

***********************************************************
HOST = node40.local.isima.fr, Linux

MersenneTwiter


smultin_MultinomialOver test:
-----------------------------------------------
   N = 30,  n = 20000000,  r = 24,   d =   64,   t =  7,
       Sparse =   TRUE

       GenerCell = smultin_GenerCellSerial
       Number of cells = d^t =      4398046511104
       Expected number per cell =  1 /  219902.33
       EColl = n^2 / (2k) =  45.47473509
       Hashing =   TRUE

       Collision test

       CollisionOver:   density = n / k =  1 /  219902.33
       Expected number of collisions = Mu =      45.47


-----------------------------------------------
Results of CollisionOver test:

POISSON approximation                 :
Expected number of collisions = N*Mu  :     1364.24
Observed number of collisions         :     1348
p-value of test                       :    0.66

-----------------------------
Total number of cells containing j balls

  j =  0                              :  131940795334468
  j =  1                              :        599997304
  j =  2                              :             1348
  j =  3                              :                0
  j =  4                              :                0
  j =  5                              :                0

-----------------------------------------------
CPU time used                    :  00:08:45.44

Generator state:




***********************************************************
Test smarsa_CollisionOver calling smultin_MultinomialOver

***********************************************************
HOST = node40.local.isima.fr, Linux

MersenneTwiter


smultin_MultinomialOver test:
-----------------------------------------------
   N = 30,  n = 20000000,  r =  0,   d =    8,   t = 14,
       Sparse =   TRUE

       GenerCell = smultin_GenerCellSerial
       Number of cells = d^t =      4398046511104
       Expected number per cell =  1 /  219902.33
       EColl = n^2 / (2k) =  45.47473509
       Hashing =   TRUE

       Collision test

       CollisionOver:   density = n / k =  1 /  219902.33
       Expected number of collisions = Mu =      45.47


-----------------------------------------------
Results of CollisionOver test:

POISSON approximation                 :
Expected number of collisions = N*Mu  :     1364.24
Observed number of collisions         :     1313
p-value of test                       :    0.92

-----------------------------
Total number of cells containing j balls

  j =  0                              :  131940795334433
  j =  1                              :        599997374
  j =  2                              :             1313
  j =  3                              :                0
  j =  4                              :                0
  j =  5                              :                0

-----------------------------------------------
CPU time used                    :  00:08:49.05

Generator state:




***********************************************************
Test smarsa_CollisionOver calling smultin_MultinomialOver

***********************************************************
HOST = node40.local.isima.fr, Linux

MersenneTwiter


smultin_MultinomialOver test:
-----------------------------------------------
   N = 30,  n = 20000000,  r = 27,   d =    8,   t = 14,
       Sparse =   TRUE

       GenerCell = smultin_GenerCellSerial
       Number of cells = d^t =      4398046511104
       Expected number per cell =  1 /  219902.33
       EColl = n^2 / (2k) =  45.47473509
       Hashing =   TRUE

       Collision test

       CollisionOver:   density = n / k =  1 /  219902.33
       Expected number of collisions = Mu =      45.47


-----------------------------------------------
Results of CollisionOver test:

POISSON approximation                 :
Expected number of collisions = N*Mu  :     1364.24
Observed number of collisions         :     1369
p-value of test                       :    0.45

-----------------------------
Total number of cells containing j balls

  j =  0                              :  131940795334489
  j =  1                              :        599997262
  j =  2                              :             1369
  j =  3                              :                0
  j =  4                              :                0
  j =  5                              :                0

-----------------------------------------------
CPU time used                    :  00:08:44.76

Generator state:




***********************************************************
Test smarsa_CollisionOver calling smultin_MultinomialOver

***********************************************************
HOST = node40.local.isima.fr, Linux

MersenneTwiter


smultin_MultinomialOver test:
-----------------------------------------------
   N = 30,  n = 20000000,  r =  0,   d =    4,   t = 21,
       Sparse =   TRUE

       GenerCell = smultin_GenerCellSerial
       Number of cells = d^t =      4398046511104
       Expected number per cell =  1 /  219902.33
       EColl = n^2 / (2k) =  45.47473509
       Hashing =   TRUE

       Collision test

       CollisionOver:   density = n / k =  1 /  219902.33
       Expected number of collisions = Mu =      45.47


-----------------------------------------------
Results of CollisionOver test:

POISSON approximation                 :
Expected number of collisions = N*Mu  :     1364.24
Observed number of collisions         :     1322
p-value of test                       :    0.87

-----------------------------
Total number of cells containing j balls

  j =  0                              :  131940795334442
  j =  1                              :        599997356
  j =  2                              :             1322
  j =  3                              :                0
  j =  4                              :                0
  j =  5                              :                0

-----------------------------------------------
CPU time used                    :  00:08:49.82

Generator state:




***********************************************************
Test smarsa_CollisionOver calling smultin_MultinomialOver

***********************************************************
HOST = node40.local.isima.fr, Linux

MersenneTwiter


smultin_MultinomialOver test:
-----------------------------------------------
   N = 30,  n = 20000000,  r = 28,   d =    4,   t = 21,
       Sparse =   TRUE

       GenerCell = smultin_GenerCellSerial
       Number of cells = d^t =      4398046511104
       Expected number per cell =  1 /  219902.33
       EColl = n^2 / (2k) =  45.47473509
       Hashing =   TRUE

       Collision test

       CollisionOver:   density = n / k =  1 /  219902.33
       Expected number of collisions = Mu =      45.47


-----------------------------------------------
Results of CollisionOver test:

POISSON approximation                 :
Expected number of collisions = N*Mu  :     1364.24
Observed number of collisions         :     1309
p-value of test                       :    0.93

-----------------------------
Total number of cells containing j balls

  j =  0                              :  131940795334429
  j =  1                              :        599997382
  j =  2                              :             1309
  j =  3                              :                0
  j =  4                              :                0
  j =  5                              :                0

-----------------------------------------------
CPU time used                    :  00:08:23.85

Generator state:




***********************************************************
HOST = node40.local.isima.fr, Linux

MersenneTwiter


smarsa_BirthdaySpacings test:
-----------------------------------------------
   N = 100,  n = 10000000,  r =  0,    d = 2147483648,    t = 2,    p = 1


      Number of cells = d^t = 4611686018427387904
      Lambda = Poisson mean =      54.2101


----------------------------------------------------
Total expected number = N*Lambda      :    5421.01
Total observed number                 :    5393
p-value of test                       :    0.64


-----------------------------------------------
CPU time used                    :  00:04:34.31

Generator state:




***********************************************************
HOST = node40.local.isima.fr, Linux

MersenneTwiter


smarsa_BirthdaySpacings test:
-----------------------------------------------
   N = 20,  n = 20000000,  r =  0,    d = 2097152,    t = 3,    p = 1


      Number of cells = d^t = 9223372036854775808
      Lambda = Poisson mean =     216.8404


----------------------------------------------------
Total expected number = N*Lambda      :    4336.81
Total observed number                 :    4324
p-value of test                       :    0.57


-----------------------------------------------
CPU time used                    :  00:01:58.93

Generator state:




***********************************************************
HOST = node40.local.isima.fr, Linux

MersenneTwiter


smarsa_BirthdaySpacings test:
-----------------------------------------------
   N = 20,  n = 30000000,  r = 14,    d = 65536,    t = 4,    p = 1


      Number of cells = d^t = 18446744073709551616
      Lambda = Poisson mean =     365.9182


----------------------------------------------------
Total expected number = N*Lambda      :    7318.36
Total observed number                 :    7479
p-value of test                       :    0.03


-----------------------------------------------
CPU time used                    :  00:03:17.02

Generator state:




***********************************************************
HOST = node40.local.isima.fr, Linux

MersenneTwiter


smarsa_BirthdaySpacings test:
-----------------------------------------------
   N = 20,  n = 20000000,  r =  0,    d = 512,    t = 7,    p = 1


      Number of cells = d^t = 9223372036854775808
      Lambda = Poisson mean =     216.8404


----------------------------------------------------
Total expected number = N*Lambda      :    4336.81
Total observed number                 :    4233
p-value of test                       :    0.94


-----------------------------------------------
CPU time used                    :  00:02:16.42

Generator state:




***********************************************************
HOST = node40.local.isima.fr, Linux

MersenneTwiter


smarsa_BirthdaySpacings test:
-----------------------------------------------
   N = 20,  n = 20000000,  r =  7,    d = 512,    t = 7,    p = 1


      Number of cells = d^t = 9223372036854775808
      Lambda = Poisson mean =     216.8404


----------------------------------------------------
Total expected number = N*Lambda      :    4336.81
Total observed number                 :    4388
p-value of test                       :    0.22


-----------------------------------------------
CPU time used                    :  00:02:25.10

Generator state:




***********************************************************
HOST = node40.local.isima.fr, Linux

MersenneTwiter


smarsa_BirthdaySpacings test:
-----------------------------------------------
   N = 20,  n = 30000000,  r = 14,    d = 256,    t = 8,    p = 1


      Number of cells = d^t = 18446744073709551616
      Lambda = Poisson mean =     365.9182


----------------------------------------------------
Total expected number = N*Lambda      :    7318.36
Total observed number                 :    7355
p-value of test                       :    0.34


-----------------------------------------------
CPU time used                    :  00:03:52.92

Generator state:




***********************************************************
HOST = node40.local.isima.fr, Linux

MersenneTwiter


smarsa_BirthdaySpacings test:
-----------------------------------------------
   N = 20,  n = 30000000,  r = 22,    d = 256,    t = 8,    p = 1


      Number of cells = d^t = 18446744073709551616
      Lambda = Poisson mean =     365.9182


----------------------------------------------------
Total expected number = N*Lambda      :    7318.36
Total observed number                 :    7334
p-value of test                       :    0.43


-----------------------------------------------
CPU time used                    :  00:03:53.80

Generator state:




***********************************************************
HOST = node40.local.isima.fr, Linux

MersenneTwiter


smarsa_BirthdaySpacings test:
-----------------------------------------------
   N = 20,  n = 30000000,  r =  0,    d = 16,    t = 16,    p = 1


      Number of cells = d^t = 18446744073709551616
      Lambda = Poisson mean =     365.9182


----------------------------------------------------
Total expected number = N*Lambda      :    7318.36
Total observed number                 :    7412
p-value of test                       :    0.14


-----------------------------------------------
CPU time used                    :  00:04:31.80

Generator state:




***********************************************************
HOST = node40.local.isima.fr, Linux

MersenneTwiter


smarsa_BirthdaySpacings test:
-----------------------------------------------
   N = 20,  n = 30000000,  r = 26,    d = 16,    t = 16,    p = 1


      Number of cells = d^t = 18446744073709551616
      Lambda = Poisson mean =     365.9182


----------------------------------------------------
Total expected number = N*Lambda      :    7318.36
Total observed number                 :    7385
p-value of test                       :    0.22


-----------------------------------------------
CPU time used                    :  00:05:06.02

Generator state:




***********************************************************
HOST = node40.local.isima.fr, Linux

MersenneTwiter


snpair_ClosePairs test:
-----------------------------------------------
   N = 30,  n = 6000000,  r =  0,  t = 3,  p = 0,  m = 30,  Torus =  TRUE


---------------------------------------
Test based on the 2 nearest points (NP):

Stat. AD on the N values (NP)         :    0.52
p-value of test                       :    0.72


A2 test based on the spacings between the
   successive jump times of process Y_n(t):

A2 test on the values of A2 (m-NP)    :    1.47
p-value of test                       :    0.18

Test on the Nm values of W_{n,i}(mNP1):    0.81
p-value of test                       :    0.47

Test on the jump times of Y
   (superposition of Yn):

Expected number of jumps of Y = mN    :     900
Number of jumps of Y                  :     883
p-value of test                       :    0.71

Stat. AD (mNP2)                       :    0.56
p-value of test                       :    0.69

Stat. AD after spacings (mNP2-S)      :    1.53
p-value of test                       :    0.17

-----------------------------------------------
CPU time used                    :  00:03:20.63

Generator state:




***********************************************************
HOST = node40.local.isima.fr, Linux

MersenneTwiter


snpair_ClosePairs test:
-----------------------------------------------
   N = 20,  n = 4000000,  r =  0,  t = 5,  p = 0,  m = 30,  Torus =  TRUE


---------------------------------------
Test based on the 2 nearest points (NP):

Stat. AD on the N values (NP)         :    0.92
p-value of test                       :    0.40


A2 test based on the spacings between the
   successive jump times of process Y_n(t):

A2 test on the values of A2 (m-NP)    :    0.86
p-value of test                       :    0.43

Test on the Nm values of W_{n,i}(mNP1):    0.20
p-value of test                       :    0.9912

Test on the jump times of Y
   (superposition of Yn):

Expected number of jumps of Y = mN    :     600
Number of jumps of Y                  :     598
p-value of test                       :    0.52

Stat. AD (mNP2)                       :    0.50
p-value of test                       :    0.75

Stat. AD after spacings (mNP2-S)      :    2.57
p-value of test                       :    0.05

-----------------------------------------------
CPU time used                    :  00:01:56.31

Generator state:




***********************************************************
HOST = node40.local.isima.fr, Linux

MersenneTwiter


snpair_ClosePairs test:
-----------------------------------------------
   N = 10,  n = 3000000,  r =  0,  t = 9,  p = 0,  m = 30,  Torus =  TRUE


---------------------------------------
Test based on the 2 nearest points (NP):

Stat. AD on the N values (NP)         :    1.21
p-value of test                       :    0.26


A2 test based on the spacings between the
   successive jump times of process Y_n(t):

A2 test on the values of A2 (m-NP)    :    0.86
p-value of test                       :    0.44

Test on the Nm values of W_{n,i}(mNP1):    0.67
p-value of test                       :    0.59

Test on the jump times of Y
   (superposition of Yn):

Expected number of jumps of Y = mN    :     300
Number of jumps of Y                  :     302
p-value of test                       :    0.46

Stat. AD (mNP2)                       :    1.16
p-value of test                       :    0.28

Stat. AD after spacings (mNP2-S)      :    1.96
p-value of test                       :    0.10

-----------------------------------------------
CPU time used                    :  00:03:09.14

Generator state:




***********************************************************
HOST = node40.local.isima.fr, Linux

MersenneTwiter


snpair_ClosePairs test:
-----------------------------------------------
   N =  5,  n = 2000000,  r =  0,  t = 16,  p = 0,  m = 30,  Torus =  TRUE


---------------------------------------
Test based on the 2 nearest points (NP):

Stat. AD on the N values (NP)         :    0.62
p-value of test                       :    0.62


A2 test based on the spacings between the
   successive jump times of process Y_n(t):

A2 test on the values of A2 (m-NP)    :    0.70
p-value of test                       :    0.55

Test on the Nm values of W_{n,i}(mNP1):    0.66
p-value of test                       :    0.59

Test on the jump times of Y
   (superposition of Yn):

Expected number of jumps of Y = mN    :     150
Number of jumps of Y                  :     161
p-value of test                       :    0.19

Stat. AD (mNP2)                       :    0.81
p-value of test                       :    0.47

Stat. AD after spacings (mNP2-S)      :    3.02
p-value of test                       :    0.03

-----------------------------------------------
CPU time used                    :  00:03:29.18

Generator state:




***********************************************************
HOST = node40.local.isima.fr, Linux

MersenneTwiter


sknuth_SimpPoker test:
-----------------------------------------------
   N =  1,  n = 400000000,  r =  0,   d =    8,   k =    8


-----------------------------------------------
Number of degrees of freedom          :    7
Chi-square statistic                  :    5.09
p-value of test                       :    0.65

-----------------------------------------------
CPU time used                    :  00:01:01.06

Generator state:




***********************************************************
HOST = node40.local.isima.fr, Linux

MersenneTwiter


sknuth_SimpPoker test:
-----------------------------------------------
   N =  1,  n = 400000000,  r = 27,   d =    8,   k =    8


-----------------------------------------------
Number of degrees of freedom          :    7
Chi-square statistic                  :    4.61
p-value of test                       :    0.71

-----------------------------------------------
CPU time used                    :  00:01:13.90

Generator state:




***********************************************************
HOST = node40.local.isima.fr, Linux

MersenneTwiter


sknuth_SimpPoker test:
-----------------------------------------------
   N =  1,  n = 100000000,  r =  0,   d =   32,   k =   32


-----------------------------------------------
Number of degrees of freedom          :   18
Chi-square statistic                  :   21.59
p-value of test                       :    0.25

-----------------------------------------------
CPU time used                    :  00:01:02.98

Generator state:




***********************************************************
HOST = node40.local.isima.fr, Linux

MersenneTwiter


sknuth_SimpPoker test:
-----------------------------------------------
   N =  1,  n = 100000000,  r = 25,   d =   32,   k =   32


-----------------------------------------------
Number of degrees of freedom          :   18
Chi-square statistic                  :   18.74
p-value of test                       :    0.41

-----------------------------------------------
CPU time used                    :  00:01:17.89

Generator state:




***********************************************************
HOST = node40.local.isima.fr, Linux

MersenneTwiter


sknuth_CouponCollector test:
-----------------------------------------------
   N =  1,  n = 200000000,  r =  0,   d =    8


-----------------------------------------------
Number of degrees of freedom          :   54
Chi-square statistic                  :   45.52
p-value of test                       :    0.79

-----------------------------------------------
CPU time used                    :  00:01:15.94

Generator state:




***********************************************************
HOST = node40.local.isima.fr, Linux

MersenneTwiter


sknuth_CouponCollector test:
-----------------------------------------------
   N =  1,  n = 200000000,  r = 10,   d =    8


-----------------------------------------------
Number of degrees of freedom          :   54
Chi-square statistic                  :   61.40
p-value of test                       :    0.23

-----------------------------------------------
CPU time used                    :  00:01:34.56

Generator state:




***********************************************************
HOST = node40.local.isima.fr, Linux

MersenneTwiter


sknuth_CouponCollector test:
-----------------------------------------------
   N =  1,  n = 200000000,  r = 20,   d =    8


-----------------------------------------------
Number of degrees of freedom          :   54
Chi-square statistic                  :   51.48
p-value of test                       :    0.57

-----------------------------------------------
CPU time used                    :  00:01:34.46

Generator state:




***********************************************************
HOST = node40.local.isima.fr, Linux

MersenneTwiter


sknuth_CouponCollector test:
-----------------------------------------------
   N =  1,  n = 200000000,  r = 27,   d =    8


-----------------------------------------------
Number of degrees of freedom          :   54
Chi-square statistic                  :   33.50
p-value of test                       :    0.99

-----------------------------------------------
CPU time used                    :  00:01:36.64

Generator state:




***********************************************************
HOST = node40.local.isima.fr, Linux

MersenneTwiter


sknuth_Gap test:
-----------------------------------------------
   N =  1,  n = 500000000,  r =  0,   Alpha =        0,   Beta  =   0.0625


-----------------------------------------------
Number of degrees of freedom          :  232
Chi-square statistic                  :  229.61
p-value of test                       :    0.53

-----------------------------------------------
CPU time used                    :  00:01:31.87

Generator state:




***********************************************************
HOST = node40.local.isima.fr, Linux

MersenneTwiter


sknuth_Gap test:
-----------------------------------------------
   N =  1,  n = 300000000,  r = 25,   Alpha =        0,   Beta  =  0.03125


-----------------------------------------------
Number of degrees of freedom          :  434
Chi-square statistic                  :  440.45
p-value of test                       :    0.41

-----------------------------------------------
CPU time used                    :  00:02:23.00

Generator state:




***********************************************************
HOST = node40.local.isima.fr, Linux

MersenneTwiter


sknuth_Gap test:
-----------------------------------------------
   N =  1,  n = 100000000,  r =  0,   Alpha =        0,   Beta  = 0.0078125


-----------------------------------------------
Number of degrees of freedom          : 1437
Chi-square statistic                  : 1346.23
p-value of test                       :    0.96

-----------------------------------------------
CPU time used                    :  00:02:14.11

Generator state:




***********************************************************
HOST = node40.local.isima.fr, Linux

MersenneTwiter


sknuth_Gap test:
-----------------------------------------------
   N =  1,  n = 10000000,  r = 20,   Alpha =        0,   Beta  = 0.000976562


-----------------------------------------------
Number of degrees of freedom          : 7046
Chi-square statistic                  : 7280.33
p-value of test                       :    0.03

-----------------------------------------------
CPU time used                    :  00:02:21.92

Generator state:




***********************************************************
HOST = node40.local.isima.fr, Linux

MersenneTwiter


sknuth_Run test:
-----------------------------------------------
   N =  5,  n = 1000000000,  r =  0,   Up = FALSE


-----------------------------------------------

Kolmogorov-Smirnov+ statistic = D+    :    0.20
p-value of test                       :    0.58

Kolmogorov-Smirnov- statistic = D-    :    0.20
p-value of test                       :    0.57

Anderson-Darling statistic = A2       :    0.28
p-value of test                       :    0.95

Test on the sum of all N observations
Number of degrees of freedom          :   30
Chi-square statistic                  :   31.15
p-value of test                       :    0.41

-----------------------------------------------
CPU time used                    :  00:01:21.98

Generator state:




***********************************************************
HOST = node40.local.isima.fr, Linux

MersenneTwiter


sknuth_Run test:
-----------------------------------------------
   N = 10,  n = 1000000000,  r = 15,   Up =  TRUE


-----------------------------------------------

Kolmogorov-Smirnov+ statistic = D+    :    0.36
p-value of test                       :    0.06

Kolmogorov-Smirnov- statistic = D-    :   0.044
p-value of test                       :    0.94

Anderson-Darling statistic = A2       :    2.09
p-value of test                       :    0.08

Test on the sum of all N observations
Number of degrees of freedom          :   60
Chi-square statistic                  :   39.80
p-value of test                       :    0.98

-----------------------------------------------
CPU time used                    :  00:03:27.54

Generator state:




***********************************************************
Test sknuth_Permutation calling smultin_Multinomial

***********************************************************
HOST = node40.local.isima.fr, Linux

MersenneTwiter


smultin_Multinomial test:
-----------------------------------------------
   N =  1,  n = 1000000000,  r =  5,   t =  3,
       Sparse =  FALSE

       GenerCell = smultin_GenerCellPermut
       Number of cells = t! =                  6
       Expected number per cell =  1.6666667e+08
       Hashing =  FALSE

   For Delta > -1, we use the ChiSquare approximation
   Correction factor of the ChiSquare: 
       Delta =     1,    Mu =  2.5000002e-09,    Sigma =          1

-----------------------------------------------
Test Results for Delta =   1.0000

Number of degrees of freedom          :    5
Value of the statistic                :    8.23
p-value of test                       :    0.14


-----------------------------------------------
CPU time used                    :  00:01:07.97

Generator state:




***********************************************************
Test sknuth_Permutation calling smultin_Multinomial

***********************************************************
HOST = node40.local.isima.fr, Linux

MersenneTwiter


smultin_Multinomial test:
-----------------------------------------------
   N =  1,  n = 1000000000,  r =  5,   t =  5,
       Sparse =  FALSE

       GenerCell = smultin_GenerCellPermut
       Number of cells = t! =                120
       Expected number per cell =   8333333.3
       Hashing =  FALSE

   For Delta > -1, we use the ChiSquare approximation
   Correction factor of the ChiSquare: 
       Delta =     1,    Mu =  5.9500005e-08,    Sigma =          1

-----------------------------------------------
Test Results for Delta =   1.0000

Number of degrees of freedom          :  119
Value of the statistic                :  117.48
p-value of test                       :    0.52


-----------------------------------------------
CPU time used                    :  00:02:02.39

Generator state:




***********************************************************
Test sknuth_Permutation calling smultin_Multinomial

***********************************************************
HOST = node40.local.isima.fr, Linux

MersenneTwiter


smultin_Multinomial test:
-----------------------------------------------
   N =  1,  n = 500000000,  r =  5,   t =  7,
       Sparse =  FALSE

       GenerCell = smultin_GenerCellPermut
       Number of cells = t! =               5040
       Expected number per cell =   99206.349
       Hashing =  FALSE

   For Delta > -1, we use the ChiSquare approximation
   Correction factor of the ChiSquare: 
       Delta =     1,    Mu =  5.0390004e-06,    Sigma =          1

-----------------------------------------------
Test Results for Delta =   1.0000

Number of degrees of freedom          : 5039
Value of the statistic                : 5162.80
p-value of test                       :    0.11


-----------------------------------------------
CPU time used                    :  00:01:34.69

Generator state:




***********************************************************
Test sknuth_Permutation calling smultin_Multinomial

***********************************************************
HOST = node40.local.isima.fr, Linux

MersenneTwiter


smultin_Multinomial test:
-----------------------------------------------
   N =  1,  n = 500000000,  r = 10,   t = 10,
       Sparse =  FALSE

       GenerCell = smultin_GenerCellPermut
       Number of cells = t! =            3628800
       Expected number per cell =    137.7866
       Hashing =  FALSE

   For Delta > -1, we use the ChiSquare approximation
   Correction factor of the ChiSquare: 
       Delta =     1,    Mu =   0.0036287993,    Sigma =          1

-----------------------------------------------
Test Results for Delta =   1.0000

Number of degrees of freedom          : 3628799
Value of the statistic                : 3.63e+6
p-value of test                       :    0.61


-----------------------------------------------
CPU time used                    :  00:03:50.18

Generator state:




***********************************************************
Test sknuth_CollisionPermut calling smultin_Multinomial

***********************************************************
HOST = node40.local.isima.fr, Linux

MersenneTwiter


smultin_Multinomial test:
-----------------------------------------------
   N = 20,  n = 20000000,  r =  0,   t = 14,
       Sparse =   TRUE

       GenerCell = smultin_GenerCellPermut
       Number of cells = t! =        87178291200
       Expected number per cell =  1 /  4358.9146
       EColl = n^2 / (2k) =   2294.14912
       Hashing =   TRUE

       Collision test,    Mu =      2293.9736,    Sigma =    47.8841

-----------------------------------------------
Test Results for Collisions

For the total number of collisions, we use
      the Poisson approximation:
Expected number of collisions = N*Mu  :    45879.47
Observed number of collisions         :    45851
p-value of test                       :    0.55


-----------------------------
Total number of cells containing j balls

  j =  0                              :    1743165869851
  j =  1                              :        399908304
  j =  2                              :            45839
  j =  3                              :                6
  j =  4                              :                0
  j =  5                              :                0

-----------------------------------------------
CPU time used                    :  00:05:46.76

Generator state:




***********************************************************
Test sknuth_CollisionPermut calling smultin_Multinomial

***********************************************************
HOST = node40.local.isima.fr, Linux

MersenneTwiter


smultin_Multinomial test:
-----------------------------------------------
   N = 20,  n = 20000000,  r = 10,   t = 14,
       Sparse =   TRUE

       GenerCell = smultin_GenerCellPermut
       Number of cells = t! =        87178291200
       Expected number per cell =  1 /  4358.9146
       EColl = n^2 / (2k) =   2294.14912
       Hashing =   TRUE

       Collision test,    Mu =      2293.9736,    Sigma =    47.8841

-----------------------------------------------
Test Results for Collisions

For the total number of collisions, we use
      the Poisson approximation:
Expected number of collisions = N*Mu  :    45879.47
Observed number of collisions         :    45733
p-value of test                       :    0.75


-----------------------------
Total number of cells containing j balls

  j =  0                              :    1743165869733
  j =  1                              :        399908536
  j =  2                              :            45729
  j =  3                              :                2
  j =  4                              :                0
  j =  5                              :                0

-----------------------------------------------
CPU time used                    :  00:06:05.15

Generator state:




***********************************************************
HOST = node40.local.isima.fr, Linux

MersenneTwiter


sknuth_MaxOft test:
-----------------------------------------------
   N = 40,  n = 10000000,  r =  0,   d = 100000,   t =  8

      Number of categories = 100000
      Expected number per category  = 100.00


-----------------------------------------------
Test results for chi2 with 99999 degrees of freedom:

Kolmogorov-Smirnov+ statistic = D+    :   0.017
p-value of test                       :    0.97

Kolmogorov-Smirnov- statistic = D-    :    0.18
p-value of test                       :    0.07

Anderson-Darling statistic = A2       :    1.54
p-value of test                       :    0.17

Test on the sum of all N observations
Number of degrees of freedom          : 3999960
Chi-square statistic                  : 4.00e+6
p-value of test                       :    0.05


-----------------------------------------------
Test results for Anderson-Darling:

Kolmogorov-Smirnov+ statistic = D+    :   0.063
p-value of test                       :    0.70

Kolmogorov-Smirnov- statistic = D-    :    0.15
p-value of test                       :    0.16

Anderson-Darling statistic = A2       :    1.53
p-value of test                       :    0.17


-----------------------------------------------
CPU time used                    :  00:02:09.79

Generator state:




***********************************************************
HOST = node40.local.isima.fr, Linux

MersenneTwiter


sknuth_MaxOft test:
-----------------------------------------------
   N = 30,  n = 10000000,  r =  0,   d = 100000,   t = 16

      Number of categories = 100000
      Expected number per category  = 100.00


-----------------------------------------------
Test results for chi2 with 99999 degrees of freedom:

Kolmogorov-Smirnov+ statistic = D+    :    0.19
p-value of test                       :    0.10

Kolmogorov-Smirnov- statistic = D-    :   0.089
p-value of test                       :    0.59

Anderson-Darling statistic = A2       :    1.01
p-value of test                       :    0.35

Test on the sum of all N observations
Number of degrees of freedom          : 2999970
Chi-square statistic                  : 3.00e+6
p-value of test                       :    0.77


-----------------------------------------------
Test results for Anderson-Darling:

Kolmogorov-Smirnov+ statistic = D+    :    0.15
p-value of test                       :    0.24

Kolmogorov-Smirnov- statistic = D-    :   0.032
p-value of test                       :    0.92

Anderson-Darling statistic = A2       :    0.49
p-value of test                       :    0.76


-----------------------------------------------
CPU time used                    :  00:02:03.32

Generator state:




***********************************************************
HOST = node40.local.isima.fr, Linux

MersenneTwiter


sknuth_MaxOft test:
-----------------------------------------------
   N = 20,  n = 10000000,  r =  0,   d = 100000,   t = 24

      Number of categories = 100000
      Expected number per category  = 100.00


-----------------------------------------------
Test results for chi2 with 99999 degrees of freedom:

Kolmogorov-Smirnov+ statistic = D+    :   0.079
p-value of test                       :    0.74

Kolmogorov-Smirnov- statistic = D-    :    0.11
p-value of test                       :    0.58

Anderson-Darling statistic = A2       :    0.37
p-value of test                       :    0.88

Test on the sum of all N observations
Number of degrees of freedom          : 1999980
Chi-square statistic                  : 2.00e+6
p-value of test                       :    0.31


-----------------------------------------------
Test results for Anderson-Darling:

Kolmogorov-Smirnov+ statistic = D+    :    0.24
p-value of test                       :    0.09

Kolmogorov-Smirnov- statistic = D-    :   0.049
p-value of test                       :    0.88

Anderson-Darling statistic = A2       :    1.59
p-value of test                       :    0.16


-----------------------------------------------
CPU time used                    :  00:01:38.12

Generator state:




***********************************************************
HOST = node40.local.isima.fr, Linux

MersenneTwiter


sknuth_MaxOft test:
-----------------------------------------------
   N = 20,  n = 10000000,  r =  0,   d = 100000,   t = 32

      Number of categories = 100000
      Expected number per category  = 100.00


-----------------------------------------------
Test results for chi2 with 99999 degrees of freedom:

Kolmogorov-Smirnov+ statistic = D+    :    0.20
p-value of test                       :    0.19

Kolmogorov-Smirnov- statistic = D-    :   0.061
p-value of test                       :    0.83

Anderson-Darling statistic = A2       :    1.19
p-value of test                       :    0.27

Test on the sum of all N observations
Number of degrees of freedom          : 1999980
Chi-square statistic                  : 2.00e+6
p-value of test                       :    0.88


-----------------------------------------------
Test results for Anderson-Darling:

Kolmogorov-Smirnov+ statistic = D+    :    0.14
p-value of test                       :    0.40

Kolmogorov-Smirnov- statistic = D-    :   0.072
p-value of test                       :    0.78

Anderson-Darling statistic = A2       :    0.34
p-value of test                       :    0.91


-----------------------------------------------
CPU time used                    :  00:01:52.95

Generator state:




***********************************************************
HOST = node40.local.isima.fr, Linux

MersenneTwiter


svaria_SampleProd test:
-----------------------------------------------
   N = 40,  n = 10000000,  r =  0,   t = 8


-----------------------------------------------

Kolmogorov-Smirnov+ statistic = D+    :   0.088
p-value of test                       :    0.51

Kolmogorov-Smirnov- statistic = D-    :   0.068
p-value of test                       :    0.66

Anderson-Darling statistic = A2       :    0.46
p-value of test                       :    0.78

-----------------------------------------------
CPU time used                    :  00:01:52.37

Generator state:




***********************************************************
HOST = node40.local.isima.fr, Linux

MersenneTwiter


svaria_SampleProd test:
-----------------------------------------------
   N = 20,  n = 10000000,  r =  0,   t = 16


-----------------------------------------------

Kolmogorov-Smirnov+ statistic = D+    :   0.061
p-value of test                       :    0.83

Kolmogorov-Smirnov- statistic = D-    :    0.18
p-value of test                       :    0.24

Anderson-Darling statistic = A2       :    0.54
p-value of test                       :    0.71

-----------------------------------------------
CPU time used                    :  00:01:16.40

Generator state:




***********************************************************
HOST = node40.local.isima.fr, Linux

MersenneTwiter


svaria_SampleProd test:
-----------------------------------------------
   N = 20,  n = 10000000,  r =  0,   t = 24


-----------------------------------------------

Kolmogorov-Smirnov+ statistic = D+    :    0.18
p-value of test                       :    0.26

Kolmogorov-Smirnov- statistic = D-    :    0.19
p-value of test                       :    0.21

Anderson-Darling statistic = A2       :    1.03
p-value of test                       :    0.34

-----------------------------------------------
CPU time used                    :  00:01:36.26

Generator state:




***********************************************************
HOST = node40.local.isima.fr, Linux

MersenneTwiter


svaria_SampleMean test:
-----------------------------------------------
   N = 20000000,  n = 30,  r =  0


-----------------------------------------------

Kolmogorov-Smirnov+ statistic = D+    : 1.61e-4
p-value of test                       :    0.35

Kolmogorov-Smirnov- statistic = D-    : 6.93e-5
p-value of test                       :    0.83

Anderson-Darling statistic = A2       :    0.39
p-value of test                       :    0.86

-----------------------------------------------
CPU time used                    :  00:00:18.17

Generator state:




***********************************************************
HOST = node40.local.isima.fr, Linux

MersenneTwiter


svaria_SampleMean test:
-----------------------------------------------
   N = 20000000,  n = 30,  r = 10


-----------------------------------------------

Kolmogorov-Smirnov+ statistic = D+    : 2.11e-4
p-value of test                       :    0.17

Kolmogorov-Smirnov- statistic = D-    : 9.44e-5
p-value of test                       :    0.70

Anderson-Darling statistic = A2       :    0.76
p-value of test                       :    0.51

-----------------------------------------------
CPU time used                    :  00:00:19.79

Generator state:




***********************************************************
HOST = node40.local.isima.fr, Linux

MersenneTwiter


svaria_SampleCorr test:
-----------------------------------------------
   N =  1,  n = 2000000000,  r =  0,   k = 1


-----------------------------------------------
Normal statistic                      :    0.15
p-value of test                       :    0.44

-----------------------------------------------
CPU time used                    :  00:00:21.94

Generator state:




***********************************************************
HOST = node40.local.isima.fr, Linux

MersenneTwiter


svaria_SampleCorr test:
-----------------------------------------------
   N =  1,  n = 2000000000,  r =  0,   k = 2


-----------------------------------------------
Normal statistic                      :    0.26
p-value of test                       :    0.40

-----------------------------------------------
CPU time used                    :  00:00:21.71

Generator state:




***********************************************************
HOST = node40.local.isima.fr, Linux

MersenneTwiter


svaria_AppearanceSpacings test:
-----------------------------------------------
   N =  1,   Q = 10000000,   K = 1000000000,   r = 0,   s = 3,   L = 15

   Sequences of n = (K + Q)L =  15150000000 bits
   Q = 10000000 initialization blocks
   K = 1000000000 blocks for the test
   the blocks have L = 15 bits



-----------------------------------------------
Normal statistic                      :   -1.25
p-value of test                       :    0.89

-----------------------------------------------
CPU time used                    :  00:01:20.21

Generator state:




***********************************************************
HOST = node40.local.isima.fr, Linux

MersenneTwiter


svaria_AppearanceSpacings test:
-----------------------------------------------
   N =  1,   Q = 10000000,   K = 1000000000,   r = 27,   s = 3,   L = 15

   Sequences of n = (K + Q)L =  15150000000 bits
   Q = 10000000 initialization blocks
   K = 1000000000 blocks for the test
   the blocks have L = 15 bits



-----------------------------------------------
Normal statistic                      :   0.059
p-value of test                       :    0.48

-----------------------------------------------
CPU time used                    :  00:01:20.12

Generator state:




***********************************************************
HOST = node40.local.isima.fr, Linux

MersenneTwiter


svaria_WeightDistrib test:
-----------------------------------------------
   N =  1,  n = 20000000,  r =  0,  k = 256,  Alpha =      0,  Beta =   0.25


-----------------------------------------------
Number of degrees of freedom          :   67
Chi-square statistic                  :   55.60
p-value of test                       :    0.84

-----------------------------------------------
CPU time used                    :  00:00:52.79

Generator state:




***********************************************************
HOST = node40.local.isima.fr, Linux

MersenneTwiter


svaria_WeightDistrib test:
-----------------------------------------------
   N =  1,  n = 20000000,  r = 20,  k = 256,  Alpha =      0,  Beta =   0.25


-----------------------------------------------
Number of degrees of freedom          :   67
Chi-square statistic                  :   52.90
p-value of test                       :    0.90

-----------------------------------------------
CPU time used                    :  00:01:15.75

Generator state:




***********************************************************
HOST = node40.local.isima.fr, Linux

MersenneTwiter


svaria_WeightDistrib test:
-----------------------------------------------
   N =  1,  n = 20000000,  r = 28,  k = 256,  Alpha =      0,  Beta =   0.25


-----------------------------------------------
Number of degrees of freedom          :   67
Chi-square statistic                  :   59.99
p-value of test                       :    0.72

-----------------------------------------------
CPU time used                    :  00:01:16.26

Generator state:




***********************************************************
HOST = node40.local.isima.fr, Linux

MersenneTwiter


svaria_WeightDistrib test:
-----------------------------------------------
   N =  1,  n = 20000000,  r =  0,  k = 256,  Alpha =      0,  Beta = 0.0625


-----------------------------------------------
Number of degrees of freedom          :   37
Chi-square statistic                  :   37.61
p-value of test                       :    0.44

-----------------------------------------------
CPU time used                    :  00:00:54.64

Generator state:




***********************************************************
HOST = node40.local.isima.fr, Linux

MersenneTwiter


svaria_WeightDistrib test:
-----------------------------------------------
   N =  1,  n = 20000000,  r = 10,  k = 256,  Alpha =      0,  Beta = 0.0625


-----------------------------------------------
Number of degrees of freedom          :   37
Chi-square statistic                  :   52.67
p-value of test                       :    0.05

-----------------------------------------------
CPU time used                    :  00:01:15.98

Generator state:




***********************************************************
HOST = node40.local.isima.fr, Linux

MersenneTwiter


svaria_WeightDistrib test:
-----------------------------------------------
   N =  1,  n = 20000000,  r = 26,  k = 256,  Alpha =      0,  Beta = 0.0625


-----------------------------------------------
Number of degrees of freedom          :   37
Chi-square statistic                  :   33.38
p-value of test                       :    0.64

-----------------------------------------------
CPU time used                    :  00:01:15.69

Generator state:




***********************************************************
HOST = node40.local.isima.fr, Linux

MersenneTwiter


svaria_SumCollector test:
-----------------------------------------------
   N =  1,  n = 500000000,  r =  0,   g = 10


-----------------------------------------------
Number of degrees of freedom          :   29
Chi-square statistic                  :   24.76
p-value of test                       :    0.69

-----------------------------------------------
CPU time used                    :  00:01:55.11

Generator state:




***********************************************************
HOST = node40.local.isima.fr, Linux

MersenneTwiter


smarsa_MatrixRank test:
-----------------------------------------------
   N = 10,  n = 1000000,  r =  0,    s = 5,    L = 30,    k = 30


-----------------------------------------------

Kolmogorov-Smirnov+ statistic = D+    :    0.14
p-value of test                       :    0.62

Kolmogorov-Smirnov- statistic = D-    :    0.33
p-value of test                       :    0.09

Anderson-Darling statistic = A2       :    0.95
p-value of test                       :    0.38

Test on the sum of all N observations
Number of degrees of freedom          :   40
Chi-square statistic                  :   40.63
p-value of test                       :    0.44

-----------------------------------------------
CPU time used                    :  00:01:25.03

Generator state:




***********************************************************
HOST = node40.local.isima.fr, Linux

MersenneTwiter


smarsa_MatrixRank test:
-----------------------------------------------
   N = 10,  n = 1000000,  r = 25,    s = 5,    L = 30,    k = 30


-----------------------------------------------

Kolmogorov-Smirnov+ statistic = D+    :    0.31
p-value of test                       :    0.11

Kolmogorov-Smirnov- statistic = D-    :    0.11
p-value of test                       :    0.72

Anderson-Darling statistic = A2       :    0.94
p-value of test                       :    0.39

Test on the sum of all N observations
Number of degrees of freedom          :   40
Chi-square statistic                  :   29.74
p-value of test                       :    0.88

-----------------------------------------------
CPU time used                    :  00:01:24.29

Generator state:




***********************************************************
HOST = node40.local.isima.fr, Linux

MersenneTwiter


smarsa_MatrixRank test:
-----------------------------------------------
   N =  1,  n = 5000,  r =  0,    s = 4,    L = 1000,    k = 1000


-----------------------------------------------
Number of degrees of freedom          :    3
Chi-square statistic                  :    5.94
p-value of test                       :    0.11

-----------------------------------------------
CPU time used                    :  00:02:15.88

Generator state:




***********************************************************
HOST = node40.local.isima.fr, Linux

MersenneTwiter


smarsa_MatrixRank test:
-----------------------------------------------
   N =  1,  n = 5000,  r = 26,    s = 4,    L = 1000,    k = 1000


-----------------------------------------------
Number of degrees of freedom          :    3
Chi-square statistic                  :    2.81
p-value of test                       :    0.42

-----------------------------------------------
CPU time used                    :  00:02:20.02

Generator state:




***********************************************************
HOST = node40.local.isima.fr, Linux

MersenneTwiter


smarsa_MatrixRank test:
-----------------------------------------------
   N =  1,  n = 80,  r = 15,    s = 15,    L = 5000,    k = 5000


-----------------------------------------------
Number of degrees of freedom          :    2
Chi-square statistic                  :    0.85
p-value of test                       :    0.65

-----------------------------------------------
CPU time used                    :  00:07:22.81

Generator state:




***********************************************************
HOST = node40.local.isima.fr, Linux

MersenneTwiter


smarsa_MatrixRank test:
-----------------------------------------------
   N =  1,  n = 80,  r =  0,    s = 30,    L = 5000,    k = 5000


-----------------------------------------------
Number of degrees of freedom          :    2
Chi-square statistic                  :   0.059
p-value of test                       :    0.97

-----------------------------------------------
CPU time used                    :  00:04:39.05

Generator state:




***********************************************************
HOST = node40.local.isima.fr, Linux

MersenneTwiter


smarsa_Savir2 test:
-----------------------------------------------
   N = 10,  n = 10000000,  r = 10,    m = 1048576,    t = 30


-----------------------------------------------

Kolmogorov-Smirnov+ statistic = D+    :    0.18
p-value of test                       :    0.48

Kolmogorov-Smirnov- statistic = D-    :    0.13
p-value of test                       :    0.67

Anderson-Darling statistic = A2       :    0.36
p-value of test                       :    0.89

Test on the sum of all N observations
Number of degrees of freedom          :  130
Chi-square statistic                  :  126.34
p-value of test                       :    0.57

-----------------------------------------------
CPU time used                    :  00:00:41.54

Generator state:




***********************************************************
HOST = node40.local.isima.fr, Linux

MersenneTwiter


smarsa_GCD test:
-----------------------------------------------
   N = 10,  n = 50000000,  r =  0,   s = 30


-----------------------------------------------
Test results for GCD values:

Kolmogorov-Smirnov+ statistic = D+    :    0.22
p-value of test                       :    0.32

Kolmogorov-Smirnov- statistic = D-    :    0.11
p-value of test                       :    0.71

Anderson-Darling statistic = A2       :    0.83
p-value of test                       :    0.45

Test on the sum of all N observations
Number of degrees of freedom          : 17430
Chi-square statistic                  :17278.94
p-value of test                       :    0.79



-----------------------------------------------
CPU time used                    :  00:01:09.60

Generator state:




***********************************************************
HOST = node40.local.isima.fr, Linux

MersenneTwiter


swalk_RandomWalk1 test:
-----------------------------------------------
   N =  1,  n = 100000000,  r =  0,   s = 5,   L0 =   50,   L1 =   50



-----------------------------------------------
Test on the values of the Statistic H

Number of degrees of freedom          :   36
ChiSquare statistic                   :   38.89
p-value of test                       :    0.34


-----------------------------------------------
Test on the values of the Statistic M

Number of degrees of freedom          :   35
ChiSquare statistic                   :   35.26
p-value of test                       :    0.46


-----------------------------------------------
Test on the values of the Statistic J

Number of degrees of freedom          :   25
ChiSquare statistic                   :   33.89
p-value of test                       :    0.11


-----------------------------------------------
Test on the values of the Statistic R

Number of degrees of freedom          :   24
ChiSquare statistic                   :   28.41
p-value of test                       :    0.24


-----------------------------------------------
Test on the values of the Statistic C

Number of degrees of freedom          :   17
ChiSquare statistic                   :   21.97
p-value of test                       :    0.19


-----------------------------------------------
CPU time used                    :  00:00:54.64

Generator state:




***********************************************************
HOST = node40.local.isima.fr, Linux

MersenneTwiter


swalk_RandomWalk1 test:
-----------------------------------------------
   N =  1,  n = 100000000,  r = 25,   s = 5,   L0 =   50,   L1 =   50



-----------------------------------------------
Test on the values of the Statistic H

Number of degrees of freedom          :   36
ChiSquare statistic                   :   26.72
p-value of test                       :    0.87


-----------------------------------------------
Test on the values of the Statistic M

Number of degrees of freedom          :   35
ChiSquare statistic                   :   41.25
p-value of test                       :    0.22


-----------------------------------------------
Test on the values of the Statistic J

Number of degrees of freedom          :   25
ChiSquare statistic                   :   25.66
p-value of test                       :    0.43


-----------------------------------------------
Test on the values of the Statistic R

Number of degrees of freedom          :   24
ChiSquare statistic                   :   32.10
p-value of test                       :    0.12


-----------------------------------------------
Test on the values of the Statistic C

Number of degrees of freedom          :   17
ChiSquare statistic                   :   11.75
p-value of test                       :    0.82


-----------------------------------------------
CPU time used                    :  00:01:01.09

Generator state:




***********************************************************
HOST = node40.local.isima.fr, Linux

MersenneTwiter


swalk_RandomWalk1 test:
-----------------------------------------------
   N =  1,  n = 10000000,  r =  0,   s = 10,   L0 = 1000,   L1 = 1000



-----------------------------------------------
Test on the values of the Statistic H

Number of degrees of freedom          :  146
ChiSquare statistic                   :  176.46
p-value of test                       :    0.04


-----------------------------------------------
Test on the values of the Statistic M

Number of degrees of freedom          :  146
ChiSquare statistic                   :  164.60
p-value of test                       :    0.14


-----------------------------------------------
Test on the values of the Statistic J

Number of degrees of freedom          :  500
ChiSquare statistic                   :  496.69
p-value of test                       :    0.53


-----------------------------------------------
Test on the values of the Statistic R

Number of degrees of freedom          :  136
ChiSquare statistic                   :  133.61
p-value of test                       :    0.54


-----------------------------------------------
Test on the values of the Statistic C

Number of degrees of freedom          :   74
ChiSquare statistic                   :   69.22
p-value of test                       :    0.64


-----------------------------------------------
CPU time used                    :  00:01:17.00

Generator state:




***********************************************************
HOST = node40.local.isima.fr, Linux

MersenneTwiter


swalk_RandomWalk1 test:
-----------------------------------------------
   N =  1,  n = 10000000,  r = 20,   s = 10,   L0 = 1000,   L1 = 1000



-----------------------------------------------
Test on the values of the Statistic H

Number of degrees of freedom          :  146
ChiSquare statistic                   :  148.26
p-value of test                       :    0.43


-----------------------------------------------
Test on the values of the Statistic M

Number of degrees of freedom          :  146
ChiSquare statistic                   :  134.62
p-value of test                       :    0.74


-----------------------------------------------
Test on the values of the Statistic J

Number of degrees of freedom          :  500
ChiSquare statistic                   :  573.85
p-value of test                       :    0.01


-----------------------------------------------
Test on the values of the Statistic R

Number of degrees of freedom          :  136
ChiSquare statistic                   :  125.65
p-value of test                       :    0.73


-----------------------------------------------
Test on the values of the Statistic C

Number of degrees of freedom          :   74
ChiSquare statistic                   :   77.08
p-value of test                       :    0.38


-----------------------------------------------
CPU time used                    :  00:01:18.70

Generator state:




***********************************************************
HOST = node40.local.isima.fr, Linux

MersenneTwiter


swalk_RandomWalk1 test:
-----------------------------------------------
   N =  1,  n = 1000000,  r =  0,   s = 15,   L0 = 10000,   L1 = 10000



-----------------------------------------------
Test on the values of the Statistic H

Number of degrees of freedom          :  384
ChiSquare statistic                   :  372.93
p-value of test                       :    0.65


-----------------------------------------------
Test on the values of the Statistic M

Number of degrees of freedom          :  384
ChiSquare statistic                   :  393.39
p-value of test                       :    0.36


-----------------------------------------------
Test on the values of the Statistic J

Number of degrees of freedom          : 5000
ChiSquare statistic                   : 5034.15
p-value of test                       :    0.36


-----------------------------------------------
Test on the values of the Statistic R

Number of degrees of freedom          :  378
ChiSquare statistic                   :  401.85
p-value of test                       :    0.19


-----------------------------------------------
Test on the values of the Statistic C

Number of degrees of freedom          :  200
ChiSquare statistic                   :  218.41
p-value of test                       :    0.18


-----------------------------------------------
CPU time used                    :  00:01:07.01

Generator state:




***********************************************************
HOST = node40.local.isima.fr, Linux

MersenneTwiter


swalk_RandomWalk1 test:
-----------------------------------------------
   N =  1,  n = 1000000,  r = 15,   s = 15,   L0 = 10000,   L1 = 10000



-----------------------------------------------
Test on the values of the Statistic H

Number of degrees of freedom          :  384
ChiSquare statistic                   :  383.97
p-value of test                       :    0.49


-----------------------------------------------
Test on the values of the Statistic M

Number of degrees of freedom          :  384
ChiSquare statistic                   :  417.48
p-value of test                       :    0.12


-----------------------------------------------
Test on the values of the Statistic J

Number of degrees of freedom          : 5000
ChiSquare statistic                   : 4981.06
p-value of test                       :    0.57


-----------------------------------------------
Test on the values of the Statistic R

Number of degrees of freedom          :  378
ChiSquare statistic                   :  368.50
p-value of test                       :    0.63


-----------------------------------------------
Test on the values of the Statistic C

Number of degrees of freedom          :  200
ChiSquare statistic                   :  198.31
p-value of test                       :    0.52


-----------------------------------------------
CPU time used                    :  00:01:06.61

Generator state:




***********************************************************
HOST = node40.local.isima.fr, Linux

MersenneTwiter


scomp_LinearComp test:
-----------------------------------------------
   N =  1,  n = 400020,  r =  0,    s = 1



-----------------------------------------------
Number of degrees of freedom          :   12
Chi2 statistic for size of jumps      :   13.14
p-value of test                       :    0.36


-----------------------------------------------
Normal statistic for number of jumps  : -402.42
p-value of test                       : 1 - eps1    *****



-----------------------------------------------
CPU time used                    :  00:00:10.45

Generator state:




***********************************************************
HOST = node40.local.isima.fr, Linux

MersenneTwiter


scomp_LinearComp test:
-----------------------------------------------
   N =  1,  n = 400020,  r = 29,    s = 1



-----------------------------------------------
Number of degrees of freedom          :   12
Chi2 statistic for size of jumps      :    5.50
p-value of test                       :    0.94


-----------------------------------------------
Normal statistic for number of jumps  : -402.85
p-value of test                       : 1 - eps1    *****



-----------------------------------------------
CPU time used                    :  00:00:10.43

Generator state:




***********************************************************
HOST = node40.local.isima.fr, Linux

MersenneTwiter


scomp_LempelZiv test:
-----------------------------------------------
   N = 10,  n = 134217728,  r =  0,   s =   30,   k =   27


-----------------------------------------------

Kolmogorov-Smirnov+ statistic = D+    :    0.12
p-value of test                       :    0.68

Kolmogorov-Smirnov- statistic = D-    :    0.52
p-value of test                       :  2.4e-3

Anderson-Darling statistic = A2       :    4.41
p-value of test                       :  5.8e-3

Tests on the sum of all N observations
Standardized normal statistic         :    2.27
p-value of test                       :    0.01

Sample variance                       :    0.16
p-value of test                       :    0.9976

-----------------------------------------------
CPU time used                    :  00:01:55.34

Generator state:




***********************************************************
HOST = node40.local.isima.fr, Linux

MersenneTwiter


scomp_LempelZiv test:
-----------------------------------------------
   N = 10,  n = 134217728,  r = 15,   s =   15,   k =   27


-----------------------------------------------

Kolmogorov-Smirnov+ statistic = D+    :    0.29
p-value of test                       :    0.16

Kolmogorov-Smirnov- statistic = D-    :   0.095
p-value of test                       :    0.78

Anderson-Darling statistic = A2       :    0.58
p-value of test                       :    0.66

Tests on the sum of all N observations
Standardized normal statistic         :   -0.74
p-value of test                       :    0.77

Sample variance                       :    0.99
p-value of test                       :    0.45

-----------------------------------------------
CPU time used                    :  00:01:48.54

Generator state:




***********************************************************
HOST = node40.local.isima.fr, Linux

MersenneTwiter


sspectral_Fourier3 test:
-----------------------------------------------
   N = 100000,  n = 16384,  r =  0,   s =    3,   k =   14


-----------------------------------------------

Kolmogorov-Smirnov+ statistic = D+    : 7.05e-3
p-value of test                       :    0.66

Kolmogorov-Smirnov- statistic = D-    : 9.85e-3
p-value of test                       :    0.45

Anderson-Darling statistic = A2       :    0.46
p-value of test                       :    0.79

-----------------------------------------------
CPU time used                    :  00:00:50.65

Generator state:




***********************************************************
HOST = node40.local.isima.fr, Linux

MersenneTwiter


sspectral_Fourier3 test:
-----------------------------------------------
   N = 100000,  n = 16384,  r = 27,   s =    3,   k =   14


-----------------------------------------------

Kolmogorov-Smirnov+ statistic = D+    : 8.39e-3
p-value of test                       :    0.56

Kolmogorov-Smirnov- statistic = D-    :   0.012
p-value of test                       :    0.32

Anderson-Darling statistic = A2       :    0.89
p-value of test                       :    0.42

-----------------------------------------------
CPU time used                    :  00:00:48.70

Generator state:




***********************************************************
HOST = node40.local.isima.fr, Linux

MersenneTwiter


sstring_LongestHeadRun test:
-----------------------------------------------
   N =  1,  n = 1000,  r =  0,   s = 3,   L = 10000020


-----------------------------------------------
Number of degrees of freedom          :    8
Chi-square statistic                  :    3.65
p-value of test                       :    0.89

-----------------------------------------------
Global longest run of 1               :   36.00
p-value of test                       :    0.07



-----------------------------------------------
CPU time used                    :  00:01:38.76

Generator state:




***********************************************************
HOST = node40.local.isima.fr, Linux

MersenneTwiter


sstring_LongestHeadRun test:
-----------------------------------------------
   N =  1,  n = 1000,  r = 27,   s = 3,   L = 10000020


-----------------------------------------------
Number of degrees of freedom          :    8
Chi-square statistic                  :    7.32
p-value of test                       :    0.50

-----------------------------------------------
Global longest run of 1               :   36.00
p-value of test                       :    0.07



-----------------------------------------------
CPU time used                    :  00:01:40.44

Generator state:




***********************************************************
HOST = node40.local.isima.fr, Linux

MersenneTwiter


sstring_PeriodsInStrings test:
-----------------------------------------------
   N = 10,  n = 500000000,  r =  0,   s =   10


-----------------------------------------------

Kolmogorov-Smirnov+ statistic = D+    :    0.16
p-value of test                       :    0.54

Kolmogorov-Smirnov- statistic = D-    :   0.099
p-value of test                       :    0.77

Anderson-Darling statistic = A2       :    0.22
p-value of test                       :    0.98

Test on the sum of all N observations
Number of degrees of freedom          :  200
Chi-square statistic                  :  199.67
p-value of test                       :    0.49

-----------------------------------------------
CPU time used                    :  00:02:54.61

Generator state:




***********************************************************
HOST = node40.local.isima.fr, Linux

MersenneTwiter


sstring_PeriodsInStrings test:
-----------------------------------------------
   N = 10,  n = 500000000,  r = 20,   s =   10


-----------------------------------------------

Kolmogorov-Smirnov+ statistic = D+    :    0.14
p-value of test                       :    0.61

Kolmogorov-Smirnov- statistic = D-    :    0.20
p-value of test                       :    0.40

Anderson-Darling statistic = A2       :    0.42
p-value of test                       :    0.83

Test on the sum of all N observations
Number of degrees of freedom          :  200
Chi-square statistic                  :  200.72
p-value of test                       :    0.47

-----------------------------------------------
CPU time used                    :  00:02:59.28

Generator state:




***********************************************************
HOST = node40.local.isima.fr, Linux

MersenneTwiter


sstring_HammingWeight2 test:
-----------------------------------------------
   N = 10,  n = 1000000000,  r =  0,   s = 3,   L = 1000000


-----------------------------------------------

Kolmogorov-Smirnov+ statistic = D+    :   0.079
p-value of test                       :    0.84

Kolmogorov-Smirnov- statistic = D-    :    0.34
p-value of test                       :    0.08

Anderson-Darling statistic = A2       :    1.99
p-value of test                       :    0.09

Test on the sum of all N observations
Number of degrees of freedom          : 10000
Chi-square statistic                  :10202.30
p-value of test                       :    0.08

-----------------------------------------------
CPU time used                    :  00:01:02.04

Generator state:




***********************************************************
HOST = node40.local.isima.fr, Linux

MersenneTwiter


sstring_HammingWeight2 test:
-----------------------------------------------
   N = 10,  n = 1000000000,  r = 27,   s = 3,   L = 1000000


-----------------------------------------------

Kolmogorov-Smirnov+ statistic = D+    :   0.065
p-value of test                       :    0.89

Kolmogorov-Smirnov- statistic = D-    :    0.27
p-value of test                       :    0.20

Anderson-Darling statistic = A2       :    0.86
p-value of test                       :    0.44

Test on the sum of all N observations
Number of degrees of freedom          : 10000
Chi-square statistic                  :10136.69
p-value of test                       :    0.17

-----------------------------------------------
CPU time used                    :  00:01:04.56

Generator state:




***********************************************************
HOST = node40.local.isima.fr, Linux

MersenneTwiter


sstring_HammingCorr test:
-----------------------------------------------
   N =  1,  n = 1000000000,  r = 10,   s = 10,   L = 30



-----------------------------------------------
Normal statistic                      :  -0.063
p-value of test                       :    0.53

-----------------------------------------------
CPU time used                    :  00:01:16.94

Generator state:




***********************************************************
HOST = node40.local.isima.fr, Linux

MersenneTwiter


sstring_HammingCorr test:
-----------------------------------------------
   N =  1,  n = 100000000,  r = 10,   s = 10,   L = 300



-----------------------------------------------
Normal statistic                      :    0.45
p-value of test                       :    0.33

-----------------------------------------------
CPU time used                    :  00:01:14.06

Generator state:




***********************************************************
HOST = node40.local.isima.fr, Linux

MersenneTwiter


sstring_HammingCorr test:
-----------------------------------------------
   N =  1,  n = 100000000,  r = 10,   s = 10,   L = 1200



-----------------------------------------------
Normal statistic                      :    1.00
p-value of test                       :    0.16

-----------------------------------------------
CPU time used                    :  00:04:56.11

Generator state:




***********************************************************
HOST = node40.local.isima.fr, Linux

MersenneTwiter


sstring_HammingIndep test:
-----------------------------------------------
   N = 10,  n = 30000000,  r =  0,   s = 3,   L = 30,   d = 0



Counters with expected numbers >= 10
-----------------------------------------------

Kolmogorov-Smirnov+ statistic = D+    :    0.14
p-value of test                       :    0.63

Kolmogorov-Smirnov- statistic = D-    :    0.29
p-value of test                       :    0.15

Anderson-Darling statistic = A2       :    1.36
p-value of test                       :    0.21

Test on the sum of all N observations
Number of degrees of freedom          : 4890
Chi-square statistic                  : 4976.52
p-value of test                       :    0.19

-----------------------------------------------
CPU time used                    :  00:02:03.29

Generator state:




***********************************************************
HOST = node40.local.isima.fr, Linux

MersenneTwiter


sstring_HammingIndep test:
-----------------------------------------------
   N = 10,  n = 30000000,  r = 27,   s = 3,   L = 30,   d = 0



Counters with expected numbers >= 10
-----------------------------------------------

Kolmogorov-Smirnov+ statistic = D+    :    0.11
p-value of test                       :    0.74

Kolmogorov-Smirnov- statistic = D-    :    0.20
p-value of test                       :    0.41

Anderson-Darling statistic = A2       :    0.42
p-value of test                       :    0.83

Test on the sum of all N observations
Number of degrees of freedom          : 4890
Chi-square statistic                  : 4935.00
p-value of test                       :    0.32

-----------------------------------------------
CPU time used                    :  00:02:07.70

Generator state:




***********************************************************
HOST = node40.local.isima.fr, Linux

MersenneTwiter


sstring_HammingIndep test:
-----------------------------------------------
   N =  1,  n = 30000000,  r =  0,   s = 4,   L = 300,   d = 0



Counters with expected numbers >= 10
-----------------------------------------------
Number of degrees of freedom          : 4117
Chi-square statistic                  : 4137.73
p-value of test                       :    0.41

-----------------------------------------------
CPU time used                    :  00:01:31.63

Generator state:




***********************************************************
HOST = node40.local.isima.fr, Linux

MersenneTwiter


sstring_HammingIndep test:
-----------------------------------------------
   N =  1,  n = 30000000,  r = 26,   s = 4,   L = 300,   d = 0



Counters with expected numbers >= 10
-----------------------------------------------
Number of degrees of freedom          : 4117
Chi-square statistic                  : 4138.01
p-value of test                       :    0.41

-----------------------------------------------
CPU time used                    :  00:01:34.98

Generator state:




***********************************************************
HOST = node40.local.isima.fr, Linux

MersenneTwiter


sstring_HammingIndep test:
-----------------------------------------------
   N =  1,  n = 10000000,  r =  0,   s = 5,   L = 1200,   d = 0



Counters with expected numbers >= 10
-----------------------------------------------
Number of degrees of freedom          : 11825
Chi-square statistic                  :11623.74
p-value of test                       :    0.91

-----------------------------------------------
CPU time used                    :  00:01:40.02

Generator state:




***********************************************************
HOST = node40.local.isima.fr, Linux

MersenneTwiter


sstring_HammingIndep test:
-----------------------------------------------
   N =  1,  n = 10000000,  r = 25,   s = 5,   L = 1200,   d = 0



Counters with expected numbers >= 10
-----------------------------------------------
Number of degrees of freedom          : 11825
Chi-square statistic                  :11995.13
p-value of test                       :    0.13

-----------------------------------------------
CPU time used                    :  00:01:44.93

Generator state:




***********************************************************
HOST = node40.local.isima.fr, Linux

MersenneTwiter


sstring_Run test:
-----------------------------------------------
   N =  1,  n = 2000000000,  r =  0,   s =    3


-----------------------------------------------
Total number of 1 runs:  2000000000

Number of degrees of freedom          :   54
Chi2 statistic for number of runs     :   71.53
p-value of test                       :    0.06


-----------------------------------------------
Total number of bits:  8000002269

Normal statistic for number of bits   :   0.018
p-value of test                       :    0.49



-----------------------------------------------
CPU time used                    :  00:01:22.77

Generator state:




***********************************************************
HOST = node40.local.isima.fr, Linux

MersenneTwiter


sstring_Run test:
-----------------------------------------------
   N =  1,  n = 2000000000,  r = 27,   s =    3


-----------------------------------------------
Total number of 1 runs:  2000000000

Number of degrees of freedom          :   54
Chi2 statistic for number of runs     :   64.80
p-value of test                       :    0.15


-----------------------------------------------
Total number of bits:  7999989429

Normal statistic for number of bits   :  -0.084
p-value of test                       :    0.53



-----------------------------------------------
CPU time used                    :  00:01:25.35

Generator state:




***********************************************************
HOST = node40.local.isima.fr, Linux

MersenneTwiter


sstring_AutoCor test:
-----------------------------------------------
   N = 10,  n = 1000000030,  r =  0,   s = 3,   d = 1


-----------------------------------------------

Kolmogorov-Smirnov+ statistic = D+    :    0.25
p-value of test                       :    0.23

Kolmogorov-Smirnov- statistic = D-    :   0.094
p-value of test                       :    0.79

Anderson-Darling statistic = A2       :    1.20
p-value of test                       :    0.27

Tests on the sum of all N observations
Standardized normal statistic         :   -1.07
p-value of test                       :    0.86

Sample variance                       :    1.42
p-value of test                       :    0.17

-----------------------------------------------
CPU time used                    :  00:01:45.63

Generator state:




***********************************************************
HOST = node40.local.isima.fr, Linux

MersenneTwiter


sstring_AutoCor test:
-----------------------------------------------
   N = 10,  n = 1000000029,  r =  0,   s = 3,   d = 3


-----------------------------------------------

Kolmogorov-Smirnov+ statistic = D+    :    0.27
p-value of test                       :    0.19

Kolmogorov-Smirnov- statistic = D-    :    0.20
p-value of test                       :    0.38

Anderson-Darling statistic = A2       :    1.07
p-value of test                       :    0.32

Tests on the sum of all N observations
Standardized normal statistic         :   -0.64
p-value of test                       :    0.74

Sample variance                       :    0.31
p-value of test                       :    0.97

-----------------------------------------------
CPU time used                    :  00:01:29.34

Generator state:




***********************************************************
HOST = node40.local.isima.fr, Linux

MersenneTwiter


sstring_AutoCor test:
-----------------------------------------------
   N = 10,  n = 1000000030,  r = 27,   s = 3,   d = 1


-----------------------------------------------

Kolmogorov-Smirnov+ statistic = D+    :   0.084
p-value of test                       :    0.83

Kolmogorov-Smirnov- statistic = D-    :    0.43
p-value of test                       :    0.02

Anderson-Darling statistic = A2       :    3.11
p-value of test                       :    0.02

Tests on the sum of all N observations
Standardized normal statistic         :    2.06
p-value of test                       :    0.02

Sample variance                       :    0.56
p-value of test                       :    0.83

-----------------------------------------------
CPU time used                    :  00:01:47.70

Generator state:




***********************************************************
HOST = node40.local.isima.fr, Linux

MersenneTwiter


sstring_AutoCor test:
-----------------------------------------------
   N = 10,  n = 1000000029,  r = 27,   s = 3,   d = 3


-----------------------------------------------

Kolmogorov-Smirnov+ statistic = D+    :    0.22
p-value of test                       :    0.34

Kolmogorov-Smirnov- statistic = D-    :    0.14
p-value of test                       :    0.62

Anderson-Darling statistic = A2       :    0.55
p-value of test                       :    0.69

Tests on the sum of all N observations
Standardized normal statistic         :   -0.51
p-value of test                       :    0.70

Sample variance                       :    0.56
p-value of test                       :    0.83

-----------------------------------------------
CPU time used                    :  00:01:10.05

Generator state:





========= Summary results of BigCrush =========

 Version:          TestU01 1.2.3
 Generator:        MersenneTwiter
 Number of statistics:  160
 Total CPU time:   04:30:50.06
 The following tests gave p-values outside [0.001, 0.9990]:
 (eps  means a value < 1.0e-300):
 (eps1 means a value < 1.0e-15):

       Test                          p-value
 ----------------------------------------------
 80  LinearComp, r = 0              1 - eps1
 81  LinearComp, r = 29             1 - eps1
 ----------------------------------------------
 All other tests were passed



