xxxxxxxxxxxxxxxxxxxxxxxxxxxxxxxxxxxxxxxxxxxxxxxxxxxxxxxxxxx
                 Starting BigCrush
                 Version: TestU01 1.2.3
xxxxxxxxxxxxxxxxxxxxxxxxxxxxxxxxxxxxxxxxxxxxxxxxxxxxxxxxxxx


***********************************************************
Test smarsa_SerialOver calling smultin_MultinomialOver

***********************************************************
HOST = node40.local.isima.fr, Linux

MersenneTwiter


smultin_MultinomialOver test:
-----------------------------------------------
   N =  1,  n = 1000000000,  r =  0,   d =  256,   t =  3,
       Sparse =  FALSE

       GenerCell = smultin_GenerCellSerial
       Number of cells = d^t =           16777216
       Expected number per cell =   59.604645
       Hashing =  FALSE

   For Delta > -1, we use the ChiSquare approximation
   Correction factor of the ChiSquare: 
       Delta =     1,    Mu =   0.0083558402,    Sigma =          1

-----------------------------------------------
Test Results for Delta =   1.0000

Number of degrees of freedom          : 16711680
Value of the statistic                : 1.67e+7
p-value of test                       :    0.87


-----------------------------------------------
CPU time used                    :  00:01:48.93

Generator state:




***********************************************************
Test smarsa_SerialOver calling smultin_MultinomialOver

***********************************************************
HOST = node40.local.isima.fr, Linux

MersenneTwiter


smultin_MultinomialOver test:
-----------------------------------------------
   N =  1,  n = 1000000000,  r = 22,   d =  256,   t =  3,
       Sparse =  FALSE

       GenerCell = smultin_GenerCellSerial
       Number of cells = d^t =           16777216
       Expected number per cell =   59.604645
       Hashing =  FALSE

   For Delta > -1, we use the ChiSquare approximation
   Correction factor of the ChiSquare: 
       Delta =     1,    Mu =   0.0083558402,    Sigma =          1

-----------------------------------------------
Test Results for Delta =   1.0000

Number of degrees of freedom          : 16711680
Value of the statistic                : 1.67e+7
p-value of test                       :    0.32


-----------------------------------------------
CPU time used                    :  00:01:51.53

Generator state:




***********************************************************
Test smarsa_CollisionOver calling smultin_MultinomialOver

***********************************************************
HOST = node40.local.isima.fr, Linux

MersenneTwiter


smultin_MultinomialOver test:
-----------------------------------------------
   N = 30,  n = 20000000,  r =  0,   d = 2097152,   t =  2,
       Sparse =   TRUE

       GenerCell = smultin_GenerCellSerial
       Number of cells = d^t =      4398046511104
       Expected number per cell =  1 /  219902.33
       EColl = n^2 / (2k) =  45.47473509
       Hashing =   TRUE

       Collision test

       CollisionOver:   density = n / k =  1 /  219902.33
       Expected number of collisions = Mu =      45.47


-----------------------------------------------
Results of CollisionOver test:

POISSON approximation                 :
Expected number of collisions = N*Mu  :     1364.24
Observed number of collisions         :     1354
p-value of test                       :    0.60

-----------------------------
Total number of cells containing j balls

  j =  0                              :  131940795334474
  j =  1                              :        599997292
  j =  2                              :             1354
  j =  3                              :                0
  j =  4                              :                0
  j =  5                              :                0

-----------------------------------------------
CPU time used                    :  00:06:00.79

Generator state:




***********************************************************
Test smarsa_CollisionOver calling smultin_MultinomialOver

***********************************************************
HOST = node40.local.isima.fr, Linux

MersenneTwiter


smultin_MultinomialOver test:
-----------------------------------------------
   N = 30,  n = 20000000,  r =  9,   d = 2097152,   t =  2,
       Sparse =   TRUE

       GenerCell = smultin_GenerCellSerial
       Number of cells = d^t =      4398046511104
       Expected number per cell =  1 /  219902.33
       EColl = n^2 / (2k) =  45.47473509
       Hashing =   TRUE

       Collision test

       CollisionOver:   density = n / k =  1 /  219902.33
       Expected number of collisions = Mu =      45.47


-----------------------------------------------
Results of CollisionOver test:

POISSON approximation                 :
Expected number of collisions = N*Mu  :     1364.24
Observed number of collisions         :     1390
p-value of test                       :    0.25

-----------------------------
Total number of cells containing j balls

  j =  0                              :  131940795334510
  j =  1                              :        599997220
  j =  2                              :             1390
  j =  3                              :                0
  j =  4                              :                0
  j =  5                              :                0

-----------------------------------------------
CPU time used                    :  00:05:57.25

Generator state:




***********************************************************
Test smarsa_CollisionOver calling smultin_MultinomialOver

***********************************************************
HOST = node40.local.isima.fr, Linux

MersenneTwiter


smultin_MultinomialOver test:
-----------------------------------------------
   N = 30,  n = 20000000,  r =  0,   d = 16384,   t =  3,
       Sparse =   TRUE

       GenerCell = smultin_GenerCellSerial
       Number of cells = d^t =      4398046511104
       Expected number per cell =  1 /  219902.33
       EColl = n^2 / (2k) =  45.47473509
       Hashing =   TRUE

       Collision test

       CollisionOver:   density = n / k =  1 /  219902.33
       Expected number of collisions = Mu =      45.47


-----------------------------------------------
Results of CollisionOver test:

POISSON approximation                 :
Expected number of collisions = N*Mu  :     1364.24
Observed number of collisions         :     1417
p-value of test                       :    0.08

-----------------------------
Total number of cells containing j balls

  j =  0                              :  131940795334537
  j =  1                              :        599997166
  j =  2                              :             1417
  j =  3                              :                0
  j =  4                              :                0
  j =  5                              :                0

-----------------------------------------------
CPU time used                    :  00:08:41.98

Generator state:




***********************************************************
Test smarsa_CollisionOver calling smultin_MultinomialOver

***********************************************************
HOST = node40.local.isima.fr, Linux

MersenneTwiter


smultin_MultinomialOver test:
-----------------------------------------------
   N = 30,  n = 20000000,  r = 16,   d = 16384,   t =  3,
       Sparse =   TRUE

       GenerCell = smultin_GenerCellSerial
       Number of cells = d^t =      4398046511104
       Expected number per cell =  1 /  219902.33
       EColl = n^2 / (2k) =  45.47473509
       Hashing =   TRUE

       Collision test

       CollisionOver:   density = n / k =  1 /  219902.33
       Expected number of collisions = Mu =      45.47


-----------------------------------------------
Results of CollisionOver test:

POISSON approximation                 :
Expected number of collisions = N*Mu  :     1364.24
Observed number of collisions         :     1357
p-value of test                       :    0.57

-----------------------------
Total number of cells containing j balls

  j =  0                              :  131940795334477
  j =  1                              :        599997286
  j =  2                              :             1357
  j =  3                              :                0
  j =  4                              :                0
  j =  5                              :                0

-----------------------------------------------
CPU time used                    :  00:08:48.76

Generator state:




***********************************************************
Test smarsa_CollisionOver calling smultin_MultinomialOver

***********************************************************
HOST = node40.local.isima.fr, Linux

MersenneTwiter


smultin_MultinomialOver test:
-----------------------------------------------
   N = 30,  n = 20000000,  r =  0,   d =   64,   t =  7,
       Sparse =   TRUE

       GenerCell = smultin_GenerCellSerial
       Number of cells = d^t =      4398046511104
       Expected number per cell =  1 /  219902.33
       EColl = n^2 / (2k) =  45.47473509
       Hashing =   TRUE

       Collision test

       CollisionOver:   density = n / k =  1 /  219902.33
       Expected number of collisions = Mu =      45.47


-----------------------------------------------
Results of CollisionOver test:

POISSON approximation                 :
Expected number of collisions = N*Mu  :     1364.24
Observed number of collisions         :     1351
p-value of test                       :    0.63

-----------------------------
Total number of cells containing j balls

  j =  0                              :  131940795334471
  j =  1                              :        599997298
  j =  2                              :             1351
  j =  3                              :                0
  j =  4                              :                0
  j =  5                              :                0

-----------------------------------------------
CPU time used                    :  00:08:51.63

Generator state:




***********************************************************
Test smarsa_CollisionOver calling smultin_MultinomialOver

***********************************************************
HOST = node40.local.isima.fr, Linux

MersenneTwiter


smultin_MultinomialOver test:
-----------------------------------------------
   N = 30,  n = 20000000,  r = 24,   d =   64,   t =  7,
       Sparse =   TRUE

       GenerCell = smultin_GenerCellSerial
       Number of cells = d^t =      4398046511104
       Expected number per cell =  1 /  219902.33
       EColl = n^2 / (2k) =  45.47473509
       Hashing =   TRUE

       Collision test

       CollisionOver:   density = n / k =  1 /  219902.33
       Expected number of collisions = Mu =      45.47


-----------------------------------------------
Results of CollisionOver test:

POISSON approximation                 :
Expected number of collisions = N*Mu  :     1364.24
Observed number of collisions         :     1383
p-value of test                       :    0.31

-----------------------------
Total number of cells containing j balls

  j =  0                              :  131940795334503
  j =  1                              :        599997234
  j =  2                              :             1383
  j =  3                              :                0
  j =  4                              :                0
  j =  5                              :                0

-----------------------------------------------
CPU time used                    :  00:08:36.67

Generator state:




***********************************************************
Test smarsa_CollisionOver calling smultin_MultinomialOver

***********************************************************
HOST = node40.local.isima.fr, Linux

MersenneTwiter


smultin_MultinomialOver test:
-----------------------------------------------
   N = 30,  n = 20000000,  r =  0,   d =    8,   t = 14,
       Sparse =   TRUE

       GenerCell = smultin_GenerCellSerial
       Number of cells = d^t =      4398046511104
       Expected number per cell =  1 /  219902.33
       EColl = n^2 / (2k) =  45.47473509
       Hashing =   TRUE

       Collision test

       CollisionOver:   density = n / k =  1 /  219902.33
       Expected number of collisions = Mu =      45.47


-----------------------------------------------
Results of CollisionOver test:

POISSON approximation                 :
Expected number of collisions = N*Mu  :     1364.24
Observed number of collisions         :     1287
p-value of test                       :    0.98

-----------------------------
Total number of cells containing j balls

  j =  0                              :  131940795334407
  j =  1                              :        599997426
  j =  2                              :             1287
  j =  3                              :                0
  j =  4                              :                0
  j =  5                              :                0

-----------------------------------------------
CPU time used                    :  00:08:39.44

Generator state:




***********************************************************
Test smarsa_CollisionOver calling smultin_MultinomialOver

***********************************************************
HOST = node40.local.isima.fr, Linux

MersenneTwiter


smultin_MultinomialOver test:
-----------------------------------------------
   N = 30,  n = 20000000,  r = 27,   d =    8,   t = 14,
       Sparse =   TRUE

       GenerCell = smultin_GenerCellSerial
       Number of cells = d^t =      4398046511104
       Expected number per cell =  1 /  219902.33
       EColl = n^2 / (2k) =  45.47473509
       Hashing =   TRUE

       Collision test

       CollisionOver:   density = n / k =  1 /  219902.33
       Expected number of collisions = Mu =      45.47


-----------------------------------------------
Results of CollisionOver test:

POISSON approximation                 :
Expected number of collisions = N*Mu  :     1364.24
Observed number of collisions         :     1278
p-value of test                       :    0.9904

-----------------------------
Total number of cells containing j balls

  j =  0                              :  131940795334398
  j =  1                              :        599997444
  j =  2                              :             1278
  j =  3                              :                0
  j =  4                              :                0
  j =  5                              :                0

-----------------------------------------------
CPU time used                    :  00:08:35.40

Generator state:




***********************************************************
Test smarsa_CollisionOver calling smultin_MultinomialOver

***********************************************************
HOST = node40.local.isima.fr, Linux

MersenneTwiter


smultin_MultinomialOver test:
-----------------------------------------------
   N = 30,  n = 20000000,  r =  0,   d =    4,   t = 21,
       Sparse =   TRUE

       GenerCell = smultin_GenerCellSerial
       Number of cells = d^t =      4398046511104
       Expected number per cell =  1 /  219902.33
       EColl = n^2 / (2k) =  45.47473509
       Hashing =   TRUE

       Collision test

       CollisionOver:   density = n / k =  1 /  219902.33
       Expected number of collisions = Mu =      45.47


-----------------------------------------------
Results of CollisionOver test:

POISSON approximation                 :
Expected number of collisions = N*Mu  :     1364.24
Observed number of collisions         :     1322
p-value of test                       :    0.87

-----------------------------
Total number of cells containing j balls

  j =  0                              :  131940795334442
  j =  1                              :        599997356
  j =  2                              :             1322
  j =  3                              :                0
  j =  4                              :                0
  j =  5                              :                0

-----------------------------------------------
CPU time used                    :  00:08:38.50

Generator state:




***********************************************************
Test smarsa_CollisionOver calling smultin_MultinomialOver

***********************************************************
HOST = node40.local.isima.fr, Linux

MersenneTwiter


smultin_MultinomialOver test:
-----------------------------------------------
   N = 30,  n = 20000000,  r = 28,   d =    4,   t = 21,
       Sparse =   TRUE

       GenerCell = smultin_GenerCellSerial
       Number of cells = d^t =      4398046511104
       Expected number per cell =  1 /  219902.33
       EColl = n^2 / (2k) =  45.47473509
       Hashing =   TRUE

       Collision test

       CollisionOver:   density = n / k =  1 /  219902.33
       Expected number of collisions = Mu =      45.47


-----------------------------------------------
Results of CollisionOver test:

POISSON approximation                 :
Expected number of collisions = N*Mu  :     1364.24
Observed number of collisions         :     1443
p-value of test                       :    0.02

-----------------------------
Total number of cells containing j balls

  j =  0                              :  131940795334563
  j =  1                              :        599997114
  j =  2                              :             1443
  j =  3                              :                0
  j =  4                              :                0
  j =  5                              :                0

-----------------------------------------------
CPU time used                    :  00:08:34.09

Generator state:




***********************************************************
HOST = node40.local.isima.fr, Linux

MersenneTwiter


smarsa_BirthdaySpacings test:
-----------------------------------------------
   N = 100,  n = 10000000,  r =  0,    d = 2147483648,    t = 2,    p = 1


      Number of cells = d^t = 4611686018427387904
      Lambda = Poisson mean =      54.2101


----------------------------------------------------
Total expected number = N*Lambda      :    5421.01
Total observed number                 :    5473
p-value of test                       :    0.24


-----------------------------------------------
CPU time used                    :  00:04:30.15

Generator state:




***********************************************************
HOST = node40.local.isima.fr, Linux

MersenneTwiter


smarsa_BirthdaySpacings test:
-----------------------------------------------
   N = 20,  n = 20000000,  r =  0,    d = 2097152,    t = 3,    p = 1


      Number of cells = d^t = 9223372036854775808
      Lambda = Poisson mean =     216.8404


----------------------------------------------------
Total expected number = N*Lambda      :    4336.81
Total observed number                 :    4461
p-value of test                       :    0.03


-----------------------------------------------
CPU time used                    :  00:01:57.52

Generator state:




***********************************************************
HOST = node40.local.isima.fr, Linux

MersenneTwiter


smarsa_BirthdaySpacings test:
-----------------------------------------------
   N = 20,  n = 30000000,  r = 14,    d = 65536,    t = 4,    p = 1


      Number of cells = d^t = 18446744073709551616
      Lambda = Poisson mean =     365.9182


----------------------------------------------------
Total expected number = N*Lambda      :    7318.36
Total observed number                 :    7360
p-value of test                       :    0.31


-----------------------------------------------
CPU time used                    :  00:03:15.48

Generator state:




***********************************************************
HOST = node40.local.isima.fr, Linux

MersenneTwiter


smarsa_BirthdaySpacings test:
-----------------------------------------------
   N = 20,  n = 20000000,  r =  0,    d = 512,    t = 7,    p = 1


      Number of cells = d^t = 9223372036854775808
      Lambda = Poisson mean =     216.8404


----------------------------------------------------
Total expected number = N*Lambda      :    4336.81
Total observed number                 :    4275
p-value of test                       :    0.82


-----------------------------------------------
CPU time used                    :  00:02:14.36

Generator state:




***********************************************************
HOST = node40.local.isima.fr, Linux

MersenneTwiter


smarsa_BirthdaySpacings test:
-----------------------------------------------
   N = 20,  n = 20000000,  r =  7,    d = 512,    t = 7,    p = 1


      Number of cells = d^t = 9223372036854775808
      Lambda = Poisson mean =     216.8404


----------------------------------------------------
Total expected number = N*Lambda      :    4336.81
Total observed number                 :    4291
p-value of test                       :    0.75


-----------------------------------------------
CPU time used                    :  00:02:25.55

Generator state:




***********************************************************
HOST = node40.local.isima.fr, Linux

MersenneTwiter


smarsa_BirthdaySpacings test:
-----------------------------------------------
   N = 20,  n = 30000000,  r = 14,    d = 256,    t = 8,    p = 1


      Number of cells = d^t = 18446744073709551616
      Lambda = Poisson mean =     365.9182


----------------------------------------------------
Total expected number = N*Lambda      :    7318.36
Total observed number                 :    7448
p-value of test                       :    0.07


-----------------------------------------------
CPU time used                    :  00:03:51.48

Generator state:




***********************************************************
HOST = node40.local.isima.fr, Linux

MersenneTwiter


smarsa_BirthdaySpacings test:
-----------------------------------------------
   N = 20,  n = 30000000,  r = 22,    d = 256,    t = 8,    p = 1


      Number of cells = d^t = 18446744073709551616
      Lambda = Poisson mean =     365.9182


----------------------------------------------------
Total expected number = N*Lambda      :    7318.36
Total observed number                 :    7117
p-value of test                       :    0.9908


-----------------------------------------------
CPU time used                    :  00:03:51.35

Generator state:




***********************************************************
HOST = node40.local.isima.fr, Linux

MersenneTwiter


smarsa_BirthdaySpacings test:
-----------------------------------------------
   N = 20,  n = 30000000,  r =  0,    d = 16,    t = 16,    p = 1


      Number of cells = d^t = 18446744073709551616
      Lambda = Poisson mean =     365.9182


----------------------------------------------------
Total expected number = N*Lambda      :    7318.36
Total observed number                 :    7225
p-value of test                       :    0.86


-----------------------------------------------
CPU time used                    :  00:04:30.77

Generator state:




***********************************************************
HOST = node40.local.isima.fr, Linux

MersenneTwiter


smarsa_BirthdaySpacings test:
-----------------------------------------------
   N = 20,  n = 30000000,  r = 26,    d = 16,    t = 16,    p = 1


      Number of cells = d^t = 18446744073709551616
      Lambda = Poisson mean =     365.9182


----------------------------------------------------
Total expected number = N*Lambda      :    7318.36
Total observed number                 :    7282
p-value of test                       :    0.66


-----------------------------------------------
CPU time used                    :  00:05:03.89

Generator state:




***********************************************************
HOST = node40.local.isima.fr, Linux

MersenneTwiter


snpair_ClosePairs test:
-----------------------------------------------
   N = 30,  n = 6000000,  r =  0,  t = 3,  p = 0,  m = 30,  Torus =  TRUE


---------------------------------------
Test based on the 2 nearest points (NP):

Stat. AD on the N values (NP)         :    0.63
p-value of test                       :    0.62


A2 test based on the spacings between the
   successive jump times of process Y_n(t):

A2 test on the values of A2 (m-NP)    :    0.30
p-value of test                       :    0.94

Test on the Nm values of W_{n,i}(mNP1):    1.22
p-value of test                       :    0.26

Test on the jump times of Y
   (superposition of Yn):

Expected number of jumps of Y = mN    :     900
Number of jumps of Y                  :     938
p-value of test                       :    0.11

Stat. AD (mNP2)                       :    0.41
p-value of test                       :    0.84

Stat. AD after spacings (mNP2-S)      :    0.85
p-value of test                       :    0.45

-----------------------------------------------
CPU time used                    :  00:03:18.19

Generator state:




***********************************************************
HOST = node40.local.isima.fr, Linux

MersenneTwiter


snpair_ClosePairs test:
-----------------------------------------------
   N = 20,  n = 4000000,  r =  0,  t = 5,  p = 0,  m = 30,  Torus =  TRUE


---------------------------------------
Test based on the 2 nearest points (NP):

Stat. AD on the N values (NP)         :    0.58
p-value of test                       :    0.67


A2 test based on the spacings between the
   successive jump times of process Y_n(t):

A2 test on the values of A2 (m-NP)    :    0.99
p-value of test                       :    0.36

Test on the Nm values of W_{n,i}(mNP1):    1.77
p-value of test                       :    0.12

Test on the jump times of Y
   (superposition of Yn):

Expected number of jumps of Y = mN    :     600
Number of jumps of Y                  :     636
p-value of test                       :    0.07

Stat. AD (mNP2)                       :    0.64
p-value of test                       :    0.61

Stat. AD after spacings (mNP2-S)      :    0.44
p-value of test                       :    0.80

-----------------------------------------------
CPU time used                    :  00:01:57.85

Generator state:




***********************************************************
HOST = node40.local.isima.fr, Linux

MersenneTwiter


snpair_ClosePairs test:
-----------------------------------------------
   N = 10,  n = 3000000,  r =  0,  t = 9,  p = 0,  m = 30,  Torus =  TRUE


---------------------------------------
Test based on the 2 nearest points (NP):

Stat. AD on the N values (NP)         :    0.20
p-value of test                       :    0.9908


A2 test based on the spacings between the
   successive jump times of process Y_n(t):

A2 test on the values of A2 (m-NP)    :    0.71
p-value of test                       :    0.54

Test on the Nm values of W_{n,i}(mNP1):    0.82
p-value of test                       :    0.47

Test on the jump times of Y
   (superposition of Yn):

Expected number of jumps of Y = mN    :     300
Number of jumps of Y                  :     307
p-value of test                       :    0.35

Stat. AD (mNP2)                       :    0.42
p-value of test                       :    0.83

Stat. AD after spacings (mNP2-S)      :    0.78
p-value of test                       :    0.50

-----------------------------------------------
CPU time used                    :  00:03:10.68

Generator state:




***********************************************************
HOST = node40.local.isima.fr, Linux

MersenneTwiter


snpair_ClosePairs test:
-----------------------------------------------
   N =  5,  n = 2000000,  r =  0,  t = 16,  p = 0,  m = 30,  Torus =  TRUE


---------------------------------------
Test based on the 2 nearest points (NP):

Stat. AD on the N values (NP)         :    2.99
p-value of test                       :    0.03


A2 test based on the spacings between the
   successive jump times of process Y_n(t):

A2 test on the values of A2 (m-NP)    :    0.70
p-value of test                       :    0.55

Test on the Nm values of W_{n,i}(mNP1):    0.65
p-value of test                       :    0.60

Test on the jump times of Y
   (superposition of Yn):

Expected number of jumps of Y = mN    :     150
Number of jumps of Y                  :     160
p-value of test                       :    0.22

Stat. AD (mNP2)                       :    0.48
p-value of test                       :    0.77

Stat. AD after spacings (mNP2-S)      :    0.38
p-value of test                       :    0.87

-----------------------------------------------
CPU time used                    :  00:03:30.77

Generator state:




***********************************************************
HOST = node40.local.isima.fr, Linux

MersenneTwiter


sknuth_SimpPoker test:
-----------------------------------------------
   N =  1,  n = 400000000,  r =  0,   d =    8,   k =    8


-----------------------------------------------
Number of degrees of freedom          :    7
Chi-square statistic                  :    8.28
p-value of test                       :    0.31

-----------------------------------------------
CPU time used                    :  00:01:01.56

Generator state:




***********************************************************
HOST = node40.local.isima.fr, Linux

MersenneTwiter


sknuth_SimpPoker test:
-----------------------------------------------
   N =  1,  n = 400000000,  r = 27,   d =    8,   k =    8


-----------------------------------------------
Number of degrees of freedom          :    7
Chi-square statistic                  :    1.85
p-value of test                       :    0.97

-----------------------------------------------
CPU time used                    :  00:01:13.97

Generator state:




***********************************************************
HOST = node40.local.isima.fr, Linux

MersenneTwiter


sknuth_SimpPoker test:
-----------------------------------------------
   N =  1,  n = 100000000,  r =  0,   d =   32,   k =   32


-----------------------------------------------
Number of degrees of freedom          :   18
Chi-square statistic                  :   23.59
p-value of test                       :    0.17

-----------------------------------------------
CPU time used                    :  00:01:03.06

Generator state:




***********************************************************
HOST = node40.local.isima.fr, Linux

MersenneTwiter


sknuth_SimpPoker test:
-----------------------------------------------
   N =  1,  n = 100000000,  r = 25,   d =   32,   k =   32


-----------------------------------------------
Number of degrees of freedom          :   18
Chi-square statistic                  :   16.06
p-value of test                       :    0.59

-----------------------------------------------
CPU time used                    :  00:01:17.35

Generator state:




***********************************************************
HOST = node40.local.isima.fr, Linux

MersenneTwiter


sknuth_CouponCollector test:
-----------------------------------------------
   N =  1,  n = 200000000,  r =  0,   d =    8


-----------------------------------------------
Number of degrees of freedom          :   54
Chi-square statistic                  :   43.32
p-value of test                       :    0.85

-----------------------------------------------
CPU time used                    :  00:01:16.35

Generator state:




***********************************************************
HOST = node40.local.isima.fr, Linux

MersenneTwiter


sknuth_CouponCollector test:
-----------------------------------------------
   N =  1,  n = 200000000,  r = 10,   d =    8


-----------------------------------------------
Number of degrees of freedom          :   54
Chi-square statistic                  :   59.86
p-value of test                       :    0.27

-----------------------------------------------
CPU time used                    :  00:01:34.63

Generator state:




***********************************************************
HOST = node40.local.isima.fr, Linux

MersenneTwiter


sknuth_CouponCollector test:
-----------------------------------------------
   N =  1,  n = 200000000,  r = 20,   d =    8


-----------------------------------------------
Number of degrees of freedom          :   54
Chi-square statistic                  :   71.02
p-value of test                       :    0.06

-----------------------------------------------
CPU time used                    :  00:01:34.12

Generator state:




***********************************************************
HOST = node40.local.isima.fr, Linux

MersenneTwiter


sknuth_CouponCollector test:
-----------------------------------------------
   N =  1,  n = 200000000,  r = 27,   d =    8


-----------------------------------------------
Number of degrees of freedom          :   54
Chi-square statistic                  :   62.11
p-value of test                       :    0.21

-----------------------------------------------
CPU time used                    :  00:01:34.31

Generator state:




***********************************************************
HOST = node40.local.isima.fr, Linux

MersenneTwiter


sknuth_Gap test:
-----------------------------------------------
   N =  1,  n = 500000000,  r =  0,   Alpha =        0,   Beta  =   0.0625


-----------------------------------------------
Number of degrees of freedom          :  232
Chi-square statistic                  :  215.19
p-value of test                       :    0.78

-----------------------------------------------
CPU time used                    :  00:01:33.22

Generator state:




***********************************************************
HOST = node40.local.isima.fr, Linux

MersenneTwiter


sknuth_Gap test:
-----------------------------------------------
   N =  1,  n = 300000000,  r = 25,   Alpha =        0,   Beta  =  0.03125


-----------------------------------------------
Number of degrees of freedom          :  434
Chi-square statistic                  :  388.53
p-value of test                       :    0.94

-----------------------------------------------
CPU time used                    :  00:02:20.47

Generator state:




***********************************************************
HOST = node40.local.isima.fr, Linux

MersenneTwiter


sknuth_Gap test:
-----------------------------------------------
   N =  1,  n = 100000000,  r =  0,   Alpha =        0,   Beta  = 0.0078125


-----------------------------------------------
Number of degrees of freedom          : 1437
Chi-square statistic                  : 1508.71
p-value of test                       :    0.09

-----------------------------------------------
CPU time used                    :  00:02:17.53

Generator state:




***********************************************************
HOST = node40.local.isima.fr, Linux

MersenneTwiter


sknuth_Gap test:
-----------------------------------------------
   N =  1,  n = 10000000,  r = 20,   Alpha =        0,   Beta  = 0.000976562


-----------------------------------------------
Number of degrees of freedom          : 7046
Chi-square statistic                  : 7158.68
p-value of test                       :    0.17

-----------------------------------------------
CPU time used                    :  00:02:23.48

Generator state:




***********************************************************
HOST = node40.local.isima.fr, Linux

MersenneTwiter


sknuth_Run test:
-----------------------------------------------
   N =  5,  n = 1000000000,  r =  0,   Up = FALSE


-----------------------------------------------

Kolmogorov-Smirnov+ statistic = D+    :    0.15
p-value of test                       :    0.74

Kolmogorov-Smirnov- statistic = D-    :    0.30
p-value of test                       :    0.35

Anderson-Darling statistic = A2       :    0.65
p-value of test                       :    0.60

Test on the sum of all N observations
Number of degrees of freedom          :   30
Chi-square statistic                  :   33.60
p-value of test                       :    0.30

-----------------------------------------------
CPU time used                    :  00:01:22.34

Generator state:




***********************************************************
HOST = node40.local.isima.fr, Linux

MersenneTwiter


sknuth_Run test:
-----------------------------------------------
   N = 10,  n = 1000000000,  r = 15,   Up =  TRUE


-----------------------------------------------

Kolmogorov-Smirnov+ statistic = D+    :    0.13
p-value of test                       :    0.68

Kolmogorov-Smirnov- statistic = D-    :    0.40
p-value of test                       :    0.03

Anderson-Darling statistic = A2       :    1.58
p-value of test                       :    0.16

Test on the sum of all N observations
Number of degrees of freedom          :   60
Chi-square statistic                  :   68.59
p-value of test                       :    0.21

-----------------------------------------------
CPU time used                    :  00:03:25.97

Generator state:




***********************************************************
Test sknuth_Permutation calling smultin_Multinomial

***********************************************************
HOST = node40.local.isima.fr, Linux

MersenneTwiter


smultin_Multinomial test:
-----------------------------------------------
   N =  1,  n = 1000000000,  r =  5,   t =  3,
       Sparse =  FALSE

       GenerCell = smultin_GenerCellPermut
       Number of cells = t! =                  6
       Expected number per cell =  1.6666667e+08
       Hashing =  FALSE

   For Delta > -1, we use the ChiSquare approximation
   Correction factor of the ChiSquare: 
       Delta =     1,    Mu =  2.5000002e-09,    Sigma =          1

-----------------------------------------------
Test Results for Delta =   1.0000

Number of degrees of freedom          :    5
Value of the statistic                :   11.49
p-value of test                       :    0.04


-----------------------------------------------
CPU time used                    :  00:01:08.19

Generator state:




***********************************************************
Test sknuth_Permutation calling smultin_Multinomial

***********************************************************
HOST = node40.local.isima.fr, Linux

MersenneTwiter


smultin_Multinomial test:
-----------------------------------------------
   N =  1,  n = 1000000000,  r =  5,   t =  5,
       Sparse =  FALSE

       GenerCell = smultin_GenerCellPermut
       Number of cells = t! =                120
       Expected number per cell =   8333333.3
       Hashing =  FALSE

   For Delta > -1, we use the ChiSquare approximation
   Correction factor of the ChiSquare: 
       Delta =     1,    Mu =  5.9500005e-08,    Sigma =          1

-----------------------------------------------
Test Results for Delta =   1.0000

Number of degrees of freedom          :  119
Value of the statistic                :  106.86
p-value of test                       :    0.78


-----------------------------------------------
CPU time used                    :  00:02:02.07

Generator state:




***********************************************************
Test sknuth_Permutation calling smultin_Multinomial

***********************************************************
HOST = node40.local.isima.fr, Linux

MersenneTwiter


smultin_Multinomial test:
-----------------------------------------------
   N =  1,  n = 500000000,  r =  5,   t =  7,
       Sparse =  FALSE

       GenerCell = smultin_GenerCellPermut
       Number of cells = t! =               5040
       Expected number per cell =   99206.349
       Hashing =  FALSE

   For Delta > -1, we use the ChiSquare approximation
   Correction factor of the ChiSquare: 
       Delta =     1,    Mu =  5.0390004e-06,    Sigma =          1

-----------------------------------------------
Test Results for Delta =   1.0000

Number of degrees of freedom          : 5039
Value of the statistic                : 5121.97
p-value of test                       :    0.20


-----------------------------------------------
CPU time used                    :  00:01:36.69

Generator state:




***********************************************************
Test sknuth_Permutation calling smultin_Multinomial

***********************************************************
HOST = node40.local.isima.fr, Linux

MersenneTwiter


smultin_Multinomial test:
-----------------------------------------------
   N =  1,  n = 500000000,  r = 10,   t = 10,
       Sparse =  FALSE

       GenerCell = smultin_GenerCellPermut
       Number of cells = t! =            3628800
       Expected number per cell =    137.7866
       Hashing =  FALSE

   For Delta > -1, we use the ChiSquare approximation
   Correction factor of the ChiSquare: 
       Delta =     1,    Mu =   0.0036287993,    Sigma =          1

-----------------------------------------------
Test Results for Delta =   1.0000

Number of degrees of freedom          : 3628799
Value of the statistic                : 3.63e+6
p-value of test                       :    0.36


-----------------------------------------------
CPU time used                    :  00:03:47.09

Generator state:




***********************************************************
Test sknuth_CollisionPermut calling smultin_Multinomial

***********************************************************
HOST = node40.local.isima.fr, Linux

MersenneTwiter


smultin_Multinomial test:
-----------------------------------------------
   N = 20,  n = 20000000,  r =  0,   t = 14,
       Sparse =   TRUE

       GenerCell = smultin_GenerCellPermut
       Number of cells = t! =        87178291200
       Expected number per cell =  1 /  4358.9146
       EColl = n^2 / (2k) =   2294.14912
       Hashing =   TRUE

       Collision test,    Mu =      2293.9736,    Sigma =    47.8841

-----------------------------------------------
Test Results for Collisions

For the total number of collisions, we use
      the Poisson approximation:
Expected number of collisions = N*Mu  :    45879.47
Observed number of collisions         :    45966
p-value of test                       :    0.34


-----------------------------
Total number of cells containing j balls

  j =  0                              :    1743165869966
  j =  1                              :        399908071
  j =  2                              :            45960
  j =  3                              :                3
  j =  4                              :                0
  j =  5                              :                0

-----------------------------------------------
CPU time used                    :  00:05:43.30

Generator state:




***********************************************************
Test sknuth_CollisionPermut calling smultin_Multinomial

***********************************************************
HOST = node40.local.isima.fr, Linux

MersenneTwiter


smultin_Multinomial test:
-----------------------------------------------
   N = 20,  n = 20000000,  r = 10,   t = 14,
       Sparse =   TRUE

       GenerCell = smultin_GenerCellPermut
       Number of cells = t! =        87178291200
       Expected number per cell =  1 /  4358.9146
       EColl = n^2 / (2k) =   2294.14912
       Hashing =   TRUE

       Collision test,    Mu =      2293.9736,    Sigma =    47.8841

-----------------------------------------------
Test Results for Collisions

For the total number of collisions, we use
      the Poisson approximation:
Expected number of collisions = N*Mu  :    45879.47
Observed number of collisions         :    45622
p-value of test                       :    0.88


-----------------------------
Total number of cells containing j balls

  j =  0                              :    1743165869622
  j =  1                              :        399908759
  j =  2                              :            45616
  j =  3                              :                3
  j =  4                              :                0
  j =  5                              :                0

-----------------------------------------------
CPU time used                    :  00:06:02.97

Generator state:




***********************************************************
HOST = node40.local.isima.fr, Linux

MersenneTwiter


sknuth_MaxOft test:
-----------------------------------------------
   N = 40,  n = 10000000,  r =  0,   d = 100000,   t =  8

      Number of categories = 100000
      Expected number per category  = 100.00


-----------------------------------------------
Test results for chi2 with 99999 degrees of freedom:

Kolmogorov-Smirnov+ statistic = D+    :    0.15
p-value of test                       :    0.14

Kolmogorov-Smirnov- statistic = D-    :   0.021
p-value of test                       :    0.95

Anderson-Darling statistic = A2       :    0.90
p-value of test                       :    0.42

Test on the sum of all N observations
Number of degrees of freedom          : 3999960
Chi-square statistic                  : 4.00e+6
p-value of test                       :    0.87


-----------------------------------------------
Test results for Anderson-Darling:

Kolmogorov-Smirnov+ statistic = D+    :    0.14
p-value of test                       :    0.19

Kolmogorov-Smirnov- statistic = D-    : 4.21e-3
p-value of test                       :    0.9950

Anderson-Darling statistic = A2       :    1.72
p-value of test                       :    0.13


-----------------------------------------------
CPU time used                    :  00:02:05.97

Generator state:




***********************************************************
HOST = node40.local.isima.fr, Linux

MersenneTwiter


sknuth_MaxOft test:
-----------------------------------------------
   N = 30,  n = 10000000,  r =  0,   d = 100000,   t = 16

      Number of categories = 100000
      Expected number per category  = 100.00


-----------------------------------------------
Test results for chi2 with 99999 degrees of freedom:

Kolmogorov-Smirnov+ statistic = D+    :    0.11
p-value of test                       :    0.48

Kolmogorov-Smirnov- statistic = D-    :    0.12
p-value of test                       :    0.39

Anderson-Darling statistic = A2       :    0.45
p-value of test                       :    0.80

Test on the sum of all N observations
Number of degrees of freedom          : 2999970
Chi-square statistic                  : 3.00e+6
p-value of test                       :    0.51


-----------------------------------------------
Test results for Anderson-Darling:

Kolmogorov-Smirnov+ statistic = D+    :   0.073
p-value of test                       :    0.69

Kolmogorov-Smirnov- statistic = D-    :    0.13
p-value of test                       :    0.34

Anderson-Darling statistic = A2       :    0.44
p-value of test                       :    0.81


-----------------------------------------------
CPU time used                    :  00:02:02.07

Generator state:




***********************************************************
HOST = node40.local.isima.fr, Linux

MersenneTwiter


sknuth_MaxOft test:
-----------------------------------------------
   N = 20,  n = 10000000,  r =  0,   d = 100000,   t = 24

      Number of categories = 100000
      Expected number per category  = 100.00


-----------------------------------------------
Test results for chi2 with 99999 degrees of freedom:

Kolmogorov-Smirnov+ statistic = D+    :    0.15
p-value of test                       :    0.39

Kolmogorov-Smirnov- statistic = D-    :   0.039
p-value of test                       :    0.92

Anderson-Darling statistic = A2       :    0.35
p-value of test                       :    0.89

Test on the sum of all N observations
Number of degrees of freedom          : 1999980
Chi-square statistic                  : 2.00e+6
p-value of test                       :    0.74


-----------------------------------------------
Test results for Anderson-Darling:

Kolmogorov-Smirnov+ statistic = D+    :   0.040
p-value of test                       :    0.92

Kolmogorov-Smirnov- statistic = D-    :    0.16
p-value of test                       :    0.31

Anderson-Darling statistic = A2       :    0.92
p-value of test                       :    0.40


-----------------------------------------------
CPU time used                    :  00:01:36.87

Generator state:




***********************************************************
HOST = node40.local.isima.fr, Linux

MersenneTwiter


sknuth_MaxOft test:
-----------------------------------------------
   N = 20,  n = 10000000,  r =  0,   d = 100000,   t = 32

      Number of categories = 100000
      Expected number per category  = 100.00


-----------------------------------------------
Test results for chi2 with 99999 degrees of freedom:

Kolmogorov-Smirnov+ statistic = D+    :    0.19
p-value of test                       :    0.23

Kolmogorov-Smirnov- statistic = D-    :   0.098
p-value of test                       :    0.64

Anderson-Darling statistic = A2       :    0.69
p-value of test                       :    0.56

Test on the sum of all N observations
Number of degrees of freedom          : 1999980
Chi-square statistic                  : 2.00e+6
p-value of test                       :    0.74


-----------------------------------------------
Test results for Anderson-Darling:

Kolmogorov-Smirnov+ statistic = D+    :    0.16
p-value of test                       :    0.31

Kolmogorov-Smirnov- statistic = D-    :    0.10
p-value of test                       :    0.62

Anderson-Darling statistic = A2       :    0.56
p-value of test                       :    0.69


-----------------------------------------------
CPU time used                    :  00:01:52.71

Generator state:




***********************************************************
HOST = node40.local.isima.fr, Linux

MersenneTwiter


svaria_SampleProd test:
-----------------------------------------------
   N = 40,  n = 10000000,  r =  0,   t = 8


-----------------------------------------------

Kolmogorov-Smirnov+ statistic = D+    :    0.11
p-value of test                       :    0.33

Kolmogorov-Smirnov- statistic = D-    :   0.035
p-value of test                       :    0.89

Anderson-Darling statistic = A2       :    0.49
p-value of test                       :    0.76

-----------------------------------------------
CPU time used                    :  00:01:50.01

Generator state:




***********************************************************
HOST = node40.local.isima.fr, Linux

MersenneTwiter


svaria_SampleProd test:
-----------------------------------------------
   N = 20,  n = 10000000,  r =  0,   t = 16


-----------------------------------------------

Kolmogorov-Smirnov+ statistic = D+    : 9.94e-3
p-value of test                       :    0.99

Kolmogorov-Smirnov- statistic = D-    :    0.23
p-value of test                       :    0.11

Anderson-Darling statistic = A2       :    1.24
p-value of test                       :    0.25

-----------------------------------------------
CPU time used                    :  00:01:14.45

Generator state:




***********************************************************
HOST = node40.local.isima.fr, Linux

MersenneTwiter


svaria_SampleProd test:
-----------------------------------------------
   N = 20,  n = 10000000,  r =  0,   t = 24


-----------------------------------------------

Kolmogorov-Smirnov+ statistic = D+    :   0.087
p-value of test                       :    0.70

Kolmogorov-Smirnov- statistic = D-    :    0.20
p-value of test                       :    0.17

Anderson-Darling statistic = A2       :    0.65
p-value of test                       :    0.60

-----------------------------------------------
CPU time used                    :  00:01:33.71

Generator state:




***********************************************************
HOST = node40.local.isima.fr, Linux

MersenneTwiter


svaria_SampleMean test:
-----------------------------------------------
   N = 20000000,  n = 30,  r =  0


-----------------------------------------------

Kolmogorov-Smirnov+ statistic = D+    : 4.99e-5
p-value of test                       :    0.91

Kolmogorov-Smirnov- statistic = D-    : 1.53e-4
p-value of test                       :    0.39

Anderson-Darling statistic = A2       :    0.57
p-value of test                       :    0.68

-----------------------------------------------
CPU time used                    :  00:00:17.71

Generator state:




***********************************************************
HOST = node40.local.isima.fr, Linux

MersenneTwiter


svaria_SampleMean test:
-----------------------------------------------
   N = 20000000,  n = 30,  r = 10


-----------------------------------------------

Kolmogorov-Smirnov+ statistic = D+    : 5.37e-5
p-value of test                       :    0.89

Kolmogorov-Smirnov- statistic = D-    : 2.14e-4
p-value of test                       :    0.16

Anderson-Darling statistic = A2       :    0.89
p-value of test                       :    0.42

-----------------------------------------------
CPU time used                    :  00:00:19.43

Generator state:




***********************************************************
HOST = node40.local.isima.fr, Linux

MersenneTwiter


svaria_SampleCorr test:
-----------------------------------------------
   N =  1,  n = 2000000000,  r =  0,   k = 1


-----------------------------------------------
Normal statistic                      :   0.075
p-value of test                       :    0.47

-----------------------------------------------
CPU time used                    :  00:00:21.46

Generator state:




***********************************************************
HOST = node40.local.isima.fr, Linux

MersenneTwiter


svaria_SampleCorr test:
-----------------------------------------------
   N =  1,  n = 2000000000,  r =  0,   k = 2


-----------------------------------------------
Normal statistic                      :   -1.18
p-value of test                       :    0.88

-----------------------------------------------
CPU time used                    :  00:00:21.47

Generator state:




***********************************************************
HOST = node40.local.isima.fr, Linux

MersenneTwiter


svaria_AppearanceSpacings test:
-----------------------------------------------
   N =  1,   Q = 10000000,   K = 1000000000,   r = 0,   s = 3,   L = 15

   Sequences of n = (K + Q)L =  15150000000 bits
   Q = 10000000 initialization blocks
   K = 1000000000 blocks for the test
   the blocks have L = 15 bits



-----------------------------------------------
Normal statistic                      :    2.01
p-value of test                       :    0.02

-----------------------------------------------
CPU time used                    :  00:01:21.04

Generator state:




***********************************************************
HOST = node40.local.isima.fr, Linux

MersenneTwiter


svaria_AppearanceSpacings test:
-----------------------------------------------
   N =  1,   Q = 10000000,   K = 1000000000,   r = 27,   s = 3,   L = 15

   Sequences of n = (K + Q)L =  15150000000 bits
   Q = 10000000 initialization blocks
   K = 1000000000 blocks for the test
   the blocks have L = 15 bits



-----------------------------------------------
Normal statistic                      :    0.27
p-value of test                       :    0.39

-----------------------------------------------
CPU time used                    :  00:01:20.81

Generator state:




***********************************************************
HOST = node40.local.isima.fr, Linux

MersenneTwiter


svaria_WeightDistrib test:
-----------------------------------------------
   N =  1,  n = 20000000,  r =  0,  k = 256,  Alpha =      0,  Beta =   0.25


-----------------------------------------------
Number of degrees of freedom          :   67
Chi-square statistic                  :   54.26
p-value of test                       :    0.87

-----------------------------------------------
CPU time used                    :  00:00:51.97

Generator state:




***********************************************************
HOST = node40.local.isima.fr, Linux

MersenneTwiter


svaria_WeightDistrib test:
-----------------------------------------------
   N =  1,  n = 20000000,  r = 20,  k = 256,  Alpha =      0,  Beta =   0.25


-----------------------------------------------
Number of degrees of freedom          :   67
Chi-square statistic                  :   68.87
p-value of test                       :    0.41

-----------------------------------------------
CPU time used                    :  00:01:15.67

Generator state:




***********************************************************
HOST = node40.local.isima.fr, Linux

MersenneTwiter


svaria_WeightDistrib test:
-----------------------------------------------
   N =  1,  n = 20000000,  r = 28,  k = 256,  Alpha =      0,  Beta =   0.25


-----------------------------------------------
Number of degrees of freedom          :   67
Chi-square statistic                  :   57.54
p-value of test                       :    0.79

-----------------------------------------------
CPU time used                    :  00:01:15.57

Generator state:




***********************************************************
HOST = node40.local.isima.fr, Linux

MersenneTwiter


svaria_WeightDistrib test:
-----------------------------------------------
   N =  1,  n = 20000000,  r =  0,  k = 256,  Alpha =      0,  Beta = 0.0625


-----------------------------------------------
Number of degrees of freedom          :   37
Chi-square statistic                  :   25.78
p-value of test                       :    0.92

-----------------------------------------------
CPU time used                    :  00:00:52.84

Generator state:




***********************************************************
HOST = node40.local.isima.fr, Linux

MersenneTwiter


svaria_WeightDistrib test:
-----------------------------------------------
   N =  1,  n = 20000000,  r = 10,  k = 256,  Alpha =      0,  Beta = 0.0625


-----------------------------------------------
Number of degrees of freedom          :   37
Chi-square statistic                  :   35.34
p-value of test                       :    0.55

-----------------------------------------------
CPU time used                    :  00:01:16.55

Generator state:




***********************************************************
HOST = node40.local.isima.fr, Linux

MersenneTwiter


svaria_WeightDistrib test:
-----------------------------------------------
   N =  1,  n = 20000000,  r = 26,  k = 256,  Alpha =      0,  Beta = 0.0625


-----------------------------------------------
Number of degrees of freedom          :   37
Chi-square statistic                  :   32.38
p-value of test                       :    0.69

-----------------------------------------------
CPU time used                    :  00:01:15.56

Generator state:




***********************************************************
HOST = node40.local.isima.fr, Linux

MersenneTwiter


svaria_SumCollector test:
-----------------------------------------------
   N =  1,  n = 500000000,  r =  0,   g = 10


-----------------------------------------------
Number of degrees of freedom          :   29
Chi-square statistic                  :   31.70
p-value of test                       :    0.33

-----------------------------------------------
CPU time used                    :  00:01:52.44

Generator state:




***********************************************************
HOST = node40.local.isima.fr, Linux

MersenneTwiter


smarsa_MatrixRank test:
-----------------------------------------------
   N = 10,  n = 1000000,  r =  0,    s = 5,    L = 30,    k = 30


-----------------------------------------------

Kolmogorov-Smirnov+ statistic = D+    :    0.12
p-value of test                       :    0.69

Kolmogorov-Smirnov- statistic = D-    :    0.19
p-value of test                       :    0.44

Anderson-Darling statistic = A2       :    0.24
p-value of test                       :    0.98

Test on the sum of all N observations
Number of degrees of freedom          :   40
Chi-square statistic                  :   38.74
p-value of test                       :    0.53

-----------------------------------------------
CPU time used                    :  00:01:27.67

Generator state:




***********************************************************
HOST = node40.local.isima.fr, Linux

MersenneTwiter


smarsa_MatrixRank test:
-----------------------------------------------
   N = 10,  n = 1000000,  r = 25,    s = 5,    L = 30,    k = 30


-----------------------------------------------

Kolmogorov-Smirnov+ statistic = D+    :   0.098
p-value of test                       :    0.77

Kolmogorov-Smirnov- statistic = D-    :    0.15
p-value of test                       :    0.58

Anderson-Darling statistic = A2       :    0.23
p-value of test                       :    0.98

Test on the sum of all N observations
Number of degrees of freedom          :   40
Chi-square statistic                  :   41.13
p-value of test                       :    0.42

-----------------------------------------------
CPU time used                    :  00:01:23.61

Generator state:




***********************************************************
HOST = node40.local.isima.fr, Linux

MersenneTwiter


smarsa_MatrixRank test:
-----------------------------------------------
   N =  1,  n = 5000,  r =  0,    s = 4,    L = 1000,    k = 1000


-----------------------------------------------
Number of degrees of freedom          :    3
Chi-square statistic                  :    2.55
p-value of test                       :    0.47

-----------------------------------------------
CPU time used                    :  00:02:12.76

Generator state:




***********************************************************
HOST = node40.local.isima.fr, Linux

MersenneTwiter


smarsa_MatrixRank test:
-----------------------------------------------
   N =  1,  n = 5000,  r = 26,    s = 4,    L = 1000,    k = 1000


-----------------------------------------------
Number of degrees of freedom          :    3
Chi-square statistic                  :    4.88
p-value of test                       :    0.18

-----------------------------------------------
CPU time used                    :  00:02:17.65

Generator state:




***********************************************************
HOST = node40.local.isima.fr, Linux

MersenneTwiter


smarsa_MatrixRank test:
-----------------------------------------------
   N =  1,  n = 80,  r = 15,    s = 15,    L = 5000,    k = 5000


-----------------------------------------------
Number of degrees of freedom          :    2
Chi-square statistic                  :    0.23
p-value of test                       :    0.89

-----------------------------------------------
CPU time used                    :  00:04:48.00

Generator state:




***********************************************************
HOST = node40.local.isima.fr, Linux

MersenneTwiter


smarsa_MatrixRank test:
-----------------------------------------------
   N =  1,  n = 80,  r =  0,    s = 30,    L = 5000,    k = 5000


-----------------------------------------------
Number of degrees of freedom          :    2
Chi-square statistic                  :    2.22
p-value of test                       :    0.33

-----------------------------------------------
CPU time used                    :  00:06:39.29

Generator state:




***********************************************************
HOST = node40.local.isima.fr, Linux

MersenneTwiter


smarsa_Savir2 test:
-----------------------------------------------
   N = 10,  n = 10000000,  r = 10,    m = 1048576,    t = 30


-----------------------------------------------

Kolmogorov-Smirnov+ statistic = D+    :   0.064
p-value of test                       :    0.89

Kolmogorov-Smirnov- statistic = D-    :    0.22
p-value of test                       :    0.32

Anderson-Darling statistic = A2       :    0.59
p-value of test                       :    0.65

Test on the sum of all N observations
Number of degrees of freedom          :  130
Chi-square statistic                  :  140.06
p-value of test                       :    0.26

-----------------------------------------------
CPU time used                    :  00:00:43.90

Generator state:




***********************************************************
HOST = node40.local.isima.fr, Linux

MersenneTwiter


smarsa_GCD test:
-----------------------------------------------
   N = 10,  n = 50000000,  r =  0,   s = 30


-----------------------------------------------
Test results for GCD values:

Kolmogorov-Smirnov+ statistic = D+    :    0.38
p-value of test                       :    0.04

Kolmogorov-Smirnov- statistic = D-    :    0.16
p-value of test                       :    0.55

Anderson-Darling statistic = A2       :    1.30
p-value of test                       :    0.23

Test on the sum of all N observations
Number of degrees of freedom          : 17430
Chi-square statistic                  :17390.20
p-value of test                       :    0.58



-----------------------------------------------
CPU time used                    :  00:00:57.22

Generator state:




***********************************************************
HOST = node40.local.isima.fr, Linux

MersenneTwiter


swalk_RandomWalk1 test:
-----------------------------------------------
   N =  1,  n = 100000000,  r =  0,   s = 5,   L0 =   50,   L1 =   50



-----------------------------------------------
Test on the values of the Statistic H

Number of degrees of freedom          :   36
ChiSquare statistic                   :   29.82
p-value of test                       :    0.76


-----------------------------------------------
Test on the values of the Statistic M

Number of degrees of freedom          :   35
ChiSquare statistic                   :   36.57
p-value of test                       :    0.40


-----------------------------------------------
Test on the values of the Statistic J

Number of degrees of freedom          :   25
ChiSquare statistic                   :   28.05
p-value of test                       :    0.31


-----------------------------------------------
Test on the values of the Statistic R

Number of degrees of freedom          :   24
ChiSquare statistic                   :   17.20
p-value of test                       :    0.84


-----------------------------------------------
Test on the values of the Statistic C

Number of degrees of freedom          :   17
ChiSquare statistic                   :    9.86
p-value of test                       :    0.91


-----------------------------------------------
CPU time used                    :  00:00:54.22

Generator state:




***********************************************************
HOST = node40.local.isima.fr, Linux

MersenneTwiter


swalk_RandomWalk1 test:
-----------------------------------------------
   N =  1,  n = 100000000,  r = 25,   s = 5,   L0 =   50,   L1 =   50



-----------------------------------------------
Test on the values of the Statistic H

Number of degrees of freedom          :   36
ChiSquare statistic                   :   31.84
p-value of test                       :    0.67


-----------------------------------------------
Test on the values of the Statistic M

Number of degrees of freedom          :   35
ChiSquare statistic                   :   40.16
p-value of test                       :    0.25


-----------------------------------------------
Test on the values of the Statistic J

Number of degrees of freedom          :   25
ChiSquare statistic                   :   13.50
p-value of test                       :    0.97


-----------------------------------------------
Test on the values of the Statistic R

Number of degrees of freedom          :   24
ChiSquare statistic                   :   19.81
p-value of test                       :    0.71


-----------------------------------------------
Test on the values of the Statistic C

Number of degrees of freedom          :   17
ChiSquare statistic                   :   18.88
p-value of test                       :    0.34


-----------------------------------------------
CPU time used                    :  00:00:53.09

Generator state:




***********************************************************
HOST = node40.local.isima.fr, Linux

MersenneTwiter


swalk_RandomWalk1 test:
-----------------------------------------------
   N =  1,  n = 10000000,  r =  0,   s = 10,   L0 = 1000,   L1 = 1000



-----------------------------------------------
Test on the values of the Statistic H

Number of degrees of freedom          :  146
ChiSquare statistic                   :  124.26
p-value of test                       :    0.90


-----------------------------------------------
Test on the values of the Statistic M

Number of degrees of freedom          :  146
ChiSquare statistic                   :  174.82
p-value of test                       :    0.05


-----------------------------------------------
Test on the values of the Statistic J

Number of degrees of freedom          :  500
ChiSquare statistic                   :  513.81
p-value of test                       :    0.32


-----------------------------------------------
Test on the values of the Statistic R

Number of degrees of freedom          :  136
ChiSquare statistic                   :  119.72
p-value of test                       :    0.84


-----------------------------------------------
Test on the values of the Statistic C

Number of degrees of freedom          :   74
ChiSquare statistic                   :   81.92
p-value of test                       :    0.25


-----------------------------------------------
CPU time used                    :  00:01:14.45

Generator state:




***********************************************************
HOST = node40.local.isima.fr, Linux

MersenneTwiter


swalk_RandomWalk1 test:
-----------------------------------------------
   N =  1,  n = 10000000,  r = 20,   s = 10,   L0 = 1000,   L1 = 1000



-----------------------------------------------
Test on the values of the Statistic H

Number of degrees of freedom          :  146
ChiSquare statistic                   :  150.15
p-value of test                       :    0.39


-----------------------------------------------
Test on the values of the Statistic M

Number of degrees of freedom          :  146
ChiSquare statistic                   :  148.35
p-value of test                       :    0.43


-----------------------------------------------
Test on the values of the Statistic J

Number of degrees of freedom          :  500
ChiSquare statistic                   :  513.93
p-value of test                       :    0.32


-----------------------------------------------
Test on the values of the Statistic R

Number of degrees of freedom          :  136
ChiSquare statistic                   :  112.51
p-value of test                       :    0.93


-----------------------------------------------
Test on the values of the Statistic C

Number of degrees of freedom          :   74
ChiSquare statistic                   :   65.39
p-value of test                       :    0.75


-----------------------------------------------
CPU time used                    :  00:01:17.05

Generator state:




***********************************************************
HOST = node40.local.isima.fr, Linux

MersenneTwiter


swalk_RandomWalk1 test:
-----------------------------------------------
   N =  1,  n = 1000000,  r =  0,   s = 15,   L0 = 10000,   L1 = 10000



-----------------------------------------------
Test on the values of the Statistic H

Number of degrees of freedom          :  384
ChiSquare statistic                   :  394.52
p-value of test                       :    0.34


-----------------------------------------------
Test on the values of the Statistic M

Number of degrees of freedom          :  384
ChiSquare statistic                   :  397.41
p-value of test                       :    0.31


-----------------------------------------------
Test on the values of the Statistic J

Number of degrees of freedom          : 5000
ChiSquare statistic                   : 4872.26
p-value of test                       :    0.90


-----------------------------------------------
Test on the values of the Statistic R

Number of degrees of freedom          :  378
ChiSquare statistic                   :  396.44
p-value of test                       :    0.25


-----------------------------------------------
Test on the values of the Statistic C

Number of degrees of freedom          :  200
ChiSquare statistic                   :  210.87
p-value of test                       :    0.29


-----------------------------------------------
CPU time used                    :  00:01:06.65

Generator state:




***********************************************************
HOST = node40.local.isima.fr, Linux

MersenneTwiter


swalk_RandomWalk1 test:
-----------------------------------------------
   N =  1,  n = 1000000,  r = 15,   s = 15,   L0 = 10000,   L1 = 10000



-----------------------------------------------
Test on the values of the Statistic H

Number of degrees of freedom          :  384
ChiSquare statistic                   :  362.38
p-value of test                       :    0.78


-----------------------------------------------
Test on the values of the Statistic M

Number of degrees of freedom          :  384
ChiSquare statistic                   :  368.47
p-value of test                       :    0.71


-----------------------------------------------
Test on the values of the Statistic J

Number of degrees of freedom          : 5000
ChiSquare statistic                   : 5114.37
p-value of test                       :    0.13


-----------------------------------------------
Test on the values of the Statistic R

Number of degrees of freedom          :  378
ChiSquare statistic                   :  398.66
p-value of test                       :    0.22


-----------------------------------------------
Test on the values of the Statistic C

Number of degrees of freedom          :  200
ChiSquare statistic                   :  195.94
p-value of test                       :    0.57


-----------------------------------------------
CPU time used                    :  00:01:07.45

Generator state:




***********************************************************
HOST = node40.local.isima.fr, Linux

MersenneTwiter


scomp_LinearComp test:
-----------------------------------------------
   N =  1,  n = 400020,  r =  0,    s = 1



-----------------------------------------------
Number of degrees of freedom          :   12
Chi2 statistic for size of jumps      :    9.89
p-value of test                       :    0.63


-----------------------------------------------
Normal statistic for number of jumps  : -402.74
p-value of test                       : 1 - eps1    *****



-----------------------------------------------
CPU time used                    :  00:00:11.18

Generator state:




***********************************************************
HOST = node40.local.isima.fr, Linux

MersenneTwiter


scomp_LinearComp test:
-----------------------------------------------
   N =  1,  n = 400020,  r = 29,    s = 1



-----------------------------------------------
Number of degrees of freedom          :   12
Chi2 statistic for size of jumps      :    9.85
p-value of test                       :    0.63


-----------------------------------------------
Normal statistic for number of jumps  : -402.72
p-value of test                       : 1 - eps1    *****



-----------------------------------------------
CPU time used                    :  00:00:11.18

Generator state:




***********************************************************
HOST = node40.local.isima.fr, Linux

MersenneTwiter


scomp_LempelZiv test:
-----------------------------------------------
   N = 10,  n = 134217728,  r =  0,   s =   30,   k =   27


-----------------------------------------------

Kolmogorov-Smirnov+ statistic = D+    :    0.12
p-value of test                       :    0.69

Kolmogorov-Smirnov- statistic = D-    :   0.100
p-value of test                       :    0.76

Anderson-Darling statistic = A2       :    0.19
p-value of test                       :    0.9922

Tests on the sum of all N observations
Standardized normal statistic         :   -0.29
p-value of test                       :    0.62

Sample variance                       :    1.11
p-value of test                       :    0.35

-----------------------------------------------
CPU time used                    :  00:01:33.80

Generator state:




***********************************************************
HOST = node40.local.isima.fr, Linux

MersenneTwiter


scomp_LempelZiv test:
-----------------------------------------------
   N = 10,  n = 134217728,  r = 15,   s =   15,   k =   27


-----------------------------------------------

Kolmogorov-Smirnov+ statistic = D+    :   0.052
p-value of test                       :    0.92

Kolmogorov-Smirnov- statistic = D-    :    0.20
p-value of test                       :    0.38

Anderson-Darling statistic = A2       :    0.62
p-value of test                       :    0.63

Tests on the sum of all N observations
Standardized normal statistic         :    0.95
p-value of test                       :    0.17

Sample variance                       :    1.42
p-value of test                       :    0.17

-----------------------------------------------
CPU time used                    :  00:02:00.22

Generator state:




***********************************************************
HOST = node40.local.isima.fr, Linux

MersenneTwiter


sspectral_Fourier3 test:
-----------------------------------------------
   N = 100000,  n = 16384,  r =  0,   s =    3,   k =   14


-----------------------------------------------

Kolmogorov-Smirnov+ statistic = D+    : 7.26e-3
p-value of test                       :    0.65

Kolmogorov-Smirnov- statistic = D-    :   0.013
p-value of test                       :    0.23

Anderson-Darling statistic = A2       :    0.88
p-value of test                       :    0.43

-----------------------------------------------
CPU time used                    :  00:00:39.03

Generator state:




***********************************************************
HOST = node40.local.isima.fr, Linux

MersenneTwiter


sspectral_Fourier3 test:
-----------------------------------------------
   N = 100000,  n = 16384,  r = 27,   s =    3,   k =   14


-----------------------------------------------

Kolmogorov-Smirnov+ statistic = D+    : 8.07e-3
p-value of test                       :    0.58

Kolmogorov-Smirnov- statistic = D-    :   0.012
p-value of test                       :    0.33

Anderson-Darling statistic = A2       :    0.60
p-value of test                       :    0.65

-----------------------------------------------
CPU time used                    :  00:00:38.43

Generator state:




***********************************************************
HOST = node40.local.isima.fr, Linux

MersenneTwiter


sstring_LongestHeadRun test:
-----------------------------------------------
   N =  1,  n = 1000,  r =  0,   s = 3,   L = 10000020


-----------------------------------------------
Number of degrees of freedom          :    8
Chi-square statistic                  :    9.81
p-value of test                       :    0.28

-----------------------------------------------
Global longest run of 1               :   33.00
p-value of test                       :    0.44



-----------------------------------------------
CPU time used                    :  00:01:41.32

Generator state:




***********************************************************
HOST = node40.local.isima.fr, Linux

MersenneTwiter


sstring_LongestHeadRun test:
-----------------------------------------------
   N =  1,  n = 1000,  r = 27,   s = 3,   L = 10000020


-----------------------------------------------
Number of degrees of freedom          :    8
Chi-square statistic                  :   10.56
p-value of test                       :    0.23

-----------------------------------------------
Global longest run of 1               :   33.00
p-value of test                       :    0.44



-----------------------------------------------
CPU time used                    :  00:01:42.29

Generator state:




***********************************************************
HOST = node40.local.isima.fr, Linux

MersenneTwiter


sstring_PeriodsInStrings test:
-----------------------------------------------
   N = 10,  n = 500000000,  r =  0,   s =   10


-----------------------------------------------

Kolmogorov-Smirnov+ statistic = D+    :    0.30
p-value of test                       :    0.13

Kolmogorov-Smirnov- statistic = D-    :    0.12
p-value of test                       :    0.69

Anderson-Darling statistic = A2       :    1.10
p-value of test                       :    0.31

Test on the sum of all N observations
Number of degrees of freedom          :  200
Chi-square statistic                  :  186.87
p-value of test                       :    0.74

-----------------------------------------------
CPU time used                    :  00:02:53.93

Generator state:




***********************************************************
HOST = node40.local.isima.fr, Linux

MersenneTwiter


sstring_PeriodsInStrings test:
-----------------------------------------------
   N = 10,  n = 500000000,  r = 20,   s =   10


-----------------------------------------------

Kolmogorov-Smirnov+ statistic = D+    :    0.18
p-value of test                       :    0.47

Kolmogorov-Smirnov- statistic = D-    :    0.15
p-value of test                       :    0.57

Anderson-Darling statistic = A2       :    0.43
p-value of test                       :    0.82

Test on the sum of all N observations
Number of degrees of freedom          :  200
Chi-square statistic                  :  192.64
p-value of test                       :    0.63

-----------------------------------------------
CPU time used                    :  00:02:56.37

Generator state:




***********************************************************
HOST = node40.local.isima.fr, Linux

MersenneTwiter


sstring_HammingWeight2 test:
-----------------------------------------------
   N = 10,  n = 1000000000,  r =  0,   s = 3,   L = 1000000


-----------------------------------------------

Kolmogorov-Smirnov+ statistic = D+    :   0.071
p-value of test                       :    0.87

Kolmogorov-Smirnov- statistic = D-    :    0.20
p-value of test                       :    0.41

Anderson-Darling statistic = A2       :    0.36
p-value of test                       :    0.89

Test on the sum of all N observations
Number of degrees of freedom          : 10000
Chi-square statistic                  :10080.22
p-value of test                       :    0.28

-----------------------------------------------
CPU time used                    :  00:01:00.13

Generator state:




***********************************************************
HOST = node40.local.isima.fr, Linux

MersenneTwiter


sstring_HammingWeight2 test:
-----------------------------------------------
   N = 10,  n = 1000000000,  r = 27,   s = 3,   L = 1000000


-----------------------------------------------

Kolmogorov-Smirnov+ statistic = D+    :    0.18
p-value of test                       :    0.45

Kolmogorov-Smirnov- statistic = D-    :   0.032
p-value of test                       :    0.96

Anderson-Darling statistic = A2       :    0.46
p-value of test                       :    0.78

Test on the sum of all N observations
Number of degrees of freedom          : 10000
Chi-square statistic                  : 9881.14
p-value of test                       :    0.80

-----------------------------------------------
CPU time used                    :  00:01:03.25

Generator state:




***********************************************************
HOST = node40.local.isima.fr, Linux

MersenneTwiter


sstring_HammingCorr test:
-----------------------------------------------
   N =  1,  n = 1000000000,  r = 10,   s = 10,   L = 30



-----------------------------------------------
Normal statistic                      :  -0.016
p-value of test                       :    0.51

-----------------------------------------------
CPU time used                    :  00:01:18.89

Generator state:




***********************************************************
HOST = node40.local.isima.fr, Linux

MersenneTwiter


sstring_HammingCorr test:
-----------------------------------------------
   N =  1,  n = 100000000,  r = 10,   s = 10,   L = 300



-----------------------------------------------
Normal statistic                      :    1.02
p-value of test                       :    0.15

-----------------------------------------------
CPU time used                    :  00:01:15.06

Generator state:




***********************************************************
HOST = node40.local.isima.fr, Linux

MersenneTwiter


sstring_HammingCorr test:
-----------------------------------------------
   N =  1,  n = 100000000,  r = 10,   s = 10,   L = 1200



-----------------------------------------------
Normal statistic                      :   -0.82
p-value of test                       :    0.79

-----------------------------------------------
CPU time used                    :  00:04:55.01

Generator state:




***********************************************************
HOST = node40.local.isima.fr, Linux

MersenneTwiter


sstring_HammingIndep test:
-----------------------------------------------
   N = 10,  n = 30000000,  r =  0,   s = 3,   L = 30,   d = 0



Counters with expected numbers >= 10
-----------------------------------------------

Kolmogorov-Smirnov+ statistic = D+    :    0.19
p-value of test                       :    0.42

Kolmogorov-Smirnov- statistic = D-    :    0.28
p-value of test                       :    0.17

Anderson-Darling statistic = A2       :    1.55
p-value of test                       :    0.16

Test on the sum of all N observations
Number of degrees of freedom          : 4890
Chi-square statistic                  : 4912.95
p-value of test                       :    0.41

-----------------------------------------------
CPU time used                    :  00:02:02.62

Generator state:




***********************************************************
HOST = node40.local.isima.fr, Linux

MersenneTwiter


sstring_HammingIndep test:
-----------------------------------------------
   N = 10,  n = 30000000,  r = 27,   s = 3,   L = 30,   d = 0



Counters with expected numbers >= 10
-----------------------------------------------

Kolmogorov-Smirnov+ statistic = D+    :    0.14
p-value of test                       :    0.62

Kolmogorov-Smirnov- statistic = D-    :    0.21
p-value of test                       :    0.36

Anderson-Darling statistic = A2       :    0.64
p-value of test                       :    0.61

Test on the sum of all N observations
Number of degrees of freedom          : 4890
Chi-square statistic                  : 4951.46
p-value of test                       :    0.27

-----------------------------------------------
CPU time used                    :  00:02:08.80

Generator state:




***********************************************************
HOST = node40.local.isima.fr, Linux

MersenneTwiter


sstring_HammingIndep test:
-----------------------------------------------
   N =  1,  n = 30000000,  r =  0,   s = 4,   L = 300,   d = 0



Counters with expected numbers >= 10
-----------------------------------------------
Number of degrees of freedom          : 4117
Chi-square statistic                  : 4114.92
p-value of test                       :    0.51

-----------------------------------------------
CPU time used                    :  00:01:32.23

Generator state:




***********************************************************
HOST = node40.local.isima.fr, Linux

MersenneTwiter


sstring_HammingIndep test:
-----------------------------------------------
   N =  1,  n = 30000000,  r = 26,   s = 4,   L = 300,   d = 0



Counters with expected numbers >= 10
-----------------------------------------------
Number of degrees of freedom          : 4117
Chi-square statistic                  : 4019.48
p-value of test                       :    0.86

-----------------------------------------------
CPU time used                    :  00:01:35.32

Generator state:




***********************************************************
HOST = node40.local.isima.fr, Linux

MersenneTwiter


sstring_HammingIndep test:
-----------------------------------------------
   N =  1,  n = 10000000,  r =  0,   s = 5,   L = 1200,   d = 0



Counters with expected numbers >= 10
-----------------------------------------------
Number of degrees of freedom          : 11825
Chi-square statistic                  :11673.70
p-value of test                       :    0.84

-----------------------------------------------
CPU time used                    :  00:01:41.88

Generator state:




***********************************************************
HOST = node40.local.isima.fr, Linux

MersenneTwiter


sstring_HammingIndep test:
-----------------------------------------------
   N =  1,  n = 10000000,  r = 25,   s = 5,   L = 1200,   d = 0



Counters with expected numbers >= 10
-----------------------------------------------
Number of degrees of freedom          : 11825
Chi-square statistic                  :11332.10
p-value of test                       :    0.9994    *****

-----------------------------------------------
CPU time used                    :  00:01:45.44

Generator state:




***********************************************************
HOST = node40.local.isima.fr, Linux

MersenneTwiter


sstring_Run test:
-----------------------------------------------
   N =  1,  n = 2000000000,  r =  0,   s =    3


-----------------------------------------------
Total number of 1 runs:  2000000000

Number of degrees of freedom          :   54
Chi2 statistic for number of runs     :   67.14
p-value of test                       :    0.11


-----------------------------------------------
Total number of bits:  8000007138

Normal statistic for number of bits   :   0.056
p-value of test                       :    0.48



-----------------------------------------------
CPU time used                    :  00:01:26.56

Generator state:




***********************************************************
HOST = node40.local.isima.fr, Linux

MersenneTwiter


sstring_Run test:
-----------------------------------------------
   N =  1,  n = 2000000000,  r = 27,   s =    3


-----------------------------------------------
Total number of 1 runs:  2000000000

Number of degrees of freedom          :   54
Chi2 statistic for number of runs     :   60.13
p-value of test                       :    0.26


-----------------------------------------------
Total number of bits:  7999917738

Normal statistic for number of bits   :   -0.65
p-value of test                       :    0.74



-----------------------------------------------
CPU time used                    :  00:01:30.05

Generator state:




***********************************************************
HOST = node40.local.isima.fr, Linux

MersenneTwiter


sstring_AutoCor test:
-----------------------------------------------
   N = 10,  n = 1000000030,  r =  0,   s = 3,   d = 1


-----------------------------------------------

Kolmogorov-Smirnov+ statistic = D+    :    0.20
p-value of test                       :    0.41

Kolmogorov-Smirnov- statistic = D-    :    0.11
p-value of test                       :    0.72

Anderson-Darling statistic = A2       :    0.35
p-value of test                       :    0.90

Tests on the sum of all N observations
Standardized normal statistic         :   -0.48
p-value of test                       :    0.68

Sample variance                       :    0.87
p-value of test                       :    0.55

-----------------------------------------------
CPU time used                    :  00:01:48.39

Generator state:




***********************************************************
HOST = node40.local.isima.fr, Linux

MersenneTwiter


sstring_AutoCor test:
-----------------------------------------------
   N = 10,  n = 1000000029,  r =  0,   s = 3,   d = 3


-----------------------------------------------

Kolmogorov-Smirnov+ statistic = D+    :    0.31
p-value of test                       :    0.12

Kolmogorov-Smirnov- statistic = D-    :   0.064
p-value of test                       :    0.89

Anderson-Darling statistic = A2       :    0.97
p-value of test                       :    0.37

Tests on the sum of all N observations
Standardized normal statistic         :   -1.02
p-value of test                       :    0.85

Sample variance                       :    0.86
p-value of test                       :    0.56

-----------------------------------------------
CPU time used                    :  00:01:22.04

Generator state:




***********************************************************
HOST = node40.local.isima.fr, Linux

MersenneTwiter


sstring_AutoCor test:
-----------------------------------------------
   N = 10,  n = 1000000030,  r = 27,   s = 3,   d = 1


-----------------------------------------------

Kolmogorov-Smirnov+ statistic = D+    :   0.082
p-value of test                       :    0.83

Kolmogorov-Smirnov- statistic = D-    :    0.20
p-value of test                       :    0.39

Anderson-Darling statistic = A2       :    0.31
p-value of test                       :    0.93

Tests on the sum of all N observations
Standardized normal statistic         :   0.080
p-value of test                       :    0.47

Sample variance                       :    1.09
p-value of test                       :    0.37

-----------------------------------------------
CPU time used                    :  00:01:44.25

Generator state:




***********************************************************
HOST = node40.local.isima.fr, Linux

MersenneTwiter


sstring_AutoCor test:
-----------------------------------------------
   N = 10,  n = 1000000029,  r = 27,   s = 3,   d = 3


-----------------------------------------------

Kolmogorov-Smirnov+ statistic = D+    :    0.25
p-value of test                       :    0.24

Kolmogorov-Smirnov- statistic = D-    :   0.091
p-value of test                       :    0.80

Anderson-Darling statistic = A2       :    0.72
p-value of test                       :    0.54

Tests on the sum of all N observations
Standardized normal statistic         :   -0.32
p-value of test                       :    0.63

Sample variance                       :    1.10
p-value of test                       :    0.36

-----------------------------------------------
CPU time used                    :  00:01:29.95

Generator state:





========= Summary results of BigCrush =========

 Version:          TestU01 1.2.3
 Generator:        MersenneTwiter
 Number of statistics:  160
 Total CPU time:   04:29:13.10
 The following tests gave p-values outside [0.001, 0.9990]:
 (eps  means a value < 1.0e-300):
 (eps1 means a value < 1.0e-15):

       Test                          p-value
 ----------------------------------------------
 80  LinearComp, r = 0              1 - eps1
 81  LinearComp, r = 29             1 - eps1
 100  HammingIndep, L=1200, r=25      0.9994 
 ----------------------------------------------
 All other tests were passed



