xxxxxxxxxxxxxxxxxxxxxxxxxxxxxxxxxxxxxxxxxxxxxxxxxxxxxxxxxxx
                 Starting BigCrush
                 Version: TestU01 1.2.3
xxxxxxxxxxxxxxxxxxxxxxxxxxxxxxxxxxxxxxxxxxxxxxxxxxxxxxxxxxx


***********************************************************
Test smarsa_SerialOver calling smultin_MultinomialOver

***********************************************************
HOST = hpcsmp01, Linux

MersenneTwiter


smultin_MultinomialOver test:
-----------------------------------------------
   N =  1,  n = 1000000000,  r =  0,   d =  256,   t =  3,
       Sparse =  FALSE

       GenerCell = smultin_GenerCellSerial
       Number of cells = d^t =           16777216
       Expected number per cell =   59.604645
       Hashing =  FALSE

   For Delta > -1, we use the ChiSquare approximation
   Correction factor of the ChiSquare: 
       Delta =     1,    Mu =   0.0083558402,    Sigma =          1

-----------------------------------------------
Test Results for Delta =   1.0000

Number of degrees of freedom          : 16711680
Value of the statistic                : 1.67e+7
p-value of test                       :    0.67


-----------------------------------------------
CPU time used                    :  00:03:55.33

Generator state:




***********************************************************
Test smarsa_SerialOver calling smultin_MultinomialOver

***********************************************************
HOST = hpcsmp01, Linux

MersenneTwiter


smultin_MultinomialOver test:
-----------------------------------------------
   N =  1,  n = 1000000000,  r = 22,   d =  256,   t =  3,
       Sparse =  FALSE

       GenerCell = smultin_GenerCellSerial
       Number of cells = d^t =           16777216
       Expected number per cell =   59.604645
       Hashing =  FALSE

   For Delta > -1, we use the ChiSquare approximation
   Correction factor of the ChiSquare: 
       Delta =     1,    Mu =   0.0083558402,    Sigma =          1

-----------------------------------------------
Test Results for Delta =   1.0000

Number of degrees of freedom          : 16711680
Value of the statistic                : 1.67e+7
p-value of test                       :    0.25


-----------------------------------------------
CPU time used                    :  00:04:08.98

Generator state:




***********************************************************
Test smarsa_CollisionOver calling smultin_MultinomialOver

***********************************************************
HOST = hpcsmp01, Linux

MersenneTwiter


smultin_MultinomialOver test:
-----------------------------------------------
   N = 30,  n = 20000000,  r =  0,   d = 2097152,   t =  2,
       Sparse =   TRUE

       GenerCell = smultin_GenerCellSerial
       Number of cells = d^t =      4398046511104
       Expected number per cell =  1 /  219902.33
       EColl = n^2 / (2k) =  45.47473509
       Hashing =   TRUE

       Collision test

       CollisionOver:   density = n / k =  1 /  219902.33
       Expected number of collisions = Mu =      45.47


-----------------------------------------------
Results of CollisionOver test:

POISSON approximation                 :
Expected number of collisions = N*Mu  :     1364.24
Observed number of collisions         :     1399
p-value of test                       :    0.18

-----------------------------
Total number of cells containing j balls

  j =  0                              :  131940795334519
  j =  1                              :        599997202
  j =  2                              :             1399
  j =  3                              :                0
  j =  4                              :                0
  j =  5                              :                0

-----------------------------------------------
CPU time used                    :  00:08:16.94

Generator state:




***********************************************************
Test smarsa_CollisionOver calling smultin_MultinomialOver

***********************************************************
HOST = hpcsmp01, Linux

MersenneTwiter


smultin_MultinomialOver test:
-----------------------------------------------
   N = 30,  n = 20000000,  r =  9,   d = 2097152,   t =  2,
       Sparse =   TRUE

       GenerCell = smultin_GenerCellSerial
       Number of cells = d^t =      4398046511104
       Expected number per cell =  1 /  219902.33
       EColl = n^2 / (2k) =  45.47473509
       Hashing =   TRUE

       Collision test

       CollisionOver:   density = n / k =  1 /  219902.33
       Expected number of collisions = Mu =      45.47


-----------------------------------------------
Results of CollisionOver test:

POISSON approximation                 :
Expected number of collisions = N*Mu  :     1364.24
Observed number of collisions         :     1390
p-value of test                       :    0.25

-----------------------------
Total number of cells containing j balls

  j =  0                              :  131940795334510
  j =  1                              :        599997220
  j =  2                              :             1390
  j =  3                              :                0
  j =  4                              :                0
  j =  5                              :                0

-----------------------------------------------
CPU time used                    :  00:09:07.24

Generator state:




***********************************************************
Test smarsa_CollisionOver calling smultin_MultinomialOver

***********************************************************
HOST = hpcsmp01, Linux

MersenneTwiter


smultin_MultinomialOver test:
-----------------------------------------------
   N = 30,  n = 20000000,  r =  0,   d = 16384,   t =  3,
       Sparse =   TRUE

       GenerCell = smultin_GenerCellSerial
       Number of cells = d^t =      4398046511104
       Expected number per cell =  1 /  219902.33
       EColl = n^2 / (2k) =  45.47473509
       Hashing =   TRUE

       Collision test

       CollisionOver:   density = n / k =  1 /  219902.33
       Expected number of collisions = Mu =      45.47


-----------------------------------------------
Results of CollisionOver test:

POISSON approximation                 :
Expected number of collisions = N*Mu  :     1364.24
Observed number of collisions         :     1369
p-value of test                       :    0.45

-----------------------------
Total number of cells containing j balls

  j =  0                              :  131940795334489
  j =  1                              :        599997262
  j =  2                              :             1369
  j =  3                              :                0
  j =  4                              :                0
  j =  5                              :                0

-----------------------------------------------
CPU time used                    :  00:11:45.48

Generator state:




***********************************************************
Test smarsa_CollisionOver calling smultin_MultinomialOver

***********************************************************
HOST = hpcsmp01, Linux

MersenneTwiter


smultin_MultinomialOver test:
-----------------------------------------------
   N = 30,  n = 20000000,  r = 16,   d = 16384,   t =  3,
       Sparse =   TRUE

       GenerCell = smultin_GenerCellSerial
       Number of cells = d^t =      4398046511104
       Expected number per cell =  1 /  219902.33
       EColl = n^2 / (2k) =  45.47473509
       Hashing =   TRUE

       Collision test

       CollisionOver:   density = n / k =  1 /  219902.33
       Expected number of collisions = Mu =      45.47


-----------------------------------------------
Results of CollisionOver test:

POISSON approximation                 :
Expected number of collisions = N*Mu  :     1364.24
Observed number of collisions         :     1365
p-value of test                       :    0.50

-----------------------------
Total number of cells containing j balls

  j =  0                              :  131940795334485
  j =  1                              :        599997270
  j =  2                              :             1365
  j =  3                              :                0
  j =  4                              :                0
  j =  5                              :                0

-----------------------------------------------
CPU time used                    :  00:11:51.55

Generator state:




***********************************************************
Test smarsa_CollisionOver calling smultin_MultinomialOver

***********************************************************
HOST = hpcsmp01, Linux

MersenneTwiter


smultin_MultinomialOver test:
-----------------------------------------------
   N = 30,  n = 20000000,  r =  0,   d =   64,   t =  7,
       Sparse =   TRUE

       GenerCell = smultin_GenerCellSerial
       Number of cells = d^t =      4398046511104
       Expected number per cell =  1 /  219902.33
       EColl = n^2 / (2k) =  45.47473509
       Hashing =   TRUE

       Collision test

       CollisionOver:   density = n / k =  1 /  219902.33
       Expected number of collisions = Mu =      45.47


-----------------------------------------------
Results of CollisionOver test:

POISSON approximation                 :
Expected number of collisions = N*Mu  :     1364.24
Observed number of collisions         :     1337
p-value of test                       :    0.76

-----------------------------
Total number of cells containing j balls

  j =  0                              :  131940795334457
  j =  1                              :        599997326
  j =  2                              :             1337
  j =  3                              :                0
  j =  4                              :                0
  j =  5                              :                0

-----------------------------------------------
CPU time used                    :  00:10:11.30

Generator state:




***********************************************************
Test smarsa_CollisionOver calling smultin_MultinomialOver

***********************************************************
HOST = hpcsmp01, Linux

MersenneTwiter


smultin_MultinomialOver test:
-----------------------------------------------
   N = 30,  n = 20000000,  r = 24,   d =   64,   t =  7,
       Sparse =   TRUE

       GenerCell = smultin_GenerCellSerial
       Number of cells = d^t =      4398046511104
       Expected number per cell =  1 /  219902.33
       EColl = n^2 / (2k) =  45.47473509
       Hashing =   TRUE

       Collision test

       CollisionOver:   density = n / k =  1 /  219902.33
       Expected number of collisions = Mu =      45.47


-----------------------------------------------
Results of CollisionOver test:

POISSON approximation                 :
Expected number of collisions = N*Mu  :     1364.24
Observed number of collisions         :     1341
p-value of test                       :    0.73

-----------------------------
Total number of cells containing j balls

  j =  0                              :  131940795334461
  j =  1                              :        599997318
  j =  2                              :             1341
  j =  3                              :                0
  j =  4                              :                0
  j =  5                              :                0

-----------------------------------------------
CPU time used                    :  00:09:37.18

Generator state:




***********************************************************
Test smarsa_CollisionOver calling smultin_MultinomialOver

***********************************************************
HOST = hpcsmp01, Linux

MersenneTwiter


smultin_MultinomialOver test:
-----------------------------------------------
   N = 30,  n = 20000000,  r =  0,   d =    8,   t = 14,
       Sparse =   TRUE

       GenerCell = smultin_GenerCellSerial
       Number of cells = d^t =      4398046511104
       Expected number per cell =  1 /  219902.33
       EColl = n^2 / (2k) =  45.47473509
       Hashing =   TRUE

       Collision test

       CollisionOver:   density = n / k =  1 /  219902.33
       Expected number of collisions = Mu =      45.47


-----------------------------------------------
Results of CollisionOver test:

POISSON approximation                 :
Expected number of collisions = N*Mu  :     1364.24
Observed number of collisions         :     1414
p-value of test                       :    0.09

-----------------------------
Total number of cells containing j balls

  j =  0                              :  131940795334534
  j =  1                              :        599997172
  j =  2                              :             1414
  j =  3                              :                0
  j =  4                              :                0
  j =  5                              :                0

-----------------------------------------------
CPU time used                    :  00:09:47.05

Generator state:




***********************************************************
Test smarsa_CollisionOver calling smultin_MultinomialOver

***********************************************************
HOST = hpcsmp01, Linux

MersenneTwiter


smultin_MultinomialOver test:
-----------------------------------------------
   N = 30,  n = 20000000,  r = 27,   d =    8,   t = 14,
       Sparse =   TRUE

       GenerCell = smultin_GenerCellSerial
       Number of cells = d^t =      4398046511104
       Expected number per cell =  1 /  219902.33
       EColl = n^2 / (2k) =  45.47473509
       Hashing =   TRUE

       Collision test

       CollisionOver:   density = n / k =  1 /  219902.33
       Expected number of collisions = Mu =      45.47


-----------------------------------------------
Results of CollisionOver test:

POISSON approximation                 :
Expected number of collisions = N*Mu  :     1364.24
Observed number of collisions         :     1325
p-value of test                       :    0.85

-----------------------------
Total number of cells containing j balls

  j =  0                              :  131940795334445
  j =  1                              :        599997350
  j =  2                              :             1325
  j =  3                              :                0
  j =  4                              :                0
  j =  5                              :                0

-----------------------------------------------
CPU time used                    :  00:09:51.47

Generator state:




***********************************************************
Test smarsa_CollisionOver calling smultin_MultinomialOver

***********************************************************
HOST = hpcsmp01, Linux

MersenneTwiter


smultin_MultinomialOver test:
-----------------------------------------------
   N = 30,  n = 20000000,  r =  0,   d =    4,   t = 21,
       Sparse =   TRUE

       GenerCell = smultin_GenerCellSerial
       Number of cells = d^t =      4398046511104
       Expected number per cell =  1 /  219902.33
       EColl = n^2 / (2k) =  45.47473509
       Hashing =   TRUE

       Collision test

       CollisionOver:   density = n / k =  1 /  219902.33
       Expected number of collisions = Mu =      45.47


-----------------------------------------------
Results of CollisionOver test:

POISSON approximation                 :
Expected number of collisions = N*Mu  :     1364.24
Observed number of collisions         :     1354
p-value of test                       :    0.60

-----------------------------
Total number of cells containing j balls

  j =  0                              :  131940795334474
  j =  1                              :        599997292
  j =  2                              :             1354
  j =  3                              :                0
  j =  4                              :                0
  j =  5                              :                0

-----------------------------------------------
CPU time used                    :  00:09:43.07

Generator state:




***********************************************************
Test smarsa_CollisionOver calling smultin_MultinomialOver

***********************************************************
HOST = hpcsmp01, Linux

MersenneTwiter


smultin_MultinomialOver test:
-----------------------------------------------
   N = 30,  n = 20000000,  r = 28,   d =    4,   t = 21,
       Sparse =   TRUE

       GenerCell = smultin_GenerCellSerial
       Number of cells = d^t =      4398046511104
       Expected number per cell =  1 /  219902.33
       EColl = n^2 / (2k) =  45.47473509
       Hashing =   TRUE

       Collision test

       CollisionOver:   density = n / k =  1 /  219902.33
       Expected number of collisions = Mu =      45.47


-----------------------------------------------
Results of CollisionOver test:

POISSON approximation                 :
Expected number of collisions = N*Mu  :     1364.24
Observed number of collisions         :     1355
p-value of test                       :    0.59

-----------------------------
Total number of cells containing j balls

  j =  0                              :  131940795334475
  j =  1                              :        599997290
  j =  2                              :             1355
  j =  3                              :                0
  j =  4                              :                0
  j =  5                              :                0

-----------------------------------------------
CPU time used                    :  00:09:50.82

Generator state:




***********************************************************
HOST = hpcsmp01, Linux

MersenneTwiter


smarsa_BirthdaySpacings test:
-----------------------------------------------
   N = 100,  n = 10000000,  r =  0,    d = 2147483648,    t = 2,    p = 1


      Number of cells = d^t = 4611686018427387904
      Lambda = Poisson mean =      54.2101


----------------------------------------------------
Total expected number = N*Lambda      :    5421.01
Total observed number                 :    5411
p-value of test                       :    0.55


-----------------------------------------------
CPU time used                    :  00:06:08.17

Generator state:




***********************************************************
HOST = hpcsmp01, Linux

MersenneTwiter


smarsa_BirthdaySpacings test:
-----------------------------------------------
   N = 20,  n = 20000000,  r =  0,    d = 2097152,    t = 3,    p = 1


      Number of cells = d^t = 9223372036854775808
      Lambda = Poisson mean =     216.8404


----------------------------------------------------
Total expected number = N*Lambda      :    4336.81
Total observed number                 :    4343
p-value of test                       :    0.46


-----------------------------------------------
CPU time used                    :  00:02:47.46

Generator state:




***********************************************************
HOST = hpcsmp01, Linux

MersenneTwiter


smarsa_BirthdaySpacings test:
-----------------------------------------------
   N = 20,  n = 30000000,  r = 14,    d = 65536,    t = 4,    p = 1


      Number of cells = d^t = 18446744073709551616
      Lambda = Poisson mean =     365.9182


----------------------------------------------------
Total expected number = N*Lambda      :    7318.36
Total observed number                 :    7312
p-value of test                       :    0.53


-----------------------------------------------
CPU time used                    :  00:04:31.47

Generator state:




***********************************************************
HOST = hpcsmp01, Linux

MersenneTwiter


smarsa_BirthdaySpacings test:
-----------------------------------------------
   N = 20,  n = 20000000,  r =  0,    d = 512,    t = 7,    p = 1


      Number of cells = d^t = 9223372036854775808
      Lambda = Poisson mean =     216.8404


----------------------------------------------------
Total expected number = N*Lambda      :    4336.81
Total observed number                 :    4226
p-value of test                       :    0.95


-----------------------------------------------
CPU time used                    :  00:03:14.72

Generator state:




***********************************************************
HOST = hpcsmp01, Linux

MersenneTwiter


smarsa_BirthdaySpacings test:
-----------------------------------------------
   N = 20,  n = 20000000,  r =  7,    d = 512,    t = 7,    p = 1


      Number of cells = d^t = 9223372036854775808
      Lambda = Poisson mean =     216.8404


----------------------------------------------------
Total expected number = N*Lambda      :    4336.81
Total observed number                 :    4228
p-value of test                       :    0.95


-----------------------------------------------
CPU time used                    :  00:03:20.55

Generator state:




***********************************************************
HOST = hpcsmp01, Linux

MersenneTwiter


smarsa_BirthdaySpacings test:
-----------------------------------------------
   N = 20,  n = 30000000,  r = 14,    d = 256,    t = 8,    p = 1


      Number of cells = d^t = 18446744073709551616
      Lambda = Poisson mean =     365.9182


----------------------------------------------------
Total expected number = N*Lambda      :    7318.36
Total observed number                 :    7496
p-value of test                       :    0.02


-----------------------------------------------
CPU time used                    :  00:05:17.09

Generator state:




***********************************************************
HOST = hpcsmp01, Linux

MersenneTwiter


smarsa_BirthdaySpacings test:
-----------------------------------------------
   N = 20,  n = 30000000,  r = 22,    d = 256,    t = 8,    p = 1


      Number of cells = d^t = 18446744073709551616
      Lambda = Poisson mean =     365.9182


----------------------------------------------------
Total expected number = N*Lambda      :    7318.36
Total observed number                 :    7264
p-value of test                       :    0.74


-----------------------------------------------
CPU time used                    :  00:05:16.18

Generator state:




***********************************************************
HOST = hpcsmp01, Linux

MersenneTwiter


smarsa_BirthdaySpacings test:
-----------------------------------------------
   N = 20,  n = 30000000,  r =  0,    d = 16,    t = 16,    p = 1


      Number of cells = d^t = 18446744073709551616
      Lambda = Poisson mean =     365.9182


----------------------------------------------------
Total expected number = N*Lambda      :    7318.36
Total observed number                 :    7220
p-value of test                       :    0.87


-----------------------------------------------
CPU time used                    :  00:06:35.38

Generator state:




***********************************************************
HOST = hpcsmp01, Linux

MersenneTwiter


smarsa_BirthdaySpacings test:
-----------------------------------------------
   N = 20,  n = 30000000,  r = 26,    d = 16,    t = 16,    p = 1


      Number of cells = d^t = 18446744073709551616
      Lambda = Poisson mean =     365.9182


----------------------------------------------------
Total expected number = N*Lambda      :    7318.36
Total observed number                 :    7230
p-value of test                       :    0.85


-----------------------------------------------
CPU time used                    :  00:06:55.59

Generator state:




***********************************************************
HOST = hpcsmp01, Linux

MersenneTwiter


snpair_ClosePairs test:
-----------------------------------------------
   N = 30,  n = 6000000,  r =  0,  t = 3,  p = 0,  m = 30,  Torus =  TRUE


---------------------------------------
Test based on the 2 nearest points (NP):

Stat. AD on the N values (NP)         :    3.02
p-value of test                       :    0.03


A2 test based on the spacings between the
   successive jump times of process Y_n(t):

A2 test on the values of A2 (m-NP)    :    0.55
p-value of test                       :    0.70

Test on the Nm values of W_{n,i}(mNP1):    0.99
p-value of test                       :    0.36

Test on the jump times of Y
   (superposition of Yn):

Expected number of jumps of Y = mN    :     900
Number of jumps of Y                  :     940
p-value of test                       :    0.09

Stat. AD (mNP2)                       :    2.13
p-value of test                       :    0.08

Stat. AD after spacings (mNP2-S)      :    1.33
p-value of test                       :    0.22

-----------------------------------------------
CPU time used                    :  00:04:47.35

Generator state:




***********************************************************
HOST = hpcsmp01, Linux

MersenneTwiter


snpair_ClosePairs test:
-----------------------------------------------
   N = 20,  n = 4000000,  r =  0,  t = 5,  p = 0,  m = 30,  Torus =  TRUE


---------------------------------------
Test based on the 2 nearest points (NP):

Stat. AD on the N values (NP)         :    0.70
p-value of test                       :    0.55


A2 test based on the spacings between the
   successive jump times of process Y_n(t):

A2 test on the values of A2 (m-NP)    :    1.04
p-value of test                       :    0.34

Test on the Nm values of W_{n,i}(mNP1):    0.46
p-value of test                       :    0.79

Test on the jump times of Y
   (superposition of Yn):

Expected number of jumps of Y = mN    :     600
Number of jumps of Y                  :     590
p-value of test                       :    0.65

Stat. AD (mNP2)                       :    0.25
p-value of test                       :    0.97

Stat. AD after spacings (mNP2-S)      :    0.30
p-value of test                       :    0.94

-----------------------------------------------
CPU time used                    :  00:03:26.77

Generator state:




***********************************************************
HOST = hpcsmp01, Linux

MersenneTwiter


snpair_ClosePairs test:
-----------------------------------------------
   N = 10,  n = 3000000,  r =  0,  t = 9,  p = 0,  m = 30,  Torus =  TRUE


---------------------------------------
Test based on the 2 nearest points (NP):

Stat. AD on the N values (NP)         :    0.90
p-value of test                       :    0.41


A2 test based on the spacings between the
   successive jump times of process Y_n(t):

A2 test on the values of A2 (m-NP)    :    0.59
p-value of test                       :    0.65

Test on the Nm values of W_{n,i}(mNP1):    0.56
p-value of test                       :    0.68

Test on the jump times of Y
   (superposition of Yn):

Expected number of jumps of Y = mN    :     300
Number of jumps of Y                  :     321
p-value of test                       :    0.12

Stat. AD (mNP2)                       :    1.34
p-value of test                       :    0.22

Stat. AD after spacings (mNP2-S)      :    0.28
p-value of test                       :    0.95

-----------------------------------------------
CPU time used                    :  00:04:47.13

Generator state:




***********************************************************
HOST = hpcsmp01, Linux

MersenneTwiter


snpair_ClosePairs test:
-----------------------------------------------
   N =  5,  n = 2000000,  r =  0,  t = 16,  p = 0,  m = 30,  Torus =  TRUE


---------------------------------------
Test based on the 2 nearest points (NP):

Stat. AD on the N values (NP)         :    0.81
p-value of test                       :    0.47


A2 test based on the spacings between the
   successive jump times of process Y_n(t):

A2 test on the values of A2 (m-NP)    :    0.51
p-value of test                       :    0.72

Test on the Nm values of W_{n,i}(mNP1):    2.05
p-value of test                       :    0.09

Test on the jump times of Y
   (superposition of Yn):

Expected number of jumps of Y = mN    :     150
Number of jumps of Y                  :     166
p-value of test                       :    0.10

Stat. AD (mNP2)                       :    1.40
p-value of test                       :    0.20

Stat. AD after spacings (mNP2-S)      :    0.48
p-value of test                       :    0.76

-----------------------------------------------
CPU time used                    :  00:04:51.47

Generator state:




***********************************************************
HOST = hpcsmp01, Linux

MersenneTwiter


sknuth_SimpPoker test:
-----------------------------------------------
   N =  1,  n = 400000000,  r =  0,   d =    8,   k =    8


-----------------------------------------------
Number of degrees of freedom          :    7
Chi-square statistic                  :    7.15
p-value of test                       :    0.41

-----------------------------------------------
CPU time used                    :  00:01:18.97

Generator state:




***********************************************************
HOST = hpcsmp01, Linux

MersenneTwiter


sknuth_SimpPoker test:
-----------------------------------------------
   N =  1,  n = 400000000,  r = 27,   d =    8,   k =    8


-----------------------------------------------
Number of degrees of freedom          :    7
Chi-square statistic                  :   10.08
p-value of test                       :    0.18

-----------------------------------------------
CPU time used                    :  00:01:29.29

Generator state:




***********************************************************
HOST = hpcsmp01, Linux

MersenneTwiter


sknuth_SimpPoker test:
-----------------------------------------------
   N =  1,  n = 100000000,  r =  0,   d =   32,   k =   32


-----------------------------------------------
Number of degrees of freedom          :   18
Chi-square statistic                  :   21.06
p-value of test                       :    0.28

-----------------------------------------------
CPU time used                    :  00:01:22.87

Generator state:




***********************************************************
HOST = hpcsmp01, Linux

MersenneTwiter


sknuth_SimpPoker test:
-----------------------------------------------
   N =  1,  n = 100000000,  r = 25,   d =   32,   k =   32


-----------------------------------------------
Number of degrees of freedom          :   18
Chi-square statistic                  :   16.66
p-value of test                       :    0.55

-----------------------------------------------
CPU time used                    :  00:01:33.36

Generator state:




***********************************************************
HOST = hpcsmp01, Linux

MersenneTwiter


sknuth_CouponCollector test:
-----------------------------------------------
   N =  1,  n = 200000000,  r =  0,   d =    8


-----------------------------------------------
Number of degrees of freedom          :   54
Chi-square statistic                  :   56.27
p-value of test                       :    0.39

-----------------------------------------------
CPU time used                    :  00:01:44.63

Generator state:




***********************************************************
HOST = hpcsmp01, Linux

MersenneTwiter


sknuth_CouponCollector test:
-----------------------------------------------
   N =  1,  n = 200000000,  r = 10,   d =    8


-----------------------------------------------
Number of degrees of freedom          :   54
Chi-square statistic                  :   53.98
p-value of test                       :    0.48

-----------------------------------------------
CPU time used                    :  00:02:04.31

Generator state:




***********************************************************
HOST = hpcsmp01, Linux

MersenneTwiter


sknuth_CouponCollector test:
-----------------------------------------------
   N =  1,  n = 200000000,  r = 20,   d =    8


-----------------------------------------------
Number of degrees of freedom          :   54
Chi-square statistic                  :   42.40
p-value of test                       :    0.87

-----------------------------------------------
CPU time used                    :  00:02:06.06

Generator state:




***********************************************************
HOST = hpcsmp01, Linux

MersenneTwiter


sknuth_CouponCollector test:
-----------------------------------------------
   N =  1,  n = 200000000,  r = 27,   d =    8


-----------------------------------------------
Number of degrees of freedom          :   54
Chi-square statistic                  :   47.70
p-value of test                       :    0.71

-----------------------------------------------
CPU time used                    :  00:02:06.54

Generator state:




***********************************************************
HOST = hpcsmp01, Linux

MersenneTwiter


sknuth_Gap test:
-----------------------------------------------
   N =  1,  n = 500000000,  r =  0,   Alpha =        0,   Beta  =   0.0625


-----------------------------------------------
Number of degrees of freedom          :  232
Chi-square statistic                  :  236.43
p-value of test                       :    0.41

-----------------------------------------------
CPU time used                    :  00:02:19.85

Generator state:




***********************************************************
HOST = hpcsmp01, Linux

MersenneTwiter


sknuth_Gap test:
-----------------------------------------------
   N =  1,  n = 300000000,  r = 25,   Alpha =        0,   Beta  =  0.03125


-----------------------------------------------
Number of degrees of freedom          :  434
Chi-square statistic                  :  460.71
p-value of test                       :    0.18

-----------------------------------------------
CPU time used                    :  00:02:59.07

Generator state:




***********************************************************
HOST = hpcsmp01, Linux

MersenneTwiter


sknuth_Gap test:
-----------------------------------------------
   N =  1,  n = 100000000,  r =  0,   Alpha =        0,   Beta  = 0.0078125


-----------------------------------------------
Number of degrees of freedom          : 1437
Chi-square statistic                  : 1393.60
p-value of test                       :    0.79

-----------------------------------------------
CPU time used                    :  00:03:35.65

Generator state:




***********************************************************
HOST = hpcsmp01, Linux

MersenneTwiter


sknuth_Gap test:
-----------------------------------------------
   N =  1,  n = 10000000,  r = 20,   Alpha =        0,   Beta  = 0.000976562


-----------------------------------------------
Number of degrees of freedom          : 7046
Chi-square statistic                  : 7035.24
p-value of test                       :    0.53

-----------------------------------------------
CPU time used                    :  00:03:00.90

Generator state:




***********************************************************
HOST = hpcsmp01, Linux

MersenneTwiter


sknuth_Run test:
-----------------------------------------------
   N =  5,  n = 1000000000,  r =  0,   Up = FALSE


-----------------------------------------------

Kolmogorov-Smirnov+ statistic = D+    :    0.20
p-value of test                       :    0.57

Kolmogorov-Smirnov- statistic = D-    :    0.22
p-value of test                       :    0.54

Anderson-Darling statistic = A2       :    0.37
p-value of test                       :    0.87

Test on the sum of all N observations
Number of degrees of freedom          :   30
Chi-square statistic                  :   29.57
p-value of test                       :    0.49

-----------------------------------------------
CPU time used                    :  00:01:55.15

Generator state:




***********************************************************
HOST = hpcsmp01, Linux

MersenneTwiter


sknuth_Run test:
-----------------------------------------------
   N = 10,  n = 1000000000,  r = 15,   Up =  TRUE


-----------------------------------------------

Kolmogorov-Smirnov+ statistic = D+    :   0.048
p-value of test                       :    0.93

Kolmogorov-Smirnov- statistic = D-    :    0.23
p-value of test                       :    0.31

Anderson-Darling statistic = A2       :    0.69
p-value of test                       :    0.56

Test on the sum of all N observations
Number of degrees of freedom          :   60
Chi-square statistic                  :   69.73
p-value of test                       :    0.18

-----------------------------------------------
CPU time used                    :  00:04:36.42

Generator state:




***********************************************************
Test sknuth_Permutation calling smultin_Multinomial

***********************************************************
HOST = hpcsmp01, Linux

MersenneTwiter


smultin_Multinomial test:
-----------------------------------------------
   N =  1,  n = 1000000000,  r =  5,   t =  3,
       Sparse =  FALSE

       GenerCell = smultin_GenerCellPermut
       Number of cells = t! =                  6
       Expected number per cell =  1.6666667e+08
       Hashing =  FALSE

   For Delta > -1, we use the ChiSquare approximation
   Correction factor of the ChiSquare: 
       Delta =     1,    Mu =  2.5000002e-09,    Sigma =          1

-----------------------------------------------
Test Results for Delta =   1.0000

Number of degrees of freedom          :    5
Value of the statistic                :    8.76
p-value of test                       :    0.12


-----------------------------------------------
CPU time used                    :  00:01:26.35

Generator state:




***********************************************************
Test sknuth_Permutation calling smultin_Multinomial

***********************************************************
HOST = hpcsmp01, Linux

MersenneTwiter


smultin_Multinomial test:
-----------------------------------------------
   N =  1,  n = 1000000000,  r =  5,   t =  5,
       Sparse =  FALSE

       GenerCell = smultin_GenerCellPermut
       Number of cells = t! =                120
       Expected number per cell =   8333333.3
       Hashing =  FALSE

   For Delta > -1, we use the ChiSquare approximation
   Correction factor of the ChiSquare: 
       Delta =     1,    Mu =  5.9500005e-08,    Sigma =          1

-----------------------------------------------
Test Results for Delta =   1.0000

Number of degrees of freedom          :  119
Value of the statistic                :  135.36
p-value of test                       :    0.15


-----------------------------------------------
CPU time used                    :  00:02:43.65

Generator state:




***********************************************************
Test sknuth_Permutation calling smultin_Multinomial

***********************************************************
HOST = hpcsmp01, Linux

MersenneTwiter


smultin_Multinomial test:
-----------------------------------------------
   N =  1,  n = 500000000,  r =  5,   t =  7,
       Sparse =  FALSE

       GenerCell = smultin_GenerCellPermut
       Number of cells = t! =               5040
       Expected number per cell =   99206.349
       Hashing =  FALSE

   For Delta > -1, we use the ChiSquare approximation
   Correction factor of the ChiSquare: 
       Delta =     1,    Mu =  5.0390004e-06,    Sigma =          1

-----------------------------------------------
Test Results for Delta =   1.0000

Number of degrees of freedom          : 5039
Value of the statistic                : 5101.19
p-value of test                       :    0.27


-----------------------------------------------
CPU time used                    :  00:02:04.71

Generator state:




***********************************************************
Test sknuth_Permutation calling smultin_Multinomial

***********************************************************
HOST = hpcsmp01, Linux

MersenneTwiter


smultin_Multinomial test:
-----------------------------------------------
   N =  1,  n = 500000000,  r = 10,   t = 10,
       Sparse =  FALSE

       GenerCell = smultin_GenerCellPermut
       Number of cells = t! =            3628800
       Expected number per cell =    137.7866
       Hashing =  FALSE

   For Delta > -1, we use the ChiSquare approximation
   Correction factor of the ChiSquare: 
       Delta =     1,    Mu =   0.0036287993,    Sigma =          1

-----------------------------------------------
Test Results for Delta =   1.0000

Number of degrees of freedom          : 3628799
Value of the statistic                : 3.63e+6
p-value of test                       :    0.76


-----------------------------------------------
CPU time used                    :  00:04:43.36

Generator state:




***********************************************************
Test sknuth_CollisionPermut calling smultin_Multinomial

***********************************************************
HOST = hpcsmp01, Linux

MersenneTwiter


smultin_Multinomial test:
-----------------------------------------------
   N = 20,  n = 20000000,  r =  0,   t = 14,
       Sparse =   TRUE

       GenerCell = smultin_GenerCellPermut
       Number of cells = t! =        87178291200
       Expected number per cell =  1 /  4358.9146
       EColl = n^2 / (2k) =   2294.14912
       Hashing =   TRUE

       Collision test,    Mu =      2293.9736,    Sigma =    47.8841

-----------------------------------------------
Test Results for Collisions

For the total number of collisions, we use
      the Poisson approximation:
Expected number of collisions = N*Mu  :    45879.47
Observed number of collisions         :    45473
p-value of test                       :    0.97


-----------------------------
Total number of cells containing j balls

  j =  0                              :    1743165869473
  j =  1                              :        399909058
  j =  2                              :            45465
  j =  3                              :                4
  j =  4                              :                0
  j =  5                              :                0

-----------------------------------------------
CPU time used                    :  00:06:57.54

Generator state:




***********************************************************
Test sknuth_CollisionPermut calling smultin_Multinomial

***********************************************************
HOST = hpcsmp01, Linux

MersenneTwiter


smultin_Multinomial test:
-----------------------------------------------
   N = 20,  n = 20000000,  r = 10,   t = 14,
       Sparse =   TRUE

       GenerCell = smultin_GenerCellPermut
       Number of cells = t! =        87178291200
       Expected number per cell =  1 /  4358.9146
       EColl = n^2 / (2k) =   2294.14912
       Hashing =   TRUE

       Collision test,    Mu =      2293.9736,    Sigma =    47.8841

-----------------------------------------------
Test Results for Collisions

For the total number of collisions, we use
      the Poisson approximation:
Expected number of collisions = N*Mu  :    45879.47
Observed number of collisions         :    46012
p-value of test                       :    0.27


-----------------------------
Total number of cells containing j balls

  j =  0                              :    1743165870012
  j =  1                              :        399907983
  j =  2                              :            45998
  j =  3                              :                7
  j =  4                              :                0
  j =  5                              :                0

-----------------------------------------------
CPU time used                    :  00:07:09.20

Generator state:




***********************************************************
HOST = hpcsmp01, Linux

MersenneTwiter


sknuth_MaxOft test:
-----------------------------------------------
   N = 40,  n = 10000000,  r =  0,   d = 100000,   t =  8

      Number of categories = 100000
      Expected number per category  = 100.00


-----------------------------------------------
Test results for chi2 with 99999 degrees of freedom:

Kolmogorov-Smirnov+ statistic = D+    :   0.069
p-value of test                       :    0.66

Kolmogorov-Smirnov- statistic = D-    :   0.089
p-value of test                       :    0.50

Anderson-Darling statistic = A2       :    0.38
p-value of test                       :    0.87

Test on the sum of all N observations
Number of degrees of freedom          : 3999960
Chi-square statistic                  : 4.00e+6
p-value of test                       :    0.34


-----------------------------------------------
Test results for Anderson-Darling:

Kolmogorov-Smirnov+ statistic = D+    :   0.023
p-value of test                       :    0.95

Kolmogorov-Smirnov- statistic = D-    :    0.12
p-value of test                       :    0.27

Anderson-Darling statistic = A2       :    0.61
p-value of test                       :    0.64


-----------------------------------------------
CPU time used                    :  00:04:22.93

Generator state:




***********************************************************
HOST = hpcsmp01, Linux

MersenneTwiter


sknuth_MaxOft test:
-----------------------------------------------
   N = 30,  n = 10000000,  r =  0,   d = 100000,   t = 16

      Number of categories = 100000
      Expected number per category  = 100.00


-----------------------------------------------
Test results for chi2 with 99999 degrees of freedom:

Kolmogorov-Smirnov+ statistic = D+    :    0.10
p-value of test                       :    0.50

Kolmogorov-Smirnov- statistic = D-    :    0.18
p-value of test                       :    0.13

Anderson-Darling statistic = A2       :    1.14
p-value of test                       :    0.29

Test on the sum of all N observations
Number of degrees of freedom          : 2999970
Chi-square statistic                  : 3.00e+6
p-value of test                       :    0.36


-----------------------------------------------
Test results for Anderson-Darling:

Kolmogorov-Smirnov+ statistic = D+    :   0.075
p-value of test                       :    0.68

Kolmogorov-Smirnov- statistic = D-    :    0.12
p-value of test                       :    0.38

Anderson-Darling statistic = A2       :    1.00
p-value of test                       :    0.36


-----------------------------------------------
CPU time used                    :  00:03:56.89

Generator state:




***********************************************************
HOST = hpcsmp01, Linux

MersenneTwiter


sknuth_MaxOft test:
-----------------------------------------------
   N = 20,  n = 10000000,  r =  0,   d = 100000,   t = 24

      Number of categories = 100000
      Expected number per category  = 100.00


-----------------------------------------------
Test results for chi2 with 99999 degrees of freedom:

Kolmogorov-Smirnov+ statistic = D+    :   0.094
p-value of test                       :    0.66

Kolmogorov-Smirnov- statistic = D-    :    0.14
p-value of test                       :    0.42

Anderson-Darling statistic = A2       :    0.51
p-value of test                       :    0.73

Test on the sum of all N observations
Number of degrees of freedom          : 1999980
Chi-square statistic                  : 2.00e+6
p-value of test                       :    0.28


-----------------------------------------------
Test results for Anderson-Darling:

Kolmogorov-Smirnov+ statistic = D+    :    0.20
p-value of test                       :    0.16

Kolmogorov-Smirnov- statistic = D-    :    0.10
p-value of test                       :    0.61

Anderson-Darling statistic = A2       :    1.67
p-value of test                       :    0.14


-----------------------------------------------
CPU time used                    :  00:03:04.61

Generator state:




***********************************************************
HOST = hpcsmp01, Linux

MersenneTwiter


sknuth_MaxOft test:
-----------------------------------------------
   N = 20,  n = 10000000,  r =  0,   d = 100000,   t = 32

      Number of categories = 100000
      Expected number per category  = 100.00


-----------------------------------------------
Test results for chi2 with 99999 degrees of freedom:

Kolmogorov-Smirnov+ statistic = D+    : 2.71e-3
p-value of test                       :    0.9971

Kolmogorov-Smirnov- statistic = D-    :    0.30
p-value of test                       :    0.02

Anderson-Darling statistic = A2       :    2.80
p-value of test                       :    0.04

Test on the sum of all N observations
Number of degrees of freedom          : 1999980
Chi-square statistic                  : 2.00e+6
p-value of test                       :  8.6e-3


-----------------------------------------------
Test results for Anderson-Darling:

Kolmogorov-Smirnov+ statistic = D+    :    0.10
p-value of test                       :    0.61

Kolmogorov-Smirnov- statistic = D-    :    0.11
p-value of test                       :    0.58

Anderson-Darling statistic = A2       :    0.30
p-value of test                       :    0.94


-----------------------------------------------
CPU time used                    :  00:03:31.34

Generator state:




***********************************************************
HOST = hpcsmp01, Linux

MersenneTwiter


svaria_SampleProd test:
-----------------------------------------------
   N = 40,  n = 10000000,  r =  0,   t = 8


-----------------------------------------------

Kolmogorov-Smirnov+ statistic = D+    :    0.17
p-value of test                       :    0.10

Kolmogorov-Smirnov- statistic = D-    :    0.11
p-value of test                       :    0.36

Anderson-Darling statistic = A2       :    1.22
p-value of test                       :    0.26

-----------------------------------------------
CPU time used                    :  00:03:21.37

Generator state:




***********************************************************
HOST = hpcsmp01, Linux

MersenneTwiter


svaria_SampleProd test:
-----------------------------------------------
   N = 20,  n = 10000000,  r =  0,   t = 16


-----------------------------------------------

Kolmogorov-Smirnov+ statistic = D+    :    0.12
p-value of test                       :    0.53

Kolmogorov-Smirnov- statistic = D-    :   0.081
p-value of test                       :    0.73

Anderson-Darling statistic = A2       :    0.40
p-value of test                       :    0.84

-----------------------------------------------
CPU time used                    :  00:02:21.54

Generator state:




***********************************************************
HOST = hpcsmp01, Linux

MersenneTwiter


svaria_SampleProd test:
-----------------------------------------------
   N = 20,  n = 10000000,  r =  0,   t = 24


-----------------------------------------------

Kolmogorov-Smirnov+ statistic = D+    :    0.22
p-value of test                       :    0.13

Kolmogorov-Smirnov- statistic = D-    :   0.056
p-value of test                       :    0.85

Anderson-Darling statistic = A2       :    1.07
p-value of test                       :    0.32

-----------------------------------------------
CPU time used                    :  00:03:02.62

Generator state:




***********************************************************
HOST = hpcsmp01, Linux

MersenneTwiter


svaria_SampleMean test:
-----------------------------------------------
   N = 20000000,  n = 30,  r =  0


-----------------------------------------------

Kolmogorov-Smirnov+ statistic = D+    : 1.91e-4
p-value of test                       :    0.23

Kolmogorov-Smirnov- statistic = D-    : 1.12e-4
p-value of test                       :    0.60

Anderson-Darling statistic = A2       :    1.16
p-value of test                       :    0.28

-----------------------------------------------
CPU time used                    :  00:00:42.19

Generator state:




***********************************************************
HOST = hpcsmp01, Linux

MersenneTwiter


svaria_SampleMean test:
-----------------------------------------------
   N = 20000000,  n = 30,  r = 10


-----------------------------------------------

Kolmogorov-Smirnov+ statistic = D+    : 1.07e-4
p-value of test                       :    0.63

Kolmogorov-Smirnov- statistic = D-    : 1.54e-4
p-value of test                       :    0.39

Anderson-Darling statistic = A2       :    0.45
p-value of test                       :    0.79

-----------------------------------------------
CPU time used                    :  00:00:43.42

Generator state:




***********************************************************
HOST = hpcsmp01, Linux

MersenneTwiter


svaria_SampleCorr test:
-----------------------------------------------
   N =  1,  n = 2000000000,  r =  0,   k = 1


-----------------------------------------------
Normal statistic                      :    0.43
p-value of test                       :    0.33

-----------------------------------------------
CPU time used                    :  00:00:40.21

Generator state:




***********************************************************
HOST = hpcsmp01, Linux

MersenneTwiter


svaria_SampleCorr test:
-----------------------------------------------
   N =  1,  n = 2000000000,  r =  0,   k = 2


-----------------------------------------------
Normal statistic                      :   0.091
p-value of test                       :    0.46

-----------------------------------------------
CPU time used                    :  00:00:40.39

Generator state:




***********************************************************
HOST = hpcsmp01, Linux

MersenneTwiter


svaria_AppearanceSpacings test:
-----------------------------------------------
   N =  1,   Q = 10000000,   K = 1000000000,   r = 0,   s = 3,   L = 15

   Sequences of n = (K + Q)L =  15150000000 bits
   Q = 10000000 initialization blocks
   K = 1000000000 blocks for the test
   the blocks have L = 15 bits



-----------------------------------------------
Normal statistic                      :    2.92
p-value of test                       :  1.7e-3

-----------------------------------------------
CPU time used                    :  00:02:49.29

Generator state:




***********************************************************
HOST = hpcsmp01, Linux

MersenneTwiter


svaria_AppearanceSpacings test:
-----------------------------------------------
   N =  1,   Q = 10000000,   K = 1000000000,   r = 27,   s = 3,   L = 15

   Sequences of n = (K + Q)L =  15150000000 bits
   Q = 10000000 initialization blocks
   K = 1000000000 blocks for the test
   the blocks have L = 15 bits



-----------------------------------------------
Normal statistic                      :    1.78
p-value of test                       :    0.04

-----------------------------------------------
CPU time used                    :  00:03:05.70

Generator state:




***********************************************************
HOST = hpcsmp01, Linux

MersenneTwiter


svaria_WeightDistrib test:
-----------------------------------------------
   N =  1,  n = 20000000,  r =  0,  k = 256,  Alpha =      0,  Beta =   0.25


-----------------------------------------------
Number of degrees of freedom          :   67
Chi-square statistic                  :   79.06
p-value of test                       :    0.15

-----------------------------------------------
CPU time used                    :  00:01:30.12

Generator state:




***********************************************************
HOST = hpcsmp01, Linux

MersenneTwiter


svaria_WeightDistrib test:
-----------------------------------------------
   N =  1,  n = 20000000,  r = 20,  k = 256,  Alpha =      0,  Beta =   0.25


-----------------------------------------------
Number of degrees of freedom          :   67
Chi-square statistic                  :   78.70
p-value of test                       :    0.16

-----------------------------------------------
CPU time used                    :  00:01:34.70

Generator state:




***********************************************************
HOST = hpcsmp01, Linux

MersenneTwiter


svaria_WeightDistrib test:
-----------------------------------------------
   N =  1,  n = 20000000,  r = 28,  k = 256,  Alpha =      0,  Beta =   0.25


-----------------------------------------------
Number of degrees of freedom          :   67
Chi-square statistic                  :   67.57
p-value of test                       :    0.46

-----------------------------------------------
CPU time used                    :  00:01:33.62

Generator state:




***********************************************************
HOST = hpcsmp01, Linux

MersenneTwiter


svaria_WeightDistrib test:
-----------------------------------------------
   N =  1,  n = 20000000,  r =  0,  k = 256,  Alpha =      0,  Beta = 0.0625


-----------------------------------------------
Number of degrees of freedom          :   37
Chi-square statistic                  :   38.29
p-value of test                       :    0.41

-----------------------------------------------
CPU time used                    :  00:01:30.12

Generator state:




***********************************************************
HOST = hpcsmp01, Linux

MersenneTwiter


svaria_WeightDistrib test:
-----------------------------------------------
   N =  1,  n = 20000000,  r = 10,  k = 256,  Alpha =      0,  Beta = 0.0625


-----------------------------------------------
Number of degrees of freedom          :   37
Chi-square statistic                  :   30.64
p-value of test                       :    0.76

-----------------------------------------------
CPU time used                    :  00:01:34.70

Generator state:




***********************************************************
HOST = hpcsmp01, Linux

MersenneTwiter


svaria_WeightDistrib test:
-----------------------------------------------
   N =  1,  n = 20000000,  r = 26,  k = 256,  Alpha =      0,  Beta = 0.0625


-----------------------------------------------
Number of degrees of freedom          :   37
Chi-square statistic                  :   31.32
p-value of test                       :    0.73

-----------------------------------------------
CPU time used                    :  00:01:35.90

Generator state:




***********************************************************
HOST = hpcsmp01, Linux

MersenneTwiter


svaria_SumCollector test:
-----------------------------------------------
   N =  1,  n = 500000000,  r =  0,   g = 10


-----------------------------------------------
Number of degrees of freedom          :   29
Chi-square statistic                  :   44.42
p-value of test                       :    0.03

-----------------------------------------------
CPU time used                    :  00:02:49.18

Generator state:




***********************************************************
HOST = hpcsmp01, Linux

MersenneTwiter


smarsa_MatrixRank test:
-----------------------------------------------
   N = 10,  n = 1000000,  r =  0,    s = 5,    L = 30,    k = 30


-----------------------------------------------

Kolmogorov-Smirnov+ statistic = D+    :    0.17
p-value of test                       :    0.52

Kolmogorov-Smirnov- statistic = D-    :    0.37
p-value of test                       :    0.05

Anderson-Darling statistic = A2       :    2.39
p-value of test                       :    0.06

Test on the sum of all N observations
Number of degrees of freedom          :   40
Chi-square statistic                  :   62.55
p-value of test                       :    0.01

-----------------------------------------------
CPU time used                    :  00:02:03.47

Generator state:




***********************************************************
HOST = hpcsmp01, Linux

MersenneTwiter


smarsa_MatrixRank test:
-----------------------------------------------
   N = 10,  n = 1000000,  r = 25,    s = 5,    L = 30,    k = 30


-----------------------------------------------

Kolmogorov-Smirnov+ statistic = D+    :    0.23
p-value of test                       :    0.32

Kolmogorov-Smirnov- statistic = D-    :    0.22
p-value of test                       :    0.34

Anderson-Darling statistic = A2       :    0.70
p-value of test                       :    0.55

Test on the sum of all N observations
Number of degrees of freedom          :   40
Chi-square statistic                  :   36.06
p-value of test                       :    0.65

-----------------------------------------------
CPU time used                    :  00:02:01.38

Generator state:




***********************************************************
HOST = hpcsmp01, Linux

MersenneTwiter


smarsa_MatrixRank test:
-----------------------------------------------
   N =  1,  n = 5000,  r =  0,    s = 4,    L = 1000,    k = 1000


-----------------------------------------------
Number of degrees of freedom          :    3
Chi-square statistic                  :    7.57
p-value of test                       :    0.06

-----------------------------------------------
CPU time used                    :  00:05:55.04

Generator state:




***********************************************************
HOST = hpcsmp01, Linux

MersenneTwiter


smarsa_MatrixRank test:
-----------------------------------------------
   N =  1,  n = 5000,  r = 26,    s = 4,    L = 1000,    k = 1000


-----------------------------------------------
Number of degrees of freedom          :    3
Chi-square statistic                  :    0.62
p-value of test                       :    0.89

-----------------------------------------------
CPU time used                    :  00:05:45.15

Generator state:




***********************************************************
HOST = hpcsmp01, Linux

MersenneTwiter


smarsa_MatrixRank test:
-----------------------------------------------
   N =  1,  n = 80,  r = 15,    s = 15,    L = 5000,    k = 5000


-----------------------------------------------
Number of degrees of freedom          :    2
Chi-square statistic                  :    0.37
p-value of test                       :    0.83

-----------------------------------------------
CPU time used                    :  00:10:35.24

Generator state:




***********************************************************
HOST = hpcsmp01, Linux

MersenneTwiter


smarsa_MatrixRank test:
-----------------------------------------------
   N =  1,  n = 80,  r =  0,    s = 30,    L = 5000,    k = 5000


-----------------------------------------------
Number of degrees of freedom          :    2
Chi-square statistic                  :    3.56
p-value of test                       :    0.17

-----------------------------------------------
CPU time used                    :  00:16:07.72

Generator state:




***********************************************************
HOST = hpcsmp01, Linux

MersenneTwiter


smarsa_Savir2 test:
-----------------------------------------------
   N = 10,  n = 10000000,  r = 10,    m = 1048576,    t = 30


-----------------------------------------------

Kolmogorov-Smirnov+ statistic = D+    :    0.29
p-value of test                       :    0.16

Kolmogorov-Smirnov- statistic = D-    :    0.22
p-value of test                       :    0.35

Anderson-Darling statistic = A2       :    0.98
p-value of test                       :    0.37

Test on the sum of all N observations
Number of degrees of freedom          :  130
Chi-square statistic                  :  116.29
p-value of test                       :    0.80

-----------------------------------------------
CPU time used                    :  00:00:51.08

Generator state:




***********************************************************
HOST = hpcsmp01, Linux

MersenneTwiter


smarsa_GCD test:
-----------------------------------------------
   N = 10,  n = 50000000,  r =  0,   s = 30


-----------------------------------------------
Test results for GCD values:

Kolmogorov-Smirnov+ statistic = D+    :   0.088
p-value of test                       :    0.81

Kolmogorov-Smirnov- statistic = D-    :    0.16
p-value of test                       :    0.56

Anderson-Darling statistic = A2       :    0.46
p-value of test                       :    0.79

Test on the sum of all N observations
Number of degrees of freedom          : 17430
Chi-square statistic                  :17513.85
p-value of test                       :    0.33



-----------------------------------------------
CPU time used                    :  00:02:19.75

Generator state:




***********************************************************
HOST = hpcsmp01, Linux

MersenneTwiter


swalk_RandomWalk1 test:
-----------------------------------------------
   N =  1,  n = 100000000,  r =  0,   s = 5,   L0 =   50,   L1 =   50



-----------------------------------------------
Test on the values of the Statistic H

Number of degrees of freedom          :   36
ChiSquare statistic                   :   39.05
p-value of test                       :    0.33


-----------------------------------------------
Test on the values of the Statistic M

Number of degrees of freedom          :   35
ChiSquare statistic                   :   44.44
p-value of test                       :    0.13


-----------------------------------------------
Test on the values of the Statistic J

Number of degrees of freedom          :   25
ChiSquare statistic                   :   24.02
p-value of test                       :    0.52


-----------------------------------------------
Test on the values of the Statistic R

Number of degrees of freedom          :   24
ChiSquare statistic                   :   19.68
p-value of test                       :    0.71


-----------------------------------------------
Test on the values of the Statistic C

Number of degrees of freedom          :   17
ChiSquare statistic                   :   17.13
p-value of test                       :    0.45


-----------------------------------------------
CPU time used                    :  00:01:28.70

Generator state:




***********************************************************
HOST = hpcsmp01, Linux

MersenneTwiter


swalk_RandomWalk1 test:
-----------------------------------------------
   N =  1,  n = 100000000,  r = 25,   s = 5,   L0 =   50,   L1 =   50



-----------------------------------------------
Test on the values of the Statistic H

Number of degrees of freedom          :   36
ChiSquare statistic                   :   31.42
p-value of test                       :    0.69


-----------------------------------------------
Test on the values of the Statistic M

Number of degrees of freedom          :   35
ChiSquare statistic                   :   19.94
p-value of test                       :    0.98


-----------------------------------------------
Test on the values of the Statistic J

Number of degrees of freedom          :   25
ChiSquare statistic                   :   25.70
p-value of test                       :    0.42


-----------------------------------------------
Test on the values of the Statistic R

Number of degrees of freedom          :   24
ChiSquare statistic                   :   24.93
p-value of test                       :    0.41


-----------------------------------------------
Test on the values of the Statistic C

Number of degrees of freedom          :   17
ChiSquare statistic                   :   17.89
p-value of test                       :    0.40


-----------------------------------------------
CPU time used                    :  00:01:34.49

Generator state:




***********************************************************
HOST = hpcsmp01, Linux

MersenneTwiter


swalk_RandomWalk1 test:
-----------------------------------------------
   N =  1,  n = 10000000,  r =  0,   s = 10,   L0 = 1000,   L1 = 1000



-----------------------------------------------
Test on the values of the Statistic H

Number of degrees of freedom          :  146
ChiSquare statistic                   :  183.05
p-value of test                       :    0.02


-----------------------------------------------
Test on the values of the Statistic M

Number of degrees of freedom          :  146
ChiSquare statistic                   :  155.30
p-value of test                       :    0.28


-----------------------------------------------
Test on the values of the Statistic J

Number of degrees of freedom          :  500
ChiSquare statistic                   :  484.18
p-value of test                       :    0.69


-----------------------------------------------
Test on the values of the Statistic R

Number of degrees of freedom          :  136
ChiSquare statistic                   :  129.47
p-value of test                       :    0.64


-----------------------------------------------
Test on the values of the Statistic C

Number of degrees of freedom          :   74
ChiSquare statistic                   :   60.96
p-value of test                       :    0.86


-----------------------------------------------
CPU time used                    :  00:02:33.40

Generator state:




***********************************************************
HOST = hpcsmp01, Linux

MersenneTwiter


swalk_RandomWalk1 test:
-----------------------------------------------
   N =  1,  n = 10000000,  r = 20,   s = 10,   L0 = 1000,   L1 = 1000



-----------------------------------------------
Test on the values of the Statistic H

Number of degrees of freedom          :  146
ChiSquare statistic                   :  135.76
p-value of test                       :    0.72


-----------------------------------------------
Test on the values of the Statistic M

Number of degrees of freedom          :  146
ChiSquare statistic                   :  123.05
p-value of test                       :    0.92


-----------------------------------------------
Test on the values of the Statistic J

Number of degrees of freedom          :  500
ChiSquare statistic                   :  489.26
p-value of test                       :    0.63


-----------------------------------------------
Test on the values of the Statistic R

Number of degrees of freedom          :  136
ChiSquare statistic                   :  135.66
p-value of test                       :    0.49


-----------------------------------------------
Test on the values of the Statistic C

Number of degrees of freedom          :   74
ChiSquare statistic                   :   68.61
p-value of test                       :    0.66


-----------------------------------------------
CPU time used                    :  00:02:33.81

Generator state:




***********************************************************
HOST = hpcsmp01, Linux

MersenneTwiter


swalk_RandomWalk1 test:
-----------------------------------------------
   N =  1,  n = 1000000,  r =  0,   s = 15,   L0 = 10000,   L1 = 10000



-----------------------------------------------
Test on the values of the Statistic H

Number of degrees of freedom          :  384
ChiSquare statistic                   :  375.40
p-value of test                       :    0.61


-----------------------------------------------
Test on the values of the Statistic M

Number of degrees of freedom          :  384
ChiSquare statistic                   :  371.19
p-value of test                       :    0.67


-----------------------------------------------
Test on the values of the Statistic J

Number of degrees of freedom          : 5000
ChiSquare statistic                   : 5027.89
p-value of test                       :    0.39


-----------------------------------------------
Test on the values of the Statistic R

Number of degrees of freedom          :  378
ChiSquare statistic                   :  351.98
p-value of test                       :    0.83


-----------------------------------------------
Test on the values of the Statistic C

Number of degrees of freedom          :  200
ChiSquare statistic                   :  194.99
p-value of test                       :    0.59


-----------------------------------------------
CPU time used                    :  00:02:17.72

Generator state:




***********************************************************
HOST = hpcsmp01, Linux

MersenneTwiter


swalk_RandomWalk1 test:
-----------------------------------------------
   N =  1,  n = 1000000,  r = 15,   s = 15,   L0 = 10000,   L1 = 10000



-----------------------------------------------
Test on the values of the Statistic H

Number of degrees of freedom          :  384
ChiSquare statistic                   :  412.58
p-value of test                       :    0.15


-----------------------------------------------
Test on the values of the Statistic M

Number of degrees of freedom          :  384
ChiSquare statistic                   :  415.31
p-value of test                       :    0.13


-----------------------------------------------
Test on the values of the Statistic J

Number of degrees of freedom          : 5000
ChiSquare statistic                   : 5214.01
p-value of test                       :    0.02


-----------------------------------------------
Test on the values of the Statistic R

Number of degrees of freedom          :  378
ChiSquare statistic                   :  390.68
p-value of test                       :    0.32


-----------------------------------------------
Test on the values of the Statistic C

Number of degrees of freedom          :  200
ChiSquare statistic                   :  192.08
p-value of test                       :    0.64


-----------------------------------------------
CPU time used                    :  00:02:18.56

Generator state:




***********************************************************
HOST = hpcsmp01, Linux

MersenneTwiter


scomp_LinearComp test:
-----------------------------------------------
   N =  1,  n = 400020,  r =  0,    s = 1



-----------------------------------------------
Number of degrees of freedom          :   12
Chi2 statistic for size of jumps      :   18.11
p-value of test                       :    0.11


-----------------------------------------------
Normal statistic for number of jumps  : -403.43
p-value of test                       : 1 - eps1    *****



-----------------------------------------------
CPU time used                    :  00:00:13.47

Generator state:




***********************************************************
HOST = hpcsmp01, Linux

MersenneTwiter


scomp_LinearComp test:
-----------------------------------------------
   N =  1,  n = 400020,  r = 29,    s = 1



-----------------------------------------------
Number of degrees of freedom          :   12
Chi2 statistic for size of jumps      :   17.36
p-value of test                       :    0.14


-----------------------------------------------
Normal statistic for number of jumps  : -402.02
p-value of test                       : 1 - eps1    *****



-----------------------------------------------
CPU time used                    :  00:00:13.47

Generator state:




***********************************************************
HOST = hpcsmp01, Linux

MersenneTwiter


scomp_LempelZiv test:
-----------------------------------------------
   N = 10,  n = 134217728,  r =  0,   s =   30,   k =   27


-----------------------------------------------

Kolmogorov-Smirnov+ statistic = D+    :    0.10
p-value of test                       :    0.76

Kolmogorov-Smirnov- statistic = D-    :    0.27
p-value of test                       :    0.20

Anderson-Darling statistic = A2       :    0.70
p-value of test                       :    0.55

Tests on the sum of all N observations
Standardized normal statistic         :    0.60
p-value of test                       :    0.27

Sample variance                       :    1.27
p-value of test                       :    0.25

-----------------------------------------------
CPU time used                    :  00:01:37.36

Generator state:




***********************************************************
HOST = hpcsmp01, Linux

MersenneTwiter


scomp_LempelZiv test:
-----------------------------------------------
   N = 10,  n = 134217728,  r = 15,   s =   15,   k =   27


-----------------------------------------------

Kolmogorov-Smirnov+ statistic = D+    :    0.45
p-value of test                       :    0.01

Kolmogorov-Smirnov- statistic = D-    : 6.36e-3
p-value of test                       :    0.9933

Anderson-Darling statistic = A2       :    5.59
p-value of test                       :  1.6e-3

Tests on the sum of all N observations
Standardized normal statistic         :   -3.27
p-value of test                       :    0.9995    *****

Sample variance                       :    1.17
p-value of test                       :    0.31

-----------------------------------------------
CPU time used                    :  00:01:56.56

Generator state:




***********************************************************
HOST = hpcsmp01, Linux

MersenneTwiter


sspectral_Fourier3 test:
-----------------------------------------------
   N = 100000,  n = 16384,  r =  0,   s =    3,   k =   14


-----------------------------------------------

Kolmogorov-Smirnov+ statistic = D+    : 8.75e-3
p-value of test                       :    0.53

Kolmogorov-Smirnov- statistic = D-    : 6.97e-3
p-value of test                       :    0.67

Anderson-Darling statistic = A2       :    0.46
p-value of test                       :    0.78

-----------------------------------------------
CPU time used                    :  00:01:07.70

Generator state:




***********************************************************
HOST = hpcsmp01, Linux

MersenneTwiter


sspectral_Fourier3 test:
-----------------------------------------------
   N = 100000,  n = 16384,  r = 27,   s =    3,   k =   14


-----------------------------------------------

Kolmogorov-Smirnov+ statistic = D+    :   0.010
p-value of test                       :    0.43

Kolmogorov-Smirnov- statistic = D-    : 7.31e-3
p-value of test                       :    0.64

Anderson-Darling statistic = A2       :    0.47
p-value of test                       :    0.78

-----------------------------------------------
CPU time used                    :  00:01:07.20

Generator state:




***********************************************************
HOST = hpcsmp01, Linux

MersenneTwiter


sstring_LongestHeadRun test:
-----------------------------------------------
   N =  1,  n = 1000,  r =  0,   s = 3,   L = 10000020


-----------------------------------------------
Number of degrees of freedom          :    8
Chi-square statistic                  :    3.28
p-value of test                       :    0.92

-----------------------------------------------
Global longest run of 1               :   32.00
p-value of test                       :    0.50



-----------------------------------------------
CPU time used                    :  00:02:20.33

Generator state:




***********************************************************
HOST = hpcsmp01, Linux

MersenneTwiter


sstring_LongestHeadRun test:
-----------------------------------------------
   N =  1,  n = 1000,  r = 27,   s = 3,   L = 10000020


-----------------------------------------------
Number of degrees of freedom          :    8
Chi-square statistic                  :   12.23
p-value of test                       :    0.14

-----------------------------------------------
Global longest run of 1               :   32.00
p-value of test                       :    0.50



-----------------------------------------------
CPU time used                    :  00:02:34.13

Generator state:




***********************************************************
HOST = hpcsmp01, Linux

MersenneTwiter


sstring_PeriodsInStrings test:
-----------------------------------------------
   N = 10,  n = 500000000,  r =  0,   s =   10


-----------------------------------------------

Kolmogorov-Smirnov+ statistic = D+    :    0.34
p-value of test                       :    0.08

Kolmogorov-Smirnov- statistic = D-    :   0.056
p-value of test                       :    0.91

Anderson-Darling statistic = A2       :    1.52
p-value of test                       :    0.17

Test on the sum of all N observations
Number of degrees of freedom          :  200
Chi-square statistic                  :  169.04
p-value of test                       :    0.95

-----------------------------------------------
CPU time used                    :  00:04:04.99

Generator state:




***********************************************************
HOST = hpcsmp01, Linux

MersenneTwiter


sstring_PeriodsInStrings test:
-----------------------------------------------
   N = 10,  n = 500000000,  r = 20,   s =   10


-----------------------------------------------

Kolmogorov-Smirnov+ statistic = D+    :   0.081
p-value of test                       :    0.84

Kolmogorov-Smirnov- statistic = D-    :    0.24
p-value of test                       :    0.28

Anderson-Darling statistic = A2       :    0.58
p-value of test                       :    0.66

Test on the sum of all N observations
Number of degrees of freedom          :  200
Chi-square statistic                  :  212.92
p-value of test                       :    0.25

-----------------------------------------------
CPU time used                    :  00:04:31.95

Generator state:




***********************************************************
HOST = hpcsmp01, Linux

MersenneTwiter


sstring_HammingWeight2 test:
-----------------------------------------------
   N = 10,  n = 1000000000,  r =  0,   s = 3,   L = 1000000


-----------------------------------------------

Kolmogorov-Smirnov+ statistic = D+    :    0.16
p-value of test                       :    0.53

Kolmogorov-Smirnov- statistic = D-    :    0.12
p-value of test                       :    0.68

Anderson-Darling statistic = A2       :    0.30
p-value of test                       :    0.93

Test on the sum of all N observations
Number of degrees of freedom          : 10000
Chi-square statistic                  : 9976.00
p-value of test                       :    0.57

-----------------------------------------------
CPU time used                    :  00:01:40.54

Generator state:




***********************************************************
HOST = hpcsmp01, Linux

MersenneTwiter


sstring_HammingWeight2 test:
-----------------------------------------------
   N = 10,  n = 1000000000,  r = 27,   s = 3,   L = 1000000


-----------------------------------------------

Kolmogorov-Smirnov+ statistic = D+    :   0.090
p-value of test                       :    0.80

Kolmogorov-Smirnov- statistic = D-    :    0.11
p-value of test                       :    0.73

Anderson-Darling statistic = A2       :    0.18
p-value of test                       :    0.9956

Test on the sum of all N observations
Number of degrees of freedom          : 10000
Chi-square statistic                  :10006.56
p-value of test                       :    0.48

-----------------------------------------------
CPU time used                    :  00:01:45.29

Generator state:




***********************************************************
HOST = hpcsmp01, Linux

MersenneTwiter


sstring_HammingCorr test:
-----------------------------------------------
   N =  1,  n = 1000000000,  r = 10,   s = 10,   L = 30



-----------------------------------------------
Normal statistic                      :    1.20
p-value of test                       :    0.11

-----------------------------------------------
CPU time used                    :  00:02:08.40

Generator state:




***********************************************************
HOST = hpcsmp01, Linux

MersenneTwiter


sstring_HammingCorr test:
-----------------------------------------------
   N =  1,  n = 100000000,  r = 10,   s = 10,   L = 300



-----------------------------------------------
Normal statistic                      :   -0.62
p-value of test                       :    0.73

-----------------------------------------------
CPU time used                    :  00:01:58.27

Generator state:




***********************************************************
HOST = hpcsmp01, Linux

MersenneTwiter


sstring_HammingCorr test:
-----------------------------------------------
   N =  1,  n = 100000000,  r = 10,   s = 10,   L = 1200



-----------------------------------------------
Normal statistic                      :   -0.64
p-value of test                       :    0.74

-----------------------------------------------
CPU time used                    :  00:07:48.06

Generator state:




***********************************************************
HOST = hpcsmp01, Linux

MersenneTwiter


sstring_HammingIndep test:
-----------------------------------------------
   N = 10,  n = 30000000,  r =  0,   s = 3,   L = 30,   d = 0



Counters with expected numbers >= 10
-----------------------------------------------

Kolmogorov-Smirnov+ statistic = D+    :    0.23
p-value of test                       :    0.31

Kolmogorov-Smirnov- statistic = D-    :    0.14
p-value of test                       :    0.62

Anderson-Darling statistic = A2       :    0.54
p-value of test                       :    0.71

Test on the sum of all N observations
Number of degrees of freedom          : 4890
Chi-square statistic                  : 4846.89
p-value of test                       :    0.67

-----------------------------------------------
CPU time used                    :  00:03:11.11

Generator state:




***********************************************************
HOST = hpcsmp01, Linux

MersenneTwiter


sstring_HammingIndep test:
-----------------------------------------------
   N = 10,  n = 30000000,  r = 27,   s = 3,   L = 30,   d = 0



Counters with expected numbers >= 10
-----------------------------------------------

Kolmogorov-Smirnov+ statistic = D+    :    0.28
p-value of test                       :    0.16

Kolmogorov-Smirnov- statistic = D-    :   0.075
p-value of test                       :    0.86

Anderson-Darling statistic = A2       :    1.20
p-value of test                       :    0.27

Test on the sum of all N observations
Number of degrees of freedom          : 4890
Chi-square statistic                  : 4754.37
p-value of test                       :    0.92

-----------------------------------------------
CPU time used                    :  00:03:31.34

Generator state:




***********************************************************
HOST = hpcsmp01, Linux

MersenneTwiter


sstring_HammingIndep test:
-----------------------------------------------
   N =  1,  n = 30000000,  r =  0,   s = 4,   L = 300,   d = 0



Counters with expected numbers >= 10
-----------------------------------------------
Number of degrees of freedom          : 4117
Chi-square statistic                  : 4171.19
p-value of test                       :    0.27

-----------------------------------------------
CPU time used                    :  00:02:23.25

Generator state:




***********************************************************
HOST = hpcsmp01, Linux

MersenneTwiter


sstring_HammingIndep test:
-----------------------------------------------
   N =  1,  n = 30000000,  r = 26,   s = 4,   L = 300,   d = 0



Counters with expected numbers >= 10
-----------------------------------------------
Number of degrees of freedom          : 4117
Chi-square statistic                  : 4085.00
p-value of test                       :    0.64

-----------------------------------------------
CPU time used                    :  00:02:36.79

Generator state:




***********************************************************
HOST = hpcsmp01, Linux

MersenneTwiter


sstring_HammingIndep test:
-----------------------------------------------
   N =  1,  n = 10000000,  r =  0,   s = 5,   L = 1200,   d = 0



Counters with expected numbers >= 10
-----------------------------------------------
Number of degrees of freedom          : 11825
Chi-square statistic                  :11779.19
p-value of test                       :    0.62

-----------------------------------------------
CPU time used                    :  00:02:37.27

Generator state:




***********************************************************
HOST = hpcsmp01, Linux

MersenneTwiter


sstring_HammingIndep test:
-----------------------------------------------
   N =  1,  n = 10000000,  r = 25,   s = 5,   L = 1200,   d = 0



Counters with expected numbers >= 10
-----------------------------------------------
Number of degrees of freedom          : 11825
Chi-square statistic                  :12137.86
p-value of test                       :    0.02

-----------------------------------------------
CPU time used                    :  00:02:53.31

Generator state:




***********************************************************
HOST = hpcsmp01, Linux

MersenneTwiter


sstring_Run test:
-----------------------------------------------
   N =  1,  n = 2000000000,  r =  0,   s =    3


-----------------------------------------------
Total number of 1 runs:  2000000000

Number of degrees of freedom          :   54
Chi2 statistic for number of runs     :   47.70
p-value of test                       :    0.71


-----------------------------------------------
Total number of bits:  7999949118

Normal statistic for number of bits   :   -0.40
p-value of test                       :    0.66



-----------------------------------------------
CPU time used                    :  00:01:56.24

Generator state:




***********************************************************
HOST = hpcsmp01, Linux

MersenneTwiter


sstring_Run test:
-----------------------------------------------
   N =  1,  n = 2000000000,  r = 27,   s =    3


-----------------------------------------------
Total number of 1 runs:  2000000000

Number of degrees of freedom          :   54
Chi2 statistic for number of runs     :   50.37
p-value of test                       :    0.62


-----------------------------------------------
Total number of bits:  8000006568

Normal statistic for number of bits   :   0.052
p-value of test                       :    0.48



-----------------------------------------------
CPU time used                    :  00:02:09.90

Generator state:




***********************************************************
HOST = hpcsmp01, Linux

MersenneTwiter


sstring_AutoCor test:
-----------------------------------------------
   N = 10,  n = 1000000030,  r =  0,   s = 3,   d = 1


-----------------------------------------------

Kolmogorov-Smirnov+ statistic = D+    :   0.020
p-value of test                       :    0.98

Kolmogorov-Smirnov- statistic = D-    :    0.29
p-value of test                       :    0.15

Anderson-Darling statistic = A2       :    1.49
p-value of test                       :    0.18

Tests on the sum of all N observations
Standardized normal statistic         :    1.67
p-value of test                       :    0.05

Sample variance                       :    0.98
p-value of test                       :    0.45

-----------------------------------------------
CPU time used                    :  00:03:52.08

Generator state:




***********************************************************
HOST = hpcsmp01, Linux

MersenneTwiter


sstring_AutoCor test:
-----------------------------------------------
   N = 10,  n = 1000000029,  r =  0,   s = 3,   d = 3


-----------------------------------------------

Kolmogorov-Smirnov+ statistic = D+    :   0.024
p-value of test                       :    0.97

Kolmogorov-Smirnov- statistic = D-    :    0.26
p-value of test                       :    0.21

Anderson-Darling statistic = A2       :    1.44
p-value of test                       :    0.19

Tests on the sum of all N observations
Standardized normal statistic         :    1.51
p-value of test                       :    0.07

Sample variance                       :    1.27
p-value of test                       :    0.25

-----------------------------------------------
CPU time used                    :  00:03:43.79

Generator state:




***********************************************************
HOST = hpcsmp01, Linux

MersenneTwiter


sstring_AutoCor test:
-----------------------------------------------
   N = 10,  n = 1000000030,  r = 27,   s = 3,   d = 1


-----------------------------------------------

Kolmogorov-Smirnov+ statistic = D+    :    0.45
p-value of test                       :    0.01

Kolmogorov-Smirnov- statistic = D-    :   0.018
p-value of test                       :    0.98

Anderson-Darling statistic = A2       :    3.48
p-value of test                       :    0.02

Tests on the sum of all N observations
Standardized normal statistic         :   -2.55
p-value of test                       :    0.9946

Sample variance                       :    0.69
p-value of test                       :    0.72

-----------------------------------------------
CPU time used                    :  00:04:03.58

Generator state:




***********************************************************
HOST = hpcsmp01, Linux

MersenneTwiter


sstring_AutoCor test:
-----------------------------------------------
   N = 10,  n = 1000000029,  r = 27,   s = 3,   d = 3


-----------------------------------------------

Kolmogorov-Smirnov+ statistic = D+    :    0.18
p-value of test                       :    0.46

Kolmogorov-Smirnov- statistic = D-    :    0.25
p-value of test                       :    0.24

Anderson-Darling statistic = A2       :    0.71
p-value of test                       :    0.55

Tests on the sum of all N observations
Standardized normal statistic         :    0.27
p-value of test                       :    0.39

Sample variance                       :    0.44
p-value of test                       :    0.92

-----------------------------------------------
CPU time used                    :  00:03:21.33

Generator state:





========= Summary results of BigCrush =========

 Version:          TestU01 1.2.3
 Generator:        MersenneTwiter
 Number of statistics:  160
 Total CPU time:   06:41:49.13
 The following tests gave p-values outside [0.001, 0.9990]:
 (eps  means a value < 1.0e-300):
 (eps1 means a value < 1.0e-15):

       Test                          p-value
 ----------------------------------------------
 80  LinearComp, r = 0              1 - eps1
 81  LinearComp, r = 29             1 - eps1
 83  LempelZiv, r = 15               0.9995 
 ----------------------------------------------
 All other tests were passed



