xxxxxxxxxxxxxxxxxxxxxxxxxxxxxxxxxxxxxxxxxxxxxxxxxxxxxxxxxxx
                 Starting BigCrush
                 Version: TestU01 1.2.3
xxxxxxxxxxxxxxxxxxxxxxxxxxxxxxxxxxxxxxxxxxxxxxxxxxxxxxxxxxx


***********************************************************
Test smarsa_SerialOver calling smultin_MultinomialOver

***********************************************************
HOST = hpcsmp01, Linux

MersenneTwiter


smultin_MultinomialOver test:
-----------------------------------------------
   N =  1,  n = 1000000000,  r =  0,   d =  256,   t =  3,
       Sparse =  FALSE

       GenerCell = smultin_GenerCellSerial
       Number of cells = d^t =           16777216
       Expected number per cell =   59.604645
       Hashing =  FALSE

   For Delta > -1, we use the ChiSquare approximation
   Correction factor of the ChiSquare: 
       Delta =     1,    Mu =   0.0083558402,    Sigma =          1

-----------------------------------------------
Test Results for Delta =   1.0000

Number of degrees of freedom          : 16711680
Value of the statistic                : 1.67e+7
p-value of test                       :    0.97


-----------------------------------------------
CPU time used                    :  00:03:31.62

Generator state:




***********************************************************
Test smarsa_SerialOver calling smultin_MultinomialOver

***********************************************************
HOST = hpcsmp01, Linux

MersenneTwiter


smultin_MultinomialOver test:
-----------------------------------------------
   N =  1,  n = 1000000000,  r = 22,   d =  256,   t =  3,
       Sparse =  FALSE

       GenerCell = smultin_GenerCellSerial
       Number of cells = d^t =           16777216
       Expected number per cell =   59.604645
       Hashing =  FALSE

   For Delta > -1, we use the ChiSquare approximation
   Correction factor of the ChiSquare: 
       Delta =     1,    Mu =   0.0083558402,    Sigma =          1

-----------------------------------------------
Test Results for Delta =   1.0000

Number of degrees of freedom          : 16711680
Value of the statistic                : 1.67e+7
p-value of test                       :    0.31


-----------------------------------------------
CPU time used                    :  00:03:37.05

Generator state:




***********************************************************
Test smarsa_CollisionOver calling smultin_MultinomialOver

***********************************************************
HOST = hpcsmp01, Linux

MersenneTwiter


smultin_MultinomialOver test:
-----------------------------------------------
   N = 30,  n = 20000000,  r =  0,   d = 2097152,   t =  2,
       Sparse =   TRUE

       GenerCell = smultin_GenerCellSerial
       Number of cells = d^t =      4398046511104
       Expected number per cell =  1 /  219902.33
       EColl = n^2 / (2k) =  45.47473509
       Hashing =   TRUE

       Collision test

       CollisionOver:   density = n / k =  1 /  219902.33
       Expected number of collisions = Mu =      45.47


-----------------------------------------------
Results of CollisionOver test:

POISSON approximation                 :
Expected number of collisions = N*Mu  :     1364.24
Observed number of collisions         :     1354
p-value of test                       :    0.60

-----------------------------
Total number of cells containing j balls

  j =  0                              :  131940795334474
  j =  1                              :        599997292
  j =  2                              :             1354
  j =  3                              :                0
  j =  4                              :                0
  j =  5                              :                0

-----------------------------------------------
CPU time used                    :  00:07:06.64

Generator state:




***********************************************************
Test smarsa_CollisionOver calling smultin_MultinomialOver

***********************************************************
HOST = hpcsmp01, Linux

MersenneTwiter


smultin_MultinomialOver test:
-----------------------------------------------
   N = 30,  n = 20000000,  r =  9,   d = 2097152,   t =  2,
       Sparse =   TRUE

       GenerCell = smultin_GenerCellSerial
       Number of cells = d^t =      4398046511104
       Expected number per cell =  1 /  219902.33
       EColl = n^2 / (2k) =  45.47473509
       Hashing =   TRUE

       Collision test

       CollisionOver:   density = n / k =  1 /  219902.33
       Expected number of collisions = Mu =      45.47


-----------------------------------------------
Results of CollisionOver test:

POISSON approximation                 :
Expected number of collisions = N*Mu  :     1364.24
Observed number of collisions         :     1287
p-value of test                       :    0.98

-----------------------------
Total number of cells containing j balls

  j =  0                              :  131940795334407
  j =  1                              :        599997426
  j =  2                              :             1287
  j =  3                              :                0
  j =  4                              :                0
  j =  5                              :                0

-----------------------------------------------
CPU time used                    :  00:07:35.75

Generator state:




***********************************************************
Test smarsa_CollisionOver calling smultin_MultinomialOver

***********************************************************
HOST = hpcsmp01, Linux

MersenneTwiter


smultin_MultinomialOver test:
-----------------------------------------------
   N = 30,  n = 20000000,  r =  0,   d = 16384,   t =  3,
       Sparse =   TRUE

       GenerCell = smultin_GenerCellSerial
       Number of cells = d^t =      4398046511104
       Expected number per cell =  1 /  219902.33
       EColl = n^2 / (2k) =  45.47473509
       Hashing =   TRUE

       Collision test

       CollisionOver:   density = n / k =  1 /  219902.33
       Expected number of collisions = Mu =      45.47


-----------------------------------------------
Results of CollisionOver test:

POISSON approximation                 :
Expected number of collisions = N*Mu  :     1364.24
Observed number of collisions         :     1370
p-value of test                       :    0.44

-----------------------------
Total number of cells containing j balls

  j =  0                              :  131940795334490
  j =  1                              :        599997260
  j =  2                              :             1370
  j =  3                              :                0
  j =  4                              :                0
  j =  5                              :                0

-----------------------------------------------
CPU time used                    :  00:09:38.46

Generator state:




***********************************************************
Test smarsa_CollisionOver calling smultin_MultinomialOver

***********************************************************
HOST = hpcsmp01, Linux

MersenneTwiter


smultin_MultinomialOver test:
-----------------------------------------------
   N = 30,  n = 20000000,  r = 16,   d = 16384,   t =  3,
       Sparse =   TRUE

       GenerCell = smultin_GenerCellSerial
       Number of cells = d^t =      4398046511104
       Expected number per cell =  1 /  219902.33
       EColl = n^2 / (2k) =  45.47473509
       Hashing =   TRUE

       Collision test

       CollisionOver:   density = n / k =  1 /  219902.33
       Expected number of collisions = Mu =      45.47


-----------------------------------------------
Results of CollisionOver test:

POISSON approximation                 :
Expected number of collisions = N*Mu  :     1364.24
Observed number of collisions         :     1346
p-value of test                       :    0.68

-----------------------------
Total number of cells containing j balls

  j =  0                              :  131940795334466
  j =  1                              :        599997308
  j =  2                              :             1346
  j =  3                              :                0
  j =  4                              :                0
  j =  5                              :                0

-----------------------------------------------
CPU time used                    :  00:09:39.17

Generator state:




***********************************************************
Test smarsa_CollisionOver calling smultin_MultinomialOver

***********************************************************
HOST = hpcsmp01, Linux

MersenneTwiter


smultin_MultinomialOver test:
-----------------------------------------------
   N = 30,  n = 20000000,  r =  0,   d =   64,   t =  7,
       Sparse =   TRUE

       GenerCell = smultin_GenerCellSerial
       Number of cells = d^t =      4398046511104
       Expected number per cell =  1 /  219902.33
       EColl = n^2 / (2k) =  45.47473509
       Hashing =   TRUE

       Collision test

       CollisionOver:   density = n / k =  1 /  219902.33
       Expected number of collisions = Mu =      45.47


-----------------------------------------------
Results of CollisionOver test:

POISSON approximation                 :
Expected number of collisions = N*Mu  :     1364.24
Observed number of collisions         :     1327
p-value of test                       :    0.84

-----------------------------
Total number of cells containing j balls

  j =  0                              :  131940795334447
  j =  1                              :        599997346
  j =  2                              :             1327
  j =  3                              :                0
  j =  4                              :                0
  j =  5                              :                0

-----------------------------------------------
CPU time used                    :  00:09:54.73

Generator state:




***********************************************************
Test smarsa_CollisionOver calling smultin_MultinomialOver

***********************************************************
HOST = hpcsmp01, Linux

MersenneTwiter


smultin_MultinomialOver test:
-----------------------------------------------
   N = 30,  n = 20000000,  r = 24,   d =   64,   t =  7,
       Sparse =   TRUE

       GenerCell = smultin_GenerCellSerial
       Number of cells = d^t =      4398046511104
       Expected number per cell =  1 /  219902.33
       EColl = n^2 / (2k) =  45.47473509
       Hashing =   TRUE

       Collision test

       CollisionOver:   density = n / k =  1 /  219902.33
       Expected number of collisions = Mu =      45.47


-----------------------------------------------
Results of CollisionOver test:

POISSON approximation                 :
Expected number of collisions = N*Mu  :     1364.24
Observed number of collisions         :     1397
p-value of test                       :    0.19

-----------------------------
Total number of cells containing j balls

  j =  0                              :  131940795334517
  j =  1                              :        599997206
  j =  2                              :             1397
  j =  3                              :                0
  j =  4                              :                0
  j =  5                              :                0

-----------------------------------------------
CPU time used                    :  00:09:54.69

Generator state:




***********************************************************
Test smarsa_CollisionOver calling smultin_MultinomialOver

***********************************************************
HOST = hpcsmp01, Linux

MersenneTwiter


smultin_MultinomialOver test:
-----------------------------------------------
   N = 30,  n = 20000000,  r =  0,   d =    8,   t = 14,
       Sparse =   TRUE

       GenerCell = smultin_GenerCellSerial
       Number of cells = d^t =      4398046511104
       Expected number per cell =  1 /  219902.33
       EColl = n^2 / (2k) =  45.47473509
       Hashing =   TRUE

       Collision test

       CollisionOver:   density = n / k =  1 /  219902.33
       Expected number of collisions = Mu =      45.47


-----------------------------------------------
Results of CollisionOver test:

POISSON approximation                 :
Expected number of collisions = N*Mu  :     1364.24
Observed number of collisions         :     1347
p-value of test                       :    0.67

-----------------------------
Total number of cells containing j balls

  j =  0                              :  131940795334467
  j =  1                              :        599997306
  j =  2                              :             1347
  j =  3                              :                0
  j =  4                              :                0
  j =  5                              :                0

-----------------------------------------------
CPU time used                    :  00:09:48.60

Generator state:




***********************************************************
Test smarsa_CollisionOver calling smultin_MultinomialOver

***********************************************************
HOST = hpcsmp01, Linux

MersenneTwiter


smultin_MultinomialOver test:
-----------------------------------------------
   N = 30,  n = 20000000,  r = 27,   d =    8,   t = 14,
       Sparse =   TRUE

       GenerCell = smultin_GenerCellSerial
       Number of cells = d^t =      4398046511104
       Expected number per cell =  1 /  219902.33
       EColl = n^2 / (2k) =  45.47473509
       Hashing =   TRUE

       Collision test

       CollisionOver:   density = n / k =  1 /  219902.33
       Expected number of collisions = Mu =      45.47


-----------------------------------------------
Results of CollisionOver test:

POISSON approximation                 :
Expected number of collisions = N*Mu  :     1364.24
Observed number of collisions         :     1342
p-value of test                       :    0.72

-----------------------------
Total number of cells containing j balls

  j =  0                              :  131940795334462
  j =  1                              :        599997316
  j =  2                              :             1342
  j =  3                              :                0
  j =  4                              :                0
  j =  5                              :                0

-----------------------------------------------
CPU time used                    :  00:09:52.00

Generator state:




***********************************************************
Test smarsa_CollisionOver calling smultin_MultinomialOver

***********************************************************
HOST = hpcsmp01, Linux

MersenneTwiter


smultin_MultinomialOver test:
-----------------------------------------------
   N = 30,  n = 20000000,  r =  0,   d =    4,   t = 21,
       Sparse =   TRUE

       GenerCell = smultin_GenerCellSerial
       Number of cells = d^t =      4398046511104
       Expected number per cell =  1 /  219902.33
       EColl = n^2 / (2k) =  45.47473509
       Hashing =   TRUE

       Collision test

       CollisionOver:   density = n / k =  1 /  219902.33
       Expected number of collisions = Mu =      45.47


-----------------------------------------------
Results of CollisionOver test:

POISSON approximation                 :
Expected number of collisions = N*Mu  :     1364.24
Observed number of collisions         :     1355
p-value of test                       :    0.59

-----------------------------
Total number of cells containing j balls

  j =  0                              :  131940795334475
  j =  1                              :        599997290
  j =  2                              :             1355
  j =  3                              :                0
  j =  4                              :                0
  j =  5                              :                0

-----------------------------------------------
CPU time used                    :  00:09:53.60

Generator state:




***********************************************************
Test smarsa_CollisionOver calling smultin_MultinomialOver

***********************************************************
HOST = hpcsmp01, Linux

MersenneTwiter


smultin_MultinomialOver test:
-----------------------------------------------
   N = 30,  n = 20000000,  r = 28,   d =    4,   t = 21,
       Sparse =   TRUE

       GenerCell = smultin_GenerCellSerial
       Number of cells = d^t =      4398046511104
       Expected number per cell =  1 /  219902.33
       EColl = n^2 / (2k) =  45.47473509
       Hashing =   TRUE

       Collision test

       CollisionOver:   density = n / k =  1 /  219902.33
       Expected number of collisions = Mu =      45.47


-----------------------------------------------
Results of CollisionOver test:

POISSON approximation                 :
Expected number of collisions = N*Mu  :     1364.24
Observed number of collisions         :     1329
p-value of test                       :    0.83

-----------------------------
Total number of cells containing j balls

  j =  0                              :  131940795334449
  j =  1                              :        599997342
  j =  2                              :             1329
  j =  3                              :                0
  j =  4                              :                0
  j =  5                              :                0

-----------------------------------------------
CPU time used                    :  00:09:51.21

Generator state:




***********************************************************
HOST = hpcsmp01, Linux

MersenneTwiter


smarsa_BirthdaySpacings test:
-----------------------------------------------
   N = 100,  n = 10000000,  r =  0,    d = 2147483648,    t = 2,    p = 1


      Number of cells = d^t = 4611686018427387904
      Lambda = Poisson mean =      54.2101


----------------------------------------------------
Total expected number = N*Lambda      :    5421.01
Total observed number                 :    5418
p-value of test                       :    0.51


-----------------------------------------------
CPU time used                    :  00:06:29.81

Generator state:




***********************************************************
HOST = hpcsmp01, Linux

MersenneTwiter


smarsa_BirthdaySpacings test:
-----------------------------------------------
   N = 20,  n = 20000000,  r =  0,    d = 2097152,    t = 3,    p = 1


      Number of cells = d^t = 9223372036854775808
      Lambda = Poisson mean =     216.8404


----------------------------------------------------
Total expected number = N*Lambda      :    4336.81
Total observed number                 :    4385
p-value of test                       :    0.23


-----------------------------------------------
CPU time used                    :  00:02:48.93

Generator state:




***********************************************************
HOST = hpcsmp01, Linux

MersenneTwiter


smarsa_BirthdaySpacings test:
-----------------------------------------------
   N = 20,  n = 30000000,  r = 14,    d = 65536,    t = 4,    p = 1


      Number of cells = d^t = 18446744073709551616
      Lambda = Poisson mean =     365.9182


----------------------------------------------------
Total expected number = N*Lambda      :    7318.36
Total observed number                 :    7348
p-value of test                       :    0.37


-----------------------------------------------
CPU time used                    :  00:04:33.42

Generator state:




***********************************************************
HOST = hpcsmp01, Linux

MersenneTwiter


smarsa_BirthdaySpacings test:
-----------------------------------------------
   N = 20,  n = 20000000,  r =  0,    d = 512,    t = 7,    p = 1


      Number of cells = d^t = 9223372036854775808
      Lambda = Poisson mean =     216.8404


----------------------------------------------------
Total expected number = N*Lambda      :    4336.81
Total observed number                 :    4363
p-value of test                       :    0.35


-----------------------------------------------
CPU time used                    :  00:03:16.84

Generator state:




***********************************************************
HOST = hpcsmp01, Linux

MersenneTwiter


smarsa_BirthdaySpacings test:
-----------------------------------------------
   N = 20,  n = 20000000,  r =  7,    d = 512,    t = 7,    p = 1


      Number of cells = d^t = 9223372036854775808
      Lambda = Poisson mean =     216.8404


----------------------------------------------------
Total expected number = N*Lambda      :    4336.81
Total observed number                 :    4286
p-value of test                       :    0.78


-----------------------------------------------
CPU time used                    :  00:03:22.39

Generator state:




***********************************************************
HOST = hpcsmp01, Linux

MersenneTwiter


smarsa_BirthdaySpacings test:
-----------------------------------------------
   N = 20,  n = 30000000,  r = 14,    d = 256,    t = 8,    p = 1


      Number of cells = d^t = 18446744073709551616
      Lambda = Poisson mean =     365.9182


----------------------------------------------------
Total expected number = N*Lambda      :    7318.36
Total observed number                 :    7349
p-value of test                       :    0.36


-----------------------------------------------
CPU time used                    :  00:05:20.77

Generator state:




***********************************************************
HOST = hpcsmp01, Linux

MersenneTwiter


smarsa_BirthdaySpacings test:
-----------------------------------------------
   N = 20,  n = 30000000,  r = 22,    d = 256,    t = 8,    p = 1


      Number of cells = d^t = 18446744073709551616
      Lambda = Poisson mean =     365.9182


----------------------------------------------------
Total expected number = N*Lambda      :    7318.36
Total observed number                 :    7279
p-value of test                       :    0.67


-----------------------------------------------
CPU time used                    :  00:05:19.18

Generator state:




***********************************************************
HOST = hpcsmp01, Linux

MersenneTwiter


smarsa_BirthdaySpacings test:
-----------------------------------------------
   N = 20,  n = 30000000,  r =  0,    d = 16,    t = 16,    p = 1


      Number of cells = d^t = 18446744073709551616
      Lambda = Poisson mean =     365.9182


----------------------------------------------------
Total expected number = N*Lambda      :    7318.36
Total observed number                 :    7154
p-value of test                       :    0.97


-----------------------------------------------
CPU time used                    :  00:06:37.96

Generator state:




***********************************************************
HOST = hpcsmp01, Linux

MersenneTwiter


smarsa_BirthdaySpacings test:
-----------------------------------------------
   N = 20,  n = 30000000,  r = 26,    d = 16,    t = 16,    p = 1


      Number of cells = d^t = 18446744073709551616
      Lambda = Poisson mean =     365.9182


----------------------------------------------------
Total expected number = N*Lambda      :    7318.36
Total observed number                 :    7404
p-value of test                       :    0.16


-----------------------------------------------
CPU time used                    :  00:07:04.52

Generator state:




***********************************************************
HOST = hpcsmp01, Linux

MersenneTwiter


snpair_ClosePairs test:
-----------------------------------------------
   N = 30,  n = 6000000,  r =  0,  t = 3,  p = 0,  m = 30,  Torus =  TRUE


---------------------------------------
Test based on the 2 nearest points (NP):

Stat. AD on the N values (NP)         :    1.01
p-value of test                       :    0.35


A2 test based on the spacings between the
   successive jump times of process Y_n(t):

A2 test on the values of A2 (m-NP)    :    0.41
p-value of test                       :    0.84

Test on the Nm values of W_{n,i}(mNP1):    0.42
p-value of test                       :    0.83

Test on the jump times of Y
   (superposition of Yn):

Expected number of jumps of Y = mN    :     900
Number of jumps of Y                  :     920
p-value of test                       :    0.26

Stat. AD (mNP2)                       :    0.45
p-value of test                       :    0.79

Stat. AD after spacings (mNP2-S)      :    1.23
p-value of test                       :    0.26

-----------------------------------------------
CPU time used                    :  00:06:00.71

Generator state:




***********************************************************
HOST = hpcsmp01, Linux

MersenneTwiter


snpair_ClosePairs test:
-----------------------------------------------
   N = 20,  n = 4000000,  r =  0,  t = 5,  p = 0,  m = 30,  Torus =  TRUE


---------------------------------------
Test based on the 2 nearest points (NP):

Stat. AD on the N values (NP)         :    0.55
p-value of test                       :    0.70


A2 test based on the spacings between the
   successive jump times of process Y_n(t):

A2 test on the values of A2 (m-NP)    :    0.85
p-value of test                       :    0.44

Test on the Nm values of W_{n,i}(mNP1):    0.61
p-value of test                       :    0.64

Test on the jump times of Y
   (superposition of Yn):

Expected number of jumps of Y = mN    :     600
Number of jumps of Y                  :     597
p-value of test                       :    0.54

Stat. AD (mNP2)                       :    0.38
p-value of test                       :    0.87

Stat. AD after spacings (mNP2-S)      :    0.60
p-value of test                       :    0.65

-----------------------------------------------
CPU time used                    :  00:03:05.95

Generator state:




***********************************************************
HOST = hpcsmp01, Linux

MersenneTwiter


snpair_ClosePairs test:
-----------------------------------------------
   N = 10,  n = 3000000,  r =  0,  t = 9,  p = 0,  m = 30,  Torus =  TRUE


---------------------------------------
Test based on the 2 nearest points (NP):

Stat. AD on the N values (NP)         :    1.17
p-value of test                       :    0.28


A2 test based on the spacings between the
   successive jump times of process Y_n(t):

A2 test on the values of A2 (m-NP)    :    0.66
p-value of test                       :    0.59

Test on the Nm values of W_{n,i}(mNP1):    0.67
p-value of test                       :    0.58

Test on the jump times of Y
   (superposition of Yn):

Expected number of jumps of Y = mN    :     300
Number of jumps of Y                  :     288
p-value of test                       :    0.74

Stat. AD (mNP2)                       :    0.75
p-value of test                       :    0.52

Stat. AD after spacings (mNP2-S)      :    1.38
p-value of test                       :    0.21

-----------------------------------------------
CPU time used                    :  00:04:31.51

Generator state:




***********************************************************
HOST = hpcsmp01, Linux

MersenneTwiter


snpair_ClosePairs test:
-----------------------------------------------
   N =  5,  n = 2000000,  r =  0,  t = 16,  p = 0,  m = 30,  Torus =  TRUE


---------------------------------------
Test based on the 2 nearest points (NP):

Stat. AD on the N values (NP)         :    0.83
p-value of test                       :    0.45


A2 test based on the spacings between the
   successive jump times of process Y_n(t):

A2 test on the values of A2 (m-NP)    :    1.59
p-value of test                       :    0.16

Test on the Nm values of W_{n,i}(mNP1):    2.48
p-value of test                       :    0.05

Test on the jump times of Y
   (superposition of Yn):

Expected number of jumps of Y = mN    :     150
Number of jumps of Y                  :     178
p-value of test                       :    0.01

Stat. AD (mNP2)                       :    0.94
p-value of test                       :    0.39

Stat. AD after spacings (mNP2-S)      :    2.18
p-value of test                       :    0.07

-----------------------------------------------
CPU time used                    :  00:04:33.62

Generator state:




***********************************************************
HOST = hpcsmp01, Linux

MersenneTwiter


sknuth_SimpPoker test:
-----------------------------------------------
   N =  1,  n = 400000000,  r =  0,   d =    8,   k =    8


-----------------------------------------------
Number of degrees of freedom          :    7
Chi-square statistic                  :    4.76
p-value of test                       :    0.69

-----------------------------------------------
CPU time used                    :  00:01:19.45

Generator state:




***********************************************************
HOST = hpcsmp01, Linux

MersenneTwiter


sknuth_SimpPoker test:
-----------------------------------------------
   N =  1,  n = 400000000,  r = 27,   d =    8,   k =    8


-----------------------------------------------
Number of degrees of freedom          :    7
Chi-square statistic                  :    3.32
p-value of test                       :    0.85

-----------------------------------------------
CPU time used                    :  00:01:29.84

Generator state:




***********************************************************
HOST = hpcsmp01, Linux

MersenneTwiter


sknuth_SimpPoker test:
-----------------------------------------------
   N =  1,  n = 100000000,  r =  0,   d =   32,   k =   32


-----------------------------------------------
Number of degrees of freedom          :   18
Chi-square statistic                  :   13.72
p-value of test                       :    0.75

-----------------------------------------------
CPU time used                    :  00:01:21.94

Generator state:




***********************************************************
HOST = hpcsmp01, Linux

MersenneTwiter


sknuth_SimpPoker test:
-----------------------------------------------
   N =  1,  n = 100000000,  r = 25,   d =   32,   k =   32


-----------------------------------------------
Number of degrees of freedom          :   18
Chi-square statistic                  :   14.28
p-value of test                       :    0.71

-----------------------------------------------
CPU time used                    :  00:01:33.47

Generator state:




***********************************************************
HOST = hpcsmp01, Linux

MersenneTwiter


sknuth_CouponCollector test:
-----------------------------------------------
   N =  1,  n = 200000000,  r =  0,   d =    8


-----------------------------------------------
Number of degrees of freedom          :   54
Chi-square statistic                  :   50.51
p-value of test                       :    0.61

-----------------------------------------------
CPU time used                    :  00:01:46.00

Generator state:




***********************************************************
HOST = hpcsmp01, Linux

MersenneTwiter


sknuth_CouponCollector test:
-----------------------------------------------
   N =  1,  n = 200000000,  r = 10,   d =    8


-----------------------------------------------
Number of degrees of freedom          :   54
Chi-square statistic                  :   89.36
p-value of test                       :  1.8e-3

-----------------------------------------------
CPU time used                    :  00:01:58.77

Generator state:




***********************************************************
HOST = hpcsmp01, Linux

MersenneTwiter


sknuth_CouponCollector test:
-----------------------------------------------
   N =  1,  n = 200000000,  r = 20,   d =    8


-----------------------------------------------
Number of degrees of freedom          :   54
Chi-square statistic                  :   66.74
p-value of test                       :    0.11

-----------------------------------------------
CPU time used                    :  00:01:58.70

Generator state:




***********************************************************
HOST = hpcsmp01, Linux

MersenneTwiter


sknuth_CouponCollector test:
-----------------------------------------------
   N =  1,  n = 200000000,  r = 27,   d =    8


-----------------------------------------------
Number of degrees of freedom          :   54
Chi-square statistic                  :   64.06
p-value of test                       :    0.16

-----------------------------------------------
CPU time used                    :  00:01:57.79

Generator state:




***********************************************************
HOST = hpcsmp01, Linux

MersenneTwiter


sknuth_Gap test:
-----------------------------------------------
   N =  1,  n = 500000000,  r =  0,   Alpha =        0,   Beta  =   0.0625


-----------------------------------------------
Number of degrees of freedom          :  232
Chi-square statistic                  :  250.56
p-value of test                       :    0.19

-----------------------------------------------
CPU time used                    :  00:02:23.07

Generator state:




***********************************************************
HOST = hpcsmp01, Linux

MersenneTwiter


sknuth_Gap test:
-----------------------------------------------
   N =  1,  n = 300000000,  r = 25,   Alpha =        0,   Beta  =  0.03125


-----------------------------------------------
Number of degrees of freedom          :  434
Chi-square statistic                  :  462.74
p-value of test                       :    0.16

-----------------------------------------------
CPU time used                    :  00:02:59.32

Generator state:




***********************************************************
HOST = hpcsmp01, Linux

MersenneTwiter


sknuth_Gap test:
-----------------------------------------------
   N =  1,  n = 100000000,  r =  0,   Alpha =        0,   Beta  = 0.0078125


-----------------------------------------------
Number of degrees of freedom          : 1437
Chi-square statistic                  : 1372.00
p-value of test                       :    0.89

-----------------------------------------------
CPU time used                    :  00:03:35.39

Generator state:




***********************************************************
HOST = hpcsmp01, Linux

MersenneTwiter


sknuth_Gap test:
-----------------------------------------------
   N =  1,  n = 10000000,  r = 20,   Alpha =        0,   Beta  = 0.000976562


-----------------------------------------------
Number of degrees of freedom          : 7046
Chi-square statistic                  : 6837.70
p-value of test                       :    0.96

-----------------------------------------------
CPU time used                    :  00:03:04.89

Generator state:




***********************************************************
HOST = hpcsmp01, Linux

MersenneTwiter


sknuth_Run test:
-----------------------------------------------
   N =  5,  n = 1000000000,  r =  0,   Up = FALSE


-----------------------------------------------

Kolmogorov-Smirnov+ statistic = D+    :   0.044
p-value of test                       :    0.95

Kolmogorov-Smirnov- statistic = D-    :    0.44
p-value of test                       :    0.11

Anderson-Darling statistic = A2       :    1.70
p-value of test                       :    0.14

Test on the sum of all N observations
Number of degrees of freedom          :   30
Chi-square statistic                  :   42.23
p-value of test                       :    0.07

-----------------------------------------------
CPU time used                    :  00:01:55.10

Generator state:




***********************************************************
HOST = hpcsmp01, Linux

MersenneTwiter


sknuth_Run test:
-----------------------------------------------
   N = 10,  n = 1000000000,  r = 15,   Up =  TRUE


-----------------------------------------------

Kolmogorov-Smirnov+ statistic = D+    :    0.32
p-value of test                       :    0.10

Kolmogorov-Smirnov- statistic = D-    :    0.18
p-value of test                       :    0.46

Anderson-Darling statistic = A2       :    1.45
p-value of test                       :    0.19

Test on the sum of all N observations
Number of degrees of freedom          :   60
Chi-square statistic                  :   45.37
p-value of test                       :    0.92

-----------------------------------------------
CPU time used                    :  00:04:14.09

Generator state:




***********************************************************
Test sknuth_Permutation calling smultin_Multinomial

***********************************************************
HOST = hpcsmp01, Linux

MersenneTwiter


smultin_Multinomial test:
-----------------------------------------------
   N =  1,  n = 1000000000,  r =  5,   t =  3,
       Sparse =  FALSE

       GenerCell = smultin_GenerCellPermut
       Number of cells = t! =                  6
       Expected number per cell =  1.6666667e+08
       Hashing =  FALSE

   For Delta > -1, we use the ChiSquare approximation
   Correction factor of the ChiSquare: 
       Delta =     1,    Mu =  2.5000002e-09,    Sigma =          1

-----------------------------------------------
Test Results for Delta =   1.0000

Number of degrees of freedom          :    5
Value of the statistic                :    3.68
p-value of test                       :    0.60


-----------------------------------------------
CPU time used                    :  00:01:28.10

Generator state:




***********************************************************
Test sknuth_Permutation calling smultin_Multinomial

***********************************************************
HOST = hpcsmp01, Linux

MersenneTwiter


smultin_Multinomial test:
-----------------------------------------------
   N =  1,  n = 1000000000,  r =  5,   t =  5,
       Sparse =  FALSE

       GenerCell = smultin_GenerCellPermut
       Number of cells = t! =                120
       Expected number per cell =   8333333.3
       Hashing =  FALSE

   For Delta > -1, we use the ChiSquare approximation
   Correction factor of the ChiSquare: 
       Delta =     1,    Mu =  5.9500005e-08,    Sigma =          1

-----------------------------------------------
Test Results for Delta =   1.0000

Number of degrees of freedom          :  119
Value of the statistic                :  106.79
p-value of test                       :    0.78


-----------------------------------------------
CPU time used                    :  00:02:43.26

Generator state:




***********************************************************
Test sknuth_Permutation calling smultin_Multinomial

***********************************************************
HOST = hpcsmp01, Linux

MersenneTwiter


smultin_Multinomial test:
-----------------------------------------------
   N =  1,  n = 500000000,  r =  5,   t =  7,
       Sparse =  FALSE

       GenerCell = smultin_GenerCellPermut
       Number of cells = t! =               5040
       Expected number per cell =   99206.349
       Hashing =  FALSE

   For Delta > -1, we use the ChiSquare approximation
   Correction factor of the ChiSquare: 
       Delta =     1,    Mu =  5.0390004e-06,    Sigma =          1

-----------------------------------------------
Test Results for Delta =   1.0000

Number of degrees of freedom          : 5039
Value of the statistic                : 5042.89
p-value of test                       :    0.48


-----------------------------------------------
CPU time used                    :  00:02:03.63

Generator state:




***********************************************************
Test sknuth_Permutation calling smultin_Multinomial

***********************************************************
HOST = hpcsmp01, Linux

MersenneTwiter


smultin_Multinomial test:
-----------------------------------------------
   N =  1,  n = 500000000,  r = 10,   t = 10,
       Sparse =  FALSE

       GenerCell = smultin_GenerCellPermut
       Number of cells = t! =            3628800
       Expected number per cell =    137.7866
       Hashing =  FALSE

   For Delta > -1, we use the ChiSquare approximation
   Correction factor of the ChiSquare: 
       Delta =     1,    Mu =   0.0036287993,    Sigma =          1

-----------------------------------------------
Test Results for Delta =   1.0000

Number of degrees of freedom          : 3628799
Value of the statistic                : 3.63e+6
p-value of test                       :    0.07


-----------------------------------------------
CPU time used                    :  00:04:43.81

Generator state:




***********************************************************
Test sknuth_CollisionPermut calling smultin_Multinomial

***********************************************************
HOST = hpcsmp01, Linux

MersenneTwiter


smultin_Multinomial test:
-----------------------------------------------
   N = 20,  n = 20000000,  r =  0,   t = 14,
       Sparse =   TRUE

       GenerCell = smultin_GenerCellPermut
       Number of cells = t! =        87178291200
       Expected number per cell =  1 /  4358.9146
       EColl = n^2 / (2k) =   2294.14912
       Hashing =   TRUE

       Collision test,    Mu =      2293.9736,    Sigma =    47.8841

-----------------------------------------------
Test Results for Collisions

For the total number of collisions, we use
      the Poisson approximation:
Expected number of collisions = N*Mu  :    45879.47
Observed number of collisions         :    45762
p-value of test                       :    0.71


-----------------------------
Total number of cells containing j balls

  j =  0                              :    1743165869762
  j =  1                              :        399908480
  j =  2                              :            45754
  j =  3                              :                4
  j =  4                              :                0
  j =  5                              :                0

-----------------------------------------------
CPU time used                    :  00:07:01.95

Generator state:




***********************************************************
Test sknuth_CollisionPermut calling smultin_Multinomial

***********************************************************
HOST = hpcsmp01, Linux

MersenneTwiter


smultin_Multinomial test:
-----------------------------------------------
   N = 20,  n = 20000000,  r = 10,   t = 14,
       Sparse =   TRUE

       GenerCell = smultin_GenerCellPermut
       Number of cells = t! =        87178291200
       Expected number per cell =  1 /  4358.9146
       EColl = n^2 / (2k) =   2294.14912
       Hashing =   TRUE

       Collision test,    Mu =      2293.9736,    Sigma =    47.8841

-----------------------------------------------
Test Results for Collisions

For the total number of collisions, we use
      the Poisson approximation:
Expected number of collisions = N*Mu  :    45879.47
Observed number of collisions         :    46253
p-value of test                       :    0.04


-----------------------------
Total number of cells containing j balls

  j =  0                              :    1743165870253
  j =  1                              :        399907502
  j =  2                              :            46237
  j =  3                              :                8
  j =  4                              :                0
  j =  5                              :                0

-----------------------------------------------
CPU time used                    :  00:07:13.97

Generator state:




***********************************************************
HOST = hpcsmp01, Linux

MersenneTwiter


sknuth_MaxOft test:
-----------------------------------------------
   N = 40,  n = 10000000,  r =  0,   d = 100000,   t =  8

      Number of categories = 100000
      Expected number per category  = 100.00


-----------------------------------------------
Test results for chi2 with 99999 degrees of freedom:

Kolmogorov-Smirnov+ statistic = D+    :    0.10
p-value of test                       :    0.41

Kolmogorov-Smirnov- statistic = D-    :    0.10
p-value of test                       :    0.39

Anderson-Darling statistic = A2       :    1.02
p-value of test                       :    0.34

Test on the sum of all N observations
Number of degrees of freedom          : 3999960
Chi-square statistic                  : 4.00e+6
p-value of test                       :    0.29


-----------------------------------------------
Test results for Anderson-Darling:

Kolmogorov-Smirnov+ statistic = D+    :   0.075
p-value of test                       :    0.61

Kolmogorov-Smirnov- statistic = D-    :    0.10
p-value of test                       :    0.40

Anderson-Darling statistic = A2       :    0.47
p-value of test                       :    0.77


-----------------------------------------------
CPU time used                    :  00:04:22.40

Generator state:




***********************************************************
HOST = hpcsmp01, Linux

MersenneTwiter


sknuth_MaxOft test:
-----------------------------------------------
   N = 30,  n = 10000000,  r =  0,   d = 100000,   t = 16

      Number of categories = 100000
      Expected number per category  = 100.00


-----------------------------------------------
Test results for chi2 with 99999 degrees of freedom:

Kolmogorov-Smirnov+ statistic = D+    :    0.19
p-value of test                       :    0.10

Kolmogorov-Smirnov- statistic = D-    :   0.044
p-value of test                       :    0.87

Anderson-Darling statistic = A2       :    1.44
p-value of test                       :    0.19

Test on the sum of all N observations
Number of degrees of freedom          : 2999970
Chi-square statistic                  : 3.00e+6
p-value of test                       :    0.91


-----------------------------------------------
Test results for Anderson-Darling:

Kolmogorov-Smirnov+ statistic = D+    :    0.20
p-value of test                       :    0.07

Kolmogorov-Smirnov- statistic = D-    :   0.062
p-value of test                       :    0.76

Anderson-Darling statistic = A2       :    0.64
p-value of test                       :    0.61


-----------------------------------------------
CPU time used                    :  00:03:55.29

Generator state:




***********************************************************
HOST = hpcsmp01, Linux

MersenneTwiter


sknuth_MaxOft test:
-----------------------------------------------
   N = 20,  n = 10000000,  r =  0,   d = 100000,   t = 24

      Number of categories = 100000
      Expected number per category  = 100.00


-----------------------------------------------
Test results for chi2 with 99999 degrees of freedom:

Kolmogorov-Smirnov+ statistic = D+    :   0.074
p-value of test                       :    0.77

Kolmogorov-Smirnov- statistic = D-    :    0.24
p-value of test                       :    0.08

Anderson-Darling statistic = A2       :    0.97
p-value of test                       :    0.37

Test on the sum of all N observations
Number of degrees of freedom          : 1999980
Chi-square statistic                  : 2.00e+6
p-value of test                       :    0.22


-----------------------------------------------
Test results for Anderson-Darling:

Kolmogorov-Smirnov+ statistic = D+    :    0.26
p-value of test                       :    0.05

Kolmogorov-Smirnov- statistic = D-    :   0.024
p-value of test                       :    0.96

Anderson-Darling statistic = A2       :    1.82
p-value of test                       :    0.12


-----------------------------------------------
CPU time used                    :  00:03:01.23

Generator state:




***********************************************************
HOST = hpcsmp01, Linux

MersenneTwiter


sknuth_MaxOft test:
-----------------------------------------------
   N = 20,  n = 10000000,  r =  0,   d = 100000,   t = 32

      Number of categories = 100000
      Expected number per category  = 100.00


-----------------------------------------------
Test results for chi2 with 99999 degrees of freedom:

Kolmogorov-Smirnov+ statistic = D+    :    0.11
p-value of test                       :    0.58

Kolmogorov-Smirnov- statistic = D-    :    0.19
p-value of test                       :    0.21

Anderson-Darling statistic = A2       :    0.94
p-value of test                       :    0.39

Test on the sum of all N observations
Number of degrees of freedom          : 1999980
Chi-square statistic                  : 2.00e+6
p-value of test                       :    0.46


-----------------------------------------------
Test results for Anderson-Darling:

Kolmogorov-Smirnov+ statistic = D+    :    0.17
p-value of test                       :    0.29

Kolmogorov-Smirnov- statistic = D-    :   0.052
p-value of test                       :    0.87

Anderson-Darling statistic = A2       :    1.04
p-value of test                       :    0.34


-----------------------------------------------
CPU time used                    :  00:03:31.51

Generator state:




***********************************************************
HOST = hpcsmp01, Linux

MersenneTwiter


svaria_SampleProd test:
-----------------------------------------------
   N = 40,  n = 10000000,  r =  0,   t = 8


-----------------------------------------------

Kolmogorov-Smirnov+ statistic = D+    :   0.049
p-value of test                       :    0.80

Kolmogorov-Smirnov- statistic = D-    :   0.086
p-value of test                       :    0.52

Anderson-Darling statistic = A2       :    0.38
p-value of test                       :    0.87

-----------------------------------------------
CPU time used                    :  00:03:22.76

Generator state:




***********************************************************
HOST = hpcsmp01, Linux

MersenneTwiter


svaria_SampleProd test:
-----------------------------------------------
   N = 20,  n = 10000000,  r =  0,   t = 16


-----------------------------------------------

Kolmogorov-Smirnov+ statistic = D+    :    0.15
p-value of test                       :    0.35

Kolmogorov-Smirnov- statistic = D-    :   0.086
p-value of test                       :    0.70

Anderson-Darling statistic = A2       :    0.98
p-value of test                       :    0.37

-----------------------------------------------
CPU time used                    :  00:02:22.45

Generator state:




***********************************************************
HOST = hpcsmp01, Linux

MersenneTwiter


svaria_SampleProd test:
-----------------------------------------------
   N = 20,  n = 10000000,  r =  0,   t = 24


-----------------------------------------------

Kolmogorov-Smirnov+ statistic = D+    :   0.044
p-value of test                       :    0.90

Kolmogorov-Smirnov- statistic = D-    :    0.21
p-value of test                       :    0.14

Anderson-Darling statistic = A2       :    1.43
p-value of test                       :    0.20

-----------------------------------------------
CPU time used                    :  00:03:00.96

Generator state:




***********************************************************
HOST = hpcsmp01, Linux

MersenneTwiter


svaria_SampleMean test:
-----------------------------------------------
   N = 20000000,  n = 30,  r =  0


-----------------------------------------------

Kolmogorov-Smirnov+ statistic = D+    : 2.65e-4
p-value of test                       :    0.06

Kolmogorov-Smirnov- statistic = D-    : 2.89e-5
p-value of test                       :    0.97

Anderson-Darling statistic = A2       :    2.47
p-value of test                       :    0.05

-----------------------------------------------
CPU time used                    :  00:00:41.21

Generator state:




***********************************************************
HOST = hpcsmp01, Linux

MersenneTwiter


svaria_SampleMean test:
-----------------------------------------------
   N = 20000000,  n = 30,  r = 10


-----------------------------------------------

Kolmogorov-Smirnov+ statistic = D+    : 1.16e-4
p-value of test                       :    0.58

Kolmogorov-Smirnov- statistic = D-    : 1.18e-4
p-value of test                       :    0.58

Anderson-Darling statistic = A2       :    0.51
p-value of test                       :    0.74

-----------------------------------------------
CPU time used                    :  00:00:43.68

Generator state:




***********************************************************
HOST = hpcsmp01, Linux

MersenneTwiter


svaria_SampleCorr test:
-----------------------------------------------
   N =  1,  n = 2000000000,  r =  0,   k = 1


-----------------------------------------------
Normal statistic                      :    0.66
p-value of test                       :    0.25

-----------------------------------------------
CPU time used                    :  00:00:40.59

Generator state:




***********************************************************
HOST = hpcsmp01, Linux

MersenneTwiter


svaria_SampleCorr test:
-----------------------------------------------
   N =  1,  n = 2000000000,  r =  0,   k = 2


-----------------------------------------------
Normal statistic                      :    0.31
p-value of test                       :    0.38

-----------------------------------------------
CPU time used                    :  00:00:40.59

Generator state:




***********************************************************
HOST = hpcsmp01, Linux

MersenneTwiter


svaria_AppearanceSpacings test:
-----------------------------------------------
   N =  1,   Q = 10000000,   K = 1000000000,   r = 0,   s = 3,   L = 15

   Sequences of n = (K + Q)L =  15150000000 bits
   Q = 10000000 initialization blocks
   K = 1000000000 blocks for the test
   the blocks have L = 15 bits



-----------------------------------------------
Normal statistic                      :   -0.99
p-value of test                       :    0.84

-----------------------------------------------
CPU time used                    :  00:02:57.18

Generator state:




***********************************************************
HOST = hpcsmp01, Linux

MersenneTwiter


svaria_AppearanceSpacings test:
-----------------------------------------------
   N =  1,   Q = 10000000,   K = 1000000000,   r = 27,   s = 3,   L = 15

   Sequences of n = (K + Q)L =  15150000000 bits
   Q = 10000000 initialization blocks
   K = 1000000000 blocks for the test
   the blocks have L = 15 bits



-----------------------------------------------
Normal statistic                      :    2.21
p-value of test                       :    0.01

-----------------------------------------------
CPU time used                    :  00:03:04.90

Generator state:




***********************************************************
HOST = hpcsmp01, Linux

MersenneTwiter


svaria_WeightDistrib test:
-----------------------------------------------
   N =  1,  n = 20000000,  r =  0,  k = 256,  Alpha =      0,  Beta =   0.25


-----------------------------------------------
Number of degrees of freedom          :   67
Chi-square statistic                  :   58.27
p-value of test                       :    0.77

-----------------------------------------------
CPU time used                    :  00:01:30.54

Generator state:




***********************************************************
HOST = hpcsmp01, Linux

MersenneTwiter


svaria_WeightDistrib test:
-----------------------------------------------
   N =  1,  n = 20000000,  r = 20,  k = 256,  Alpha =      0,  Beta =   0.25


-----------------------------------------------
Number of degrees of freedom          :   67
Chi-square statistic                  :   61.56
p-value of test                       :    0.66

-----------------------------------------------
CPU time used                    :  00:01:34.67

Generator state:




***********************************************************
HOST = hpcsmp01, Linux

MersenneTwiter


svaria_WeightDistrib test:
-----------------------------------------------
   N =  1,  n = 20000000,  r = 28,  k = 256,  Alpha =      0,  Beta =   0.25


-----------------------------------------------
Number of degrees of freedom          :   67
Chi-square statistic                  :   71.04
p-value of test                       :    0.34

-----------------------------------------------
CPU time used                    :  00:01:34.36

Generator state:




***********************************************************
HOST = hpcsmp01, Linux

MersenneTwiter


svaria_WeightDistrib test:
-----------------------------------------------
   N =  1,  n = 20000000,  r =  0,  k = 256,  Alpha =      0,  Beta = 0.0625


-----------------------------------------------
Number of degrees of freedom          :   37
Chi-square statistic                  :   44.91
p-value of test                       :    0.17

-----------------------------------------------
CPU time used                    :  00:01:30.51

Generator state:




***********************************************************
HOST = hpcsmp01, Linux

MersenneTwiter


svaria_WeightDistrib test:
-----------------------------------------------
   N =  1,  n = 20000000,  r = 10,  k = 256,  Alpha =      0,  Beta = 0.0625


-----------------------------------------------
Number of degrees of freedom          :   37
Chi-square statistic                  :   34.55
p-value of test                       :    0.58

-----------------------------------------------
CPU time used                    :  00:01:35.46

Generator state:




***********************************************************
HOST = hpcsmp01, Linux

MersenneTwiter


svaria_WeightDistrib test:
-----------------------------------------------
   N =  1,  n = 20000000,  r = 26,  k = 256,  Alpha =      0,  Beta = 0.0625


-----------------------------------------------
Number of degrees of freedom          :   37
Chi-square statistic                  :   27.30
p-value of test                       :    0.88

-----------------------------------------------
CPU time used                    :  00:01:36.43

Generator state:




***********************************************************
HOST = hpcsmp01, Linux

MersenneTwiter


svaria_SumCollector test:
-----------------------------------------------
   N =  1,  n = 500000000,  r =  0,   g = 10


-----------------------------------------------
Number of degrees of freedom          :   29
Chi-square statistic                  :   34.43
p-value of test                       :    0.22

-----------------------------------------------
CPU time used                    :  00:02:49.18

Generator state:




***********************************************************
HOST = hpcsmp01, Linux

MersenneTwiter


smarsa_MatrixRank test:
-----------------------------------------------
   N = 10,  n = 1000000,  r =  0,    s = 5,    L = 30,    k = 30


-----------------------------------------------

Kolmogorov-Smirnov+ statistic = D+    :    0.22
p-value of test                       :    0.33

Kolmogorov-Smirnov- statistic = D-    :    0.29
p-value of test                       :    0.16

Anderson-Darling statistic = A2       :    1.21
p-value of test                       :    0.26

Test on the sum of all N observations
Number of degrees of freedom          :   40
Chi-square statistic                  :   46.95
p-value of test                       :    0.21

-----------------------------------------------
CPU time used                    :  00:02:03.71

Generator state:




***********************************************************
HOST = hpcsmp01, Linux

MersenneTwiter


smarsa_MatrixRank test:
-----------------------------------------------
   N = 10,  n = 1000000,  r = 25,    s = 5,    L = 30,    k = 30


-----------------------------------------------

Kolmogorov-Smirnov+ statistic = D+    :   0.098
p-value of test                       :    0.77

Kolmogorov-Smirnov- statistic = D-    :    0.36
p-value of test                       :    0.06

Anderson-Darling statistic = A2       :    1.49
p-value of test                       :    0.18

Test on the sum of all N observations
Number of degrees of freedom          :   40
Chi-square statistic                  :   53.45
p-value of test                       :    0.08

-----------------------------------------------
CPU time used                    :  00:02:01.11

Generator state:




***********************************************************
HOST = hpcsmp01, Linux

MersenneTwiter


smarsa_MatrixRank test:
-----------------------------------------------
   N =  1,  n = 5000,  r =  0,    s = 4,    L = 1000,    k = 1000


-----------------------------------------------
Number of degrees of freedom          :    3
Chi-square statistic                  :    8.37
p-value of test                       :    0.04

-----------------------------------------------
CPU time used                    :  00:05:55.47

Generator state:




***********************************************************
HOST = hpcsmp01, Linux

MersenneTwiter


smarsa_MatrixRank test:
-----------------------------------------------
   N =  1,  n = 5000,  r = 26,    s = 4,    L = 1000,    k = 1000


-----------------------------------------------
Number of degrees of freedom          :    3
Chi-square statistic                  :    1.42
p-value of test                       :    0.70

-----------------------------------------------
CPU time used                    :  00:05:43.79

Generator state:




***********************************************************
HOST = hpcsmp01, Linux

MersenneTwiter


smarsa_MatrixRank test:
-----------------------------------------------
   N =  1,  n = 80,  r = 15,    s = 15,    L = 5000,    k = 5000


-----------------------------------------------
Number of degrees of freedom          :    2
Chi-square statistic                  :    1.93
p-value of test                       :    0.38

-----------------------------------------------
CPU time used                    :  00:18:43.20

Generator state:




***********************************************************
HOST = hpcsmp01, Linux

MersenneTwiter


smarsa_MatrixRank test:
-----------------------------------------------
   N =  1,  n = 80,  r =  0,    s = 30,    L = 5000,    k = 5000


-----------------------------------------------
Number of degrees of freedom          :    2
Chi-square statistic                  :    2.69
p-value of test                       :    0.26

-----------------------------------------------
CPU time used                    :  00:14:02.18

Generator state:




***********************************************************
HOST = hpcsmp01, Linux

MersenneTwiter


smarsa_Savir2 test:
-----------------------------------------------
   N = 10,  n = 10000000,  r = 10,    m = 1048576,    t = 30


-----------------------------------------------

Kolmogorov-Smirnov+ statistic = D+    :    0.41
p-value of test                       :    0.03

Kolmogorov-Smirnov- statistic = D-    :   0.080
p-value of test                       :    0.84

Anderson-Darling statistic = A2       :    3.74
p-value of test                       :    0.01

Test on the sum of all N observations
Number of degrees of freedom          :  130
Chi-square statistic                  :  100.47
p-value of test                       :    0.97

-----------------------------------------------
CPU time used                    :  00:00:56.72

Generator state:




***********************************************************
HOST = hpcsmp01, Linux

MersenneTwiter


smarsa_GCD test:
-----------------------------------------------
   N = 10,  n = 50000000,  r =  0,   s = 30


-----------------------------------------------
Test results for GCD values:

Kolmogorov-Smirnov+ statistic = D+    :    0.19
p-value of test                       :    0.45

Kolmogorov-Smirnov- statistic = D-    :    0.14
p-value of test                       :    0.63

Anderson-Darling statistic = A2       :    0.47
p-value of test                       :    0.77

Test on the sum of all N observations
Number of degrees of freedom          : 17430
Chi-square statistic                  :17482.77
p-value of test                       :    0.39



-----------------------------------------------
CPU time used                    :  00:02:28.86

Generator state:




***********************************************************
HOST = hpcsmp01, Linux

MersenneTwiter


swalk_RandomWalk1 test:
-----------------------------------------------
   N =  1,  n = 100000000,  r =  0,   s = 5,   L0 =   50,   L1 =   50



-----------------------------------------------
Test on the values of the Statistic H

Number of degrees of freedom          :   36
ChiSquare statistic                   :   39.65
p-value of test                       :    0.31


-----------------------------------------------
Test on the values of the Statistic M

Number of degrees of freedom          :   35
ChiSquare statistic                   :   41.48
p-value of test                       :    0.21


-----------------------------------------------
Test on the values of the Statistic J

Number of degrees of freedom          :   25
ChiSquare statistic                   :   20.90
p-value of test                       :    0.70


-----------------------------------------------
Test on the values of the Statistic R

Number of degrees of freedom          :   24
ChiSquare statistic                   :   23.22
p-value of test                       :    0.51


-----------------------------------------------
Test on the values of the Statistic C

Number of degrees of freedom          :   17
ChiSquare statistic                   :   16.12
p-value of test                       :    0.52


-----------------------------------------------
CPU time used                    :  00:01:37.56

Generator state:




***********************************************************
HOST = hpcsmp01, Linux

MersenneTwiter


swalk_RandomWalk1 test:
-----------------------------------------------
   N =  1,  n = 100000000,  r = 25,   s = 5,   L0 =   50,   L1 =   50



-----------------------------------------------
Test on the values of the Statistic H

Number of degrees of freedom          :   36
ChiSquare statistic                   :   34.65
p-value of test                       :    0.53


-----------------------------------------------
Test on the values of the Statistic M

Number of degrees of freedom          :   35
ChiSquare statistic                   :   26.25
p-value of test                       :    0.86


-----------------------------------------------
Test on the values of the Statistic J

Number of degrees of freedom          :   25
ChiSquare statistic                   :   17.91
p-value of test                       :    0.85


-----------------------------------------------
Test on the values of the Statistic R

Number of degrees of freedom          :   24
ChiSquare statistic                   :   23.23
p-value of test                       :    0.51


-----------------------------------------------
Test on the values of the Statistic C

Number of degrees of freedom          :   17
ChiSquare statistic                   :   17.52
p-value of test                       :    0.42


-----------------------------------------------
CPU time used                    :  00:01:41.08

Generator state:




***********************************************************
HOST = hpcsmp01, Linux

MersenneTwiter


swalk_RandomWalk1 test:
-----------------------------------------------
   N =  1,  n = 10000000,  r =  0,   s = 10,   L0 = 1000,   L1 = 1000



-----------------------------------------------
Test on the values of the Statistic H

Number of degrees of freedom          :  146
ChiSquare statistic                   :  154.81
p-value of test                       :    0.29


-----------------------------------------------
Test on the values of the Statistic M

Number of degrees of freedom          :  146
ChiSquare statistic                   :  155.87
p-value of test                       :    0.27


-----------------------------------------------
Test on the values of the Statistic J

Number of degrees of freedom          :  500
ChiSquare statistic                   :  537.97
p-value of test                       :    0.12


-----------------------------------------------
Test on the values of the Statistic R

Number of degrees of freedom          :  136
ChiSquare statistic                   :  111.03
p-value of test                       :    0.94


-----------------------------------------------
Test on the values of the Statistic C

Number of degrees of freedom          :   74
ChiSquare statistic                   :   63.88
p-value of test                       :    0.79


-----------------------------------------------
CPU time used                    :  00:02:35.34

Generator state:




***********************************************************
HOST = hpcsmp01, Linux

MersenneTwiter


swalk_RandomWalk1 test:
-----------------------------------------------
   N =  1,  n = 10000000,  r = 20,   s = 10,   L0 = 1000,   L1 = 1000



-----------------------------------------------
Test on the values of the Statistic H

Number of degrees of freedom          :  146
ChiSquare statistic                   :  138.65
p-value of test                       :    0.65


-----------------------------------------------
Test on the values of the Statistic M

Number of degrees of freedom          :  146
ChiSquare statistic                   :  140.09
p-value of test                       :    0.62


-----------------------------------------------
Test on the values of the Statistic J

Number of degrees of freedom          :  500
ChiSquare statistic                   :  501.06
p-value of test                       :    0.48


-----------------------------------------------
Test on the values of the Statistic R

Number of degrees of freedom          :  136
ChiSquare statistic                   :  144.80
p-value of test                       :    0.29


-----------------------------------------------
Test on the values of the Statistic C

Number of degrees of freedom          :   74
ChiSquare statistic                   :   75.97
p-value of test                       :    0.41


-----------------------------------------------
CPU time used                    :  00:02:37.88

Generator state:




***********************************************************
HOST = hpcsmp01, Linux

MersenneTwiter


swalk_RandomWalk1 test:
-----------------------------------------------
   N =  1,  n = 1000000,  r =  0,   s = 15,   L0 = 10000,   L1 = 10000



-----------------------------------------------
Test on the values of the Statistic H

Number of degrees of freedom          :  384
ChiSquare statistic                   :  398.08
p-value of test                       :    0.30


-----------------------------------------------
Test on the values of the Statistic M

Number of degrees of freedom          :  384
ChiSquare statistic                   :  429.26
p-value of test                       :    0.06


-----------------------------------------------
Test on the values of the Statistic J

Number of degrees of freedom          : 5000
ChiSquare statistic                   : 4719.74
p-value of test                       :    0.9978


-----------------------------------------------
Test on the values of the Statistic R

Number of degrees of freedom          :  378
ChiSquare statistic                   :  381.01
p-value of test                       :    0.45


-----------------------------------------------
Test on the values of the Statistic C

Number of degrees of freedom          :  200
ChiSquare statistic                   :  194.56
p-value of test                       :    0.60


-----------------------------------------------
CPU time used                    :  00:02:21.86

Generator state:




***********************************************************
HOST = hpcsmp01, Linux

MersenneTwiter


swalk_RandomWalk1 test:
-----------------------------------------------
   N =  1,  n = 1000000,  r = 15,   s = 15,   L0 = 10000,   L1 = 10000



-----------------------------------------------
Test on the values of the Statistic H

Number of degrees of freedom          :  384
ChiSquare statistic                   :  423.50
p-value of test                       :    0.08


-----------------------------------------------
Test on the values of the Statistic M

Number of degrees of freedom          :  384
ChiSquare statistic                   :  316.80
p-value of test                       :    0.9947


-----------------------------------------------
Test on the values of the Statistic J

Number of degrees of freedom          : 5000
ChiSquare statistic                   : 5051.32
p-value of test                       :    0.30


-----------------------------------------------
Test on the values of the Statistic R

Number of degrees of freedom          :  378
ChiSquare statistic                   :  339.20
p-value of test                       :    0.92


-----------------------------------------------
Test on the values of the Statistic C

Number of degrees of freedom          :  200
ChiSquare statistic                   :  206.10
p-value of test                       :    0.37


-----------------------------------------------
CPU time used                    :  00:02:08.18

Generator state:




***********************************************************
HOST = hpcsmp01, Linux

MersenneTwiter


scomp_LinearComp test:
-----------------------------------------------
   N =  1,  n = 400020,  r =  0,    s = 1



-----------------------------------------------
Number of degrees of freedom          :   12
Chi2 statistic for size of jumps      :   15.98
p-value of test                       :    0.19


-----------------------------------------------
Normal statistic for number of jumps  : -403.21
p-value of test                       : 1 - eps1    *****



-----------------------------------------------
CPU time used                    :  00:00:09.50

Generator state:




***********************************************************
HOST = hpcsmp01, Linux

MersenneTwiter


scomp_LinearComp test:
-----------------------------------------------
   N =  1,  n = 400020,  r = 29,    s = 1



-----------------------------------------------
Number of degrees of freedom          :   12
Chi2 statistic for size of jumps      :   14.19
p-value of test                       :    0.29


-----------------------------------------------
Normal statistic for number of jumps  : -402.56
p-value of test                       : 1 - eps1    *****



-----------------------------------------------
CPU time used                    :  00:00:09.27

Generator state:




***********************************************************
HOST = hpcsmp01, Linux

MersenneTwiter


scomp_LempelZiv test:
-----------------------------------------------
   N = 10,  n = 134217728,  r =  0,   s =   30,   k =   27


-----------------------------------------------

Kolmogorov-Smirnov+ statistic = D+    :   0.087
p-value of test                       :    0.81

Kolmogorov-Smirnov- statistic = D-    :    0.36
p-value of test                       :    0.06

Anderson-Darling statistic = A2       :    1.16
p-value of test                       :    0.28

Tests on the sum of all N observations
Standardized normal statistic         :    0.85
p-value of test                       :    0.20

Sample variance                       :    1.04
p-value of test                       :    0.41

-----------------------------------------------
CPU time used                    :  00:02:19.20

Generator state:




***********************************************************
HOST = hpcsmp01, Linux

MersenneTwiter


scomp_LempelZiv test:
-----------------------------------------------
   N = 10,  n = 134217728,  r = 15,   s =   15,   k =   27


-----------------------------------------------

Kolmogorov-Smirnov+ statistic = D+    :    0.13
p-value of test                       :    0.64

Kolmogorov-Smirnov- statistic = D-    :    0.23
p-value of test                       :    0.30

Anderson-Darling statistic = A2       :    0.57
p-value of test                       :    0.67

Tests on the sum of all N observations
Standardized normal statistic         :    0.11
p-value of test                       :    0.45

Sample variance                       :    0.95
p-value of test                       :    0.48

-----------------------------------------------
CPU time used                    :  00:02:09.52

Generator state:




***********************************************************
HOST = hpcsmp01, Linux

MersenneTwiter


sspectral_Fourier3 test:
-----------------------------------------------
   N = 100000,  n = 16384,  r =  0,   s =    3,   k =   14


-----------------------------------------------

Kolmogorov-Smirnov+ statistic = D+    : 3.57e-3
p-value of test                       :    0.90

Kolmogorov-Smirnov- statistic = D-    : 8.47e-3
p-value of test                       :    0.55

Anderson-Darling statistic = A2       :    0.30
p-value of test                       :    0.94

-----------------------------------------------
CPU time used                    :  00:01:20.74

Generator state:




***********************************************************
HOST = hpcsmp01, Linux

MersenneTwiter


sspectral_Fourier3 test:
-----------------------------------------------
   N = 100000,  n = 16384,  r = 27,   s =    3,   k =   14


-----------------------------------------------

Kolmogorov-Smirnov+ statistic = D+    :   0.012
p-value of test                       :    0.29

Kolmogorov-Smirnov- statistic = D-    : 5.65e-3
p-value of test                       :    0.77

Anderson-Darling statistic = A2       :    0.53
p-value of test                       :    0.72

-----------------------------------------------
CPU time used                    :  00:01:07.86

Generator state:




***********************************************************
HOST = hpcsmp01, Linux

MersenneTwiter


sstring_LongestHeadRun test:
-----------------------------------------------
   N =  1,  n = 1000,  r =  0,   s = 3,   L = 10000020


-----------------------------------------------
Number of degrees of freedom          :    8
Chi-square statistic                  :   12.50
p-value of test                       :    0.13

-----------------------------------------------
Global longest run of 1               :   33.00
p-value of test                       :    0.44



-----------------------------------------------
CPU time used                    :  00:02:22.33

Generator state:




***********************************************************
HOST = hpcsmp01, Linux

MersenneTwiter


sstring_LongestHeadRun test:
-----------------------------------------------
   N =  1,  n = 1000,  r = 27,   s = 3,   L = 10000020


-----------------------------------------------
Number of degrees of freedom          :    8
Chi-square statistic                  :   18.40
p-value of test                       :    0.02

-----------------------------------------------
Global longest run of 1               :   31.00
p-value of test                       :    0.69



-----------------------------------------------
CPU time used                    :  00:02:37.36

Generator state:




***********************************************************
HOST = hpcsmp01, Linux

MersenneTwiter


sstring_PeriodsInStrings test:
-----------------------------------------------
   N = 10,  n = 500000000,  r =  0,   s =   10


-----------------------------------------------

Kolmogorov-Smirnov+ statistic = D+    :   0.052
p-value of test                       :    0.92

Kolmogorov-Smirnov- statistic = D-    :    0.31
p-value of test                       :    0.13

Anderson-Darling statistic = A2       :    1.23
p-value of test                       :    0.25

Test on the sum of all N observations
Number of degrees of freedom          :  200
Chi-square statistic                  :  226.84
p-value of test                       :    0.09

-----------------------------------------------
CPU time used                    :  00:04:16.68

Generator state:




***********************************************************
HOST = hpcsmp01, Linux

MersenneTwiter


sstring_PeriodsInStrings test:
-----------------------------------------------
   N = 10,  n = 500000000,  r = 20,   s =   10


-----------------------------------------------

Kolmogorov-Smirnov+ statistic = D+    :    0.11
p-value of test                       :    0.74

Kolmogorov-Smirnov- statistic = D-    :    0.25
p-value of test                       :    0.25

Anderson-Darling statistic = A2       :    0.53
p-value of test                       :    0.72

Test on the sum of all N observations
Number of degrees of freedom          :  200
Chi-square statistic                  :  201.83
p-value of test                       :    0.45

-----------------------------------------------
CPU time used                    :  00:04:35.25

Generator state:




***********************************************************
HOST = hpcsmp01, Linux

MersenneTwiter


sstring_HammingWeight2 test:
-----------------------------------------------
   N = 10,  n = 1000000000,  r =  0,   s = 3,   L = 1000000


-----------------------------------------------

Kolmogorov-Smirnov+ statistic = D+    :   0.066
p-value of test                       :    0.88

Kolmogorov-Smirnov- statistic = D-    :    0.24
p-value of test                       :    0.28

Anderson-Darling statistic = A2       :    0.80
p-value of test                       :    0.48

Test on the sum of all N observations
Number of degrees of freedom          : 10000
Chi-square statistic                  :10137.16
p-value of test                       :    0.17

-----------------------------------------------
CPU time used                    :  00:01:39.40

Generator state:




***********************************************************
HOST = hpcsmp01, Linux

MersenneTwiter


sstring_HammingWeight2 test:
-----------------------------------------------
   N = 10,  n = 1000000000,  r = 27,   s = 3,   L = 1000000


-----------------------------------------------

Kolmogorov-Smirnov+ statistic = D+    :   0.059
p-value of test                       :    0.90

Kolmogorov-Smirnov- statistic = D-    :    0.27
p-value of test                       :    0.20

Anderson-Darling statistic = A2       :    1.21
p-value of test                       :    0.26

Test on the sum of all N observations
Number of degrees of freedom          : 10000
Chi-square statistic                  :10189.16
p-value of test                       :    0.09

-----------------------------------------------
CPU time used                    :  00:01:44.83

Generator state:




***********************************************************
HOST = hpcsmp01, Linux

MersenneTwiter


sstring_HammingCorr test:
-----------------------------------------------
   N =  1,  n = 1000000000,  r = 10,   s = 10,   L = 30



-----------------------------------------------
Normal statistic                      :   -1.64
p-value of test                       :    0.95

-----------------------------------------------
CPU time used                    :  00:02:08.04

Generator state:




***********************************************************
HOST = hpcsmp01, Linux

MersenneTwiter


sstring_HammingCorr test:
-----------------------------------------------
   N =  1,  n = 100000000,  r = 10,   s = 10,   L = 300



-----------------------------------------------
Normal statistic                      :   -0.53
p-value of test                       :    0.70

-----------------------------------------------
CPU time used                    :  00:01:57.91

Generator state:




***********************************************************
HOST = hpcsmp01, Linux

MersenneTwiter


sstring_HammingCorr test:
-----------------------------------------------
   N =  1,  n = 100000000,  r = 10,   s = 10,   L = 1200



-----------------------------------------------
Normal statistic                      :    0.49
p-value of test                       :    0.31

-----------------------------------------------
CPU time used                    :  00:07:50.31

Generator state:




***********************************************************
HOST = hpcsmp01, Linux

MersenneTwiter


sstring_HammingIndep test:
-----------------------------------------------
   N = 10,  n = 30000000,  r =  0,   s = 3,   L = 30,   d = 0



Counters with expected numbers >= 10
-----------------------------------------------

Kolmogorov-Smirnov+ statistic = D+    :    0.20
p-value of test                       :    0.38

Kolmogorov-Smirnov- statistic = D-    :    0.14
p-value of test                       :    0.63

Anderson-Darling statistic = A2       :    0.41
p-value of test                       :    0.83

Test on the sum of all N observations
Number of degrees of freedom          : 4890
Chi-square statistic                  : 4849.07
p-value of test                       :    0.66

-----------------------------------------------
CPU time used                    :  00:03:15.31

Generator state:




***********************************************************
HOST = hpcsmp01, Linux

MersenneTwiter


sstring_HammingIndep test:
-----------------------------------------------
   N = 10,  n = 30000000,  r = 27,   s = 3,   L = 30,   d = 0



Counters with expected numbers >= 10
-----------------------------------------------

Kolmogorov-Smirnov+ statistic = D+    :   0.095
p-value of test                       :    0.79

Kolmogorov-Smirnov- statistic = D-    :    0.25
p-value of test                       :    0.25

Anderson-Darling statistic = A2       :    0.83
p-value of test                       :    0.46

Test on the sum of all N observations
Number of degrees of freedom          : 4890
Chi-square statistic                  : 4959.46
p-value of test                       :    0.24

-----------------------------------------------
CPU time used                    :  00:03:29.59

Generator state:




***********************************************************
HOST = hpcsmp01, Linux

MersenneTwiter


sstring_HammingIndep test:
-----------------------------------------------
   N =  1,  n = 30000000,  r =  0,   s = 4,   L = 300,   d = 0



Counters with expected numbers >= 10
-----------------------------------------------
Number of degrees of freedom          : 4117
Chi-square statistic                  : 4025.16
p-value of test                       :    0.84

-----------------------------------------------
CPU time used                    :  00:02:24.43

Generator state:




***********************************************************
HOST = hpcsmp01, Linux

MersenneTwiter


sstring_HammingIndep test:
-----------------------------------------------
   N =  1,  n = 30000000,  r = 26,   s = 4,   L = 300,   d = 0



Counters with expected numbers >= 10
-----------------------------------------------
Number of degrees of freedom          : 4117
Chi-square statistic                  : 4210.56
p-value of test                       :    0.15

-----------------------------------------------
CPU time used                    :  00:02:37.11

Generator state:




***********************************************************
HOST = hpcsmp01, Linux

MersenneTwiter


sstring_HammingIndep test:
-----------------------------------------------
   N =  1,  n = 10000000,  r =  0,   s = 5,   L = 1200,   d = 0



Counters with expected numbers >= 10
-----------------------------------------------
Number of degrees of freedom          : 11825
Chi-square statistic                  :11615.32
p-value of test                       :    0.91

-----------------------------------------------
CPU time used                    :  00:02:38.27

Generator state:




***********************************************************
HOST = hpcsmp01, Linux

MersenneTwiter


sstring_HammingIndep test:
-----------------------------------------------
   N =  1,  n = 10000000,  r = 25,   s = 5,   L = 1200,   d = 0



Counters with expected numbers >= 10
-----------------------------------------------
Number of degrees of freedom          : 11825
Chi-square statistic                  :11968.21
p-value of test                       :    0.18

-----------------------------------------------
CPU time used                    :  00:02:52.56

Generator state:




***********************************************************
HOST = hpcsmp01, Linux

MersenneTwiter


sstring_Run test:
-----------------------------------------------
   N =  1,  n = 2000000000,  r =  0,   s =    3


-----------------------------------------------
Total number of 1 runs:  2000000000

Number of degrees of freedom          :   54
Chi2 statistic for number of runs     :   68.64
p-value of test                       :    0.09


-----------------------------------------------
Total number of bits:  7999955667

Normal statistic for number of bits   :   -0.35
p-value of test                       :    0.64



-----------------------------------------------
CPU time used                    :  00:01:56.86

Generator state:




***********************************************************
HOST = hpcsmp01, Linux

MersenneTwiter


sstring_Run test:
-----------------------------------------------
   N =  1,  n = 2000000000,  r = 27,   s =    3


-----------------------------------------------
Total number of 1 runs:  2000000000

Number of degrees of freedom          :   54
Chi2 statistic for number of runs     :   51.81
p-value of test                       :    0.56


-----------------------------------------------
Total number of bits:  7999865508

Normal statistic for number of bits   :   -1.06
p-value of test                       :    0.86



-----------------------------------------------
CPU time used                    :  00:02:08.61

Generator state:




***********************************************************
HOST = hpcsmp01, Linux

MersenneTwiter


sstring_AutoCor test:
-----------------------------------------------
   N = 10,  n = 1000000030,  r =  0,   s = 3,   d = 1


-----------------------------------------------

Kolmogorov-Smirnov+ statistic = D+    : 2.32e-3
p-value of test                       :    0.9976

Kolmogorov-Smirnov- statistic = D-    :    0.28
p-value of test                       :    0.17

Anderson-Darling statistic = A2       :    1.66
p-value of test                       :    0.14

Tests on the sum of all N observations
Standardized normal statistic         :    1.90
p-value of test                       :    0.03

Sample variance                       :    1.14
p-value of test                       :    0.33

-----------------------------------------------
CPU time used                    :  00:04:04.93

Generator state:




***********************************************************
HOST = hpcsmp01, Linux

MersenneTwiter


sstring_AutoCor test:
-----------------------------------------------
   N = 10,  n = 1000000029,  r =  0,   s = 3,   d = 3


-----------------------------------------------

Kolmogorov-Smirnov+ statistic = D+    :    0.21
p-value of test                       :    0.38

Kolmogorov-Smirnov- statistic = D-    :    0.12
p-value of test                       :    0.71

Anderson-Darling statistic = A2       :    0.41
p-value of test                       :    0.83

Tests on the sum of all N observations
Standardized normal statistic         :   -0.19
p-value of test                       :    0.58

Sample variance                       :    0.63
p-value of test                       :    0.77

-----------------------------------------------
CPU time used                    :  00:03:46.02

Generator state:




***********************************************************
HOST = hpcsmp01, Linux

MersenneTwiter


sstring_AutoCor test:
-----------------------------------------------
   N = 10,  n = 1000000030,  r = 27,   s = 3,   d = 1


-----------------------------------------------

Kolmogorov-Smirnov+ statistic = D+    :    0.25
p-value of test                       :    0.24

Kolmogorov-Smirnov- statistic = D-    :   0.079
p-value of test                       :    0.84

Anderson-Darling statistic = A2       :    0.83
p-value of test                       :    0.46

Tests on the sum of all N observations
Standardized normal statistic         :   -0.86
p-value of test                       :    0.81

Sample variance                       :    0.69
p-value of test                       :    0.72

-----------------------------------------------
CPU time used                    :  00:04:02.91

Generator state:




***********************************************************
HOST = hpcsmp01, Linux

MersenneTwiter


sstring_AutoCor test:
-----------------------------------------------
   N = 10,  n = 1000000029,  r = 27,   s = 3,   d = 3


-----------------------------------------------

Kolmogorov-Smirnov+ statistic = D+    :    0.13
p-value of test                       :    0.64

Kolmogorov-Smirnov- statistic = D-    :    0.23
p-value of test                       :    0.31

Anderson-Darling statistic = A2       :    0.72
p-value of test                       :    0.54

Tests on the sum of all N observations
Standardized normal statistic         :    0.17
p-value of test                       :    0.43

Sample variance                       :    1.43
p-value of test                       :    0.17

-----------------------------------------------
CPU time used                    :  00:02:41.40

Generator state:





========= Summary results of BigCrush =========

 Version:          TestU01 1.2.3
 Generator:        MersenneTwiter
 Number of statistics:  160
 Total CPU time:   06:42:22.00
 The following tests gave p-values outside [0.001, 0.9990]:
 (eps  means a value < 1.0e-300):
 (eps1 means a value < 1.0e-15):

       Test                          p-value
 ----------------------------------------------
 80  LinearComp, r = 0              1 - eps1
 81  LinearComp, r = 29             1 - eps1
 ----------------------------------------------
 All other tests were passed



