xxxxxxxxxxxxxxxxxxxxxxxxxxxxxxxxxxxxxxxxxxxxxxxxxxxxxxxxxxx
                 Starting BigCrush
                 Version: TestU01 1.2.3
xxxxxxxxxxxxxxxxxxxxxxxxxxxxxxxxxxxxxxxxxxxxxxxxxxxxxxxxxxx


***********************************************************
Test smarsa_SerialOver calling smultin_MultinomialOver

***********************************************************
HOST = node35.local.isima.fr, Linux

MersenneTwiter


smultin_MultinomialOver test:
-----------------------------------------------
   N =  1,  n = 1000000000,  r =  0,   d =  256,   t =  3,
       Sparse =  FALSE

       GenerCell = smultin_GenerCellSerial
       Number of cells = d^t =           16777216
       Expected number per cell =   59.604645
       Hashing =  FALSE

   For Delta > -1, we use the ChiSquare approximation
   Correction factor of the ChiSquare: 
       Delta =     1,    Mu =   0.0083558402,    Sigma =          1

-----------------------------------------------
Test Results for Delta =   1.0000

Number of degrees of freedom          : 16711680
Value of the statistic                : 1.67e+7
p-value of test                       :    0.43


-----------------------------------------------
CPU time used                    :  00:01:05.57

Generator state:




***********************************************************
Test smarsa_SerialOver calling smultin_MultinomialOver

***********************************************************
HOST = node35.local.isima.fr, Linux

MersenneTwiter


smultin_MultinomialOver test:
-----------------------------------------------
   N =  1,  n = 1000000000,  r = 22,   d =  256,   t =  3,
       Sparse =  FALSE

       GenerCell = smultin_GenerCellSerial
       Number of cells = d^t =           16777216
       Expected number per cell =   59.604645
       Hashing =  FALSE

   For Delta > -1, we use the ChiSquare approximation
   Correction factor of the ChiSquare: 
       Delta =     1,    Mu =   0.0083558402,    Sigma =          1

-----------------------------------------------
Test Results for Delta =   1.0000

Number of degrees of freedom          : 16711680
Value of the statistic                : 1.67e+7
p-value of test                       :    0.92


-----------------------------------------------
CPU time used                    :  00:01:08.68

Generator state:




***********************************************************
Test smarsa_CollisionOver calling smultin_MultinomialOver

***********************************************************
HOST = node35.local.isima.fr, Linux

MersenneTwiter


smultin_MultinomialOver test:
-----------------------------------------------
   N = 30,  n = 20000000,  r =  0,   d = 2097152,   t =  2,
       Sparse =   TRUE

       GenerCell = smultin_GenerCellSerial
       Number of cells = d^t =      4398046511104
       Expected number per cell =  1 /  219902.33
       EColl = n^2 / (2k) =  45.47473509
       Hashing =   TRUE

       Collision test

       CollisionOver:   density = n / k =  1 /  219902.33
       Expected number of collisions = Mu =      45.47


-----------------------------------------------
Results of CollisionOver test:

POISSON approximation                 :
Expected number of collisions = N*Mu  :     1364.24
Observed number of collisions         :     1323
p-value of test                       :    0.87

-----------------------------
Total number of cells containing j balls

  j =  0                              :  131940795334443
  j =  1                              :        599997354
  j =  2                              :             1323
  j =  3                              :                0
  j =  4                              :                0
  j =  5                              :                0

-----------------------------------------------
CPU time used                    :  00:04:05.61

Generator state:




***********************************************************
Test smarsa_CollisionOver calling smultin_MultinomialOver

***********************************************************
HOST = node35.local.isima.fr, Linux

MersenneTwiter


smultin_MultinomialOver test:
-----------------------------------------------
   N = 30,  n = 20000000,  r =  9,   d = 2097152,   t =  2,
       Sparse =   TRUE

       GenerCell = smultin_GenerCellSerial
       Number of cells = d^t =      4398046511104
       Expected number per cell =  1 /  219902.33
       EColl = n^2 / (2k) =  45.47473509
       Hashing =   TRUE

       Collision test

       CollisionOver:   density = n / k =  1 /  219902.33
       Expected number of collisions = Mu =      45.47


-----------------------------------------------
Results of CollisionOver test:

POISSON approximation                 :
Expected number of collisions = N*Mu  :     1364.24
Observed number of collisions         :     1335
p-value of test                       :    0.78

-----------------------------
Total number of cells containing j balls

  j =  0                              :  131940795334455
  j =  1                              :        599997330
  j =  2                              :             1335
  j =  3                              :                0
  j =  4                              :                0
  j =  5                              :                0

-----------------------------------------------
CPU time used                    :  00:04:08.01

Generator state:




***********************************************************
Test smarsa_CollisionOver calling smultin_MultinomialOver

***********************************************************
HOST = node35.local.isima.fr, Linux

MersenneTwiter


smultin_MultinomialOver test:
-----------------------------------------------
   N = 30,  n = 20000000,  r =  0,   d = 16384,   t =  3,
       Sparse =   TRUE

       GenerCell = smultin_GenerCellSerial
       Number of cells = d^t =      4398046511104
       Expected number per cell =  1 /  219902.33
       EColl = n^2 / (2k) =  45.47473509
       Hashing =   TRUE

       Collision test

       CollisionOver:   density = n / k =  1 /  219902.33
       Expected number of collisions = Mu =      45.47


-----------------------------------------------
Results of CollisionOver test:

POISSON approximation                 :
Expected number of collisions = N*Mu  :     1364.24
Observed number of collisions         :     1341
p-value of test                       :    0.73

-----------------------------
Total number of cells containing j balls

  j =  0                              :  131940795334461
  j =  1                              :        599997318
  j =  2                              :             1341
  j =  3                              :                0
  j =  4                              :                0
  j =  5                              :                0

-----------------------------------------------
CPU time used                    :  00:05:28.55

Generator state:




***********************************************************
Test smarsa_CollisionOver calling smultin_MultinomialOver

***********************************************************
HOST = node35.local.isima.fr, Linux

MersenneTwiter


smultin_MultinomialOver test:
-----------------------------------------------
   N = 30,  n = 20000000,  r = 16,   d = 16384,   t =  3,
       Sparse =   TRUE

       GenerCell = smultin_GenerCellSerial
       Number of cells = d^t =      4398046511104
       Expected number per cell =  1 /  219902.33
       EColl = n^2 / (2k) =  45.47473509
       Hashing =   TRUE

       Collision test

       CollisionOver:   density = n / k =  1 /  219902.33
       Expected number of collisions = Mu =      45.47


-----------------------------------------------
Results of CollisionOver test:

POISSON approximation                 :
Expected number of collisions = N*Mu  :     1364.24
Observed number of collisions         :     1351
p-value of test                       :    0.63

-----------------------------
Total number of cells containing j balls

  j =  0                              :  131940795334471
  j =  1                              :        599997298
  j =  2                              :             1351
  j =  3                              :                0
  j =  4                              :                0
  j =  5                              :                0

-----------------------------------------------
CPU time used                    :  00:05:31.47

Generator state:




***********************************************************
Test smarsa_CollisionOver calling smultin_MultinomialOver

***********************************************************
HOST = node35.local.isima.fr, Linux

MersenneTwiter


smultin_MultinomialOver test:
-----------------------------------------------
   N = 30,  n = 20000000,  r =  0,   d =   64,   t =  7,
       Sparse =   TRUE

       GenerCell = smultin_GenerCellSerial
       Number of cells = d^t =      4398046511104
       Expected number per cell =  1 /  219902.33
       EColl = n^2 / (2k) =  45.47473509
       Hashing =   TRUE

       Collision test

       CollisionOver:   density = n / k =  1 /  219902.33
       Expected number of collisions = Mu =      45.47


-----------------------------------------------
Results of CollisionOver test:

POISSON approximation                 :
Expected number of collisions = N*Mu  :     1364.24
Observed number of collisions         :     1339
p-value of test                       :    0.75

-----------------------------
Total number of cells containing j balls

  j =  0                              :  131940795334459
  j =  1                              :        599997322
  j =  2                              :             1339
  j =  3                              :                0
  j =  4                              :                0
  j =  5                              :                0

-----------------------------------------------
CPU time used                    :  00:05:31.44

Generator state:




***********************************************************
Test smarsa_CollisionOver calling smultin_MultinomialOver

***********************************************************
HOST = node35.local.isima.fr, Linux

MersenneTwiter


smultin_MultinomialOver test:
-----------------------------------------------
   N = 30,  n = 20000000,  r = 24,   d =   64,   t =  7,
       Sparse =   TRUE

       GenerCell = smultin_GenerCellSerial
       Number of cells = d^t =      4398046511104
       Expected number per cell =  1 /  219902.33
       EColl = n^2 / (2k) =  45.47473509
       Hashing =   TRUE

       Collision test

       CollisionOver:   density = n / k =  1 /  219902.33
       Expected number of collisions = Mu =      45.47


-----------------------------------------------
Results of CollisionOver test:

POISSON approximation                 :
Expected number of collisions = N*Mu  :     1364.24
Observed number of collisions         :     1341
p-value of test                       :    0.73

-----------------------------
Total number of cells containing j balls

  j =  0                              :  131940795334461
  j =  1                              :        599997318
  j =  2                              :             1341
  j =  3                              :                0
  j =  4                              :                0
  j =  5                              :                0

-----------------------------------------------
CPU time used                    :  00:05:36.29

Generator state:




***********************************************************
Test smarsa_CollisionOver calling smultin_MultinomialOver

***********************************************************
HOST = node35.local.isima.fr, Linux

MersenneTwiter


smultin_MultinomialOver test:
-----------------------------------------------
   N = 30,  n = 20000000,  r =  0,   d =    8,   t = 14,
       Sparse =   TRUE

       GenerCell = smultin_GenerCellSerial
       Number of cells = d^t =      4398046511104
       Expected number per cell =  1 /  219902.33
       EColl = n^2 / (2k) =  45.47473509
       Hashing =   TRUE

       Collision test

       CollisionOver:   density = n / k =  1 /  219902.33
       Expected number of collisions = Mu =      45.47


-----------------------------------------------
Results of CollisionOver test:

POISSON approximation                 :
Expected number of collisions = N*Mu  :     1364.24
Observed number of collisions         :     1354
p-value of test                       :    0.60

-----------------------------
Total number of cells containing j balls

  j =  0                              :  131940795334474
  j =  1                              :        599997292
  j =  2                              :             1354
  j =  3                              :                0
  j =  4                              :                0
  j =  5                              :                0

-----------------------------------------------
CPU time used                    :  00:05:33.34

Generator state:




***********************************************************
Test smarsa_CollisionOver calling smultin_MultinomialOver

***********************************************************
HOST = node35.local.isima.fr, Linux

MersenneTwiter


smultin_MultinomialOver test:
-----------------------------------------------
   N = 30,  n = 20000000,  r = 27,   d =    8,   t = 14,
       Sparse =   TRUE

       GenerCell = smultin_GenerCellSerial
       Number of cells = d^t =      4398046511104
       Expected number per cell =  1 /  219902.33
       EColl = n^2 / (2k) =  45.47473509
       Hashing =   TRUE

       Collision test

       CollisionOver:   density = n / k =  1 /  219902.33
       Expected number of collisions = Mu =      45.47


-----------------------------------------------
Results of CollisionOver test:

POISSON approximation                 :
Expected number of collisions = N*Mu  :     1364.24
Observed number of collisions         :     1407
p-value of test                       :    0.13

-----------------------------
Total number of cells containing j balls

  j =  0                              :  131940795334527
  j =  1                              :        599997186
  j =  2                              :             1407
  j =  3                              :                0
  j =  4                              :                0
  j =  5                              :                0

-----------------------------------------------
CPU time used                    :  00:06:14.28

Generator state:




***********************************************************
Test smarsa_CollisionOver calling smultin_MultinomialOver

***********************************************************
HOST = node35.local.isima.fr, Linux

MersenneTwiter


smultin_MultinomialOver test:
-----------------------------------------------
   N = 30,  n = 20000000,  r =  0,   d =    4,   t = 21,
       Sparse =   TRUE

       GenerCell = smultin_GenerCellSerial
       Number of cells = d^t =      4398046511104
       Expected number per cell =  1 /  219902.33
       EColl = n^2 / (2k) =  45.47473509
       Hashing =   TRUE

       Collision test

       CollisionOver:   density = n / k =  1 /  219902.33
       Expected number of collisions = Mu =      45.47


-----------------------------------------------
Results of CollisionOver test:

POISSON approximation                 :
Expected number of collisions = N*Mu  :     1364.24
Observed number of collisions         :     1385
p-value of test                       :    0.29

-----------------------------
Total number of cells containing j balls

  j =  0                              :  131940795334505
  j =  1                              :        599997230
  j =  2                              :             1385
  j =  3                              :                0
  j =  4                              :                0
  j =  5                              :                0

-----------------------------------------------
CPU time used                    :  00:05:39.86

Generator state:




***********************************************************
Test smarsa_CollisionOver calling smultin_MultinomialOver

***********************************************************
HOST = node35.local.isima.fr, Linux

MersenneTwiter


smultin_MultinomialOver test:
-----------------------------------------------
   N = 30,  n = 20000000,  r = 28,   d =    4,   t = 21,
       Sparse =   TRUE

       GenerCell = smultin_GenerCellSerial
       Number of cells = d^t =      4398046511104
       Expected number per cell =  1 /  219902.33
       EColl = n^2 / (2k) =  45.47473509
       Hashing =   TRUE

       Collision test

       CollisionOver:   density = n / k =  1 /  219902.33
       Expected number of collisions = Mu =      45.47


-----------------------------------------------
Results of CollisionOver test:

POISSON approximation                 :
Expected number of collisions = N*Mu  :     1364.24
Observed number of collisions         :     1339
p-value of test                       :    0.75

-----------------------------
Total number of cells containing j balls

  j =  0                              :  131940795334459
  j =  1                              :        599997322
  j =  2                              :             1339
  j =  3                              :                0
  j =  4                              :                0
  j =  5                              :                0

-----------------------------------------------
CPU time used                    :  00:05:23.53

Generator state:




***********************************************************
HOST = node35.local.isima.fr, Linux

MersenneTwiter


smarsa_BirthdaySpacings test:
-----------------------------------------------
   N = 100,  n = 10000000,  r =  0,    d = 2147483648,    t = 2,    p = 1


      Number of cells = d^t = 4611686018427387904
      Lambda = Poisson mean =      54.2101


----------------------------------------------------
Total expected number = N*Lambda      :    5421.01
Total observed number                 :    5364
p-value of test                       :    0.78


-----------------------------------------------
CPU time used                    :  00:03:29.05

Generator state:




***********************************************************
HOST = node35.local.isima.fr, Linux

MersenneTwiter


smarsa_BirthdaySpacings test:
-----------------------------------------------
   N = 20,  n = 20000000,  r =  0,    d = 2097152,    t = 3,    p = 1


      Number of cells = d^t = 9223372036854775808
      Lambda = Poisson mean =     216.8404


----------------------------------------------------
Total expected number = N*Lambda      :    4336.81
Total observed number                 :    4254
p-value of test                       :    0.89


-----------------------------------------------
CPU time used                    :  00:01:29.07

Generator state:




***********************************************************
HOST = node35.local.isima.fr, Linux

MersenneTwiter


smarsa_BirthdaySpacings test:
-----------------------------------------------
   N = 20,  n = 30000000,  r = 14,    d = 65536,    t = 4,    p = 1


      Number of cells = d^t = 18446744073709551616
      Lambda = Poisson mean =     365.9182


----------------------------------------------------
Total expected number = N*Lambda      :    7318.36
Total observed number                 :    7324
p-value of test                       :    0.48


-----------------------------------------------
CPU time used                    :  00:02:23.80

Generator state:




***********************************************************
HOST = node35.local.isima.fr, Linux

MersenneTwiter


smarsa_BirthdaySpacings test:
-----------------------------------------------
   N = 20,  n = 20000000,  r =  0,    d = 512,    t = 7,    p = 1


      Number of cells = d^t = 9223372036854775808
      Lambda = Poisson mean =     216.8404


----------------------------------------------------
Total expected number = N*Lambda      :    4336.81
Total observed number                 :    4333
p-value of test                       :    0.52


-----------------------------------------------
CPU time used                    :  00:01:39.48

Generator state:




***********************************************************
HOST = node35.local.isima.fr, Linux

MersenneTwiter


smarsa_BirthdaySpacings test:
-----------------------------------------------
   N = 20,  n = 20000000,  r =  7,    d = 512,    t = 7,    p = 1


      Number of cells = d^t = 9223372036854775808
      Lambda = Poisson mean =     216.8404


----------------------------------------------------
Total expected number = N*Lambda      :    4336.81
Total observed number                 :    4399
p-value of test                       :    0.17


-----------------------------------------------
CPU time used                    :  00:01:43.46

Generator state:




***********************************************************
HOST = node35.local.isima.fr, Linux

MersenneTwiter


smarsa_BirthdaySpacings test:
-----------------------------------------------
   N = 20,  n = 30000000,  r = 14,    d = 256,    t = 8,    p = 1


      Number of cells = d^t = 18446744073709551616
      Lambda = Poisson mean =     365.9182


----------------------------------------------------
Total expected number = N*Lambda      :    7318.36
Total observed number                 :    7246
p-value of test                       :    0.80


-----------------------------------------------
CPU time used                    :  00:02:41.01

Generator state:




***********************************************************
HOST = node35.local.isima.fr, Linux

MersenneTwiter


smarsa_BirthdaySpacings test:
-----------------------------------------------
   N = 20,  n = 30000000,  r = 22,    d = 256,    t = 8,    p = 1


      Number of cells = d^t = 18446744073709551616
      Lambda = Poisson mean =     365.9182


----------------------------------------------------
Total expected number = N*Lambda      :    7318.36
Total observed number                 :    7202
p-value of test                       :    0.91


-----------------------------------------------
CPU time used                    :  00:02:41.26

Generator state:




***********************************************************
HOST = node35.local.isima.fr, Linux

MersenneTwiter


smarsa_BirthdaySpacings test:
-----------------------------------------------
   N = 20,  n = 30000000,  r =  0,    d = 16,    t = 16,    p = 1


      Number of cells = d^t = 18446744073709551616
      Lambda = Poisson mean =     365.9182


----------------------------------------------------
Total expected number = N*Lambda      :    7318.36
Total observed number                 :    7415
p-value of test                       :    0.13


-----------------------------------------------
CPU time used                    :  00:03:09.63

Generator state:




***********************************************************
HOST = node35.local.isima.fr, Linux

MersenneTwiter


smarsa_BirthdaySpacings test:
-----------------------------------------------
   N = 20,  n = 30000000,  r = 26,    d = 16,    t = 16,    p = 1


      Number of cells = d^t = 18446744073709551616
      Lambda = Poisson mean =     365.9182


----------------------------------------------------
Total expected number = N*Lambda      :    7318.36
Total observed number                 :    7411
p-value of test                       :    0.14


-----------------------------------------------
CPU time used                    :  00:03:23.69

Generator state:




***********************************************************
HOST = node35.local.isima.fr, Linux

MersenneTwiter


snpair_ClosePairs test:
-----------------------------------------------
   N = 30,  n = 6000000,  r =  0,  t = 3,  p = 0,  m = 30,  Torus =  TRUE


---------------------------------------
Test based on the 2 nearest points (NP):

Stat. AD on the N values (NP)         :    0.50
p-value of test                       :    0.75


A2 test based on the spacings between the
   successive jump times of process Y_n(t):

A2 test on the values of A2 (m-NP)    :    0.52
p-value of test                       :    0.73

Test on the Nm values of W_{n,i}(mNP1):    0.82
p-value of test                       :    0.47

Test on the jump times of Y
   (superposition of Yn):

Expected number of jumps of Y = mN    :     900
Number of jumps of Y                  :     858
p-value of test                       :    0.92

Stat. AD (mNP2)                       :    1.03
p-value of test                       :    0.34

Stat. AD after spacings (mNP2-S)      :    0.91
p-value of test                       :    0.41

-----------------------------------------------
CPU time used                    :  00:01:48.56

Generator state:




***********************************************************
HOST = node35.local.isima.fr, Linux

MersenneTwiter


snpair_ClosePairs test:
-----------------------------------------------
   N = 20,  n = 4000000,  r =  0,  t = 5,  p = 0,  m = 30,  Torus =  TRUE


---------------------------------------
Test based on the 2 nearest points (NP):

Stat. AD on the N values (NP)         :    0.29
p-value of test                       :    0.95


A2 test based on the spacings between the
   successive jump times of process Y_n(t):

A2 test on the values of A2 (m-NP)    :    0.72
p-value of test                       :    0.54

Test on the Nm values of W_{n,i}(mNP1):    0.24
p-value of test                       :    0.98

Test on the jump times of Y
   (superposition of Yn):

Expected number of jumps of Y = mN    :     600
Number of jumps of Y                  :     609
p-value of test                       :    0.36

Stat. AD (mNP2)                       :    0.96
p-value of test                       :    0.38

Stat. AD after spacings (mNP2-S)      :    0.52
p-value of test                       :    0.72

-----------------------------------------------
CPU time used                    :  00:01:11.02

Generator state:




***********************************************************
HOST = node35.local.isima.fr, Linux

MersenneTwiter


snpair_ClosePairs test:
-----------------------------------------------
   N = 10,  n = 3000000,  r =  0,  t = 9,  p = 0,  m = 30,  Torus =  TRUE


---------------------------------------
Test based on the 2 nearest points (NP):

Stat. AD on the N values (NP)         :    0.64
p-value of test                       :    0.61


A2 test based on the spacings between the
   successive jump times of process Y_n(t):

A2 test on the values of A2 (m-NP)    :    0.31
p-value of test                       :    0.93

Test on the Nm values of W_{n,i}(mNP1):    0.94
p-value of test                       :    0.39

Test on the jump times of Y
   (superposition of Yn):

Expected number of jumps of Y = mN    :     300
Number of jumps of Y                  :     278
p-value of test                       :    0.89

Stat. AD (mNP2)                       :    0.42
p-value of test                       :    0.82

Stat. AD after spacings (mNP2-S)      :    0.40
p-value of test                       :    0.85

-----------------------------------------------
CPU time used                    :  00:02:08.88

Generator state:




***********************************************************
HOST = node35.local.isima.fr, Linux

MersenneTwiter


snpair_ClosePairs test:
-----------------------------------------------
   N =  5,  n = 2000000,  r =  0,  t = 16,  p = 0,  m = 30,  Torus =  TRUE


---------------------------------------
Test based on the 2 nearest points (NP):

Stat. AD on the N values (NP)         :    0.40
p-value of test                       :    0.85


A2 test based on the spacings between the
   successive jump times of process Y_n(t):

A2 test on the values of A2 (m-NP)    :    1.20
p-value of test                       :    0.27

Test on the Nm values of W_{n,i}(mNP1):    0.57
p-value of test                       :    0.68

Test on the jump times of Y
   (superposition of Yn):

Expected number of jumps of Y = mN    :     150
Number of jumps of Y                  :     152
p-value of test                       :    0.45

Stat. AD (mNP2)                       :    1.01
p-value of test                       :    0.35

Stat. AD after spacings (mNP2-S)      :    0.56
p-value of test                       :    0.68

-----------------------------------------------
CPU time used                    :  00:02:34.43

Generator state:




***********************************************************
HOST = node35.local.isima.fr, Linux

MersenneTwiter


sknuth_SimpPoker test:
-----------------------------------------------
   N =  1,  n = 400000000,  r =  0,   d =    8,   k =    8


-----------------------------------------------
Number of degrees of freedom          :    7
Chi-square statistic                  :    8.81
p-value of test                       :    0.27

-----------------------------------------------
CPU time used                    :  00:00:42.50

Generator state:




***********************************************************
HOST = node35.local.isima.fr, Linux

MersenneTwiter


sknuth_SimpPoker test:
-----------------------------------------------
   N =  1,  n = 400000000,  r = 27,   d =    8,   k =    8


-----------------------------------------------
Number of degrees of freedom          :    7
Chi-square statistic                  :    4.51
p-value of test                       :    0.72

-----------------------------------------------
CPU time used                    :  00:00:54.15

Generator state:




***********************************************************
HOST = node35.local.isima.fr, Linux

MersenneTwiter


sknuth_SimpPoker test:
-----------------------------------------------
   N =  1,  n = 100000000,  r =  0,   d =   32,   k =   32


-----------------------------------------------
Number of degrees of freedom          :   18
Chi-square statistic                  :   10.93
p-value of test                       :    0.90

-----------------------------------------------
CPU time used                    :  00:00:45.34

Generator state:




***********************************************************
HOST = node35.local.isima.fr, Linux

MersenneTwiter


sknuth_SimpPoker test:
-----------------------------------------------
   N =  1,  n = 100000000,  r = 25,   d =   32,   k =   32


-----------------------------------------------
Number of degrees of freedom          :   18
Chi-square statistic                  :   13.76
p-value of test                       :    0.74

-----------------------------------------------
CPU time used                    :  00:00:59.34

Generator state:




***********************************************************
HOST = node35.local.isima.fr, Linux

MersenneTwiter


sknuth_CouponCollector test:
-----------------------------------------------
   N =  1,  n = 200000000,  r =  0,   d =    8


-----------------------------------------------
Number of degrees of freedom          :   54
Chi-square statistic                  :   64.14
p-value of test                       :    0.16

-----------------------------------------------
CPU time used                    :  00:00:52.97

Generator state:




***********************************************************
HOST = node35.local.isima.fr, Linux

MersenneTwiter


sknuth_CouponCollector test:
-----------------------------------------------
   N =  1,  n = 200000000,  r = 10,   d =    8


-----------------------------------------------
Number of degrees of freedom          :   54
Chi-square statistic                  :   53.81
p-value of test                       :    0.48

-----------------------------------------------
CPU time used                    :  00:01:09.97

Generator state:




***********************************************************
HOST = node35.local.isima.fr, Linux

MersenneTwiter


sknuth_CouponCollector test:
-----------------------------------------------
   N =  1,  n = 200000000,  r = 20,   d =    8


-----------------------------------------------
Number of degrees of freedom          :   54
Chi-square statistic                  :   49.70
p-value of test                       :    0.64

-----------------------------------------------
CPU time used                    :  00:01:09.85

Generator state:




***********************************************************
HOST = node35.local.isima.fr, Linux

MersenneTwiter


sknuth_CouponCollector test:
-----------------------------------------------
   N =  1,  n = 200000000,  r = 27,   d =    8


-----------------------------------------------
Number of degrees of freedom          :   54
Chi-square statistic                  :   56.57
p-value of test                       :    0.38

-----------------------------------------------
CPU time used                    :  00:01:10.30

Generator state:




***********************************************************
HOST = node35.local.isima.fr, Linux

MersenneTwiter


sknuth_Gap test:
-----------------------------------------------
   N =  1,  n = 500000000,  r =  0,   Alpha =        0,   Beta  =   0.0625


-----------------------------------------------
Number of degrees of freedom          :  232
Chi-square statistic                  :  213.23
p-value of test                       :    0.81

-----------------------------------------------
CPU time used                    :  00:00:54.75

Generator state:




***********************************************************
HOST = node35.local.isima.fr, Linux

MersenneTwiter


sknuth_Gap test:
-----------------------------------------------
   N =  1,  n = 300000000,  r = 25,   Alpha =        0,   Beta  =  0.03125


-----------------------------------------------
Number of degrees of freedom          :  434
Chi-square statistic                  :  453.07
p-value of test                       :    0.25

-----------------------------------------------
CPU time used                    :  00:01:17.81

Generator state:




***********************************************************
HOST = node35.local.isima.fr, Linux

MersenneTwiter


sknuth_Gap test:
-----------------------------------------------
   N =  1,  n = 100000000,  r =  0,   Alpha =        0,   Beta  = 0.0078125


-----------------------------------------------
Number of degrees of freedom          : 1437
Chi-square statistic                  : 1523.77
p-value of test                       :    0.05

-----------------------------------------------
CPU time used                    :  00:01:16.03

Generator state:




***********************************************************
HOST = node35.local.isima.fr, Linux

MersenneTwiter


sknuth_Gap test:
-----------------------------------------------
   N =  1,  n = 10000000,  r = 20,   Alpha =        0,   Beta  = 0.000976562


-----------------------------------------------
Number of degrees of freedom          : 7046
Chi-square statistic                  : 6958.92
p-value of test                       :    0.77

-----------------------------------------------
CPU time used                    :  00:01:14.93

Generator state:




***********************************************************
HOST = node35.local.isima.fr, Linux

MersenneTwiter


sknuth_Run test:
-----------------------------------------------
   N =  5,  n = 1000000000,  r =  0,   Up = FALSE


-----------------------------------------------

Kolmogorov-Smirnov+ statistic = D+    :    0.26
p-value of test                       :    0.43

Kolmogorov-Smirnov- statistic = D-    :    0.12
p-value of test                       :    0.82

Anderson-Darling statistic = A2       :    0.45
p-value of test                       :    0.79

Test on the sum of all N observations
Number of degrees of freedom          :   30
Chi-square statistic                  :   25.99
p-value of test                       :    0.68

-----------------------------------------------
CPU time used                    :  00:01:01.06

Generator state:




***********************************************************
HOST = node35.local.isima.fr, Linux

MersenneTwiter


sknuth_Run test:
-----------------------------------------------
   N = 10,  n = 1000000000,  r = 15,   Up =  TRUE


-----------------------------------------------

Kolmogorov-Smirnov+ statistic = D+    :   0.093
p-value of test                       :    0.79

Kolmogorov-Smirnov- statistic = D-    :    0.23
p-value of test                       :    0.30

Anderson-Darling statistic = A2       :    1.68
p-value of test                       :    0.14

Test on the sum of all N observations
Number of degrees of freedom          :   60
Chi-square statistic                  :   82.44
p-value of test                       :    0.03

-----------------------------------------------
CPU time used                    :  00:02:37.19

Generator state:




***********************************************************
Test sknuth_Permutation calling smultin_Multinomial

***********************************************************
HOST = node35.local.isima.fr, Linux

MersenneTwiter


smultin_Multinomial test:
-----------------------------------------------
   N =  1,  n = 1000000000,  r =  5,   t =  3,
       Sparse =  FALSE

       GenerCell = smultin_GenerCellPermut
       Number of cells = t! =                  6
       Expected number per cell =  1.6666667e+08
       Hashing =  FALSE

   For Delta > -1, we use the ChiSquare approximation
   Correction factor of the ChiSquare: 
       Delta =     1,    Mu =  2.5000002e-09,    Sigma =          1

-----------------------------------------------
Test Results for Delta =   1.0000

Number of degrees of freedom          :    5
Value of the statistic                :    2.82
p-value of test                       :    0.73


-----------------------------------------------
CPU time used                    :  00:00:50.02

Generator state:




***********************************************************
Test sknuth_Permutation calling smultin_Multinomial

***********************************************************
HOST = node35.local.isima.fr, Linux

MersenneTwiter


smultin_Multinomial test:
-----------------------------------------------
   N =  1,  n = 1000000000,  r =  5,   t =  5,
       Sparse =  FALSE

       GenerCell = smultin_GenerCellPermut
       Number of cells = t! =                120
       Expected number per cell =   8333333.3
       Hashing =  FALSE

   For Delta > -1, we use the ChiSquare approximation
   Correction factor of the ChiSquare: 
       Delta =     1,    Mu =  5.9500005e-08,    Sigma =          1

-----------------------------------------------
Test Results for Delta =   1.0000

Number of degrees of freedom          :  119
Value of the statistic                :  145.29
p-value of test                       :    0.05


-----------------------------------------------
CPU time used                    :  00:01:22.06

Generator state:




***********************************************************
Test sknuth_Permutation calling smultin_Multinomial

***********************************************************
HOST = node35.local.isima.fr, Linux

MersenneTwiter


smultin_Multinomial test:
-----------------------------------------------
   N =  1,  n = 500000000,  r =  5,   t =  7,
       Sparse =  FALSE

       GenerCell = smultin_GenerCellPermut
       Number of cells = t! =               5040
       Expected number per cell =   99206.349
       Hashing =  FALSE

   For Delta > -1, we use the ChiSquare approximation
   Correction factor of the ChiSquare: 
       Delta =     1,    Mu =  5.0390004e-06,    Sigma =          1

-----------------------------------------------
Test Results for Delta =   1.0000

Number of degrees of freedom          : 5039
Value of the statistic                : 4933.75
p-value of test                       :    0.85


-----------------------------------------------
CPU time used                    :  00:01:04.47

Generator state:




***********************************************************
Test sknuth_Permutation calling smultin_Multinomial

***********************************************************
HOST = node35.local.isima.fr, Linux

MersenneTwiter


smultin_Multinomial test:
-----------------------------------------------
   N =  1,  n = 500000000,  r = 10,   t = 10,
       Sparse =  FALSE

       GenerCell = smultin_GenerCellPermut
       Number of cells = t! =            3628800
       Expected number per cell =    137.7866
       Hashing =  FALSE

   For Delta > -1, we use the ChiSquare approximation
   Correction factor of the ChiSquare: 
       Delta =     1,    Mu =   0.0036287993,    Sigma =          1

-----------------------------------------------
Test Results for Delta =   1.0000

Number of degrees of freedom          : 3628799
Value of the statistic                : 3.63e+6
p-value of test                       :    0.49


-----------------------------------------------
CPU time used                    :  00:02:55.93

Generator state:




***********************************************************
Test sknuth_CollisionPermut calling smultin_Multinomial

***********************************************************
HOST = node35.local.isima.fr, Linux

MersenneTwiter


smultin_Multinomial test:
-----------------------------------------------
   N = 20,  n = 20000000,  r =  0,   t = 14,
       Sparse =   TRUE

       GenerCell = smultin_GenerCellPermut
       Number of cells = t! =        87178291200
       Expected number per cell =  1 /  4358.9146
       EColl = n^2 / (2k) =   2294.14912
       Hashing =   TRUE

       Collision test,    Mu =      2293.9736,    Sigma =    47.8841

-----------------------------------------------
Test Results for Collisions

For the total number of collisions, we use
      the Poisson approximation:
Expected number of collisions = N*Mu  :    45879.47
Observed number of collisions         :    45702
p-value of test                       :    0.80


-----------------------------
Total number of cells containing j balls

  j =  0                              :    1743165869702
  j =  1                              :        399908603
  j =  2                              :            45688
  j =  3                              :                7
  j =  4                              :                0
  j =  5                              :                0

-----------------------------------------------
CPU time used                    :  00:04:33.64

Generator state:




***********************************************************
Test sknuth_CollisionPermut calling smultin_Multinomial

***********************************************************
HOST = node35.local.isima.fr, Linux

MersenneTwiter


smultin_Multinomial test:
-----------------------------------------------
   N = 20,  n = 20000000,  r = 10,   t = 14,
       Sparse =   TRUE

       GenerCell = smultin_GenerCellPermut
       Number of cells = t! =        87178291200
       Expected number per cell =  1 /  4358.9146
       EColl = n^2 / (2k) =   2294.14912
       Hashing =   TRUE

       Collision test,    Mu =      2293.9736,    Sigma =    47.8841

-----------------------------------------------
Test Results for Collisions

For the total number of collisions, we use
      the Poisson approximation:
Expected number of collisions = N*Mu  :    45879.47
Observed number of collisions         :    45806
p-value of test                       :    0.63


-----------------------------
Total number of cells containing j balls

  j =  0                              :    1743165869806
  j =  1                              :        399908389
  j =  2                              :            45804
  j =  3                              :                1
  j =  4                              :                0
  j =  5                              :                0

-----------------------------------------------
CPU time used                    :  00:04:41.59

Generator state:




***********************************************************
HOST = node35.local.isima.fr, Linux

MersenneTwiter


sknuth_MaxOft test:
-----------------------------------------------
   N = 40,  n = 10000000,  r =  0,   d = 100000,   t =  8

      Number of categories = 100000
      Expected number per category  = 100.00


-----------------------------------------------
Test results for chi2 with 99999 degrees of freedom:

Kolmogorov-Smirnov+ statistic = D+    :   0.055
p-value of test                       :    0.76

Kolmogorov-Smirnov- statistic = D-    :    0.22
p-value of test                       :    0.02

Anderson-Darling statistic = A2       :    2.42
p-value of test                       :    0.05

Test on the sum of all N observations
Number of degrees of freedom          : 3999960
Chi-square statistic                  : 4.00e+6
p-value of test                       :    0.07


-----------------------------------------------
Test results for Anderson-Darling:

Kolmogorov-Smirnov+ statistic = D+    :   0.080
p-value of test                       :    0.57

Kolmogorov-Smirnov- statistic = D-    :    0.13
p-value of test                       :    0.24

Anderson-Darling statistic = A2       :    0.65
p-value of test                       :    0.60


-----------------------------------------------
CPU time used                    :  00:01:31.72

Generator state:




***********************************************************
HOST = node35.local.isima.fr, Linux

MersenneTwiter


sknuth_MaxOft test:
-----------------------------------------------
   N = 30,  n = 10000000,  r =  0,   d = 100000,   t = 16

      Number of categories = 100000
      Expected number per category  = 100.00


-----------------------------------------------
Test results for chi2 with 99999 degrees of freedom:

Kolmogorov-Smirnov+ statistic = D+    :   0.048
p-value of test                       :    0.85

Kolmogorov-Smirnov- statistic = D-    :    0.15
p-value of test                       :    0.24

Anderson-Darling statistic = A2       :    0.72
p-value of test                       :    0.54

Test on the sum of all N observations
Number of degrees of freedom          : 2999970
Chi-square statistic                  : 3.00e+6
p-value of test                       :    0.20


-----------------------------------------------
Test results for Anderson-Darling:

Kolmogorov-Smirnov+ statistic = D+    :   0.059
p-value of test                       :    0.78

Kolmogorov-Smirnov- statistic = D-    :    0.12
p-value of test                       :    0.36

Anderson-Darling statistic = A2       :    0.77
p-value of test                       :    0.50


-----------------------------------------------
CPU time used                    :  00:01:22.81

Generator state:




***********************************************************
HOST = node35.local.isima.fr, Linux

MersenneTwiter


sknuth_MaxOft test:
-----------------------------------------------
   N = 20,  n = 10000000,  r =  0,   d = 100000,   t = 24

      Number of categories = 100000
      Expected number per category  = 100.00


-----------------------------------------------
Test results for chi2 with 99999 degrees of freedom:

Kolmogorov-Smirnov+ statistic = D+    :    0.17
p-value of test                       :    0.29

Kolmogorov-Smirnov- statistic = D-    :    0.20
p-value of test                       :    0.17

Anderson-Darling statistic = A2       :    1.25
p-value of test                       :    0.25

Test on the sum of all N observations
Number of degrees of freedom          : 1999980
Chi-square statistic                  : 2.00e+6
p-value of test                       :    0.31


-----------------------------------------------
Test results for Anderson-Darling:

Kolmogorov-Smirnov+ statistic = D+    :   0.048
p-value of test                       :    0.88

Kolmogorov-Smirnov- statistic = D-    :    0.19
p-value of test                       :    0.20

Anderson-Darling statistic = A2       :    0.85
p-value of test                       :    0.45


-----------------------------------------------
CPU time used                    :  00:01:04.78

Generator state:




***********************************************************
HOST = node35.local.isima.fr, Linux

MersenneTwiter


sknuth_MaxOft test:
-----------------------------------------------
   N = 20,  n = 10000000,  r =  0,   d = 100000,   t = 32

      Number of categories = 100000
      Expected number per category  = 100.00


-----------------------------------------------
Test results for chi2 with 99999 degrees of freedom:

Kolmogorov-Smirnov+ statistic = D+    :    0.13
p-value of test                       :    0.47

Kolmogorov-Smirnov- statistic = D-    :    0.13
p-value of test                       :    0.46

Anderson-Darling statistic = A2       :    0.86
p-value of test                       :    0.44

Test on the sum of all N observations
Number of degrees of freedom          : 1999980
Chi-square statistic                  : 2.00e+6
p-value of test                       :    0.30


-----------------------------------------------
Test results for Anderson-Darling:

Kolmogorov-Smirnov+ statistic = D+    :   0.066
p-value of test                       :    0.81

Kolmogorov-Smirnov- statistic = D-    :    0.25
p-value of test                       :    0.07

Anderson-Darling statistic = A2       :    1.29
p-value of test                       :    0.24


-----------------------------------------------
CPU time used                    :  00:01:13.71

Generator state:




***********************************************************
HOST = node35.local.isima.fr, Linux

MersenneTwiter


svaria_SampleProd test:
-----------------------------------------------
   N = 40,  n = 10000000,  r =  0,   t = 8


-----------------------------------------------

Kolmogorov-Smirnov+ statistic = D+    :    0.10
p-value of test                       :    0.40

Kolmogorov-Smirnov- statistic = D-    :   0.071
p-value of test                       :    0.64

Anderson-Darling statistic = A2       :    0.52
p-value of test                       :    0.73

-----------------------------------------------
CPU time used                    :  00:01:18.11

Generator state:




***********************************************************
HOST = node35.local.isima.fr, Linux

MersenneTwiter


svaria_SampleProd test:
-----------------------------------------------
   N = 20,  n = 10000000,  r =  0,   t = 16


-----------------------------------------------

Kolmogorov-Smirnov+ statistic = D+    :    0.19
p-value of test                       :    0.22

Kolmogorov-Smirnov- statistic = D-    :    0.14
p-value of test                       :    0.43

Anderson-Darling statistic = A2       :    0.96
p-value of test                       :    0.38

-----------------------------------------------
CPU time used                    :  00:00:51.72

Generator state:




***********************************************************
HOST = node35.local.isima.fr, Linux

MersenneTwiter


svaria_SampleProd test:
-----------------------------------------------
   N = 20,  n = 10000000,  r =  0,   t = 24


-----------------------------------------------

Kolmogorov-Smirnov+ statistic = D+    :   0.047
p-value of test                       :    0.89

Kolmogorov-Smirnov- statistic = D-    :    0.14
p-value of test                       :    0.41

Anderson-Darling statistic = A2       :    0.37
p-value of test                       :    0.88

-----------------------------------------------
CPU time used                    :  00:01:03.09

Generator state:




***********************************************************
HOST = node35.local.isima.fr, Linux

MersenneTwiter


svaria_SampleMean test:
-----------------------------------------------
   N = 20000000,  n = 30,  r =  0


-----------------------------------------------

Kolmogorov-Smirnov+ statistic = D+    : 1.25e-4
p-value of test                       :    0.54

Kolmogorov-Smirnov- statistic = D-    : 2.12e-4
p-value of test                       :    0.17

Anderson-Darling statistic = A2       :    1.01
p-value of test                       :    0.35

-----------------------------------------------
CPU time used                    :  00:00:11.85

Generator state:




***********************************************************
HOST = node35.local.isima.fr, Linux

MersenneTwiter


svaria_SampleMean test:
-----------------------------------------------
   N = 20000000,  n = 30,  r = 10


-----------------------------------------------

Kolmogorov-Smirnov+ statistic = D+    : 1.84e-4
p-value of test                       :    0.26

Kolmogorov-Smirnov- statistic = D-    : 9.87e-5
p-value of test                       :    0.68

Anderson-Darling statistic = A2       :    0.74
p-value of test                       :    0.53

-----------------------------------------------
CPU time used                    :  00:00:12.57

Generator state:




***********************************************************
HOST = node35.local.isima.fr, Linux

MersenneTwiter


svaria_SampleCorr test:
-----------------------------------------------
   N =  1,  n = 2000000000,  r =  0,   k = 1


-----------------------------------------------
Normal statistic                      :   -0.44
p-value of test                       :    0.67

-----------------------------------------------
CPU time used                    :  00:00:11.43

Generator state:




***********************************************************
HOST = node35.local.isima.fr, Linux

MersenneTwiter


svaria_SampleCorr test:
-----------------------------------------------
   N =  1,  n = 2000000000,  r =  0,   k = 2


-----------------------------------------------
Normal statistic                      :    0.79
p-value of test                       :    0.22

-----------------------------------------------
CPU time used                    :  00:00:11.31

Generator state:




***********************************************************
HOST = node35.local.isima.fr, Linux

MersenneTwiter


svaria_AppearanceSpacings test:
-----------------------------------------------
   N =  1,   Q = 10000000,   K = 1000000000,   r = 0,   s = 3,   L = 15

   Sequences of n = (K + Q)L =  15150000000 bits
   Q = 10000000 initialization blocks
   K = 1000000000 blocks for the test
   the blocks have L = 15 bits



-----------------------------------------------
Normal statistic                      :   -0.40
p-value of test                       :    0.65

-----------------------------------------------
CPU time used                    :  00:00:56.98

Generator state:




***********************************************************
HOST = node35.local.isima.fr, Linux

MersenneTwiter


svaria_AppearanceSpacings test:
-----------------------------------------------
   N =  1,   Q = 10000000,   K = 1000000000,   r = 27,   s = 3,   L = 15

   Sequences of n = (K + Q)L =  15150000000 bits
   Q = 10000000 initialization blocks
   K = 1000000000 blocks for the test
   the blocks have L = 15 bits



-----------------------------------------------
Normal statistic                      :    1.07
p-value of test                       :    0.14

-----------------------------------------------
CPU time used                    :  00:00:59.07

Generator state:




***********************************************************
HOST = node35.local.isima.fr, Linux

MersenneTwiter


svaria_WeightDistrib test:
-----------------------------------------------
   N =  1,  n = 20000000,  r =  0,  k = 256,  Alpha =      0,  Beta =   0.25


-----------------------------------------------
Number of degrees of freedom          :   67
Chi-square statistic                  :   51.81
p-value of test                       :    0.91

-----------------------------------------------
CPU time used                    :  00:00:29.92

Generator state:




***********************************************************
HOST = node35.local.isima.fr, Linux

MersenneTwiter


svaria_WeightDistrib test:
-----------------------------------------------
   N =  1,  n = 20000000,  r = 20,  k = 256,  Alpha =      0,  Beta =   0.25


-----------------------------------------------
Number of degrees of freedom          :   67
Chi-square statistic                  :   87.30
p-value of test                       :    0.05

-----------------------------------------------
CPU time used                    :  00:00:38.15

Generator state:




***********************************************************
HOST = node35.local.isima.fr, Linux

MersenneTwiter


svaria_WeightDistrib test:
-----------------------------------------------
   N =  1,  n = 20000000,  r = 28,  k = 256,  Alpha =      0,  Beta =   0.25


-----------------------------------------------
Number of degrees of freedom          :   67
Chi-square statistic                  :   62.49
p-value of test                       :    0.63

-----------------------------------------------
CPU time used                    :  00:00:38.15

Generator state:




***********************************************************
HOST = node35.local.isima.fr, Linux

MersenneTwiter


svaria_WeightDistrib test:
-----------------------------------------------
   N =  1,  n = 20000000,  r =  0,  k = 256,  Alpha =      0,  Beta = 0.0625


-----------------------------------------------
Number of degrees of freedom          :   37
Chi-square statistic                  :   37.24
p-value of test                       :    0.46

-----------------------------------------------
CPU time used                    :  00:00:30.23

Generator state:




***********************************************************
HOST = node35.local.isima.fr, Linux

MersenneTwiter


svaria_WeightDistrib test:
-----------------------------------------------
   N =  1,  n = 20000000,  r = 10,  k = 256,  Alpha =      0,  Beta = 0.0625


-----------------------------------------------
Number of degrees of freedom          :   37
Chi-square statistic                  :   25.47
p-value of test                       :    0.92

-----------------------------------------------
CPU time used                    :  00:00:38.38

Generator state:




***********************************************************
HOST = node35.local.isima.fr, Linux

MersenneTwiter


svaria_WeightDistrib test:
-----------------------------------------------
   N =  1,  n = 20000000,  r = 26,  k = 256,  Alpha =      0,  Beta = 0.0625


-----------------------------------------------
Number of degrees of freedom          :   37
Chi-square statistic                  :   43.17
p-value of test                       :    0.22

-----------------------------------------------
CPU time used                    :  00:00:38.15

Generator state:




***********************************************************
HOST = node35.local.isima.fr, Linux

MersenneTwiter


svaria_SumCollector test:
-----------------------------------------------
   N =  1,  n = 500000000,  r =  0,   g = 10


-----------------------------------------------
Number of degrees of freedom          :   29
Chi-square statistic                  :   28.19
p-value of test                       :    0.51

-----------------------------------------------
CPU time used                    :  00:01:08.97

Generator state:




***********************************************************
HOST = node35.local.isima.fr, Linux

MersenneTwiter


smarsa_MatrixRank test:
-----------------------------------------------
   N = 10,  n = 1000000,  r =  0,    s = 5,    L = 30,    k = 30


-----------------------------------------------

Kolmogorov-Smirnov+ statistic = D+    :    0.24
p-value of test                       :    0.26

Kolmogorov-Smirnov- statistic = D-    :    0.21
p-value of test                       :    0.35

Anderson-Darling statistic = A2       :    0.70
p-value of test                       :    0.55

Test on the sum of all N observations
Number of degrees of freedom          :   40
Chi-square statistic                  :   42.44
p-value of test                       :    0.37

-----------------------------------------------
CPU time used                    :  00:01:00.34

Generator state:




***********************************************************
HOST = node35.local.isima.fr, Linux

MersenneTwiter


smarsa_MatrixRank test:
-----------------------------------------------
   N = 10,  n = 1000000,  r = 25,    s = 5,    L = 30,    k = 30


-----------------------------------------------

Kolmogorov-Smirnov+ statistic = D+    :   0.078
p-value of test                       :    0.85

Kolmogorov-Smirnov- statistic = D-    :    0.27
p-value of test                       :    0.20

Anderson-Darling statistic = A2       :    0.64
p-value of test                       :    0.60

Test on the sum of all N observations
Number of degrees of freedom          :   40
Chi-square statistic                  :   46.64
p-value of test                       :    0.22

-----------------------------------------------
CPU time used                    :  00:01:00.55

Generator state:




***********************************************************
HOST = node35.local.isima.fr, Linux

MersenneTwiter


smarsa_MatrixRank test:
-----------------------------------------------
   N =  1,  n = 5000,  r =  0,    s = 4,    L = 1000,    k = 1000


-----------------------------------------------
Number of degrees of freedom          :    3
Chi-square statistic                  :    6.40
p-value of test                       :    0.09

-----------------------------------------------
CPU time used                    :  00:01:23.37

Generator state:




***********************************************************
HOST = node35.local.isima.fr, Linux

MersenneTwiter


smarsa_MatrixRank test:
-----------------------------------------------
   N =  1,  n = 5000,  r = 26,    s = 4,    L = 1000,    k = 1000


-----------------------------------------------
Number of degrees of freedom          :    3
Chi-square statistic                  :    2.86
p-value of test                       :    0.41

-----------------------------------------------
CPU time used                    :  00:01:23.87

Generator state:




***********************************************************
HOST = node35.local.isima.fr, Linux

MersenneTwiter


smarsa_MatrixRank test:
-----------------------------------------------
   N =  1,  n = 80,  r = 15,    s = 15,    L = 5000,    k = 5000


-----------------------------------------------
Number of degrees of freedom          :    2
Chi-square statistic                  :    2.12
p-value of test                       :    0.35

-----------------------------------------------
CPU time used                    :  00:01:23.67

Generator state:




***********************************************************
HOST = node35.local.isima.fr, Linux

MersenneTwiter


smarsa_MatrixRank test:
-----------------------------------------------
   N =  1,  n = 80,  r =  0,    s = 30,    L = 5000,    k = 5000


-----------------------------------------------
Number of degrees of freedom          :    2
Chi-square statistic                  :    0.78
p-value of test                       :    0.68

-----------------------------------------------
CPU time used                    :  00:01:13.87

Generator state:




***********************************************************
HOST = node35.local.isima.fr, Linux

MersenneTwiter


smarsa_Savir2 test:
-----------------------------------------------
   N = 10,  n = 10000000,  r = 10,    m = 1048576,    t = 30


-----------------------------------------------

Kolmogorov-Smirnov+ statistic = D+    :    0.23
p-value of test                       :    0.31

Kolmogorov-Smirnov- statistic = D-    :    0.14
p-value of test                       :    0.64

Anderson-Darling statistic = A2       :    0.63
p-value of test                       :    0.61

Test on the sum of all N observations
Number of degrees of freedom          :  130
Chi-square statistic                  :  119.27
p-value of test                       :    0.74

-----------------------------------------------
CPU time used                    :  00:00:23.36

Generator state:




***********************************************************
HOST = node35.local.isima.fr, Linux

MersenneTwiter


smarsa_GCD test:
-----------------------------------------------
   N = 10,  n = 50000000,  r =  0,   s = 30


-----------------------------------------------
Test results for GCD values:

Kolmogorov-Smirnov+ statistic = D+    :    0.30
p-value of test                       :    0.13

Kolmogorov-Smirnov- statistic = D-    :   0.067
p-value of test                       :    0.88

Anderson-Darling statistic = A2       :    1.40
p-value of test                       :    0.20

Test on the sum of all N observations
Number of degrees of freedom          : 17430
Chi-square statistic                  :17165.03
p-value of test                       :    0.92



-----------------------------------------------
CPU time used                    :  00:00:53.53

Generator state:




***********************************************************
HOST = node35.local.isima.fr, Linux

MersenneTwiter


swalk_RandomWalk1 test:
-----------------------------------------------
   N =  1,  n = 100000000,  r =  0,   s = 5,   L0 =   50,   L1 =   50



-----------------------------------------------
Test on the values of the Statistic H

Number of degrees of freedom          :   36
ChiSquare statistic                   :   49.37
p-value of test                       :    0.07


-----------------------------------------------
Test on the values of the Statistic M

Number of degrees of freedom          :   35
ChiSquare statistic                   :   37.04
p-value of test                       :    0.37


-----------------------------------------------
Test on the values of the Statistic J

Number of degrees of freedom          :   25
ChiSquare statistic                   :   26.44
p-value of test                       :    0.38


-----------------------------------------------
Test on the values of the Statistic R

Number of degrees of freedom          :   24
ChiSquare statistic                   :   23.53
p-value of test                       :    0.49


-----------------------------------------------
Test on the values of the Statistic C

Number of degrees of freedom          :   17
ChiSquare statistic                   :   27.04
p-value of test                       :    0.06


-----------------------------------------------
CPU time used                    :  00:00:39.95

Generator state:




***********************************************************
HOST = node35.local.isima.fr, Linux

MersenneTwiter


swalk_RandomWalk1 test:
-----------------------------------------------
   N =  1,  n = 100000000,  r = 25,   s = 5,   L0 =   50,   L1 =   50



-----------------------------------------------
Test on the values of the Statistic H

Number of degrees of freedom          :   36
ChiSquare statistic                   :   17.53
p-value of test                       :    0.9959


-----------------------------------------------
Test on the values of the Statistic M

Number of degrees of freedom          :   35
ChiSquare statistic                   :   36.57
p-value of test                       :    0.40


-----------------------------------------------
Test on the values of the Statistic J

Number of degrees of freedom          :   25
ChiSquare statistic                   :   27.04
p-value of test                       :    0.35


-----------------------------------------------
Test on the values of the Statistic R

Number of degrees of freedom          :   24
ChiSquare statistic                   :   17.88
p-value of test                       :    0.81


-----------------------------------------------
Test on the values of the Statistic C

Number of degrees of freedom          :   17
ChiSquare statistic                   :   28.07
p-value of test                       :    0.04


-----------------------------------------------
CPU time used                    :  00:00:41.29

Generator state:




***********************************************************
HOST = node35.local.isima.fr, Linux

MersenneTwiter


swalk_RandomWalk1 test:
-----------------------------------------------
   N =  1,  n = 10000000,  r =  0,   s = 10,   L0 = 1000,   L1 = 1000



-----------------------------------------------
Test on the values of the Statistic H

Number of degrees of freedom          :  146
ChiSquare statistic                   :  160.97
p-value of test                       :    0.19


-----------------------------------------------
Test on the values of the Statistic M

Number of degrees of freedom          :  146
ChiSquare statistic                   :  127.22
p-value of test                       :    0.87


-----------------------------------------------
Test on the values of the Statistic J

Number of degrees of freedom          :  500
ChiSquare statistic                   :  562.59
p-value of test                       :    0.03


-----------------------------------------------
Test on the values of the Statistic R

Number of degrees of freedom          :  136
ChiSquare statistic                   :  120.35
p-value of test                       :    0.83


-----------------------------------------------
Test on the values of the Statistic C

Number of degrees of freedom          :   74
ChiSquare statistic                   :   92.85
p-value of test                       :    0.07


-----------------------------------------------
CPU time used                    :  00:00:44.72

Generator state:




***********************************************************
HOST = node35.local.isima.fr, Linux

MersenneTwiter


swalk_RandomWalk1 test:
-----------------------------------------------
   N =  1,  n = 10000000,  r = 20,   s = 10,   L0 = 1000,   L1 = 1000



-----------------------------------------------
Test on the values of the Statistic H

Number of degrees of freedom          :  146
ChiSquare statistic                   :  163.49
p-value of test                       :    0.15


-----------------------------------------------
Test on the values of the Statistic M

Number of degrees of freedom          :  146
ChiSquare statistic                   :  142.27
p-value of test                       :    0.57


-----------------------------------------------
Test on the values of the Statistic J

Number of degrees of freedom          :  500
ChiSquare statistic                   :  519.23
p-value of test                       :    0.27


-----------------------------------------------
Test on the values of the Statistic R

Number of degrees of freedom          :  136
ChiSquare statistic                   :  115.31
p-value of test                       :    0.90


-----------------------------------------------
Test on the values of the Statistic C

Number of degrees of freedom          :   74
ChiSquare statistic                   :   68.44
p-value of test                       :    0.66


-----------------------------------------------
CPU time used                    :  00:00:45.43

Generator state:




***********************************************************
HOST = node35.local.isima.fr, Linux

MersenneTwiter


swalk_RandomWalk1 test:
-----------------------------------------------
   N =  1,  n = 1000000,  r =  0,   s = 15,   L0 = 10000,   L1 = 10000



-----------------------------------------------
Test on the values of the Statistic H

Number of degrees of freedom          :  384
ChiSquare statistic                   :  391.84
p-value of test                       :    0.38


-----------------------------------------------
Test on the values of the Statistic M

Number of degrees of freedom          :  384
ChiSquare statistic                   :  369.01
p-value of test                       :    0.70


-----------------------------------------------
Test on the values of the Statistic J

Number of degrees of freedom          : 5000
ChiSquare statistic                   : 5081.12
p-value of test                       :    0.21


-----------------------------------------------
Test on the values of the Statistic R

Number of degrees of freedom          :  378
ChiSquare statistic                   :  414.24
p-value of test                       :    0.10


-----------------------------------------------
Test on the values of the Statistic C

Number of degrees of freedom          :  200
ChiSquare statistic                   :  204.41
p-value of test                       :    0.40


-----------------------------------------------
CPU time used                    :  00:00:35.51

Generator state:




***********************************************************
HOST = node35.local.isima.fr, Linux

MersenneTwiter


swalk_RandomWalk1 test:
-----------------------------------------------
   N =  1,  n = 1000000,  r = 15,   s = 15,   L0 = 10000,   L1 = 10000



-----------------------------------------------
Test on the values of the Statistic H

Number of degrees of freedom          :  384
ChiSquare statistic                   :  392.21
p-value of test                       :    0.38


-----------------------------------------------
Test on the values of the Statistic M

Number of degrees of freedom          :  384
ChiSquare statistic                   :  349.84
p-value of test                       :    0.89


-----------------------------------------------
Test on the values of the Statistic J

Number of degrees of freedom          : 5000
ChiSquare statistic                   : 4948.99
p-value of test                       :    0.69


-----------------------------------------------
Test on the values of the Statistic R

Number of degrees of freedom          :  378
ChiSquare statistic                   :  398.81
p-value of test                       :    0.22


-----------------------------------------------
Test on the values of the Statistic C

Number of degrees of freedom          :  200
ChiSquare statistic                   :  179.47
p-value of test                       :    0.85


-----------------------------------------------
CPU time used                    :  00:00:36.31

Generator state:




***********************************************************
HOST = node35.local.isima.fr, Linux

MersenneTwiter


scomp_LinearComp test:
-----------------------------------------------
   N =  1,  n = 400020,  r =  0,    s = 1



-----------------------------------------------
Number of degrees of freedom          :   12
Chi2 statistic for size of jumps      :   16.30
p-value of test                       :    0.18


-----------------------------------------------
Normal statistic for number of jumps  : -403.03
p-value of test                       : 1 - eps1    *****



-----------------------------------------------
CPU time used                    :  00:00:06.07

Generator state:




***********************************************************
HOST = node35.local.isima.fr, Linux

MersenneTwiter


scomp_LinearComp test:
-----------------------------------------------
   N =  1,  n = 400020,  r = 29,    s = 1



-----------------------------------------------
Number of degrees of freedom          :   12
Chi2 statistic for size of jumps      :    6.90
p-value of test                       :    0.86


-----------------------------------------------
Normal statistic for number of jumps  : -402.74
p-value of test                       : 1 - eps1    *****



-----------------------------------------------
CPU time used                    :  00:00:06.05

Generator state:




***********************************************************
HOST = node35.local.isima.fr, Linux

MersenneTwiter


scomp_LempelZiv test:
-----------------------------------------------
   N = 10,  n = 134217728,  r =  0,   s =   30,   k =   27


-----------------------------------------------

Kolmogorov-Smirnov+ statistic = D+    :    0.11
p-value of test                       :    0.71

Kolmogorov-Smirnov- statistic = D-    :    0.22
p-value of test                       :    0.33

Anderson-Darling statistic = A2       :    0.59
p-value of test                       :    0.66

Tests on the sum of all N observations
Standardized normal statistic         :    0.70
p-value of test                       :    0.24

Sample variance                       :    1.13
p-value of test                       :    0.34

-----------------------------------------------
CPU time used                    :  00:01:30.80

Generator state:




***********************************************************
HOST = node35.local.isima.fr, Linux

MersenneTwiter


scomp_LempelZiv test:
-----------------------------------------------
   N = 10,  n = 134217728,  r = 15,   s =   15,   k =   27


-----------------------------------------------

Kolmogorov-Smirnov+ statistic = D+    :    0.15
p-value of test                       :    0.59

Kolmogorov-Smirnov- statistic = D-    :    0.11
p-value of test                       :    0.71

Anderson-Darling statistic = A2       :    0.50
p-value of test                       :    0.74

Tests on the sum of all N observations
Standardized normal statistic         :   -0.67
p-value of test                       :    0.75

Sample variance                       :    1.52
p-value of test                       :    0.14

-----------------------------------------------
CPU time used                    :  00:01:36.64

Generator state:




***********************************************************
HOST = node35.local.isima.fr, Linux

MersenneTwiter


sspectral_Fourier3 test:
-----------------------------------------------
   N = 100000,  n = 16384,  r =  0,   s =    3,   k =   14


-----------------------------------------------

Kolmogorov-Smirnov+ statistic = D+    : 3.67e-3
p-value of test                       :    0.89

Kolmogorov-Smirnov- statistic = D-    :   0.017
p-value of test                       :    0.09

Anderson-Darling statistic = A2       :    1.44
p-value of test                       :    0.19

-----------------------------------------------
CPU time used                    :  00:00:51.38

Generator state:




***********************************************************
HOST = node35.local.isima.fr, Linux

MersenneTwiter


sspectral_Fourier3 test:
-----------------------------------------------
   N = 100000,  n = 16384,  r = 27,   s =    3,   k =   14


-----------------------------------------------

Kolmogorov-Smirnov+ statistic = D+    : 5.97e-3
p-value of test                       :    0.74

Kolmogorov-Smirnov- statistic = D-    : 8.20e-3
p-value of test                       :    0.57

Anderson-Darling statistic = A2       :    0.43
p-value of test                       :    0.82

-----------------------------------------------
CPU time used                    :  00:00:51.78

Generator state:




***********************************************************
HOST = node35.local.isima.fr, Linux

MersenneTwiter


sstring_LongestHeadRun test:
-----------------------------------------------
   N =  1,  n = 1000,  r =  0,   s = 3,   L = 10000020


-----------------------------------------------
Number of degrees of freedom          :    8
Chi-square statistic                  :    6.43
p-value of test                       :    0.60

-----------------------------------------------
Global longest run of 1               :   31.00
p-value of test                       :    0.69



-----------------------------------------------
CPU time used                    :  00:01:37.51

Generator state:




***********************************************************
HOST = node35.local.isima.fr, Linux

MersenneTwiter


sstring_LongestHeadRun test:
-----------------------------------------------
   N =  1,  n = 1000,  r = 27,   s = 3,   L = 10000020


-----------------------------------------------
Number of degrees of freedom          :    8
Chi-square statistic                  :    7.67
p-value of test                       :    0.47

-----------------------------------------------
Global longest run of 1               :   32.00
p-value of test                       :    0.50



-----------------------------------------------
CPU time used                    :  00:01:37.06

Generator state:




***********************************************************
HOST = node35.local.isima.fr, Linux

MersenneTwiter


sstring_PeriodsInStrings test:
-----------------------------------------------
   N = 10,  n = 500000000,  r =  0,   s =   10


-----------------------------------------------

Kolmogorov-Smirnov+ statistic = D+    :   0.087
p-value of test                       :    0.82

Kolmogorov-Smirnov- statistic = D-    :    0.26
p-value of test                       :    0.22

Anderson-Darling statistic = A2       :    0.66
p-value of test                       :    0.59

Test on the sum of all N observations
Number of degrees of freedom          :  200
Chi-square statistic                  :  217.11
p-value of test                       :    0.19

-----------------------------------------------
CPU time used                    :  00:02:24.54

Generator state:




***********************************************************
HOST = node35.local.isima.fr, Linux

MersenneTwiter


sstring_PeriodsInStrings test:
-----------------------------------------------
   N = 10,  n = 500000000,  r = 20,   s =   10


-----------------------------------------------

Kolmogorov-Smirnov+ statistic = D+    :   0.081
p-value of test                       :    0.84

Kolmogorov-Smirnov- statistic = D-    :    0.27
p-value of test                       :    0.19

Anderson-Darling statistic = A2       :    1.25
p-value of test                       :    0.25

Test on the sum of all N observations
Number of degrees of freedom          :  200
Chi-square statistic                  :  225.77
p-value of test                       :    0.10

-----------------------------------------------
CPU time used                    :  00:02:30.87

Generator state:




***********************************************************
HOST = node35.local.isima.fr, Linux

MersenneTwiter


sstring_HammingWeight2 test:
-----------------------------------------------
   N = 10,  n = 1000000000,  r =  0,   s = 3,   L = 1000000


-----------------------------------------------

Kolmogorov-Smirnov+ statistic = D+    :    0.11
p-value of test                       :    0.74

Kolmogorov-Smirnov- statistic = D-    :    0.14
p-value of test                       :    0.62

Anderson-Darling statistic = A2       :    0.38
p-value of test                       :    0.87

Test on the sum of all N observations
Number of degrees of freedom          : 10000
Chi-square statistic                  : 9982.47
p-value of test                       :    0.55

-----------------------------------------------
CPU time used                    :  00:01:09.75

Generator state:




***********************************************************
HOST = node35.local.isima.fr, Linux

MersenneTwiter


sstring_HammingWeight2 test:
-----------------------------------------------
   N = 10,  n = 1000000000,  r = 27,   s = 3,   L = 1000000


-----------------------------------------------

Kolmogorov-Smirnov+ statistic = D+    :   0.067
p-value of test                       :    0.88

Kolmogorov-Smirnov- statistic = D-    :    0.31
p-value of test                       :    0.12

Anderson-Darling statistic = A2       :    0.98
p-value of test                       :    0.36

Test on the sum of all N observations
Number of degrees of freedom          : 10000
Chi-square statistic                  :10134.27
p-value of test                       :    0.17

-----------------------------------------------
CPU time used                    :  00:01:09.94

Generator state:




***********************************************************
HOST = node35.local.isima.fr, Linux

MersenneTwiter


sstring_HammingCorr test:
-----------------------------------------------
   N =  1,  n = 1000000000,  r = 10,   s = 10,   L = 30



-----------------------------------------------
Normal statistic                      :    0.20
p-value of test                       :    0.42

-----------------------------------------------
CPU time used                    :  00:01:17.65

Generator state:




***********************************************************
HOST = node35.local.isima.fr, Linux

MersenneTwiter


sstring_HammingCorr test:
-----------------------------------------------
   N =  1,  n = 100000000,  r = 10,   s = 10,   L = 300



-----------------------------------------------
Normal statistic                      :    1.12
p-value of test                       :    0.13

-----------------------------------------------
CPU time used                    :  00:01:15.52

Generator state:




***********************************************************
HOST = node35.local.isima.fr, Linux

MersenneTwiter


sstring_HammingCorr test:
-----------------------------------------------
   N =  1,  n = 100000000,  r = 10,   s = 10,   L = 1200



-----------------------------------------------
Normal statistic                      :    0.38
p-value of test                       :    0.35

-----------------------------------------------
CPU time used                    :  00:05:00.54

Generator state:




***********************************************************
HOST = node35.local.isima.fr, Linux

MersenneTwiter


sstring_HammingIndep test:
-----------------------------------------------
   N = 10,  n = 30000000,  r =  0,   s = 3,   L = 30,   d = 0



Counters with expected numbers >= 10
-----------------------------------------------

Kolmogorov-Smirnov+ statistic = D+    :   0.013
p-value of test                       :    0.99

Kolmogorov-Smirnov- statistic = D-    :    0.30
p-value of test                       :    0.13

Anderson-Darling statistic = A2       :    1.55
p-value of test                       :    0.16

Test on the sum of all N observations
Number of degrees of freedom          : 4890
Chi-square statistic                  : 5057.89
p-value of test                       :    0.05

-----------------------------------------------
CPU time used                    :  00:02:07.65

Generator state:




***********************************************************
HOST = node35.local.isima.fr, Linux

MersenneTwiter


sstring_HammingIndep test:
-----------------------------------------------
   N = 10,  n = 30000000,  r = 27,   s = 3,   L = 30,   d = 0



Counters with expected numbers >= 10
-----------------------------------------------

Kolmogorov-Smirnov+ statistic = D+    :    0.15
p-value of test                       :    0.58

Kolmogorov-Smirnov- statistic = D-    :    0.26
p-value of test                       :    0.22

Anderson-Darling statistic = A2       :    0.54
p-value of test                       :    0.70

Test on the sum of all N observations
Number of degrees of freedom          : 4890
Chi-square statistic                  : 4917.77
p-value of test                       :    0.39

-----------------------------------------------
CPU time used                    :  00:02:08.50

Generator state:




***********************************************************
HOST = node35.local.isima.fr, Linux

MersenneTwiter


sstring_HammingIndep test:
-----------------------------------------------
   N =  1,  n = 30000000,  r =  0,   s = 4,   L = 300,   d = 0



Counters with expected numbers >= 10
-----------------------------------------------
Number of degrees of freedom          : 4117
Chi-square statistic                  : 3998.78
p-value of test                       :    0.90

-----------------------------------------------
CPU time used                    :  00:01:38.34

Generator state:




***********************************************************
HOST = node35.local.isima.fr, Linux

MersenneTwiter


sstring_HammingIndep test:
-----------------------------------------------
   N =  1,  n = 30000000,  r = 26,   s = 4,   L = 300,   d = 0



Counters with expected numbers >= 10
-----------------------------------------------
Number of degrees of freedom          : 4117
Chi-square statistic                  : 4188.80
p-value of test                       :    0.21

-----------------------------------------------
CPU time used                    :  00:01:38.82

Generator state:




***********************************************************
HOST = node35.local.isima.fr, Linux

MersenneTwiter


sstring_HammingIndep test:
-----------------------------------------------
   N =  1,  n = 10000000,  r =  0,   s = 5,   L = 1200,   d = 0



Counters with expected numbers >= 10
-----------------------------------------------
Number of degrees of freedom          : 11825
Chi-square statistic                  :11732.32
p-value of test                       :    0.73

-----------------------------------------------
CPU time used                    :  00:01:47.11

Generator state:




***********************************************************
HOST = node35.local.isima.fr, Linux

MersenneTwiter


sstring_HammingIndep test:
-----------------------------------------------
   N =  1,  n = 10000000,  r = 25,   s = 5,   L = 1200,   d = 0



Counters with expected numbers >= 10
-----------------------------------------------
Number of degrees of freedom          : 11825
Chi-square statistic                  :11828.31
p-value of test                       :    0.49

-----------------------------------------------
CPU time used                    :  00:01:49.02

Generator state:




***********************************************************
HOST = node35.local.isima.fr, Linux

MersenneTwiter


sstring_Run test:
-----------------------------------------------
   N =  1,  n = 2000000000,  r =  0,   s =    3


-----------------------------------------------
Total number of 1 runs:  2000000000

Number of degrees of freedom          :   54
Chi2 statistic for number of runs     :   49.12
p-value of test                       :    0.66


-----------------------------------------------
Total number of bits:  8000014941

Normal statistic for number of bits   :    0.12
p-value of test                       :    0.45



-----------------------------------------------
CPU time used                    :  00:01:19.79

Generator state:




***********************************************************
HOST = node35.local.isima.fr, Linux

MersenneTwiter


sstring_Run test:
-----------------------------------------------
   N =  1,  n = 2000000000,  r = 27,   s =    3


-----------------------------------------------
Total number of 1 runs:  2000000000

Number of degrees of freedom          :   54
Chi2 statistic for number of runs     :   55.38
p-value of test                       :    0.42


-----------------------------------------------
Total number of bits:  7999971210

Normal statistic for number of bits   :   -0.23
p-value of test                       :    0.59



-----------------------------------------------
CPU time used                    :  00:01:22.31

Generator state:




***********************************************************
HOST = node35.local.isima.fr, Linux

MersenneTwiter


sstring_AutoCor test:
-----------------------------------------------
   N = 10,  n = 1000000030,  r =  0,   s = 3,   d = 1


-----------------------------------------------

Kolmogorov-Smirnov+ statistic = D+    :    0.21
p-value of test                       :    0.36

Kolmogorov-Smirnov- statistic = D-    :    0.19
p-value of test                       :    0.42

Anderson-Darling statistic = A2       :    0.61
p-value of test                       :    0.63

Tests on the sum of all N observations
Standardized normal statistic         :   -0.37
p-value of test                       :    0.64

Sample variance                       :    0.85
p-value of test                       :    0.57

-----------------------------------------------
CPU time used                    :  00:01:26.22

Generator state:




***********************************************************
HOST = node35.local.isima.fr, Linux

MersenneTwiter


sstring_AutoCor test:
-----------------------------------------------
   N = 10,  n = 1000000029,  r =  0,   s = 3,   d = 3


-----------------------------------------------

Kolmogorov-Smirnov+ statistic = D+    :    0.29
p-value of test                       :    0.15

Kolmogorov-Smirnov- statistic = D-    :   0.055
p-value of test                       :    0.91

Anderson-Darling statistic = A2       :    1.19
p-value of test                       :    0.27

Tests on the sum of all N observations
Standardized normal statistic         :   -1.30
p-value of test                       :    0.90

Sample variance                       :    0.61
p-value of test                       :    0.79

-----------------------------------------------
CPU time used                    :  00:01:14.11

Generator state:




***********************************************************
HOST = node35.local.isima.fr, Linux

MersenneTwiter


sstring_AutoCor test:
-----------------------------------------------
   N = 10,  n = 1000000030,  r = 27,   s = 3,   d = 1


-----------------------------------------------

Kolmogorov-Smirnov+ statistic = D+    :    0.20
p-value of test                       :    0.41

Kolmogorov-Smirnov- statistic = D-    :    0.16
p-value of test                       :    0.54

Anderson-Darling statistic = A2       :    0.47
p-value of test                       :    0.78

Tests on the sum of all N observations
Standardized normal statistic         :   -0.13
p-value of test                       :    0.55

Sample variance                       :    0.49
p-value of test                       :    0.89

-----------------------------------------------
CPU time used                    :  00:01:27.51

Generator state:




***********************************************************
HOST = node35.local.isima.fr, Linux

MersenneTwiter


sstring_AutoCor test:
-----------------------------------------------
   N = 10,  n = 1000000029,  r = 27,   s = 3,   d = 3


-----------------------------------------------

Kolmogorov-Smirnov+ statistic = D+    :    0.14
p-value of test                       :    0.63

Kolmogorov-Smirnov- statistic = D-    :    0.16
p-value of test                       :    0.54

Anderson-Darling statistic = A2       :    0.34
p-value of test                       :    0.91

Tests on the sum of all N observations
Standardized normal statistic         :    0.18
p-value of test                       :    0.43

Sample variance                       :    1.16
p-value of test                       :    0.31

-----------------------------------------------
CPU time used                    :  00:01:09.15

Generator state:





========= Summary results of BigCrush =========

 Version:          TestU01 1.2.3
 Generator:        MersenneTwiter
 Number of statistics:  160
 Total CPU time:   03:08:16.93
 The following tests gave p-values outside [0.001, 0.9990]:
 (eps  means a value < 1.0e-300):
 (eps1 means a value < 1.0e-15):

       Test                          p-value
 ----------------------------------------------
 80  LinearComp, r = 0              1 - eps1
 81  LinearComp, r = 29             1 - eps1
 ----------------------------------------------
 All other tests were passed



