xxxxxxxxxxxxxxxxxxxxxxxxxxxxxxxxxxxxxxxxxxxxxxxxxxxxxxxxxxx
                 Starting BigCrush
                 Version: TestU01 1.2.3
xxxxxxxxxxxxxxxxxxxxxxxxxxxxxxxxxxxxxxxxxxxxxxxxxxxxxxxxxxx


***********************************************************
Test smarsa_SerialOver calling smultin_MultinomialOver

***********************************************************
HOST = obelix.local.isima.fr, Linux

MersenneTwiter


smultin_MultinomialOver test:
-----------------------------------------------
   N =  1,  n = 1000000000,  r =  0,   d =  256,   t =  3,
       Sparse =  FALSE

       GenerCell = smultin_GenerCellSerial
       Number of cells = d^t =           16777216
       Expected number per cell =   59.604645
       Hashing =  FALSE

   For Delta > -1, we use the ChiSquare approximation
   Correction factor of the ChiSquare: 
       Delta =     1,    Mu =   0.0083558402,    Sigma =          1

-----------------------------------------------
Test Results for Delta =   1.0000

Number of degrees of freedom          : 16711680
Value of the statistic                : 1.67e+7
p-value of test                       :    0.75


-----------------------------------------------
CPU time used                    :  00:02:20.87

Generator state:




***********************************************************
Test smarsa_SerialOver calling smultin_MultinomialOver

***********************************************************
HOST = obelix.local.isima.fr, Linux

MersenneTwiter


smultin_MultinomialOver test:
-----------------------------------------------
   N =  1,  n = 1000000000,  r = 22,   d =  256,   t =  3,
       Sparse =  FALSE

       GenerCell = smultin_GenerCellSerial
       Number of cells = d^t =           16777216
       Expected number per cell =   59.604645
       Hashing =  FALSE

   For Delta > -1, we use the ChiSquare approximation
   Correction factor of the ChiSquare: 
       Delta =     1,    Mu =   0.0083558402,    Sigma =          1

-----------------------------------------------
Test Results for Delta =   1.0000

Number of degrees of freedom          : 16711680
Value of the statistic                : 1.67e+7
p-value of test                       :    0.16


-----------------------------------------------
CPU time used                    :  00:02:19.68

Generator state:




***********************************************************
Test smarsa_CollisionOver calling smultin_MultinomialOver

***********************************************************
HOST = obelix.local.isima.fr, Linux

MersenneTwiter


smultin_MultinomialOver test:
-----------------------------------------------
   N = 30,  n = 20000000,  r =  0,   d = 2097152,   t =  2,
       Sparse =   TRUE

       GenerCell = smultin_GenerCellSerial
       Number of cells = d^t =      4398046511104
       Expected number per cell =  1 /  219902.33
       EColl = n^2 / (2k) =  45.47473509
       Hashing =   TRUE

       Collision test

       CollisionOver:   density = n / k =  1 /  219902.33
       Expected number of collisions = Mu =      45.47


-----------------------------------------------
Results of CollisionOver test:

POISSON approximation                 :
Expected number of collisions = N*Mu  :     1364.24
Observed number of collisions         :     1381
p-value of test                       :    0.33

-----------------------------
Total number of cells containing j balls

  j =  0                              :  131940795334501
  j =  1                              :        599997238
  j =  2                              :             1381
  j =  3                              :                0
  j =  4                              :                0
  j =  5                              :                0

-----------------------------------------------
CPU time used                    :  00:06:35.94

Generator state:




***********************************************************
Test smarsa_CollisionOver calling smultin_MultinomialOver

***********************************************************
HOST = obelix.local.isima.fr, Linux

MersenneTwiter


smultin_MultinomialOver test:
-----------------------------------------------
   N = 30,  n = 20000000,  r =  9,   d = 2097152,   t =  2,
       Sparse =   TRUE

       GenerCell = smultin_GenerCellSerial
       Number of cells = d^t =      4398046511104
       Expected number per cell =  1 /  219902.33
       EColl = n^2 / (2k) =  45.47473509
       Hashing =   TRUE

       Collision test

       CollisionOver:   density = n / k =  1 /  219902.33
       Expected number of collisions = Mu =      45.47


-----------------------------------------------
Results of CollisionOver test:

POISSON approximation                 :
Expected number of collisions = N*Mu  :     1364.24
Observed number of collisions         :     1356
p-value of test                       :    0.58

-----------------------------
Total number of cells containing j balls

  j =  0                              :  131940795334476
  j =  1                              :        599997288
  j =  2                              :             1356
  j =  3                              :                0
  j =  4                              :                0
  j =  5                              :                0

-----------------------------------------------
CPU time used                    :  00:06:49.79

Generator state:




***********************************************************
Test smarsa_CollisionOver calling smultin_MultinomialOver

***********************************************************
HOST = obelix.local.isima.fr, Linux

MersenneTwiter


smultin_MultinomialOver test:
-----------------------------------------------
   N = 30,  n = 20000000,  r =  0,   d = 16384,   t =  3,
       Sparse =   TRUE

       GenerCell = smultin_GenerCellSerial
       Number of cells = d^t =      4398046511104
       Expected number per cell =  1 /  219902.33
       EColl = n^2 / (2k) =  45.47473509
       Hashing =   TRUE

       Collision test

       CollisionOver:   density = n / k =  1 /  219902.33
       Expected number of collisions = Mu =      45.47


-----------------------------------------------
Results of CollisionOver test:

POISSON approximation                 :
Expected number of collisions = N*Mu  :     1364.24
Observed number of collisions         :     1380
p-value of test                       :    0.34

-----------------------------
Total number of cells containing j balls

  j =  0                              :  131940795334500
  j =  1                              :        599997240
  j =  2                              :             1380
  j =  3                              :                0
  j =  4                              :                0
  j =  5                              :                0

-----------------------------------------------
CPU time used                    :  00:09:56.27

Generator state:




***********************************************************
Test smarsa_CollisionOver calling smultin_MultinomialOver

***********************************************************
HOST = obelix.local.isima.fr, Linux

MersenneTwiter


smultin_MultinomialOver test:
-----------------------------------------------
   N = 30,  n = 20000000,  r = 16,   d = 16384,   t =  3,
       Sparse =   TRUE

       GenerCell = smultin_GenerCellSerial
       Number of cells = d^t =      4398046511104
       Expected number per cell =  1 /  219902.33
       EColl = n^2 / (2k) =  45.47473509
       Hashing =   TRUE

       Collision test

       CollisionOver:   density = n / k =  1 /  219902.33
       Expected number of collisions = Mu =      45.47


-----------------------------------------------
Results of CollisionOver test:

POISSON approximation                 :
Expected number of collisions = N*Mu  :     1364.24
Observed number of collisions         :     1379
p-value of test                       :    0.35

-----------------------------
Total number of cells containing j balls

  j =  0                              :  131940795334499
  j =  1                              :        599997242
  j =  2                              :             1379
  j =  3                              :                0
  j =  4                              :                0
  j =  5                              :                0

-----------------------------------------------
CPU time used                    :  00:10:12.40

Generator state:




***********************************************************
Test smarsa_CollisionOver calling smultin_MultinomialOver

***********************************************************
HOST = obelix.local.isima.fr, Linux

MersenneTwiter


smultin_MultinomialOver test:
-----------------------------------------------
   N = 30,  n = 20000000,  r =  0,   d =   64,   t =  7,
       Sparse =   TRUE

       GenerCell = smultin_GenerCellSerial
       Number of cells = d^t =      4398046511104
       Expected number per cell =  1 /  219902.33
       EColl = n^2 / (2k) =  45.47473509
       Hashing =   TRUE

       Collision test

       CollisionOver:   density = n / k =  1 /  219902.33
       Expected number of collisions = Mu =      45.47


-----------------------------------------------
Results of CollisionOver test:

POISSON approximation                 :
Expected number of collisions = N*Mu  :     1364.24
Observed number of collisions         :     1402
p-value of test                       :    0.16

-----------------------------
Total number of cells containing j balls

  j =  0                              :  131940795334522
  j =  1                              :        599997196
  j =  2                              :             1402
  j =  3                              :                0
  j =  4                              :                0
  j =  5                              :                0

-----------------------------------------------
CPU time used                    :  00:10:25.42

Generator state:




***********************************************************
Test smarsa_CollisionOver calling smultin_MultinomialOver

***********************************************************
HOST = obelix.local.isima.fr, Linux

MersenneTwiter


smultin_MultinomialOver test:
-----------------------------------------------
   N = 30,  n = 20000000,  r = 24,   d =   64,   t =  7,
       Sparse =   TRUE

       GenerCell = smultin_GenerCellSerial
       Number of cells = d^t =      4398046511104
       Expected number per cell =  1 /  219902.33
       EColl = n^2 / (2k) =  45.47473509
       Hashing =   TRUE

       Collision test

       CollisionOver:   density = n / k =  1 /  219902.33
       Expected number of collisions = Mu =      45.47


-----------------------------------------------
Results of CollisionOver test:

POISSON approximation                 :
Expected number of collisions = N*Mu  :     1364.24
Observed number of collisions         :     1401
p-value of test                       :    0.16

-----------------------------
Total number of cells containing j balls

  j =  0                              :  131940795334521
  j =  1                              :        599997198
  j =  2                              :             1401
  j =  3                              :                0
  j =  4                              :                0
  j =  5                              :                0

-----------------------------------------------
CPU time used                    :  00:10:14.01

Generator state:




***********************************************************
Test smarsa_CollisionOver calling smultin_MultinomialOver

***********************************************************
HOST = obelix.local.isima.fr, Linux

MersenneTwiter


smultin_MultinomialOver test:
-----------------------------------------------
   N = 30,  n = 20000000,  r =  0,   d =    8,   t = 14,
       Sparse =   TRUE

       GenerCell = smultin_GenerCellSerial
       Number of cells = d^t =      4398046511104
       Expected number per cell =  1 /  219902.33
       EColl = n^2 / (2k) =  45.47473509
       Hashing =   TRUE

       Collision test

       CollisionOver:   density = n / k =  1 /  219902.33
       Expected number of collisions = Mu =      45.47


-----------------------------------------------
Results of CollisionOver test:

POISSON approximation                 :
Expected number of collisions = N*Mu  :     1364.24
Observed number of collisions         :     1421
p-value of test                       :    0.06

-----------------------------
Total number of cells containing j balls

  j =  0                              :  131940795334541
  j =  1                              :        599997158
  j =  2                              :             1421
  j =  3                              :                0
  j =  4                              :                0
  j =  5                              :                0

-----------------------------------------------
CPU time used                    :  00:10:44.61

Generator state:




***********************************************************
Test smarsa_CollisionOver calling smultin_MultinomialOver

***********************************************************
HOST = obelix.local.isima.fr, Linux

MersenneTwiter


smultin_MultinomialOver test:
-----------------------------------------------
   N = 30,  n = 20000000,  r = 27,   d =    8,   t = 14,
       Sparse =   TRUE

       GenerCell = smultin_GenerCellSerial
       Number of cells = d^t =      4398046511104
       Expected number per cell =  1 /  219902.33
       EColl = n^2 / (2k) =  45.47473509
       Hashing =   TRUE

       Collision test

       CollisionOver:   density = n / k =  1 /  219902.33
       Expected number of collisions = Mu =      45.47


-----------------------------------------------
Results of CollisionOver test:

POISSON approximation                 :
Expected number of collisions = N*Mu  :     1364.24
Observed number of collisions         :     1381
p-value of test                       :    0.33

-----------------------------
Total number of cells containing j balls

  j =  0                              :  131940795334501
  j =  1                              :        599997238
  j =  2                              :             1381
  j =  3                              :                0
  j =  4                              :                0
  j =  5                              :                0

-----------------------------------------------
CPU time used                    :  00:10:39.84

Generator state:




***********************************************************
Test smarsa_CollisionOver calling smultin_MultinomialOver

***********************************************************
HOST = obelix.local.isima.fr, Linux

MersenneTwiter


smultin_MultinomialOver test:
-----------------------------------------------
   N = 30,  n = 20000000,  r =  0,   d =    4,   t = 21,
       Sparse =   TRUE

       GenerCell = smultin_GenerCellSerial
       Number of cells = d^t =      4398046511104
       Expected number per cell =  1 /  219902.33
       EColl = n^2 / (2k) =  45.47473509
       Hashing =   TRUE

       Collision test

       CollisionOver:   density = n / k =  1 /  219902.33
       Expected number of collisions = Mu =      45.47


-----------------------------------------------
Results of CollisionOver test:

POISSON approximation                 :
Expected number of collisions = N*Mu  :     1364.24
Observed number of collisions         :     1355
p-value of test                       :    0.59

-----------------------------
Total number of cells containing j balls

  j =  0                              :  131940795334475
  j =  1                              :        599997290
  j =  2                              :             1355
  j =  3                              :                0
  j =  4                              :                0
  j =  5                              :                0

-----------------------------------------------
CPU time used                    :  00:10:27.50

Generator state:




***********************************************************
Test smarsa_CollisionOver calling smultin_MultinomialOver

***********************************************************
HOST = obelix.local.isima.fr, Linux

MersenneTwiter


smultin_MultinomialOver test:
-----------------------------------------------
   N = 30,  n = 20000000,  r = 28,   d =    4,   t = 21,
       Sparse =   TRUE

       GenerCell = smultin_GenerCellSerial
       Number of cells = d^t =      4398046511104
       Expected number per cell =  1 /  219902.33
       EColl = n^2 / (2k) =  45.47473509
       Hashing =   TRUE

       Collision test

       CollisionOver:   density = n / k =  1 /  219902.33
       Expected number of collisions = Mu =      45.47


-----------------------------------------------
Results of CollisionOver test:

POISSON approximation                 :
Expected number of collisions = N*Mu  :     1364.24
Observed number of collisions         :     1338
p-value of test                       :    0.76

-----------------------------
Total number of cells containing j balls

  j =  0                              :  131940795334458
  j =  1                              :        599997324
  j =  2                              :             1338
  j =  3                              :                0
  j =  4                              :                0
  j =  5                              :                0

-----------------------------------------------
CPU time used                    :  00:09:33.00

Generator state:




***********************************************************
HOST = obelix.local.isima.fr, Linux

MersenneTwiter


smarsa_BirthdaySpacings test:
-----------------------------------------------
   N = 100,  n = 10000000,  r =  0,    d = 2147483648,    t = 2,    p = 1


      Number of cells = d^t = 4611686018427387904
      Lambda = Poisson mean =      54.2101


----------------------------------------------------
Total expected number = N*Lambda      :    5421.01
Total observed number                 :    5363
p-value of test                       :    0.78


-----------------------------------------------
CPU time used                    :  00:03:31.73

Generator state:




***********************************************************
HOST = obelix.local.isima.fr, Linux

MersenneTwiter


smarsa_BirthdaySpacings test:
-----------------------------------------------
   N = 20,  n = 20000000,  r =  0,    d = 2097152,    t = 3,    p = 1


      Number of cells = d^t = 9223372036854775808
      Lambda = Poisson mean =     216.8404


----------------------------------------------------
Total expected number = N*Lambda      :    4336.81
Total observed number                 :    4318
p-value of test                       :    0.61


-----------------------------------------------
CPU time used                    :  00:01:31.18

Generator state:




***********************************************************
HOST = obelix.local.isima.fr, Linux

MersenneTwiter


smarsa_BirthdaySpacings test:
-----------------------------------------------
   N = 20,  n = 30000000,  r = 14,    d = 65536,    t = 4,    p = 1


      Number of cells = d^t = 18446744073709551616
      Lambda = Poisson mean =     365.9182


----------------------------------------------------
Total expected number = N*Lambda      :    7318.36
Total observed number                 :    7180
p-value of test                       :    0.95


-----------------------------------------------
CPU time used                    :  00:02:27.80

Generator state:




***********************************************************
HOST = obelix.local.isima.fr, Linux

MersenneTwiter


smarsa_BirthdaySpacings test:
-----------------------------------------------
   N = 20,  n = 20000000,  r =  0,    d = 512,    t = 7,    p = 1


      Number of cells = d^t = 9223372036854775808
      Lambda = Poisson mean =     216.8404


----------------------------------------------------
Total expected number = N*Lambda      :    4336.81
Total observed number                 :    4332
p-value of test                       :    0.53


-----------------------------------------------
CPU time used                    :  00:01:42.51

Generator state:




***********************************************************
HOST = obelix.local.isima.fr, Linux

MersenneTwiter


smarsa_BirthdaySpacings test:
-----------------------------------------------
   N = 20,  n = 20000000,  r =  7,    d = 512,    t = 7,    p = 1


      Number of cells = d^t = 9223372036854775808
      Lambda = Poisson mean =     216.8404


----------------------------------------------------
Total expected number = N*Lambda      :    4336.81
Total observed number                 :    4307
p-value of test                       :    0.67


-----------------------------------------------
CPU time used                    :  00:01:47.26

Generator state:




***********************************************************
HOST = obelix.local.isima.fr, Linux

MersenneTwiter


smarsa_BirthdaySpacings test:
-----------------------------------------------
   N = 20,  n = 30000000,  r = 14,    d = 256,    t = 8,    p = 1


      Number of cells = d^t = 18446744073709551616
      Lambda = Poisson mean =     365.9182


----------------------------------------------------
Total expected number = N*Lambda      :    7318.36
Total observed number                 :    7280
p-value of test                       :    0.67


-----------------------------------------------
CPU time used                    :  00:02:47.85

Generator state:




***********************************************************
HOST = obelix.local.isima.fr, Linux

MersenneTwiter


smarsa_BirthdaySpacings test:
-----------------------------------------------
   N = 20,  n = 30000000,  r = 22,    d = 256,    t = 8,    p = 1


      Number of cells = d^t = 18446744073709551616
      Lambda = Poisson mean =     365.9182


----------------------------------------------------
Total expected number = N*Lambda      :    7318.36
Total observed number                 :    7370
p-value of test                       :    0.27


-----------------------------------------------
CPU time used                    :  00:02:47.93

Generator state:




***********************************************************
HOST = obelix.local.isima.fr, Linux

MersenneTwiter


smarsa_BirthdaySpacings test:
-----------------------------------------------
   N = 20,  n = 30000000,  r =  0,    d = 16,    t = 16,    p = 1


      Number of cells = d^t = 18446744073709551616
      Lambda = Poisson mean =     365.9182


----------------------------------------------------
Total expected number = N*Lambda      :    7318.36
Total observed number                 :    7233
p-value of test                       :    0.84


-----------------------------------------------
CPU time used                    :  00:03:17.67

Generator state:




***********************************************************
HOST = obelix.local.isima.fr, Linux

MersenneTwiter


smarsa_BirthdaySpacings test:
-----------------------------------------------
   N = 20,  n = 30000000,  r = 26,    d = 16,    t = 16,    p = 1


      Number of cells = d^t = 18446744073709551616
      Lambda = Poisson mean =     365.9182


----------------------------------------------------
Total expected number = N*Lambda      :    7318.36
Total observed number                 :    7414
p-value of test                       :    0.13


-----------------------------------------------
CPU time used                    :  00:03:32.77

Generator state:




***********************************************************
HOST = obelix.local.isima.fr, Linux

MersenneTwiter


snpair_ClosePairs test:
-----------------------------------------------
   N = 30,  n = 6000000,  r =  0,  t = 3,  p = 0,  m = 30,  Torus =  TRUE


---------------------------------------
Test based on the 2 nearest points (NP):

Stat. AD on the N values (NP)         :    0.95
p-value of test                       :    0.38


A2 test based on the spacings between the
   successive jump times of process Y_n(t):

A2 test on the values of A2 (m-NP)    :    0.42
p-value of test                       :    0.83

Test on the Nm values of W_{n,i}(mNP1):    1.27
p-value of test                       :    0.24

Test on the jump times of Y
   (superposition of Yn):

Expected number of jumps of Y = mN    :     900
Number of jumps of Y                  :     853
p-value of test                       :    0.94

Stat. AD (mNP2)                       :    1.04
p-value of test                       :    0.34

Stat. AD after spacings (mNP2-S)      :    1.69
p-value of test                       :    0.14

-----------------------------------------------
CPU time used                    :  00:05:18.60

Generator state:




***********************************************************
HOST = obelix.local.isima.fr, Linux

MersenneTwiter


snpair_ClosePairs test:
-----------------------------------------------
   N = 20,  n = 4000000,  r =  0,  t = 5,  p = 0,  m = 30,  Torus =  TRUE


---------------------------------------
Test based on the 2 nearest points (NP):

Stat. AD on the N values (NP)         :    0.49
p-value of test                       :    0.76


A2 test based on the spacings between the
   successive jump times of process Y_n(t):

A2 test on the values of A2 (m-NP)    :    0.46
p-value of test                       :    0.79

Test on the Nm values of W_{n,i}(mNP1):    1.17
p-value of test                       :    0.28

Test on the jump times of Y
   (superposition of Yn):

Expected number of jumps of Y = mN    :     600
Number of jumps of Y                  :     579
p-value of test                       :    0.80

Stat. AD (mNP2)                       :    0.54
p-value of test                       :    0.70

Stat. AD after spacings (mNP2-S)      :    1.06
p-value of test                       :    0.33

-----------------------------------------------
CPU time used                    :  00:01:58.52

Generator state:




***********************************************************
HOST = obelix.local.isima.fr, Linux

MersenneTwiter


snpair_ClosePairs test:
-----------------------------------------------
   N = 10,  n = 3000000,  r =  0,  t = 9,  p = 0,  m = 30,  Torus =  TRUE


---------------------------------------
Test based on the 2 nearest points (NP):

Stat. AD on the N values (NP)         :    0.32
p-value of test                       :    0.92


A2 test based on the spacings between the
   successive jump times of process Y_n(t):

A2 test on the values of A2 (m-NP)    :    1.57
p-value of test                       :    0.16

Test on the Nm values of W_{n,i}(mNP1):    0.68
p-value of test                       :    0.58

Test on the jump times of Y
   (superposition of Yn):

Expected number of jumps of Y = mN    :     300
Number of jumps of Y                  :     308
p-value of test                       :    0.33

Stat. AD (mNP2)                       :    0.32
p-value of test                       :    0.92

Stat. AD after spacings (mNP2-S)      :    0.19
p-value of test                       :    0.9939

-----------------------------------------------
CPU time used                    :  00:02:18.81

Generator state:




***********************************************************
HOST = obelix.local.isima.fr, Linux

MersenneTwiter


snpair_ClosePairs test:
-----------------------------------------------
   N =  5,  n = 2000000,  r =  0,  t = 16,  p = 0,  m = 30,  Torus =  TRUE


---------------------------------------
Test based on the 2 nearest points (NP):

Stat. AD on the N values (NP)         :    0.40
p-value of test                       :    0.85


A2 test based on the spacings between the
   successive jump times of process Y_n(t):

A2 test on the values of A2 (m-NP)    :    0.41
p-value of test                       :    0.83

Test on the Nm values of W_{n,i}(mNP1):    0.76
p-value of test                       :    0.51

Test on the jump times of Y
   (superposition of Yn):

Expected number of jumps of Y = mN    :     150
Number of jumps of Y                  :     137
p-value of test                       :    0.85

Stat. AD (mNP2)                       :    0.77
p-value of test                       :    0.50

Stat. AD after spacings (mNP2-S)      :    1.04
p-value of test                       :    0.34

-----------------------------------------------
CPU time used                    :  00:02:42.27

Generator state:




***********************************************************
HOST = obelix.local.isima.fr, Linux

MersenneTwiter


sknuth_SimpPoker test:
-----------------------------------------------
   N =  1,  n = 400000000,  r =  0,   d =    8,   k =    8


-----------------------------------------------
Number of degrees of freedom          :    7
Chi-square statistic                  :    9.05
p-value of test                       :    0.25

-----------------------------------------------
CPU time used                    :  00:00:44.28

Generator state:




***********************************************************
HOST = obelix.local.isima.fr, Linux

MersenneTwiter


sknuth_SimpPoker test:
-----------------------------------------------
   N =  1,  n = 400000000,  r = 27,   d =    8,   k =    8


-----------------------------------------------
Number of degrees of freedom          :    7
Chi-square statistic                  :   14.49
p-value of test                       :    0.04

-----------------------------------------------
CPU time used                    :  00:00:56.79

Generator state:




***********************************************************
HOST = obelix.local.isima.fr, Linux

MersenneTwiter


sknuth_SimpPoker test:
-----------------------------------------------
   N =  1,  n = 100000000,  r =  0,   d =   32,   k =   32


-----------------------------------------------
Number of degrees of freedom          :   18
Chi-square statistic                  :   15.75
p-value of test                       :    0.61

-----------------------------------------------
CPU time used                    :  00:00:47.69

Generator state:




***********************************************************
HOST = obelix.local.isima.fr, Linux

MersenneTwiter


sknuth_SimpPoker test:
-----------------------------------------------
   N =  1,  n = 100000000,  r = 25,   d =   32,   k =   32


-----------------------------------------------
Number of degrees of freedom          :   18
Chi-square statistic                  :   14.52
p-value of test                       :    0.69

-----------------------------------------------
CPU time used                    :  00:01:02.25

Generator state:




***********************************************************
HOST = obelix.local.isima.fr, Linux

MersenneTwiter


sknuth_CouponCollector test:
-----------------------------------------------
   N =  1,  n = 200000000,  r =  0,   d =    8


-----------------------------------------------
Number of degrees of freedom          :   54
Chi-square statistic                  :   51.58
p-value of test                       :    0.57

-----------------------------------------------
CPU time used                    :  00:00:55.70

Generator state:




***********************************************************
HOST = obelix.local.isima.fr, Linux

MersenneTwiter


sknuth_CouponCollector test:
-----------------------------------------------
   N =  1,  n = 200000000,  r = 10,   d =    8


-----------------------------------------------
Number of degrees of freedom          :   54
Chi-square statistic                  :   57.35
p-value of test                       :    0.35

-----------------------------------------------
CPU time used                    :  00:01:09.42

Generator state:




***********************************************************
HOST = obelix.local.isima.fr, Linux

MersenneTwiter


sknuth_CouponCollector test:
-----------------------------------------------
   N =  1,  n = 200000000,  r = 20,   d =    8


-----------------------------------------------
Number of degrees of freedom          :   54
Chi-square statistic                  :   63.55
p-value of test                       :    0.18

-----------------------------------------------
CPU time used                    :  00:01:09.30

Generator state:




***********************************************************
HOST = obelix.local.isima.fr, Linux

MersenneTwiter


sknuth_CouponCollector test:
-----------------------------------------------
   N =  1,  n = 200000000,  r = 27,   d =    8


-----------------------------------------------
Number of degrees of freedom          :   54
Chi-square statistic                  :   36.31
p-value of test                       :    0.97

-----------------------------------------------
CPU time used                    :  00:01:09.54

Generator state:




***********************************************************
HOST = obelix.local.isima.fr, Linux

MersenneTwiter


sknuth_Gap test:
-----------------------------------------------
   N =  1,  n = 500000000,  r =  0,   Alpha =        0,   Beta  =   0.0625


-----------------------------------------------
Number of degrees of freedom          :  232
Chi-square statistic                  :  228.33
p-value of test                       :    0.56

-----------------------------------------------
CPU time used                    :  00:00:57.27

Generator state:




***********************************************************
HOST = obelix.local.isima.fr, Linux

MersenneTwiter


sknuth_Gap test:
-----------------------------------------------
   N =  1,  n = 300000000,  r = 25,   Alpha =        0,   Beta  =  0.03125


-----------------------------------------------
Number of degrees of freedom          :  434
Chi-square statistic                  :  433.36
p-value of test                       :    0.50

-----------------------------------------------
CPU time used                    :  00:01:21.09

Generator state:




***********************************************************
HOST = obelix.local.isima.fr, Linux

MersenneTwiter


sknuth_Gap test:
-----------------------------------------------
   N =  1,  n = 100000000,  r =  0,   Alpha =        0,   Beta  = 0.0078125


-----------------------------------------------
Number of degrees of freedom          : 1437
Chi-square statistic                  : 1399.49
p-value of test                       :    0.76

-----------------------------------------------
CPU time used                    :  00:01:19.51

Generator state:




***********************************************************
HOST = obelix.local.isima.fr, Linux

MersenneTwiter


sknuth_Gap test:
-----------------------------------------------
   N =  1,  n = 10000000,  r = 20,   Alpha =        0,   Beta  = 0.000976562


-----------------------------------------------
Number of degrees of freedom          : 7046
Chi-square statistic                  : 7079.86
p-value of test                       :    0.39

-----------------------------------------------
CPU time used                    :  00:01:18.43

Generator state:




***********************************************************
HOST = obelix.local.isima.fr, Linux

MersenneTwiter


sknuth_Run test:
-----------------------------------------------
   N =  5,  n = 1000000000,  r =  0,   Up = FALSE


-----------------------------------------------

Kolmogorov-Smirnov+ statistic = D+    :    0.23
p-value of test                       :    0.52

Kolmogorov-Smirnov- statistic = D-    :   0.074
p-value of test                       :    0.90

Anderson-Darling statistic = A2       :    0.38
p-value of test                       :    0.86

Test on the sum of all N observations
Number of degrees of freedom          :   30
Chi-square statistic                  :   24.09
p-value of test                       :    0.77

-----------------------------------------------
CPU time used                    :  00:01:03.95

Generator state:




***********************************************************
HOST = obelix.local.isima.fr, Linux

MersenneTwiter


sknuth_Run test:
-----------------------------------------------
   N = 10,  n = 1000000000,  r = 15,   Up =  TRUE


-----------------------------------------------

Kolmogorov-Smirnov+ statistic = D+    :    0.20
p-value of test                       :    0.38

Kolmogorov-Smirnov- statistic = D-    :   0.080
p-value of test                       :    0.84

Anderson-Darling statistic = A2       :    0.33
p-value of test                       :    0.91

Test on the sum of all N observations
Number of degrees of freedom          :   60
Chi-square statistic                  :   53.92
p-value of test                       :    0.70

-----------------------------------------------
CPU time used                    :  00:02:45.29

Generator state:




***********************************************************
Test sknuth_Permutation calling smultin_Multinomial

***********************************************************
HOST = obelix.local.isima.fr, Linux

MersenneTwiter


smultin_Multinomial test:
-----------------------------------------------
   N =  1,  n = 1000000000,  r =  5,   t =  3,
       Sparse =  FALSE

       GenerCell = smultin_GenerCellPermut
       Number of cells = t! =                  6
       Expected number per cell =  1.6666667e+08
       Hashing =  FALSE

   For Delta > -1, we use the ChiSquare approximation
   Correction factor of the ChiSquare: 
       Delta =     1,    Mu =  2.5000002e-09,    Sigma =          1

-----------------------------------------------
Test Results for Delta =   1.0000

Number of degrees of freedom          :    5
Value of the statistic                :    2.48
p-value of test                       :    0.78


-----------------------------------------------
CPU time used                    :  00:00:52.51

Generator state:




***********************************************************
Test sknuth_Permutation calling smultin_Multinomial

***********************************************************
HOST = obelix.local.isima.fr, Linux

MersenneTwiter


smultin_Multinomial test:
-----------------------------------------------
   N =  1,  n = 1000000000,  r =  5,   t =  5,
       Sparse =  FALSE

       GenerCell = smultin_GenerCellPermut
       Number of cells = t! =                120
       Expected number per cell =   8333333.3
       Hashing =  FALSE

   For Delta > -1, we use the ChiSquare approximation
   Correction factor of the ChiSquare: 
       Delta =     1,    Mu =  5.9500005e-08,    Sigma =          1

-----------------------------------------------
Test Results for Delta =   1.0000

Number of degrees of freedom          :  119
Value of the statistic                :  117.10
p-value of test                       :    0.53


-----------------------------------------------
CPU time used                    :  00:01:25.77

Generator state:




***********************************************************
Test sknuth_Permutation calling smultin_Multinomial

***********************************************************
HOST = obelix.local.isima.fr, Linux

MersenneTwiter


smultin_Multinomial test:
-----------------------------------------------
   N =  1,  n = 500000000,  r =  5,   t =  7,
       Sparse =  FALSE

       GenerCell = smultin_GenerCellPermut
       Number of cells = t! =               5040
       Expected number per cell =   99206.349
       Hashing =  FALSE

   For Delta > -1, we use the ChiSquare approximation
   Correction factor of the ChiSquare: 
       Delta =     1,    Mu =  5.0390004e-06,    Sigma =          1

-----------------------------------------------
Test Results for Delta =   1.0000

Number of degrees of freedom          : 5039
Value of the statistic                : 4992.83
p-value of test                       :    0.68


-----------------------------------------------
CPU time used                    :  00:01:06.46

Generator state:




***********************************************************
Test sknuth_Permutation calling smultin_Multinomial

***********************************************************
HOST = obelix.local.isima.fr, Linux

MersenneTwiter


smultin_Multinomial test:
-----------------------------------------------
   N =  1,  n = 500000000,  r = 10,   t = 10,
       Sparse =  FALSE

       GenerCell = smultin_GenerCellPermut
       Number of cells = t! =            3628800
       Expected number per cell =    137.7866
       Hashing =  FALSE

   For Delta > -1, we use the ChiSquare approximation
   Correction factor of the ChiSquare: 
       Delta =     1,    Mu =   0.0036287993,    Sigma =          1

-----------------------------------------------
Test Results for Delta =   1.0000

Number of degrees of freedom          : 3628799
Value of the statistic                : 3.63e+6
p-value of test                       :    0.91


-----------------------------------------------
CPU time used                    :  00:02:55.36

Generator state:




***********************************************************
Test sknuth_CollisionPermut calling smultin_Multinomial

***********************************************************
HOST = obelix.local.isima.fr, Linux

MersenneTwiter


smultin_Multinomial test:
-----------------------------------------------
   N = 20,  n = 20000000,  r =  0,   t = 14,
       Sparse =   TRUE

       GenerCell = smultin_GenerCellPermut
       Number of cells = t! =        87178291200
       Expected number per cell =  1 /  4358.9146
       EColl = n^2 / (2k) =   2294.14912
       Hashing =   TRUE

       Collision test,    Mu =      2293.9736,    Sigma =    47.8841

-----------------------------------------------
Test Results for Collisions

For the total number of collisions, we use
      the Poisson approximation:
Expected number of collisions = N*Mu  :    45879.47
Observed number of collisions         :    45722
p-value of test                       :    0.77


-----------------------------
Total number of cells containing j balls

  j =  0                              :    1743165869722
  j =  1                              :        399908559
  j =  2                              :            45716
  j =  3                              :                3
  j =  4                              :                0
  j =  5                              :                0

-----------------------------------------------
CPU time used                    :  00:04:41.07

Generator state:




***********************************************************
Test sknuth_CollisionPermut calling smultin_Multinomial

***********************************************************
HOST = obelix.local.isima.fr, Linux

MersenneTwiter


smultin_Multinomial test:
-----------------------------------------------
   N = 20,  n = 20000000,  r = 10,   t = 14,
       Sparse =   TRUE

       GenerCell = smultin_GenerCellPermut
       Number of cells = t! =        87178291200
       Expected number per cell =  1 /  4358.9146
       EColl = n^2 / (2k) =   2294.14912
       Hashing =   TRUE

       Collision test,    Mu =      2293.9736,    Sigma =    47.8841

-----------------------------------------------
Test Results for Collisions

For the total number of collisions, we use
      the Poisson approximation:
Expected number of collisions = N*Mu  :    45879.47
Observed number of collisions         :    45852
p-value of test                       :    0.55


-----------------------------
Total number of cells containing j balls

  j =  0                              :    1743165869852
  j =  1                              :        399908300
  j =  2                              :            45844
  j =  3                              :                4
  j =  4                              :                0
  j =  5                              :                0

-----------------------------------------------
CPU time used                    :  00:04:53.57

Generator state:




***********************************************************
HOST = obelix.local.isima.fr, Linux

MersenneTwiter


sknuth_MaxOft test:
-----------------------------------------------
   N = 40,  n = 10000000,  r =  0,   d = 100000,   t =  8

      Number of categories = 100000
      Expected number per category  = 100.00


-----------------------------------------------
Test results for chi2 with 99999 degrees of freedom:

Kolmogorov-Smirnov+ statistic = D+    :    0.10
p-value of test                       :    0.42

Kolmogorov-Smirnov- statistic = D-    :    0.11
p-value of test                       :    0.35

Anderson-Darling statistic = A2       :    0.83
p-value of test                       :    0.46

Test on the sum of all N observations
Number of degrees of freedom          : 3999960
Chi-square statistic                  : 4.00e+6
p-value of test                       :    0.72


-----------------------------------------------
Test results for Anderson-Darling:

Kolmogorov-Smirnov+ statistic = D+    :    0.13
p-value of test                       :    0.22

Kolmogorov-Smirnov- statistic = D-    :   0.034
p-value of test                       :    0.89

Anderson-Darling statistic = A2       :    0.74
p-value of test                       :    0.53


-----------------------------------------------
CPU time used                    :  00:01:34.96

Generator state:




***********************************************************
HOST = obelix.local.isima.fr, Linux

MersenneTwiter


sknuth_MaxOft test:
-----------------------------------------------
   N = 30,  n = 10000000,  r =  0,   d = 100000,   t = 16

      Number of categories = 100000
      Expected number per category  = 100.00


-----------------------------------------------
Test results for chi2 with 99999 degrees of freedom:

Kolmogorov-Smirnov+ statistic = D+    :    0.15
p-value of test                       :    0.25

Kolmogorov-Smirnov- statistic = D-    :   0.046
p-value of test                       :    0.86

Anderson-Darling statistic = A2       :    1.00
p-value of test                       :    0.36

Test on the sum of all N observations
Number of degrees of freedom          : 2999970
Chi-square statistic                  : 3.00e+6
p-value of test                       :    0.88


-----------------------------------------------
Test results for Anderson-Darling:

Kolmogorov-Smirnov+ statistic = D+    :    0.16
p-value of test                       :    0.20

Kolmogorov-Smirnov- statistic = D-    :   0.050
p-value of test                       :    0.83

Anderson-Darling statistic = A2       :    0.70
p-value of test                       :    0.56


-----------------------------------------------
CPU time used                    :  00:01:26.63

Generator state:




***********************************************************
HOST = obelix.local.isima.fr, Linux

MersenneTwiter


sknuth_MaxOft test:
-----------------------------------------------
   N = 20,  n = 10000000,  r =  0,   d = 100000,   t = 24

      Number of categories = 100000
      Expected number per category  = 100.00


-----------------------------------------------
Test results for chi2 with 99999 degrees of freedom:

Kolmogorov-Smirnov+ statistic = D+    :    0.14
p-value of test                       :    0.44

Kolmogorov-Smirnov- statistic = D-    :    0.20
p-value of test                       :    0.17

Anderson-Darling statistic = A2       :    1.46
p-value of test                       :    0.19

Test on the sum of all N observations
Number of degrees of freedom          : 1999980
Chi-square statistic                  : 2.00e+6
p-value of test                       :    0.24


-----------------------------------------------
Test results for Anderson-Darling:

Kolmogorov-Smirnov+ statistic = D+    :   0.018
p-value of test                       :    0.97

Kolmogorov-Smirnov- statistic = D-    :    0.14
p-value of test                       :    0.41

Anderson-Darling statistic = A2       :    0.54
p-value of test                       :    0.70


-----------------------------------------------
CPU time used                    :  00:01:08.05

Generator state:




***********************************************************
HOST = obelix.local.isima.fr, Linux

MersenneTwiter


sknuth_MaxOft test:
-----------------------------------------------
   N = 20,  n = 10000000,  r =  0,   d = 100000,   t = 32

      Number of categories = 100000
      Expected number per category  = 100.00


-----------------------------------------------
Test results for chi2 with 99999 degrees of freedom:

Kolmogorov-Smirnov+ statistic = D+    :    0.24
p-value of test                       :    0.09

Kolmogorov-Smirnov- statistic = D-    :   0.094
p-value of test                       :    0.66

Anderson-Darling statistic = A2       :    1.29
p-value of test                       :    0.23

Test on the sum of all N observations
Number of degrees of freedom          : 1999980
Chi-square statistic                  : 2.00e+6
p-value of test                       :    0.82


-----------------------------------------------
Test results for Anderson-Darling:

Kolmogorov-Smirnov+ statistic = D+    :   0.016
p-value of test                       :    0.98

Kolmogorov-Smirnov- statistic = D-    :    0.17
p-value of test                       :    0.28

Anderson-Darling statistic = A2       :    0.64
p-value of test                       :    0.61


-----------------------------------------------
CPU time used                    :  00:01:17.80

Generator state:




***********************************************************
HOST = obelix.local.isima.fr, Linux

MersenneTwiter


svaria_SampleProd test:
-----------------------------------------------
   N = 40,  n = 10000000,  r =  0,   t = 8


-----------------------------------------------

Kolmogorov-Smirnov+ statistic = D+    :    0.10
p-value of test                       :    0.42

Kolmogorov-Smirnov- statistic = D-    :   0.041
p-value of test                       :    0.85

Anderson-Darling statistic = A2       :    0.68
p-value of test                       :    0.57

-----------------------------------------------
CPU time used                    :  00:01:22.65

Generator state:




***********************************************************
HOST = obelix.local.isima.fr, Linux

MersenneTwiter


svaria_SampleProd test:
-----------------------------------------------
   N = 20,  n = 10000000,  r =  0,   t = 16


-----------------------------------------------

Kolmogorov-Smirnov+ statistic = D+    :   0.057
p-value of test                       :    0.85

Kolmogorov-Smirnov- statistic = D-    :    0.23
p-value of test                       :    0.10

Anderson-Darling statistic = A2       :    1.44
p-value of test                       :    0.19

-----------------------------------------------
CPU time used                    :  00:00:54.61

Generator state:




***********************************************************
HOST = obelix.local.isima.fr, Linux

MersenneTwiter


svaria_SampleProd test:
-----------------------------------------------
   N = 20,  n = 10000000,  r =  0,   t = 24


-----------------------------------------------

Kolmogorov-Smirnov+ statistic = D+    :    0.18
p-value of test                       :    0.26

Kolmogorov-Smirnov- statistic = D-    :   0.067
p-value of test                       :    0.80

Anderson-Darling statistic = A2       :    0.40
p-value of test                       :    0.85

-----------------------------------------------
CPU time used                    :  00:01:06.54

Generator state:




***********************************************************
HOST = obelix.local.isima.fr, Linux

MersenneTwiter


svaria_SampleMean test:
-----------------------------------------------
   N = 20000000,  n = 30,  r =  0


-----------------------------------------------

Kolmogorov-Smirnov+ statistic = D+    : 2.97e-5
p-value of test                       :    0.97

Kolmogorov-Smirnov- statistic = D-    : 2.36e-4
p-value of test                       :    0.11

Anderson-Darling statistic = A2       :    1.33
p-value of test                       :    0.22

-----------------------------------------------
CPU time used                    :  00:00:12.30

Generator state:




***********************************************************
HOST = obelix.local.isima.fr, Linux

MersenneTwiter


svaria_SampleMean test:
-----------------------------------------------
   N = 20000000,  n = 30,  r = 10


-----------------------------------------------

Kolmogorov-Smirnov+ statistic = D+    : 6.77e-5
p-value of test                       :    0.83

Kolmogorov-Smirnov- statistic = D-    : 1.34e-4
p-value of test                       :    0.49

Anderson-Darling statistic = A2       :    0.36
p-value of test                       :    0.89

-----------------------------------------------
CPU time used                    :  00:00:13.03

Generator state:




***********************************************************
HOST = obelix.local.isima.fr, Linux

MersenneTwiter


svaria_SampleCorr test:
-----------------------------------------------
   N =  1,  n = 2000000000,  r =  0,   k = 1


-----------------------------------------------
Normal statistic                      :    1.57
p-value of test                       :    0.06

-----------------------------------------------
CPU time used                    :  00:00:11.93

Generator state:




***********************************************************
HOST = obelix.local.isima.fr, Linux

MersenneTwiter


svaria_SampleCorr test:
-----------------------------------------------
   N =  1,  n = 2000000000,  r =  0,   k = 2


-----------------------------------------------
Normal statistic                      :    1.23
p-value of test                       :    0.11

-----------------------------------------------
CPU time used                    :  00:00:11.96

Generator state:




***********************************************************
HOST = obelix.local.isima.fr, Linux

MersenneTwiter


svaria_AppearanceSpacings test:
-----------------------------------------------
   N =  1,   Q = 10000000,   K = 1000000000,   r = 0,   s = 3,   L = 15

   Sequences of n = (K + Q)L =  15150000000 bits
   Q = 10000000 initialization blocks
   K = 1000000000 blocks for the test
   the blocks have L = 15 bits



-----------------------------------------------
Normal statistic                      :    0.27
p-value of test                       :    0.39

-----------------------------------------------
CPU time used                    :  00:01:00.37

Generator state:




***********************************************************
HOST = obelix.local.isima.fr, Linux

MersenneTwiter


svaria_AppearanceSpacings test:
-----------------------------------------------
   N =  1,   Q = 10000000,   K = 1000000000,   r = 27,   s = 3,   L = 15

   Sequences of n = (K + Q)L =  15150000000 bits
   Q = 10000000 initialization blocks
   K = 1000000000 blocks for the test
   the blocks have L = 15 bits



-----------------------------------------------
Normal statistic                      :   -0.81
p-value of test                       :    0.79

-----------------------------------------------
CPU time used                    :  00:01:02.48

Generator state:




***********************************************************
HOST = obelix.local.isima.fr, Linux

MersenneTwiter


svaria_WeightDistrib test:
-----------------------------------------------
   N =  1,  n = 20000000,  r =  0,  k = 256,  Alpha =      0,  Beta =   0.25


-----------------------------------------------
Number of degrees of freedom          :   67
Chi-square statistic                  :   70.32
p-value of test                       :    0.37

-----------------------------------------------
CPU time used                    :  00:00:31.32

Generator state:




***********************************************************
HOST = obelix.local.isima.fr, Linux

MersenneTwiter


svaria_WeightDistrib test:
-----------------------------------------------
   N =  1,  n = 20000000,  r = 20,  k = 256,  Alpha =      0,  Beta =   0.25


-----------------------------------------------
Number of degrees of freedom          :   67
Chi-square statistic                  :   74.80
p-value of test                       :    0.24

-----------------------------------------------
CPU time used                    :  00:00:40.05

Generator state:




***********************************************************
HOST = obelix.local.isima.fr, Linux

MersenneTwiter


svaria_WeightDistrib test:
-----------------------------------------------
   N =  1,  n = 20000000,  r = 28,  k = 256,  Alpha =      0,  Beta =   0.25


-----------------------------------------------
Number of degrees of freedom          :   67
Chi-square statistic                  :   60.55
p-value of test                       :    0.70

-----------------------------------------------
CPU time used                    :  00:00:40.12

Generator state:




***********************************************************
HOST = obelix.local.isima.fr, Linux

MersenneTwiter


svaria_WeightDistrib test:
-----------------------------------------------
   N =  1,  n = 20000000,  r =  0,  k = 256,  Alpha =      0,  Beta = 0.0625


-----------------------------------------------
Number of degrees of freedom          :   37
Chi-square statistic                  :   43.05
p-value of test                       :    0.23

-----------------------------------------------
CPU time used                    :  00:00:31.64

Generator state:




***********************************************************
HOST = obelix.local.isima.fr, Linux

MersenneTwiter


svaria_WeightDistrib test:
-----------------------------------------------
   N =  1,  n = 20000000,  r = 10,  k = 256,  Alpha =      0,  Beta = 0.0625


-----------------------------------------------
Number of degrees of freedom          :   37
Chi-square statistic                  :   21.29
p-value of test                       :    0.98

-----------------------------------------------
CPU time used                    :  00:00:40.05

Generator state:




***********************************************************
HOST = obelix.local.isima.fr, Linux

MersenneTwiter


svaria_WeightDistrib test:
-----------------------------------------------
   N =  1,  n = 20000000,  r = 26,  k = 256,  Alpha =      0,  Beta = 0.0625


-----------------------------------------------
Number of degrees of freedom          :   37
Chi-square statistic                  :   39.11
p-value of test                       :    0.38

-----------------------------------------------
CPU time used                    :  00:00:39.87

Generator state:




***********************************************************
HOST = obelix.local.isima.fr, Linux

MersenneTwiter


svaria_SumCollector test:
-----------------------------------------------
   N =  1,  n = 500000000,  r =  0,   g = 10


-----------------------------------------------
Number of degrees of freedom          :   29
Chi-square statistic                  :   29.49
p-value of test                       :    0.44

-----------------------------------------------
CPU time used                    :  00:01:12.31

Generator state:




***********************************************************
HOST = obelix.local.isima.fr, Linux

MersenneTwiter


smarsa_MatrixRank test:
-----------------------------------------------
   N = 10,  n = 1000000,  r =  0,    s = 5,    L = 30,    k = 30


-----------------------------------------------

Kolmogorov-Smirnov+ statistic = D+    :    0.17
p-value of test                       :    0.52

Kolmogorov-Smirnov- statistic = D-    :    0.21
p-value of test                       :    0.37

Anderson-Darling statistic = A2       :    0.67
p-value of test                       :    0.58

Test on the sum of all N observations
Number of degrees of freedom          :   40
Chi-square statistic                  :   43.36
p-value of test                       :    0.33

-----------------------------------------------
CPU time used                    :  00:01:04.73

Generator state:




***********************************************************
HOST = obelix.local.isima.fr, Linux

MersenneTwiter


smarsa_MatrixRank test:
-----------------------------------------------
   N = 10,  n = 1000000,  r = 25,    s = 5,    L = 30,    k = 30


-----------------------------------------------

Kolmogorov-Smirnov+ statistic = D+    :    0.13
p-value of test                       :    0.67

Kolmogorov-Smirnov- statistic = D-    :    0.10
p-value of test                       :    0.76

Anderson-Darling statistic = A2       :    0.17
p-value of test                       :    0.9965

Test on the sum of all N observations
Number of degrees of freedom          :   40
Chi-square statistic                  :   38.95
p-value of test                       :    0.52

-----------------------------------------------
CPU time used                    :  00:01:03.85

Generator state:




***********************************************************
HOST = obelix.local.isima.fr, Linux

MersenneTwiter


smarsa_MatrixRank test:
-----------------------------------------------
   N =  1,  n = 5000,  r =  0,    s = 4,    L = 1000,    k = 1000


-----------------------------------------------
Number of degrees of freedom          :    3
Chi-square statistic                  :    1.27
p-value of test                       :    0.74

-----------------------------------------------
CPU time used                    :  00:01:27.45

Generator state:




***********************************************************
HOST = obelix.local.isima.fr, Linux

MersenneTwiter


smarsa_MatrixRank test:
-----------------------------------------------
   N =  1,  n = 5000,  r = 26,    s = 4,    L = 1000,    k = 1000


-----------------------------------------------
Number of degrees of freedom          :    3
Chi-square statistic                  :    1.53
p-value of test                       :    0.67

-----------------------------------------------
CPU time used                    :  00:01:28.44

Generator state:




***********************************************************
HOST = obelix.local.isima.fr, Linux

MersenneTwiter


smarsa_MatrixRank test:
-----------------------------------------------
   N =  1,  n = 80,  r = 15,    s = 15,    L = 5000,    k = 5000


-----------------------------------------------
Number of degrees of freedom          :    2
Chi-square statistic                  :    1.06
p-value of test                       :    0.59

-----------------------------------------------
CPU time used                    :  00:01:25.28

Generator state:




***********************************************************
HOST = obelix.local.isima.fr, Linux

MersenneTwiter


smarsa_MatrixRank test:
-----------------------------------------------
   N =  1,  n = 80,  r =  0,    s = 30,    L = 5000,    k = 5000


-----------------------------------------------
Number of degrees of freedom          :    2
Chi-square statistic                  :    0.27
p-value of test                       :    0.87

-----------------------------------------------
CPU time used                    :  00:01:10.14

Generator state:




***********************************************************
HOST = obelix.local.isima.fr, Linux

MersenneTwiter


smarsa_Savir2 test:
-----------------------------------------------
   N = 10,  n = 10000000,  r = 10,    m = 1048576,    t = 30


-----------------------------------------------

Kolmogorov-Smirnov+ statistic = D+    :    0.29
p-value of test                       :    0.16

Kolmogorov-Smirnov- statistic = D-    :    0.12
p-value of test                       :    0.69

Anderson-Darling statistic = A2       :    1.34
p-value of test                       :    0.22

Test on the sum of all N observations
Number of degrees of freedom          :  130
Chi-square statistic                  :  109.49
p-value of test                       :    0.90

-----------------------------------------------
CPU time used                    :  00:00:24.04

Generator state:




***********************************************************
HOST = obelix.local.isima.fr, Linux

MersenneTwiter


smarsa_GCD test:
-----------------------------------------------
   N = 10,  n = 50000000,  r =  0,   s = 30


-----------------------------------------------
Test results for GCD values:

Kolmogorov-Smirnov+ statistic = D+    :    0.22
p-value of test                       :    0.32

Kolmogorov-Smirnov- statistic = D-    :    0.13
p-value of test                       :    0.67

Anderson-Darling statistic = A2       :    0.76
p-value of test                       :    0.51

Test on the sum of all N observations
Number of degrees of freedom          : 17430
Chi-square statistic                  :17289.33
p-value of test                       :    0.77



-----------------------------------------------
CPU time used                    :  00:00:55.00

Generator state:




***********************************************************
HOST = obelix.local.isima.fr, Linux

MersenneTwiter


swalk_RandomWalk1 test:
-----------------------------------------------
   N =  1,  n = 100000000,  r =  0,   s = 5,   L0 =   50,   L1 =   50



-----------------------------------------------
Test on the values of the Statistic H

Number of degrees of freedom          :   36
ChiSquare statistic                   :   33.93
p-value of test                       :    0.57


-----------------------------------------------
Test on the values of the Statistic M

Number of degrees of freedom          :   35
ChiSquare statistic                   :   37.46
p-value of test                       :    0.36


-----------------------------------------------
Test on the values of the Statistic J

Number of degrees of freedom          :   25
ChiSquare statistic                   :   23.08
p-value of test                       :    0.57


-----------------------------------------------
Test on the values of the Statistic R

Number of degrees of freedom          :   24
ChiSquare statistic                   :   13.20
p-value of test                       :    0.96


-----------------------------------------------
Test on the values of the Statistic C

Number of degrees of freedom          :   17
ChiSquare statistic                   :   18.03
p-value of test                       :    0.39


-----------------------------------------------
CPU time used                    :  00:00:41.20

Generator state:




***********************************************************
HOST = obelix.local.isima.fr, Linux

MersenneTwiter


swalk_RandomWalk1 test:
-----------------------------------------------
   N =  1,  n = 100000000,  r = 25,   s = 5,   L0 =   50,   L1 =   50



-----------------------------------------------
Test on the values of the Statistic H

Number of degrees of freedom          :   36
ChiSquare statistic                   :   33.94
p-value of test                       :    0.57


-----------------------------------------------
Test on the values of the Statistic M

Number of degrees of freedom          :   35
ChiSquare statistic                   :   28.65
p-value of test                       :    0.77


-----------------------------------------------
Test on the values of the Statistic J

Number of degrees of freedom          :   25
ChiSquare statistic                   :   26.14
p-value of test                       :    0.40


-----------------------------------------------
Test on the values of the Statistic R

Number of degrees of freedom          :   24
ChiSquare statistic                   :   19.82
p-value of test                       :    0.71


-----------------------------------------------
Test on the values of the Statistic C

Number of degrees of freedom          :   17
ChiSquare statistic                   :   18.18
p-value of test                       :    0.38


-----------------------------------------------
CPU time used                    :  00:00:42.46

Generator state:




***********************************************************
HOST = obelix.local.isima.fr, Linux

MersenneTwiter


swalk_RandomWalk1 test:
-----------------------------------------------
   N =  1,  n = 10000000,  r =  0,   s = 10,   L0 = 1000,   L1 = 1000



-----------------------------------------------
Test on the values of the Statistic H

Number of degrees of freedom          :  146
ChiSquare statistic                   :  118.31
p-value of test                       :    0.96


-----------------------------------------------
Test on the values of the Statistic M

Number of degrees of freedom          :  146
ChiSquare statistic                   :  179.40
p-value of test                       :    0.03


-----------------------------------------------
Test on the values of the Statistic J

Number of degrees of freedom          :  500
ChiSquare statistic                   :  539.66
p-value of test                       :    0.11


-----------------------------------------------
Test on the values of the Statistic R

Number of degrees of freedom          :  136
ChiSquare statistic                   :  114.35
p-value of test                       :    0.91


-----------------------------------------------
Test on the values of the Statistic C

Number of degrees of freedom          :   74
ChiSquare statistic                   :   67.01
p-value of test                       :    0.70


-----------------------------------------------
CPU time used                    :  00:00:47.05

Generator state:




***********************************************************
HOST = obelix.local.isima.fr, Linux

MersenneTwiter


swalk_RandomWalk1 test:
-----------------------------------------------
   N =  1,  n = 10000000,  r = 20,   s = 10,   L0 = 1000,   L1 = 1000



-----------------------------------------------
Test on the values of the Statistic H

Number of degrees of freedom          :  146
ChiSquare statistic                   :  124.67
p-value of test                       :    0.90


-----------------------------------------------
Test on the values of the Statistic M

Number of degrees of freedom          :  146
ChiSquare statistic                   :  137.59
p-value of test                       :    0.68


-----------------------------------------------
Test on the values of the Statistic J

Number of degrees of freedom          :  500
ChiSquare statistic                   :  493.81
p-value of test                       :    0.57


-----------------------------------------------
Test on the values of the Statistic R

Number of degrees of freedom          :  136
ChiSquare statistic                   :  120.14
p-value of test                       :    0.83


-----------------------------------------------
Test on the values of the Statistic C

Number of degrees of freedom          :   74
ChiSquare statistic                   :   74.03
p-value of test                       :    0.48


-----------------------------------------------
CPU time used                    :  00:00:47.70

Generator state:




***********************************************************
HOST = obelix.local.isima.fr, Linux

MersenneTwiter


swalk_RandomWalk1 test:
-----------------------------------------------
   N =  1,  n = 1000000,  r =  0,   s = 15,   L0 = 10000,   L1 = 10000



-----------------------------------------------
Test on the values of the Statistic H

Number of degrees of freedom          :  384
ChiSquare statistic                   :  405.95
p-value of test                       :    0.21


-----------------------------------------------
Test on the values of the Statistic M

Number of degrees of freedom          :  384
ChiSquare statistic                   :  392.08
p-value of test                       :    0.38


-----------------------------------------------
Test on the values of the Statistic J

Number of degrees of freedom          : 5000
ChiSquare statistic                   : 5003.63
p-value of test                       :    0.48


-----------------------------------------------
Test on the values of the Statistic R

Number of degrees of freedom          :  378
ChiSquare statistic                   :  347.59
p-value of test                       :    0.87


-----------------------------------------------
Test on the values of the Statistic C

Number of degrees of freedom          :  200
ChiSquare statistic                   :  170.18
p-value of test                       :    0.94


-----------------------------------------------
CPU time used                    :  00:00:38.10

Generator state:




***********************************************************
HOST = obelix.local.isima.fr, Linux

MersenneTwiter


swalk_RandomWalk1 test:
-----------------------------------------------
   N =  1,  n = 1000000,  r = 15,   s = 15,   L0 = 10000,   L1 = 10000



-----------------------------------------------
Test on the values of the Statistic H

Number of degrees of freedom          :  384
ChiSquare statistic                   :  403.78
p-value of test                       :    0.23


-----------------------------------------------
Test on the values of the Statistic M

Number of degrees of freedom          :  384
ChiSquare statistic                   :  389.73
p-value of test                       :    0.41


-----------------------------------------------
Test on the values of the Statistic J

Number of degrees of freedom          : 5000
ChiSquare statistic                   : 4936.00
p-value of test                       :    0.74


-----------------------------------------------
Test on the values of the Statistic R

Number of degrees of freedom          :  378
ChiSquare statistic                   :  349.12
p-value of test                       :    0.85


-----------------------------------------------
Test on the values of the Statistic C

Number of degrees of freedom          :  200
ChiSquare statistic                   :  182.89
p-value of test                       :    0.80


-----------------------------------------------
CPU time used                    :  00:00:37.96

Generator state:




***********************************************************
HOST = obelix.local.isima.fr, Linux

MersenneTwiter


scomp_LinearComp test:
-----------------------------------------------
   N =  1,  n = 400020,  r =  0,    s = 1



-----------------------------------------------
Number of degrees of freedom          :   12
Chi2 statistic for size of jumps      :   10.68
p-value of test                       :    0.56


-----------------------------------------------
Normal statistic for number of jumps  : -402.46
p-value of test                       : 1 - eps1    *****



-----------------------------------------------
CPU time used                    :  00:00:06.13

Generator state:




***********************************************************
HOST = obelix.local.isima.fr, Linux

MersenneTwiter


scomp_LinearComp test:
-----------------------------------------------
   N =  1,  n = 400020,  r = 29,    s = 1



-----------------------------------------------
Number of degrees of freedom          :   12
Chi2 statistic for size of jumps      :   13.83
p-value of test                       :    0.31


-----------------------------------------------
Normal statistic for number of jumps  : -403.10
p-value of test                       : 1 - eps1    *****



-----------------------------------------------
CPU time used                    :  00:00:06.12

Generator state:




***********************************************************
HOST = obelix.local.isima.fr, Linux

MersenneTwiter


scomp_LempelZiv test:
-----------------------------------------------
   N = 10,  n = 134217728,  r =  0,   s =   30,   k =   27


-----------------------------------------------

Kolmogorov-Smirnov+ statistic = D+    :    0.13
p-value of test                       :    0.66

Kolmogorov-Smirnov- statistic = D-    :    0.33
p-value of test                       :    0.09

Anderson-Darling statistic = A2       :    1.97
p-value of test                       :    0.10

Tests on the sum of all N observations
Standardized normal statistic         :    1.16
p-value of test                       :    0.12

Sample variance                       :    1.75
p-value of test                       :    0.07

-----------------------------------------------
CPU time used                    :  00:01:43.73

Generator state:




***********************************************************
HOST = obelix.local.isima.fr, Linux

MersenneTwiter


scomp_LempelZiv test:
-----------------------------------------------
   N = 10,  n = 134217728,  r = 15,   s =   15,   k =   27


-----------------------------------------------

Kolmogorov-Smirnov+ statistic = D+    :    0.17
p-value of test                       :    0.51

Kolmogorov-Smirnov- statistic = D-    :    0.25
p-value of test                       :    0.26

Anderson-Darling statistic = A2       :    0.72
p-value of test                       :    0.54

Tests on the sum of all N observations
Standardized normal statistic         :  -0.076
p-value of test                       :    0.53

Sample variance                       :    0.36
p-value of test                       :    0.95

-----------------------------------------------
CPU time used                    :  00:01:37.03

Generator state:




***********************************************************
HOST = obelix.local.isima.fr, Linux

MersenneTwiter


sspectral_Fourier3 test:
-----------------------------------------------
   N = 100000,  n = 16384,  r =  0,   s =    3,   k =   14


-----------------------------------------------

Kolmogorov-Smirnov+ statistic = D+    : 5.34e-3
p-value of test                       :    0.79

Kolmogorov-Smirnov- statistic = D-    :   0.012
p-value of test                       :    0.30

Anderson-Darling statistic = A2       :    0.45
p-value of test                       :    0.80

-----------------------------------------------
CPU time used                    :  00:00:54.98

Generator state:




***********************************************************
HOST = obelix.local.isima.fr, Linux

MersenneTwiter


sspectral_Fourier3 test:
-----------------------------------------------
   N = 100000,  n = 16384,  r = 27,   s =    3,   k =   14


-----------------------------------------------

Kolmogorov-Smirnov+ statistic = D+    : 8.37e-3
p-value of test                       :    0.56

Kolmogorov-Smirnov- statistic = D-    :   0.011
p-value of test                       :    0.37

Anderson-Darling statistic = A2       :    0.75
p-value of test                       :    0.52

-----------------------------------------------
CPU time used                    :  00:00:54.26

Generator state:




***********************************************************
HOST = obelix.local.isima.fr, Linux

MersenneTwiter


sstring_LongestHeadRun test:
-----------------------------------------------
   N =  1,  n = 1000,  r =  0,   s = 3,   L = 10000020


-----------------------------------------------
Number of degrees of freedom          :    8
Chi-square statistic                  :   12.32
p-value of test                       :    0.14

-----------------------------------------------
Global longest run of 1               :   33.00
p-value of test                       :    0.44



-----------------------------------------------
CPU time used                    :  00:01:39.67

Generator state:




***********************************************************
HOST = obelix.local.isima.fr, Linux

MersenneTwiter


sstring_LongestHeadRun test:
-----------------------------------------------
   N =  1,  n = 1000,  r = 27,   s = 3,   L = 10000020


-----------------------------------------------
Number of degrees of freedom          :    8
Chi-square statistic                  :    6.17
p-value of test                       :    0.63

-----------------------------------------------
Global longest run of 1               :   34.00
p-value of test                       :    0.25



-----------------------------------------------
CPU time used                    :  00:01:42.34

Generator state:




***********************************************************
HOST = obelix.local.isima.fr, Linux

MersenneTwiter


sstring_PeriodsInStrings test:
-----------------------------------------------
   N = 10,  n = 500000000,  r =  0,   s =   10


-----------------------------------------------

Kolmogorov-Smirnov+ statistic = D+    :    0.15
p-value of test                       :    0.60

Kolmogorov-Smirnov- statistic = D-    :    0.30
p-value of test                       :    0.13

Anderson-Darling statistic = A2       :    0.93
p-value of test                       :    0.39

Test on the sum of all N observations
Number of degrees of freedom          :  200
Chi-square statistic                  :  211.61
p-value of test                       :    0.27

-----------------------------------------------
CPU time used                    :  00:02:29.50

Generator state:




***********************************************************
HOST = obelix.local.isima.fr, Linux

MersenneTwiter


sstring_PeriodsInStrings test:
-----------------------------------------------
   N = 10,  n = 500000000,  r = 20,   s =   10


-----------------------------------------------

Kolmogorov-Smirnov+ statistic = D+    :    0.17
p-value of test                       :    0.50

Kolmogorov-Smirnov- statistic = D-    :    0.11
p-value of test                       :    0.74

Anderson-Darling statistic = A2       :    0.36
p-value of test                       :    0.88

Test on the sum of all N observations
Number of degrees of freedom          :  200
Chi-square statistic                  :  205.41
p-value of test                       :    0.38

-----------------------------------------------
CPU time used                    :  00:02:36.21

Generator state:




***********************************************************
HOST = obelix.local.isima.fr, Linux

MersenneTwiter


sstring_HammingWeight2 test:
-----------------------------------------------
   N = 10,  n = 1000000000,  r =  0,   s = 3,   L = 1000000


-----------------------------------------------

Kolmogorov-Smirnov+ statistic = D+    :    0.12
p-value of test                       :    0.70

Kolmogorov-Smirnov- statistic = D-    :    0.45
p-value of test                       :    0.01

Anderson-Darling statistic = A2       :    2.25
p-value of test                       :    0.07

Test on the sum of all N observations
Number of degrees of freedom          : 10000
Chi-square statistic                  :10191.09
p-value of test                       :    0.09

-----------------------------------------------
CPU time used                    :  00:01:12.48

Generator state:




***********************************************************
HOST = obelix.local.isima.fr, Linux

MersenneTwiter


sstring_HammingWeight2 test:
-----------------------------------------------
   N = 10,  n = 1000000000,  r = 27,   s = 3,   L = 1000000


-----------------------------------------------

Kolmogorov-Smirnov+ statistic = D+    :   0.063
p-value of test                       :    0.89

Kolmogorov-Smirnov- statistic = D-    :    0.37
p-value of test                       :    0.05

Anderson-Darling statistic = A2       :    1.35
p-value of test                       :    0.22

Test on the sum of all N observations
Number of degrees of freedom          : 10000
Chi-square statistic                  :10179.14
p-value of test                       :    0.10

-----------------------------------------------
CPU time used                    :  00:01:12.60

Generator state:




***********************************************************
HOST = obelix.local.isima.fr, Linux

MersenneTwiter


sstring_HammingCorr test:
-----------------------------------------------
   N =  1,  n = 1000000000,  r = 10,   s = 10,   L = 30



-----------------------------------------------
Normal statistic                      :    0.37
p-value of test                       :    0.35

-----------------------------------------------
CPU time used                    :  00:01:20.67

Generator state:




***********************************************************
HOST = obelix.local.isima.fr, Linux

MersenneTwiter


sstring_HammingCorr test:
-----------------------------------------------
   N =  1,  n = 100000000,  r = 10,   s = 10,   L = 300



-----------------------------------------------
Normal statistic                      :   0.079
p-value of test                       :    0.47

-----------------------------------------------
CPU time used                    :  00:01:18.20

Generator state:




***********************************************************
HOST = obelix.local.isima.fr, Linux

MersenneTwiter


sstring_HammingCorr test:
-----------------------------------------------
   N =  1,  n = 100000000,  r = 10,   s = 10,   L = 1200



-----------------------------------------------
Normal statistic                      :   -1.44
p-value of test                       :    0.93

-----------------------------------------------
CPU time used                    :  00:05:12.27

Generator state:




***********************************************************
HOST = obelix.local.isima.fr, Linux

MersenneTwiter


sstring_HammingIndep test:
-----------------------------------------------
   N = 10,  n = 30000000,  r =  0,   s = 3,   L = 30,   d = 0



Counters with expected numbers >= 10
-----------------------------------------------

Kolmogorov-Smirnov+ statistic = D+    :    0.32
p-value of test                       :    0.11

Kolmogorov-Smirnov- statistic = D-    :    0.25
p-value of test                       :    0.24

Anderson-Darling statistic = A2       :    1.33
p-value of test                       :    0.22

Test on the sum of all N observations
Number of degrees of freedom          : 4890
Chi-square statistic                  : 4851.07
p-value of test                       :    0.65

-----------------------------------------------
CPU time used                    :  00:02:13.15

Generator state:




***********************************************************
HOST = obelix.local.isima.fr, Linux

MersenneTwiter


sstring_HammingIndep test:
-----------------------------------------------
   N = 10,  n = 30000000,  r = 27,   s = 3,   L = 30,   d = 0



Counters with expected numbers >= 10
-----------------------------------------------

Kolmogorov-Smirnov+ statistic = D+    :    0.25
p-value of test                       :    0.23

Kolmogorov-Smirnov- statistic = D-    :    0.11
p-value of test                       :    0.75

Anderson-Darling statistic = A2       :    0.83
p-value of test                       :    0.46

Test on the sum of all N observations
Number of degrees of freedom          : 4890
Chi-square statistic                  : 4853.17
p-value of test                       :    0.64

-----------------------------------------------
CPU time used                    :  00:02:13.71

Generator state:




***********************************************************
HOST = obelix.local.isima.fr, Linux

MersenneTwiter


sstring_HammingIndep test:
-----------------------------------------------
   N =  1,  n = 30000000,  r =  0,   s = 4,   L = 300,   d = 0



Counters with expected numbers >= 10
-----------------------------------------------
Number of degrees of freedom          : 4117
Chi-square statistic                  : 3923.94
p-value of test                       :    0.98

-----------------------------------------------
CPU time used                    :  00:01:42.20

Generator state:




***********************************************************
HOST = obelix.local.isima.fr, Linux

MersenneTwiter


sstring_HammingIndep test:
-----------------------------------------------
   N =  1,  n = 30000000,  r = 26,   s = 4,   L = 300,   d = 0



Counters with expected numbers >= 10
-----------------------------------------------
Number of degrees of freedom          : 4117
Chi-square statistic                  : 4229.09
p-value of test                       :    0.11

-----------------------------------------------
CPU time used                    :  00:01:42.72

Generator state:




***********************************************************
HOST = obelix.local.isima.fr, Linux

MersenneTwiter


sstring_HammingIndep test:
-----------------------------------------------
   N =  1,  n = 10000000,  r =  0,   s = 5,   L = 1200,   d = 0



Counters with expected numbers >= 10
-----------------------------------------------
Number of degrees of freedom          : 11825
Chi-square statistic                  :11837.50
p-value of test                       :    0.47

-----------------------------------------------
CPU time used                    :  00:01:53.03

Generator state:




***********************************************************
HOST = obelix.local.isima.fr, Linux

MersenneTwiter


sstring_HammingIndep test:
-----------------------------------------------
   N =  1,  n = 10000000,  r = 25,   s = 5,   L = 1200,   d = 0



Counters with expected numbers >= 10
-----------------------------------------------
Number of degrees of freedom          : 11825
Chi-square statistic                  :11763.56
p-value of test                       :    0.65

-----------------------------------------------
CPU time used                    :  00:01:53.53

Generator state:




***********************************************************
HOST = obelix.local.isima.fr, Linux

MersenneTwiter


sstring_Run test:
-----------------------------------------------
   N =  1,  n = 2000000000,  r =  0,   s =    3


-----------------------------------------------
Total number of 1 runs:  2000000000

Number of degrees of freedom          :   54
Chi2 statistic for number of runs     :   39.90
p-value of test                       :    0.92


-----------------------------------------------
Total number of bits:  7999900125

Normal statistic for number of bits   :   -0.79
p-value of test                       :    0.79



-----------------------------------------------
CPU time used                    :  00:01:21.79

Generator state:




***********************************************************
HOST = obelix.local.isima.fr, Linux

MersenneTwiter


sstring_Run test:
-----------------------------------------------
   N =  1,  n = 2000000000,  r = 27,   s =    3


-----------------------------------------------
Total number of 1 runs:  2000000000

Number of degrees of freedom          :   54
Chi2 statistic for number of runs     :   61.99
p-value of test                       :    0.21


-----------------------------------------------
Total number of bits:  8000071629

Normal statistic for number of bits   :    0.57
p-value of test                       :    0.29



-----------------------------------------------
CPU time used                    :  00:01:24.89

Generator state:




***********************************************************
HOST = obelix.local.isima.fr, Linux

MersenneTwiter


sstring_AutoCor test:
-----------------------------------------------
   N = 10,  n = 1000000030,  r =  0,   s = 3,   d = 1


-----------------------------------------------

Kolmogorov-Smirnov+ statistic = D+    :    0.22
p-value of test                       :    0.33

Kolmogorov-Smirnov- statistic = D-    :    0.13
p-value of test                       :    0.66

Anderson-Darling statistic = A2       :    0.63
p-value of test                       :    0.62

Tests on the sum of all N observations
Standardized normal statistic         :   -0.59
p-value of test                       :    0.72

Sample variance                       :    1.28
p-value of test                       :    0.24

-----------------------------------------------
CPU time used                    :  00:01:29.39

Generator state:




***********************************************************
HOST = obelix.local.isima.fr, Linux

MersenneTwiter


sstring_AutoCor test:
-----------------------------------------------
   N = 10,  n = 1000000029,  r =  0,   s = 3,   d = 3


-----------------------------------------------

Kolmogorov-Smirnov+ statistic = D+    :    0.21
p-value of test                       :    0.38

Kolmogorov-Smirnov- statistic = D-    :    0.14
p-value of test                       :    0.62

Anderson-Darling statistic = A2       :    0.30
p-value of test                       :    0.94

Tests on the sum of all N observations
Standardized normal statistic         :   -0.13
p-value of test                       :    0.55

Sample variance                       :    0.96
p-value of test                       :    0.47

-----------------------------------------------
CPU time used                    :  00:01:16.45

Generator state:




***********************************************************
HOST = obelix.local.isima.fr, Linux

MersenneTwiter


sstring_AutoCor test:
-----------------------------------------------
   N = 10,  n = 1000000030,  r = 27,   s = 3,   d = 1


-----------------------------------------------

Kolmogorov-Smirnov+ statistic = D+    :    0.14
p-value of test                       :    0.63

Kolmogorov-Smirnov- statistic = D-    :    0.33
p-value of test                       :    0.09

Anderson-Darling statistic = A2       :    0.96
p-value of test                       :    0.38

Tests on the sum of all N observations
Standardized normal statistic         :    0.87
p-value of test                       :    0.19

Sample variance                       :    1.48
p-value of test                       :    0.15

-----------------------------------------------
CPU time used                    :  00:01:29.70

Generator state:




***********************************************************
HOST = obelix.local.isima.fr, Linux

MersenneTwiter


sstring_AutoCor test:
-----------------------------------------------
   N = 10,  n = 1000000029,  r = 27,   s = 3,   d = 3


-----------------------------------------------

Kolmogorov-Smirnov+ statistic = D+    :    0.28
p-value of test                       :    0.18

Kolmogorov-Smirnov- statistic = D-    :   0.017
p-value of test                       :    0.98

Anderson-Darling statistic = A2       :    1.33
p-value of test                       :    0.22

Tests on the sum of all N observations
Standardized normal statistic         :   -1.59
p-value of test                       :    0.94

Sample variance                       :    0.87
p-value of test                       :    0.56

-----------------------------------------------
CPU time used                    :  00:01:09.72

Generator state:





========= Summary results of BigCrush =========

 Version:          TestU01 1.2.3
 Generator:        MersenneTwiter
 Number of statistics:  160
 Total CPU time:   04:02:29.98
 The following tests gave p-values outside [0.001, 0.9990]:
 (eps  means a value < 1.0e-300):
 (eps1 means a value < 1.0e-15):

       Test                          p-value
 ----------------------------------------------
 80  LinearComp, r = 0              1 - eps1
 81  LinearComp, r = 29             1 - eps1
 ----------------------------------------------
 All other tests were passed



