xxxxxxxxxxxxxxxxxxxxxxxxxxxxxxxxxxxxxxxxxxxxxxxxxxxxxxxxxxx
                 Starting BigCrush
                 Version: TestU01 1.2.3
xxxxxxxxxxxxxxxxxxxxxxxxxxxxxxxxxxxxxxxxxxxxxxxxxxxxxxxxxxx


***********************************************************
Test smarsa_SerialOver calling smultin_MultinomialOver

***********************************************************
HOST = node40.local.isima.fr, Linux

MersenneTwiter


smultin_MultinomialOver test:
-----------------------------------------------
   N =  1,  n = 1000000000,  r =  0,   d =  256,   t =  3,
       Sparse =  FALSE

       GenerCell = smultin_GenerCellSerial
       Number of cells = d^t =           16777216
       Expected number per cell =   59.604645
       Hashing =  FALSE

   For Delta > -1, we use the ChiSquare approximation
   Correction factor of the ChiSquare: 
       Delta =     1,    Mu =   0.0083558402,    Sigma =          1

-----------------------------------------------
Test Results for Delta =   1.0000

Number of degrees of freedom          : 16711680
Value of the statistic                : 1.67e+7
p-value of test                       :    0.64


-----------------------------------------------
CPU time used                    :  00:01:49.10

Generator state:




***********************************************************
Test smarsa_SerialOver calling smultin_MultinomialOver

***********************************************************
HOST = node40.local.isima.fr, Linux

MersenneTwiter


smultin_MultinomialOver test:
-----------------------------------------------
   N =  1,  n = 1000000000,  r = 22,   d =  256,   t =  3,
       Sparse =  FALSE

       GenerCell = smultin_GenerCellSerial
       Number of cells = d^t =           16777216
       Expected number per cell =   59.604645
       Hashing =  FALSE

   For Delta > -1, we use the ChiSquare approximation
   Correction factor of the ChiSquare: 
       Delta =     1,    Mu =   0.0083558402,    Sigma =          1

-----------------------------------------------
Test Results for Delta =   1.0000

Number of degrees of freedom          : 16711680
Value of the statistic                : 1.67e+7
p-value of test                       :    0.57


-----------------------------------------------
CPU time used                    :  00:01:52.21

Generator state:




***********************************************************
Test smarsa_CollisionOver calling smultin_MultinomialOver

***********************************************************
HOST = node40.local.isima.fr, Linux

MersenneTwiter


smultin_MultinomialOver test:
-----------------------------------------------
   N = 30,  n = 20000000,  r =  0,   d = 2097152,   t =  2,
       Sparse =   TRUE

       GenerCell = smultin_GenerCellSerial
       Number of cells = d^t =      4398046511104
       Expected number per cell =  1 /  219902.33
       EColl = n^2 / (2k) =  45.47473509
       Hashing =   TRUE

       Collision test

       CollisionOver:   density = n / k =  1 /  219902.33
       Expected number of collisions = Mu =      45.47


-----------------------------------------------
Results of CollisionOver test:

POISSON approximation                 :
Expected number of collisions = N*Mu  :     1364.24
Observed number of collisions         :     1368
p-value of test                       :    0.46

-----------------------------
Total number of cells containing j balls

  j =  0                              :  131940795334488
  j =  1                              :        599997264
  j =  2                              :             1368
  j =  3                              :                0
  j =  4                              :                0
  j =  5                              :                0

-----------------------------------------------
CPU time used                    :  00:05:53.89

Generator state:




***********************************************************
Test smarsa_CollisionOver calling smultin_MultinomialOver

***********************************************************
HOST = node40.local.isima.fr, Linux

MersenneTwiter


smultin_MultinomialOver test:
-----------------------------------------------
   N = 30,  n = 20000000,  r =  9,   d = 2097152,   t =  2,
       Sparse =   TRUE

       GenerCell = smultin_GenerCellSerial
       Number of cells = d^t =      4398046511104
       Expected number per cell =  1 /  219902.33
       EColl = n^2 / (2k) =  45.47473509
       Hashing =   TRUE

       Collision test

       CollisionOver:   density = n / k =  1 /  219902.33
       Expected number of collisions = Mu =      45.47


-----------------------------------------------
Results of CollisionOver test:

POISSON approximation                 :
Expected number of collisions = N*Mu  :     1364.24
Observed number of collisions         :     1299
p-value of test                       :    0.96

-----------------------------
Total number of cells containing j balls

  j =  0                              :  131940795334419
  j =  1                              :        599997402
  j =  2                              :             1299
  j =  3                              :                0
  j =  4                              :                0
  j =  5                              :                0

-----------------------------------------------
CPU time used                    :  00:05:56.83

Generator state:




***********************************************************
Test smarsa_CollisionOver calling smultin_MultinomialOver

***********************************************************
HOST = node40.local.isima.fr, Linux

MersenneTwiter


smultin_MultinomialOver test:
-----------------------------------------------
   N = 30,  n = 20000000,  r =  0,   d = 16384,   t =  3,
       Sparse =   TRUE

       GenerCell = smultin_GenerCellSerial
       Number of cells = d^t =      4398046511104
       Expected number per cell =  1 /  219902.33
       EColl = n^2 / (2k) =  45.47473509
       Hashing =   TRUE

       Collision test

       CollisionOver:   density = n / k =  1 /  219902.33
       Expected number of collisions = Mu =      45.47


-----------------------------------------------
Results of CollisionOver test:

POISSON approximation                 :
Expected number of collisions = N*Mu  :     1364.24
Observed number of collisions         :     1369
p-value of test                       :    0.45

-----------------------------
Total number of cells containing j balls

  j =  0                              :  131940795334489
  j =  1                              :        599997262
  j =  2                              :             1369
  j =  3                              :                0
  j =  4                              :                0
  j =  5                              :                0

-----------------------------------------------
CPU time used                    :  00:08:34.92

Generator state:




***********************************************************
Test smarsa_CollisionOver calling smultin_MultinomialOver

***********************************************************
HOST = node40.local.isima.fr, Linux

MersenneTwiter


smultin_MultinomialOver test:
-----------------------------------------------
   N = 30,  n = 20000000,  r = 16,   d = 16384,   t =  3,
       Sparse =   TRUE

       GenerCell = smultin_GenerCellSerial
       Number of cells = d^t =      4398046511104
       Expected number per cell =  1 /  219902.33
       EColl = n^2 / (2k) =  45.47473509
       Hashing =   TRUE

       Collision test

       CollisionOver:   density = n / k =  1 /  219902.33
       Expected number of collisions = Mu =      45.47


-----------------------------------------------
Results of CollisionOver test:

POISSON approximation                 :
Expected number of collisions = N*Mu  :     1364.24
Observed number of collisions         :     1385
p-value of test                       :    0.29

-----------------------------
Total number of cells containing j balls

  j =  0                              :  131940795334505
  j =  1                              :        599997230
  j =  2                              :             1385
  j =  3                              :                0
  j =  4                              :                0
  j =  5                              :                0

-----------------------------------------------
CPU time used                    :  00:08:35.25

Generator state:




***********************************************************
Test smarsa_CollisionOver calling smultin_MultinomialOver

***********************************************************
HOST = node40.local.isima.fr, Linux

MersenneTwiter


smultin_MultinomialOver test:
-----------------------------------------------
   N = 30,  n = 20000000,  r =  0,   d =   64,   t =  7,
       Sparse =   TRUE

       GenerCell = smultin_GenerCellSerial
       Number of cells = d^t =      4398046511104
       Expected number per cell =  1 /  219902.33
       EColl = n^2 / (2k) =  45.47473509
       Hashing =   TRUE

       Collision test

       CollisionOver:   density = n / k =  1 /  219902.33
       Expected number of collisions = Mu =      45.47


-----------------------------------------------
Results of CollisionOver test:

POISSON approximation                 :
Expected number of collisions = N*Mu  :     1364.24
Observed number of collisions         :     1395
p-value of test                       :    0.21

-----------------------------
Total number of cells containing j balls

  j =  0                              :  131940795334515
  j =  1                              :        599997210
  j =  2                              :             1395
  j =  3                              :                0
  j =  4                              :                0
  j =  5                              :                0

-----------------------------------------------
CPU time used                    :  00:08:41.23

Generator state:




***********************************************************
Test smarsa_CollisionOver calling smultin_MultinomialOver

***********************************************************
HOST = node40.local.isima.fr, Linux

MersenneTwiter


smultin_MultinomialOver test:
-----------------------------------------------
   N = 30,  n = 20000000,  r = 24,   d =   64,   t =  7,
       Sparse =   TRUE

       GenerCell = smultin_GenerCellSerial
       Number of cells = d^t =      4398046511104
       Expected number per cell =  1 /  219902.33
       EColl = n^2 / (2k) =  45.47473509
       Hashing =   TRUE

       Collision test

       CollisionOver:   density = n / k =  1 /  219902.33
       Expected number of collisions = Mu =      45.47


-----------------------------------------------
Results of CollisionOver test:

POISSON approximation                 :
Expected number of collisions = N*Mu  :     1364.24
Observed number of collisions         :     1377
p-value of test                       :    0.37

-----------------------------
Total number of cells containing j balls

  j =  0                              :  131940795334497
  j =  1                              :        599997246
  j =  2                              :             1377
  j =  3                              :                0
  j =  4                              :                0
  j =  5                              :                0

-----------------------------------------------
CPU time used                    :  00:08:42.36

Generator state:




***********************************************************
Test smarsa_CollisionOver calling smultin_MultinomialOver

***********************************************************
HOST = node40.local.isima.fr, Linux

MersenneTwiter


smultin_MultinomialOver test:
-----------------------------------------------
   N = 30,  n = 20000000,  r =  0,   d =    8,   t = 14,
       Sparse =   TRUE

       GenerCell = smultin_GenerCellSerial
       Number of cells = d^t =      4398046511104
       Expected number per cell =  1 /  219902.33
       EColl = n^2 / (2k) =  45.47473509
       Hashing =   TRUE

       Collision test

       CollisionOver:   density = n / k =  1 /  219902.33
       Expected number of collisions = Mu =      45.47


-----------------------------------------------
Results of CollisionOver test:

POISSON approximation                 :
Expected number of collisions = N*Mu  :     1364.24
Observed number of collisions         :     1404
p-value of test                       :    0.14

-----------------------------
Total number of cells containing j balls

  j =  0                              :  131940795334524
  j =  1                              :        599997192
  j =  2                              :             1404
  j =  3                              :                0
  j =  4                              :                0
  j =  5                              :                0

-----------------------------------------------
CPU time used                    :  00:08:44.94

Generator state:




***********************************************************
Test smarsa_CollisionOver calling smultin_MultinomialOver

***********************************************************
HOST = node40.local.isima.fr, Linux

MersenneTwiter


smultin_MultinomialOver test:
-----------------------------------------------
   N = 30,  n = 20000000,  r = 27,   d =    8,   t = 14,
       Sparse =   TRUE

       GenerCell = smultin_GenerCellSerial
       Number of cells = d^t =      4398046511104
       Expected number per cell =  1 /  219902.33
       EColl = n^2 / (2k) =  45.47473509
       Hashing =   TRUE

       Collision test

       CollisionOver:   density = n / k =  1 /  219902.33
       Expected number of collisions = Mu =      45.47


-----------------------------------------------
Results of CollisionOver test:

POISSON approximation                 :
Expected number of collisions = N*Mu  :     1364.24
Observed number of collisions         :     1359
p-value of test                       :    0.55

-----------------------------
Total number of cells containing j balls

  j =  0                              :  131940795334479
  j =  1                              :        599997282
  j =  2                              :             1359
  j =  3                              :                0
  j =  4                              :                0
  j =  5                              :                0

-----------------------------------------------
CPU time used                    :  00:08:45.65

Generator state:




***********************************************************
Test smarsa_CollisionOver calling smultin_MultinomialOver

***********************************************************
HOST = node40.local.isima.fr, Linux

MersenneTwiter


smultin_MultinomialOver test:
-----------------------------------------------
   N = 30,  n = 20000000,  r =  0,   d =    4,   t = 21,
       Sparse =   TRUE

       GenerCell = smultin_GenerCellSerial
       Number of cells = d^t =      4398046511104
       Expected number per cell =  1 /  219902.33
       EColl = n^2 / (2k) =  45.47473509
       Hashing =   TRUE

       Collision test

       CollisionOver:   density = n / k =  1 /  219902.33
       Expected number of collisions = Mu =      45.47


-----------------------------------------------
Results of CollisionOver test:

POISSON approximation                 :
Expected number of collisions = N*Mu  :     1364.24
Observed number of collisions         :     1323
p-value of test                       :    0.87

-----------------------------
Total number of cells containing j balls

  j =  0                              :  131940795334443
  j =  1                              :        599997354
  j =  2                              :             1323
  j =  3                              :                0
  j =  4                              :                0
  j =  5                              :                0

-----------------------------------------------
CPU time used                    :  00:08:42.93

Generator state:




***********************************************************
Test smarsa_CollisionOver calling smultin_MultinomialOver

***********************************************************
HOST = node40.local.isima.fr, Linux

MersenneTwiter


smultin_MultinomialOver test:
-----------------------------------------------
   N = 30,  n = 20000000,  r = 28,   d =    4,   t = 21,
       Sparse =   TRUE

       GenerCell = smultin_GenerCellSerial
       Number of cells = d^t =      4398046511104
       Expected number per cell =  1 /  219902.33
       EColl = n^2 / (2k) =  45.47473509
       Hashing =   TRUE

       Collision test

       CollisionOver:   density = n / k =  1 /  219902.33
       Expected number of collisions = Mu =      45.47


-----------------------------------------------
Results of CollisionOver test:

POISSON approximation                 :
Expected number of collisions = N*Mu  :     1364.24
Observed number of collisions         :     1318
p-value of test                       :    0.89

-----------------------------
Total number of cells containing j balls

  j =  0                              :  131940795334438
  j =  1                              :        599997364
  j =  2                              :             1318
  j =  3                              :                0
  j =  4                              :                0
  j =  5                              :                0

-----------------------------------------------
CPU time used                    :  00:08:42.77

Generator state:




***********************************************************
HOST = node40.local.isima.fr, Linux

MersenneTwiter


smarsa_BirthdaySpacings test:
-----------------------------------------------
   N = 100,  n = 10000000,  r =  0,    d = 2147483648,    t = 2,    p = 1


      Number of cells = d^t = 4611686018427387904
      Lambda = Poisson mean =      54.2101


----------------------------------------------------
Total expected number = N*Lambda      :    5421.01
Total observed number                 :    5247
p-value of test                       :    0.9910


-----------------------------------------------
CPU time used                    :  00:04:33.68

Generator state:




***********************************************************
HOST = node40.local.isima.fr, Linux

MersenneTwiter


smarsa_BirthdaySpacings test:
-----------------------------------------------
   N = 20,  n = 20000000,  r =  0,    d = 2097152,    t = 3,    p = 1


      Number of cells = d^t = 9223372036854775808
      Lambda = Poisson mean =     216.8404


----------------------------------------------------
Total expected number = N*Lambda      :    4336.81
Total observed number                 :    4321
p-value of test                       :    0.59


-----------------------------------------------
CPU time used                    :  00:01:58.35

Generator state:




***********************************************************
HOST = node40.local.isima.fr, Linux

MersenneTwiter


smarsa_BirthdaySpacings test:
-----------------------------------------------
   N = 20,  n = 30000000,  r = 14,    d = 65536,    t = 4,    p = 1


      Number of cells = d^t = 18446744073709551616
      Lambda = Poisson mean =     365.9182


----------------------------------------------------
Total expected number = N*Lambda      :    7318.36
Total observed number                 :    7063
p-value of test                       :    0.9986


-----------------------------------------------
CPU time used                    :  00:03:17.75

Generator state:




***********************************************************
HOST = node40.local.isima.fr, Linux

MersenneTwiter


smarsa_BirthdaySpacings test:
-----------------------------------------------
   N = 20,  n = 20000000,  r =  0,    d = 512,    t = 7,    p = 1


      Number of cells = d^t = 9223372036854775808
      Lambda = Poisson mean =     216.8404


----------------------------------------------------
Total expected number = N*Lambda      :    4336.81
Total observed number                 :    4295
p-value of test                       :    0.73


-----------------------------------------------
CPU time used                    :  00:02:17.40

Generator state:




***********************************************************
HOST = node40.local.isima.fr, Linux

MersenneTwiter


smarsa_BirthdaySpacings test:
-----------------------------------------------
   N = 20,  n = 20000000,  r =  7,    d = 512,    t = 7,    p = 1


      Number of cells = d^t = 9223372036854775808
      Lambda = Poisson mean =     216.8404


----------------------------------------------------
Total expected number = N*Lambda      :    4336.81
Total observed number                 :    4462
p-value of test                       :    0.03


-----------------------------------------------
CPU time used                    :  00:02:28.07

Generator state:




***********************************************************
HOST = node40.local.isima.fr, Linux

MersenneTwiter


smarsa_BirthdaySpacings test:
-----------------------------------------------
   N = 20,  n = 30000000,  r = 14,    d = 256,    t = 8,    p = 1


      Number of cells = d^t = 18446744073709551616
      Lambda = Poisson mean =     365.9182


----------------------------------------------------
Total expected number = N*Lambda      :    7318.36
Total observed number                 :    7302
p-value of test                       :    0.57


-----------------------------------------------
CPU time used                    :  00:03:55.60

Generator state:




***********************************************************
HOST = node40.local.isima.fr, Linux

MersenneTwiter


smarsa_BirthdaySpacings test:
-----------------------------------------------
   N = 20,  n = 30000000,  r = 22,    d = 256,    t = 8,    p = 1


      Number of cells = d^t = 18446744073709551616
      Lambda = Poisson mean =     365.9182


----------------------------------------------------
Total expected number = N*Lambda      :    7318.36
Total observed number                 :    7350
p-value of test                       :    0.36


-----------------------------------------------
CPU time used                    :  00:03:53.22

Generator state:




***********************************************************
HOST = node40.local.isima.fr, Linux

MersenneTwiter


smarsa_BirthdaySpacings test:
-----------------------------------------------
   N = 20,  n = 30000000,  r =  0,    d = 16,    t = 16,    p = 1


      Number of cells = d^t = 18446744073709551616
      Lambda = Poisson mean =     365.9182


----------------------------------------------------
Total expected number = N*Lambda      :    7318.36
Total observed number                 :    7308
p-value of test                       :    0.55


-----------------------------------------------
CPU time used                    :  00:04:43.28

Generator state:




***********************************************************
HOST = node40.local.isima.fr, Linux

MersenneTwiter


smarsa_BirthdaySpacings test:
-----------------------------------------------
   N = 20,  n = 30000000,  r = 26,    d = 16,    t = 16,    p = 1


      Number of cells = d^t = 18446744073709551616
      Lambda = Poisson mean =     365.9182


----------------------------------------------------
Total expected number = N*Lambda      :    7318.36
Total observed number                 :    7285
p-value of test                       :    0.65


-----------------------------------------------
CPU time used                    :  00:05:11.31

Generator state:




***********************************************************
HOST = node40.local.isima.fr, Linux

MersenneTwiter


snpair_ClosePairs test:
-----------------------------------------------
   N = 30,  n = 6000000,  r =  0,  t = 3,  p = 0,  m = 30,  Torus =  TRUE


---------------------------------------
Test based on the 2 nearest points (NP):

Stat. AD on the N values (NP)         :    0.32
p-value of test                       :    0.93


A2 test based on the spacings between the
   successive jump times of process Y_n(t):

A2 test on the values of A2 (m-NP)    :    0.45
p-value of test                       :    0.80

Test on the Nm values of W_{n,i}(mNP1):    0.32
p-value of test                       :    0.92

Test on the jump times of Y
   (superposition of Yn):

Expected number of jumps of Y = mN    :     900
Number of jumps of Y                  :     895
p-value of test                       :    0.56

Stat. AD (mNP2)                       :    0.39
p-value of test                       :    0.86

Stat. AD after spacings (mNP2-S)      :    1.55
p-value of test                       :    0.16

-----------------------------------------------
CPU time used                    :  00:03:21.35

Generator state:




***********************************************************
HOST = node40.local.isima.fr, Linux

MersenneTwiter


snpair_ClosePairs test:
-----------------------------------------------
   N = 20,  n = 4000000,  r =  0,  t = 5,  p = 0,  m = 30,  Torus =  TRUE


---------------------------------------
Test based on the 2 nearest points (NP):

Stat. AD on the N values (NP)         :    0.34
p-value of test                       :    0.90


A2 test based on the spacings between the
   successive jump times of process Y_n(t):

A2 test on the values of A2 (m-NP)    :    0.24
p-value of test                       :    0.98

Test on the Nm values of W_{n,i}(mNP1):    0.49
p-value of test                       :    0.76

Test on the jump times of Y
   (superposition of Yn):

Expected number of jumps of Y = mN    :     600
Number of jumps of Y                  :     612
p-value of test                       :    0.32

Stat. AD (mNP2)                       :    1.34
p-value of test                       :    0.22

Stat. AD after spacings (mNP2-S)      :    0.37
p-value of test                       :    0.88

-----------------------------------------------
CPU time used                    :  00:01:57.19

Generator state:




***********************************************************
HOST = node40.local.isima.fr, Linux

MersenneTwiter


snpair_ClosePairs test:
-----------------------------------------------
   N = 10,  n = 3000000,  r =  0,  t = 9,  p = 0,  m = 30,  Torus =  TRUE


---------------------------------------
Test based on the 2 nearest points (NP):

Stat. AD on the N values (NP)         :    1.43
p-value of test                       :    0.19


A2 test based on the spacings between the
   successive jump times of process Y_n(t):

A2 test on the values of A2 (m-NP)    :    0.36
p-value of test                       :    0.88

Test on the Nm values of W_{n,i}(mNP1):    0.52
p-value of test                       :    0.73

Test on the jump times of Y
   (superposition of Yn):

Expected number of jumps of Y = mN    :     300
Number of jumps of Y                  :     292
p-value of test                       :    0.66

Stat. AD (mNP2)                       :    0.86
p-value of test                       :    0.44

Stat. AD after spacings (mNP2-S)      :    0.57
p-value of test                       :    0.68

-----------------------------------------------
CPU time used                    :  00:03:09.31

Generator state:




***********************************************************
HOST = node40.local.isima.fr, Linux

MersenneTwiter


snpair_ClosePairs test:
-----------------------------------------------
   N =  5,  n = 2000000,  r =  0,  t = 16,  p = 0,  m = 30,  Torus =  TRUE


---------------------------------------
Test based on the 2 nearest points (NP):

Stat. AD on the N values (NP)         :    0.22
p-value of test                       :    0.98


A2 test based on the spacings between the
   successive jump times of process Y_n(t):

A2 test on the values of A2 (m-NP)    :    1.62
p-value of test                       :    0.15

Test on the Nm values of W_{n,i}(mNP1):    0.46
p-value of test                       :    0.79

Test on the jump times of Y
   (superposition of Yn):

Expected number of jumps of Y = mN    :     150
Number of jumps of Y                  :     149
p-value of test                       :    0.51

Stat. AD (mNP2)                       :    1.56
p-value of test                       :    0.16

Stat. AD after spacings (mNP2-S)      :    0.30
p-value of test                       :    0.94

-----------------------------------------------
CPU time used                    :  00:03:29.06

Generator state:




***********************************************************
HOST = node40.local.isima.fr, Linux

MersenneTwiter


sknuth_SimpPoker test:
-----------------------------------------------
   N =  1,  n = 400000000,  r =  0,   d =    8,   k =    8


-----------------------------------------------
Number of degrees of freedom          :    7
Chi-square statistic                  :   10.34
p-value of test                       :    0.17

-----------------------------------------------
CPU time used                    :  00:01:00.94

Generator state:




***********************************************************
HOST = node40.local.isima.fr, Linux

MersenneTwiter


sknuth_SimpPoker test:
-----------------------------------------------
   N =  1,  n = 400000000,  r = 27,   d =    8,   k =    8


-----------------------------------------------
Number of degrees of freedom          :    7
Chi-square statistic                  :    3.75
p-value of test                       :    0.81

-----------------------------------------------
CPU time used                    :  00:01:15.31

Generator state:




***********************************************************
HOST = node40.local.isima.fr, Linux

MersenneTwiter


sknuth_SimpPoker test:
-----------------------------------------------
   N =  1,  n = 100000000,  r =  0,   d =   32,   k =   32


-----------------------------------------------
Number of degrees of freedom          :   18
Chi-square statistic                  :   21.23
p-value of test                       :    0.27

-----------------------------------------------
CPU time used                    :  00:01:03.31

Generator state:




***********************************************************
HOST = node40.local.isima.fr, Linux

MersenneTwiter


sknuth_SimpPoker test:
-----------------------------------------------
   N =  1,  n = 100000000,  r = 25,   d =   32,   k =   32


-----------------------------------------------
Number of degrees of freedom          :   18
Chi-square statistic                  :   35.00
p-value of test                       :  9.5e-3

-----------------------------------------------
CPU time used                    :  00:01:18.60

Generator state:




***********************************************************
HOST = node40.local.isima.fr, Linux

MersenneTwiter


sknuth_CouponCollector test:
-----------------------------------------------
   N =  1,  n = 200000000,  r =  0,   d =    8


-----------------------------------------------
Number of degrees of freedom          :   54
Chi-square statistic                  :   44.83
p-value of test                       :    0.81

-----------------------------------------------
CPU time used                    :  00:01:17.50

Generator state:




***********************************************************
HOST = node40.local.isima.fr, Linux

MersenneTwiter


sknuth_CouponCollector test:
-----------------------------------------------
   N =  1,  n = 200000000,  r = 10,   d =    8


-----------------------------------------------
Number of degrees of freedom          :   54
Chi-square statistic                  :   55.16
p-value of test                       :    0.43

-----------------------------------------------
CPU time used                    :  00:01:36.01

Generator state:




***********************************************************
HOST = node40.local.isima.fr, Linux

MersenneTwiter


sknuth_CouponCollector test:
-----------------------------------------------
   N =  1,  n = 200000000,  r = 20,   d =    8


-----------------------------------------------
Number of degrees of freedom          :   54
Chi-square statistic                  :   46.55
p-value of test                       :    0.75

-----------------------------------------------
CPU time used                    :  00:01:35.98

Generator state:




***********************************************************
HOST = node40.local.isima.fr, Linux

MersenneTwiter


sknuth_CouponCollector test:
-----------------------------------------------
   N =  1,  n = 200000000,  r = 27,   d =    8


-----------------------------------------------
Number of degrees of freedom          :   54
Chi-square statistic                  :   41.20
p-value of test                       :    0.90

-----------------------------------------------
CPU time used                    :  00:01:37.69

Generator state:




***********************************************************
HOST = node40.local.isima.fr, Linux

MersenneTwiter


sknuth_Gap test:
-----------------------------------------------
   N =  1,  n = 500000000,  r =  0,   Alpha =        0,   Beta  =   0.0625


-----------------------------------------------
Number of degrees of freedom          :  232
Chi-square statistic                  :  201.88
p-value of test                       :    0.92

-----------------------------------------------
CPU time used                    :  00:01:32.54

Generator state:




***********************************************************
HOST = node40.local.isima.fr, Linux

MersenneTwiter


sknuth_Gap test:
-----------------------------------------------
   N =  1,  n = 300000000,  r = 25,   Alpha =        0,   Beta  =  0.03125


-----------------------------------------------
Number of degrees of freedom          :  434
Chi-square statistic                  :  433.59
p-value of test                       :    0.50

-----------------------------------------------
CPU time used                    :  00:02:26.54

Generator state:




***********************************************************
HOST = node40.local.isima.fr, Linux

MersenneTwiter


sknuth_Gap test:
-----------------------------------------------
   N =  1,  n = 100000000,  r =  0,   Alpha =        0,   Beta  = 0.0078125


-----------------------------------------------
Number of degrees of freedom          : 1437
Chi-square statistic                  : 1461.32
p-value of test                       :    0.32

-----------------------------------------------
CPU time used                    :  00:02:15.67

Generator state:




***********************************************************
HOST = node40.local.isima.fr, Linux

MersenneTwiter


sknuth_Gap test:
-----------------------------------------------
   N =  1,  n = 10000000,  r = 20,   Alpha =        0,   Beta  = 0.000976562


-----------------------------------------------
Number of degrees of freedom          : 7046
Chi-square statistic                  : 7214.95
p-value of test                       :    0.08

-----------------------------------------------
CPU time used                    :  00:02:28.23

Generator state:




***********************************************************
HOST = node40.local.isima.fr, Linux

MersenneTwiter


sknuth_Run test:
-----------------------------------------------
   N =  5,  n = 1000000000,  r =  0,   Up = FALSE


-----------------------------------------------

Kolmogorov-Smirnov+ statistic = D+    :    0.54
p-value of test                       :    0.04

Kolmogorov-Smirnov- statistic = D-    :   0.051
p-value of test                       :    0.94

Anderson-Darling statistic = A2       :    1.65
p-value of test                       :    0.15

Test on the sum of all N observations
Number of degrees of freedom          :   30
Chi-square statistic                  :   18.02
p-value of test                       :    0.96

-----------------------------------------------
CPU time used                    :  00:01:23.61

Generator state:




***********************************************************
HOST = node40.local.isima.fr, Linux

MersenneTwiter


sknuth_Run test:
-----------------------------------------------
   N = 10,  n = 1000000000,  r = 15,   Up =  TRUE


-----------------------------------------------

Kolmogorov-Smirnov+ statistic = D+    : 2.99e-6
p-value of test                       : 1 -  3.0e-6    *****

Kolmogorov-Smirnov- statistic = D-    :    0.48
p-value of test                       :  5.5e-3

Anderson-Darling statistic = A2       :    3.55
p-value of test                       :    0.02

Test on the sum of all N observations
Number of degrees of freedom          :   60
Chi-square statistic                  :  103.05
p-value of test                       :  4.6e-4    *****

-----------------------------------------------
CPU time used                    :  00:03:29.71

Generator state:




***********************************************************
Test sknuth_Permutation calling smultin_Multinomial

***********************************************************
HOST = node40.local.isima.fr, Linux

MersenneTwiter


smultin_Multinomial test:
-----------------------------------------------
   N =  1,  n = 1000000000,  r =  5,   t =  3,
       Sparse =  FALSE

       GenerCell = smultin_GenerCellPermut
       Number of cells = t! =                  6
       Expected number per cell =  1.6666667e+08
       Hashing =  FALSE

   For Delta > -1, we use the ChiSquare approximation
   Correction factor of the ChiSquare: 
       Delta =     1,    Mu =  2.5000002e-09,    Sigma =          1

-----------------------------------------------
Test Results for Delta =   1.0000

Number of degrees of freedom          :    5
Value of the statistic                :    2.42
p-value of test                       :    0.79


-----------------------------------------------
CPU time used                    :  00:01:08.77

Generator state:




***********************************************************
Test sknuth_Permutation calling smultin_Multinomial

***********************************************************
HOST = node40.local.isima.fr, Linux

MersenneTwiter


smultin_Multinomial test:
-----------------------------------------------
   N =  1,  n = 1000000000,  r =  5,   t =  5,
       Sparse =  FALSE

       GenerCell = smultin_GenerCellPermut
       Number of cells = t! =                120
       Expected number per cell =   8333333.3
       Hashing =  FALSE

   For Delta > -1, we use the ChiSquare approximation
   Correction factor of the ChiSquare: 
       Delta =     1,    Mu =  5.9500005e-08,    Sigma =          1

-----------------------------------------------
Test Results for Delta =   1.0000

Number of degrees of freedom          :  119
Value of the statistic                :   96.81
p-value of test                       :    0.93


-----------------------------------------------
CPU time used                    :  00:02:03.35

Generator state:




***********************************************************
Test sknuth_Permutation calling smultin_Multinomial

***********************************************************
HOST = node40.local.isima.fr, Linux

MersenneTwiter


smultin_Multinomial test:
-----------------------------------------------
   N =  1,  n = 500000000,  r =  5,   t =  7,
       Sparse =  FALSE

       GenerCell = smultin_GenerCellPermut
       Number of cells = t! =               5040
       Expected number per cell =   99206.349
       Hashing =  FALSE

   For Delta > -1, we use the ChiSquare approximation
   Correction factor of the ChiSquare: 
       Delta =     1,    Mu =  5.0390004e-06,    Sigma =          1

-----------------------------------------------
Test Results for Delta =   1.0000

Number of degrees of freedom          : 5039
Value of the statistic                : 5069.88
p-value of test                       :    0.38


-----------------------------------------------
CPU time used                    :  00:01:35.47

Generator state:




***********************************************************
Test sknuth_Permutation calling smultin_Multinomial

***********************************************************
HOST = node40.local.isima.fr, Linux

MersenneTwiter


smultin_Multinomial test:
-----------------------------------------------
   N =  1,  n = 500000000,  r = 10,   t = 10,
       Sparse =  FALSE

       GenerCell = smultin_GenerCellPermut
       Number of cells = t! =            3628800
       Expected number per cell =    137.7866
       Hashing =  FALSE

   For Delta > -1, we use the ChiSquare approximation
   Correction factor of the ChiSquare: 
       Delta =     1,    Mu =   0.0036287993,    Sigma =          1

-----------------------------------------------
Test Results for Delta =   1.0000

Number of degrees of freedom          : 3628799
Value of the statistic                : 3.63e+6
p-value of test                       :    0.06


-----------------------------------------------
CPU time used                    :  00:03:54.05

Generator state:




***********************************************************
Test sknuth_CollisionPermut calling smultin_Multinomial

***********************************************************
HOST = node40.local.isima.fr, Linux

MersenneTwiter


smultin_Multinomial test:
-----------------------------------------------
   N = 20,  n = 20000000,  r =  0,   t = 14,
       Sparse =   TRUE

       GenerCell = smultin_GenerCellPermut
       Number of cells = t! =        87178291200
       Expected number per cell =  1 /  4358.9146
       EColl = n^2 / (2k) =   2294.14912
       Hashing =   TRUE

       Collision test,    Mu =      2293.9736,    Sigma =    47.8841

-----------------------------------------------
Test Results for Collisions

For the total number of collisions, we use
      the Poisson approximation:
Expected number of collisions = N*Mu  :    45879.47
Observed number of collisions         :    45900
p-value of test                       :    0.46


-----------------------------
Total number of cells containing j balls

  j =  0                              :    1743165869900
  j =  1                              :        399908204
  j =  2                              :            45892
  j =  3                              :                4
  j =  4                              :                0
  j =  5                              :                0

-----------------------------------------------
CPU time used                    :  00:05:44.07

Generator state:




***********************************************************
Test sknuth_CollisionPermut calling smultin_Multinomial

***********************************************************
HOST = node40.local.isima.fr, Linux

MersenneTwiter


smultin_Multinomial test:
-----------------------------------------------
   N = 20,  n = 20000000,  r = 10,   t = 14,
       Sparse =   TRUE

       GenerCell = smultin_GenerCellPermut
       Number of cells = t! =        87178291200
       Expected number per cell =  1 /  4358.9146
       EColl = n^2 / (2k) =   2294.14912
       Hashing =   TRUE

       Collision test,    Mu =      2293.9736,    Sigma =    47.8841

-----------------------------------------------
Test Results for Collisions

For the total number of collisions, we use
      the Poisson approximation:
Expected number of collisions = N*Mu  :    45879.47
Observed number of collisions         :    45670
p-value of test                       :    0.84


-----------------------------
Total number of cells containing j balls

  j =  0                              :    1743165869670
  j =  1                              :        399908663
  j =  2                              :            45664
  j =  3                              :                3
  j =  4                              :                0
  j =  5                              :                0

-----------------------------------------------
CPU time used                    :  00:06:08.73

Generator state:




***********************************************************
HOST = node40.local.isima.fr, Linux

MersenneTwiter


sknuth_MaxOft test:
-----------------------------------------------
   N = 40,  n = 10000000,  r =  0,   d = 100000,   t =  8

      Number of categories = 100000
      Expected number per category  = 100.00


-----------------------------------------------
Test results for chi2 with 99999 degrees of freedom:

Kolmogorov-Smirnov+ statistic = D+    :   0.089
p-value of test                       :    0.50

Kolmogorov-Smirnov- statistic = D-    :    0.13
p-value of test                       :    0.25

Anderson-Darling statistic = A2       :    0.69
p-value of test                       :    0.57

Test on the sum of all N observations
Number of degrees of freedom          : 3999960
Chi-square statistic                  : 4.00e+6
p-value of test                       :    0.37


-----------------------------------------------
Test results for Anderson-Darling:

Kolmogorov-Smirnov+ statistic = D+    :    0.10
p-value of test                       :    0.40

Kolmogorov-Smirnov- statistic = D-    :    0.13
p-value of test                       :    0.23

Anderson-Darling statistic = A2       :    0.79
p-value of test                       :    0.49


-----------------------------------------------
CPU time used                    :  00:02:09.97

Generator state:




***********************************************************
HOST = node40.local.isima.fr, Linux

MersenneTwiter


sknuth_MaxOft test:
-----------------------------------------------
   N = 30,  n = 10000000,  r =  0,   d = 100000,   t = 16

      Number of categories = 100000
      Expected number per category  = 100.00


-----------------------------------------------
Test results for chi2 with 99999 degrees of freedom:

Kolmogorov-Smirnov+ statistic = D+    :   0.024
p-value of test                       :    0.95

Kolmogorov-Smirnov- statistic = D-    :    0.16
p-value of test                       :    0.20

Anderson-Darling statistic = A2       :    1.17
p-value of test                       :    0.28

Test on the sum of all N observations
Number of degrees of freedom          : 2999970
Chi-square statistic                  : 3.00e+6
p-value of test                       :    0.06


-----------------------------------------------
Test results for Anderson-Darling:

Kolmogorov-Smirnov+ statistic = D+    :    0.18
p-value of test                       :    0.14

Kolmogorov-Smirnov- statistic = D-    :    0.17
p-value of test                       :    0.15

Anderson-Darling statistic = A2       :    1.73
p-value of test                       :    0.13


-----------------------------------------------
CPU time used                    :  00:02:02.53

Generator state:




***********************************************************
HOST = node40.local.isima.fr, Linux

MersenneTwiter


sknuth_MaxOft test:
-----------------------------------------------
   N = 20,  n = 10000000,  r =  0,   d = 100000,   t = 24

      Number of categories = 100000
      Expected number per category  = 100.00


-----------------------------------------------
Test results for chi2 with 99999 degrees of freedom:

Kolmogorov-Smirnov+ statistic = D+    :    0.17
p-value of test                       :    0.29

Kolmogorov-Smirnov- statistic = D-    :    0.11
p-value of test                       :    0.57

Anderson-Darling statistic = A2       :    1.09
p-value of test                       :    0.31

Test on the sum of all N observations
Number of degrees of freedom          : 1999980
Chi-square statistic                  : 2.00e+6
p-value of test                       :    0.88


-----------------------------------------------
Test results for Anderson-Darling:

Kolmogorov-Smirnov+ statistic = D+    :    0.12
p-value of test                       :    0.54

Kolmogorov-Smirnov- statistic = D-    :    0.17
p-value of test                       :    0.29

Anderson-Darling statistic = A2       :    0.50
p-value of test                       :    0.75


-----------------------------------------------
CPU time used                    :  00:01:37.43

Generator state:




***********************************************************
HOST = node40.local.isima.fr, Linux

MersenneTwiter


sknuth_MaxOft test:
-----------------------------------------------
   N = 20,  n = 10000000,  r =  0,   d = 100000,   t = 32

      Number of categories = 100000
      Expected number per category  = 100.00


-----------------------------------------------
Test results for chi2 with 99999 degrees of freedom:

Kolmogorov-Smirnov+ statistic = D+    :    0.11
p-value of test                       :    0.56

Kolmogorov-Smirnov- statistic = D-    :    0.12
p-value of test                       :    0.51

Anderson-Darling statistic = A2       :    0.42
p-value of test                       :    0.83

Test on the sum of all N observations
Number of degrees of freedom          : 1999980
Chi-square statistic                  : 2.00e+6
p-value of test                       :    0.57


-----------------------------------------------
Test results for Anderson-Darling:

Kolmogorov-Smirnov+ statistic = D+    :   0.067
p-value of test                       :    0.80

Kolmogorov-Smirnov- statistic = D-    :    0.14
p-value of test                       :    0.42

Anderson-Darling statistic = A2       :    0.60
p-value of test                       :    0.65


-----------------------------------------------
CPU time used                    :  00:01:54.65

Generator state:




***********************************************************
HOST = node40.local.isima.fr, Linux

MersenneTwiter


svaria_SampleProd test:
-----------------------------------------------
   N = 40,  n = 10000000,  r =  0,   t = 8


-----------------------------------------------

Kolmogorov-Smirnov+ statistic = D+    :    0.11
p-value of test                       :    0.37

Kolmogorov-Smirnov- statistic = D-    :    0.12
p-value of test                       :    0.31

Anderson-Darling statistic = A2       :    0.80
p-value of test                       :    0.48

-----------------------------------------------
CPU time used                    :  00:01:49.84

Generator state:




***********************************************************
HOST = node40.local.isima.fr, Linux

MersenneTwiter


svaria_SampleProd test:
-----------------------------------------------
   N = 20,  n = 10000000,  r =  0,   t = 16


-----------------------------------------------

Kolmogorov-Smirnov+ statistic = D+    :   0.062
p-value of test                       :    0.83

Kolmogorov-Smirnov- statistic = D-    :    0.20
p-value of test                       :    0.17

Anderson-Darling statistic = A2       :    0.83
p-value of test                       :    0.46

-----------------------------------------------
CPU time used                    :  00:01:16.85

Generator state:




***********************************************************
HOST = node40.local.isima.fr, Linux

MersenneTwiter


svaria_SampleProd test:
-----------------------------------------------
   N = 20,  n = 10000000,  r =  0,   t = 24


-----------------------------------------------

Kolmogorov-Smirnov+ statistic = D+    :    0.11
p-value of test                       :    0.55

Kolmogorov-Smirnov- statistic = D-    :    0.22
p-value of test                       :    0.12

Anderson-Darling statistic = A2       :    1.05
p-value of test                       :    0.33

-----------------------------------------------
CPU time used                    :  00:01:35.11

Generator state:




***********************************************************
HOST = node40.local.isima.fr, Linux

MersenneTwiter


svaria_SampleMean test:
-----------------------------------------------
   N = 20000000,  n = 30,  r =  0


-----------------------------------------------

Kolmogorov-Smirnov+ statistic = D+    : 1.03e-4
p-value of test                       :    0.65

Kolmogorov-Smirnov- statistic = D-    : 9.29e-5
p-value of test                       :    0.71

Anderson-Darling statistic = A2       :    0.35
p-value of test                       :    0.89

-----------------------------------------------
CPU time used                    :  00:00:17.75

Generator state:




***********************************************************
HOST = node40.local.isima.fr, Linux

MersenneTwiter


svaria_SampleMean test:
-----------------------------------------------
   N = 20000000,  n = 30,  r = 10


-----------------------------------------------

Kolmogorov-Smirnov+ statistic = D+    : 4.08e-5
p-value of test                       :    0.94

Kolmogorov-Smirnov- statistic = D-    : 2.46e-4
p-value of test                       :    0.09

Anderson-Darling statistic = A2       :    1.19
p-value of test                       :    0.27

-----------------------------------------------
CPU time used                    :  00:00:20.98

Generator state:




***********************************************************
HOST = node40.local.isima.fr, Linux

MersenneTwiter


svaria_SampleCorr test:
-----------------------------------------------
   N =  1,  n = 2000000000,  r =  0,   k = 1


-----------------------------------------------
Normal statistic                      :   -0.45
p-value of test                       :    0.68

-----------------------------------------------
CPU time used                    :  00:00:20.94

Generator state:




***********************************************************
HOST = node40.local.isima.fr, Linux

MersenneTwiter


svaria_SampleCorr test:
-----------------------------------------------
   N =  1,  n = 2000000000,  r =  0,   k = 2


-----------------------------------------------
Normal statistic                      :   -0.10
p-value of test                       :    0.54

-----------------------------------------------
CPU time used                    :  00:00:23.84

Generator state:




***********************************************************
HOST = node40.local.isima.fr, Linux

MersenneTwiter


svaria_AppearanceSpacings test:
-----------------------------------------------
   N =  1,   Q = 10000000,   K = 1000000000,   r = 0,   s = 3,   L = 15

   Sequences of n = (K + Q)L =  15150000000 bits
   Q = 10000000 initialization blocks
   K = 1000000000 blocks for the test
   the blocks have L = 15 bits



-----------------------------------------------
Normal statistic                      :   -0.71
p-value of test                       :    0.76

-----------------------------------------------
CPU time used                    :  00:01:38.34

Generator state:




***********************************************************
HOST = node40.local.isima.fr, Linux

MersenneTwiter


svaria_AppearanceSpacings test:
-----------------------------------------------
   N =  1,   Q = 10000000,   K = 1000000000,   r = 27,   s = 3,   L = 15

   Sequences of n = (K + Q)L =  15150000000 bits
   Q = 10000000 initialization blocks
   K = 1000000000 blocks for the test
   the blocks have L = 15 bits



-----------------------------------------------
Normal statistic                      :    1.30
p-value of test                       :    0.10

-----------------------------------------------
CPU time used                    :  00:01:40.81

Generator state:




***********************************************************
HOST = node40.local.isima.fr, Linux

MersenneTwiter


svaria_WeightDistrib test:
-----------------------------------------------
   N =  1,  n = 20000000,  r =  0,  k = 256,  Alpha =      0,  Beta =   0.25


-----------------------------------------------
Number of degrees of freedom          :   67
Chi-square statistic                  :   62.99
p-value of test                       :    0.62

-----------------------------------------------
CPU time used                    :  00:00:54.13

Generator state:




***********************************************************
HOST = node40.local.isima.fr, Linux

MersenneTwiter


svaria_WeightDistrib test:
-----------------------------------------------
   N =  1,  n = 20000000,  r = 20,  k = 256,  Alpha =      0,  Beta =   0.25


-----------------------------------------------
Number of degrees of freedom          :   67
Chi-square statistic                  :   73.22
p-value of test                       :    0.28

-----------------------------------------------
CPU time used                    :  00:01:16.00

Generator state:




***********************************************************
HOST = node40.local.isima.fr, Linux

MersenneTwiter


svaria_WeightDistrib test:
-----------------------------------------------
   N =  1,  n = 20000000,  r = 28,  k = 256,  Alpha =      0,  Beta =   0.25


-----------------------------------------------
Number of degrees of freedom          :   67
Chi-square statistic                  :   67.78
p-value of test                       :    0.45

-----------------------------------------------
CPU time used                    :  00:01:16.23

Generator state:




***********************************************************
HOST = node40.local.isima.fr, Linux

MersenneTwiter


svaria_WeightDistrib test:
-----------------------------------------------
   N =  1,  n = 20000000,  r =  0,  k = 256,  Alpha =      0,  Beta = 0.0625


-----------------------------------------------
Number of degrees of freedom          :   37
Chi-square statistic                  :   21.88
p-value of test                       :    0.98

-----------------------------------------------
CPU time used                    :  00:00:54.54

Generator state:




***********************************************************
HOST = node40.local.isima.fr, Linux

MersenneTwiter


svaria_WeightDistrib test:
-----------------------------------------------
   N =  1,  n = 20000000,  r = 10,  k = 256,  Alpha =      0,  Beta = 0.0625


-----------------------------------------------
Number of degrees of freedom          :   37
Chi-square statistic                  :   35.86
p-value of test                       :    0.52

-----------------------------------------------
CPU time used                    :  00:01:16.13

Generator state:




***********************************************************
HOST = node40.local.isima.fr, Linux

MersenneTwiter


svaria_WeightDistrib test:
-----------------------------------------------
   N =  1,  n = 20000000,  r = 26,  k = 256,  Alpha =      0,  Beta = 0.0625


-----------------------------------------------
Number of degrees of freedom          :   37
Chi-square statistic                  :   40.86
p-value of test                       :    0.30

-----------------------------------------------
CPU time used                    :  00:01:16.81

Generator state:




***********************************************************
HOST = node40.local.isima.fr, Linux

MersenneTwiter


svaria_SumCollector test:
-----------------------------------------------
   N =  1,  n = 500000000,  r =  0,   g = 10


-----------------------------------------------
Number of degrees of freedom          :   29
Chi-square statistic                  :   40.54
p-value of test                       :    0.08

-----------------------------------------------
CPU time used                    :  00:01:56.30

Generator state:




***********************************************************
HOST = node40.local.isima.fr, Linux

MersenneTwiter


smarsa_MatrixRank test:
-----------------------------------------------
   N = 10,  n = 1000000,  r =  0,    s = 5,    L = 30,    k = 30


-----------------------------------------------

Kolmogorov-Smirnov+ statistic = D+    :    0.29
p-value of test                       :    0.16

Kolmogorov-Smirnov- statistic = D-    :    0.13
p-value of test                       :    0.66

Anderson-Darling statistic = A2       :    1.26
p-value of test                       :    0.24

Test on the sum of all N observations
Number of degrees of freedom          :   40
Chi-square statistic                  :   35.11
p-value of test                       :    0.69

-----------------------------------------------
CPU time used                    :  00:01:29.29

Generator state:




***********************************************************
HOST = node40.local.isima.fr, Linux

MersenneTwiter


smarsa_MatrixRank test:
-----------------------------------------------
   N = 10,  n = 1000000,  r = 25,    s = 5,    L = 30,    k = 30


-----------------------------------------------

Kolmogorov-Smirnov+ statistic = D+    :    0.11
p-value of test                       :    0.72

Kolmogorov-Smirnov- statistic = D-    :    0.28
p-value of test                       :    0.17

Anderson-Darling statistic = A2       :    0.90
p-value of test                       :    0.41

Test on the sum of all N observations
Number of degrees of freedom          :   40
Chi-square statistic                  :   43.24
p-value of test                       :    0.33

-----------------------------------------------
CPU time used                    :  00:01:29.04

Generator state:




***********************************************************
HOST = node40.local.isima.fr, Linux

MersenneTwiter


smarsa_MatrixRank test:
-----------------------------------------------
   N =  1,  n = 5000,  r =  0,    s = 4,    L = 1000,    k = 1000


-----------------------------------------------
Number of degrees of freedom          :    3
Chi-square statistic                  :    2.73
p-value of test                       :    0.43

-----------------------------------------------
CPU time used                    :  00:02:20.62

Generator state:




***********************************************************
HOST = node40.local.isima.fr, Linux

MersenneTwiter


smarsa_MatrixRank test:
-----------------------------------------------
   N =  1,  n = 5000,  r = 26,    s = 4,    L = 1000,    k = 1000


-----------------------------------------------
Number of degrees of freedom          :    3
Chi-square statistic                  :    2.12
p-value of test                       :    0.55

-----------------------------------------------
CPU time used                    :  00:02:23.80

Generator state:




***********************************************************
HOST = node40.local.isima.fr, Linux

MersenneTwiter


smarsa_MatrixRank test:
-----------------------------------------------
   N =  1,  n = 80,  r = 15,    s = 15,    L = 5000,    k = 5000


-----------------------------------------------
Number of degrees of freedom          :    2
Chi-square statistic                  :    3.59
p-value of test                       :    0.17

-----------------------------------------------
CPU time used                    :  00:07:45.39

Generator state:




***********************************************************
HOST = node40.local.isima.fr, Linux

MersenneTwiter


smarsa_MatrixRank test:
-----------------------------------------------
   N =  1,  n = 80,  r =  0,    s = 30,    L = 5000,    k = 5000


-----------------------------------------------
Number of degrees of freedom          :    2
Chi-square statistic                  :    1.40
p-value of test                       :    0.50

-----------------------------------------------
CPU time used                    :  00:04:50.31

Generator state:




***********************************************************
HOST = node40.local.isima.fr, Linux

MersenneTwiter


smarsa_Savir2 test:
-----------------------------------------------
   N = 10,  n = 10000000,  r = 10,    m = 1048576,    t = 30


-----------------------------------------------

Kolmogorov-Smirnov+ statistic = D+    :    0.25
p-value of test                       :    0.23

Kolmogorov-Smirnov- statistic = D-    :   0.030
p-value of test                       :    0.96

Anderson-Darling statistic = A2       :    0.93
p-value of test                       :    0.39

Test on the sum of all N observations
Number of degrees of freedom          :  130
Chi-square statistic                  :  109.17
p-value of test                       :    0.91

-----------------------------------------------
CPU time used                    :  00:00:43.06

Generator state:




***********************************************************
HOST = node40.local.isima.fr, Linux

MersenneTwiter


smarsa_GCD test:
-----------------------------------------------
   N = 10,  n = 50000000,  r =  0,   s = 30


-----------------------------------------------
Test results for GCD values:

Kolmogorov-Smirnov+ statistic = D+    :   0.015
p-value of test                       :    0.98

Kolmogorov-Smirnov- statistic = D-    :    0.37
p-value of test                       :    0.05

Anderson-Darling statistic = A2       :    2.47
p-value of test                       :    0.05

Test on the sum of all N observations
Number of degrees of freedom          : 17430
Chi-square statistic                  :17842.33
p-value of test                       :    0.01



-----------------------------------------------
CPU time used                    :  00:01:25.39

Generator state:




***********************************************************
HOST = node40.local.isima.fr, Linux

MersenneTwiter


swalk_RandomWalk1 test:
-----------------------------------------------
   N =  1,  n = 100000000,  r =  0,   s = 5,   L0 =   50,   L1 =   50



-----------------------------------------------
Test on the values of the Statistic H

Number of degrees of freedom          :   36
ChiSquare statistic                   :   33.38
p-value of test                       :    0.59


-----------------------------------------------
Test on the values of the Statistic M

Number of degrees of freedom          :   35
ChiSquare statistic                   :   41.52
p-value of test                       :    0.21


-----------------------------------------------
Test on the values of the Statistic J

Number of degrees of freedom          :   25
ChiSquare statistic                   :   24.37
p-value of test                       :    0.50


-----------------------------------------------
Test on the values of the Statistic R

Number of degrees of freedom          :   24
ChiSquare statistic                   :   26.92
p-value of test                       :    0.31


-----------------------------------------------
Test on the values of the Statistic C

Number of degrees of freedom          :   17
ChiSquare statistic                   :   22.31
p-value of test                       :    0.17


-----------------------------------------------
CPU time used                    :  00:01:01.22

Generator state:




***********************************************************
HOST = node40.local.isima.fr, Linux

MersenneTwiter


swalk_RandomWalk1 test:
-----------------------------------------------
   N =  1,  n = 100000000,  r = 25,   s = 5,   L0 =   50,   L1 =   50



-----------------------------------------------
Test on the values of the Statistic H

Number of degrees of freedom          :   36
ChiSquare statistic                   :   28.85
p-value of test                       :    0.80


-----------------------------------------------
Test on the values of the Statistic M

Number of degrees of freedom          :   35
ChiSquare statistic                   :   20.54
p-value of test                       :    0.98


-----------------------------------------------
Test on the values of the Statistic J

Number of degrees of freedom          :   25
ChiSquare statistic                   :   35.76
p-value of test                       :    0.08


-----------------------------------------------
Test on the values of the Statistic R

Number of degrees of freedom          :   24
ChiSquare statistic                   :   29.49
p-value of test                       :    0.20


-----------------------------------------------
Test on the values of the Statistic C

Number of degrees of freedom          :   17
ChiSquare statistic                   :   18.94
p-value of test                       :    0.33


-----------------------------------------------
CPU time used                    :  00:01:02.59

Generator state:




***********************************************************
HOST = node40.local.isima.fr, Linux

MersenneTwiter


swalk_RandomWalk1 test:
-----------------------------------------------
   N =  1,  n = 10000000,  r =  0,   s = 10,   L0 = 1000,   L1 = 1000



-----------------------------------------------
Test on the values of the Statistic H

Number of degrees of freedom          :  146
ChiSquare statistic                   :  173.48
p-value of test                       :    0.06


-----------------------------------------------
Test on the values of the Statistic M

Number of degrees of freedom          :  146
ChiSquare statistic                   :  138.84
p-value of test                       :    0.65


-----------------------------------------------
Test on the values of the Statistic J

Number of degrees of freedom          :  500
ChiSquare statistic                   :  479.97
p-value of test                       :    0.73


-----------------------------------------------
Test on the values of the Statistic R

Number of degrees of freedom          :  136
ChiSquare statistic                   :  144.59
p-value of test                       :    0.29


-----------------------------------------------
Test on the values of the Statistic C

Number of degrees of freedom          :   74
ChiSquare statistic                   :   98.88
p-value of test                       :    0.03


-----------------------------------------------
CPU time used                    :  00:01:19.48

Generator state:




***********************************************************
HOST = node40.local.isima.fr, Linux

MersenneTwiter


swalk_RandomWalk1 test:
-----------------------------------------------
   N =  1,  n = 10000000,  r = 20,   s = 10,   L0 = 1000,   L1 = 1000



-----------------------------------------------
Test on the values of the Statistic H

Number of degrees of freedom          :  146
ChiSquare statistic                   :  122.33
p-value of test                       :    0.92


-----------------------------------------------
Test on the values of the Statistic M

Number of degrees of freedom          :  146
ChiSquare statistic                   :  147.86
p-value of test                       :    0.44


-----------------------------------------------
Test on the values of the Statistic J

Number of degrees of freedom          :  500
ChiSquare statistic                   :  476.29
p-value of test                       :    0.77


-----------------------------------------------
Test on the values of the Statistic R

Number of degrees of freedom          :  136
ChiSquare statistic                   :  145.53
p-value of test                       :    0.27


-----------------------------------------------
Test on the values of the Statistic C

Number of degrees of freedom          :   74
ChiSquare statistic                   :   79.79
p-value of test                       :    0.30


-----------------------------------------------
CPU time used                    :  00:01:20.27

Generator state:




***********************************************************
HOST = node40.local.isima.fr, Linux

MersenneTwiter


swalk_RandomWalk1 test:
-----------------------------------------------
   N =  1,  n = 1000000,  r =  0,   s = 15,   L0 = 10000,   L1 = 10000



-----------------------------------------------
Test on the values of the Statistic H

Number of degrees of freedom          :  384
ChiSquare statistic                   :  338.18
p-value of test                       :    0.96


-----------------------------------------------
Test on the values of the Statistic M

Number of degrees of freedom          :  384
ChiSquare statistic                   :  386.40
p-value of test                       :    0.46


-----------------------------------------------
Test on the values of the Statistic J

Number of degrees of freedom          : 5000
ChiSquare statistic                   : 5040.37
p-value of test                       :    0.34


-----------------------------------------------
Test on the values of the Statistic R

Number of degrees of freedom          :  378
ChiSquare statistic                   :  328.83
p-value of test                       :    0.97


-----------------------------------------------
Test on the values of the Statistic C

Number of degrees of freedom          :  200
ChiSquare statistic                   :  158.09
p-value of test                       :    0.99


-----------------------------------------------
CPU time used                    :  00:01:07.94

Generator state:




***********************************************************
HOST = node40.local.isima.fr, Linux

MersenneTwiter


swalk_RandomWalk1 test:
-----------------------------------------------
   N =  1,  n = 1000000,  r = 15,   s = 15,   L0 = 10000,   L1 = 10000



-----------------------------------------------
Test on the values of the Statistic H

Number of degrees of freedom          :  384
ChiSquare statistic                   :  409.87
p-value of test                       :    0.17


-----------------------------------------------
Test on the values of the Statistic M

Number of degrees of freedom          :  384
ChiSquare statistic                   :  372.74
p-value of test                       :    0.65


-----------------------------------------------
Test on the values of the Statistic J

Number of degrees of freedom          : 5000
ChiSquare statistic                   : 5006.51
p-value of test                       :    0.47


-----------------------------------------------
Test on the values of the Statistic R

Number of degrees of freedom          :  378
ChiSquare statistic                   :  441.66
p-value of test                       :    0.01


-----------------------------------------------
Test on the values of the Statistic C

Number of degrees of freedom          :  200
ChiSquare statistic                   :  191.83
p-value of test                       :    0.65


-----------------------------------------------
CPU time used                    :  00:01:05.35

Generator state:




***********************************************************
HOST = node40.local.isima.fr, Linux

MersenneTwiter


scomp_LinearComp test:
-----------------------------------------------
   N =  1,  n = 400020,  r =  0,    s = 1



-----------------------------------------------
Number of degrees of freedom          :   12
Chi2 statistic for size of jumps      :    8.94
p-value of test                       :    0.71


-----------------------------------------------
Normal statistic for number of jumps  : -402.47
p-value of test                       : 1 - eps1    *****



-----------------------------------------------
CPU time used                    :  00:00:10.45

Generator state:




***********************************************************
HOST = node40.local.isima.fr, Linux

MersenneTwiter


scomp_LinearComp test:
-----------------------------------------------
   N =  1,  n = 400020,  r = 29,    s = 1



-----------------------------------------------
Number of degrees of freedom          :   12
Chi2 statistic for size of jumps      :   17.60
p-value of test                       :    0.13


-----------------------------------------------
Normal statistic for number of jumps  : -403.05
p-value of test                       : 1 - eps1    *****



-----------------------------------------------
CPU time used                    :  00:00:10.42

Generator state:




***********************************************************
HOST = node40.local.isima.fr, Linux

MersenneTwiter


scomp_LempelZiv test:
-----------------------------------------------
   N = 10,  n = 134217728,  r =  0,   s =   30,   k =   27


-----------------------------------------------

Kolmogorov-Smirnov+ statistic = D+    :   0.051
p-value of test                       :    0.92

Kolmogorov-Smirnov- statistic = D-    :    0.33
p-value of test                       :    0.09

Anderson-Darling statistic = A2       :    1.68
p-value of test                       :    0.14

Tests on the sum of all N observations
Standardized normal statistic         :    1.67
p-value of test                       :    0.05

Sample variance                       :    0.86
p-value of test                       :    0.56

-----------------------------------------------
CPU time used                    :  00:02:01.80

Generator state:




***********************************************************
HOST = node40.local.isima.fr, Linux

MersenneTwiter


scomp_LempelZiv test:
-----------------------------------------------
   N = 10,  n = 134217728,  r = 15,   s =   15,   k =   27


-----------------------------------------------

Kolmogorov-Smirnov+ statistic = D+    :   0.097
p-value of test                       :    0.78

Kolmogorov-Smirnov- statistic = D-    :    0.17
p-value of test                       :    0.52

Anderson-Darling statistic = A2       :    0.34
p-value of test                       :    0.91

Tests on the sum of all N observations
Standardized normal statistic         :    0.55
p-value of test                       :    0.29

Sample variance                       :    0.90
p-value of test                       :    0.52

-----------------------------------------------
CPU time used                    :  00:01:55.79

Generator state:




***********************************************************
HOST = node40.local.isima.fr, Linux

MersenneTwiter


sspectral_Fourier3 test:
-----------------------------------------------
   N = 100000,  n = 16384,  r =  0,   s =    3,   k =   14


-----------------------------------------------

Kolmogorov-Smirnov+ statistic = D+    : 9.68e-3
p-value of test                       :    0.46

Kolmogorov-Smirnov- statistic = D-    : 6.91e-3
p-value of test                       :    0.67

Anderson-Darling statistic = A2       :    0.38
p-value of test                       :    0.86

-----------------------------------------------
CPU time used                    :  00:00:54.01

Generator state:




***********************************************************
HOST = node40.local.isima.fr, Linux

MersenneTwiter


sspectral_Fourier3 test:
-----------------------------------------------
   N = 100000,  n = 16384,  r = 27,   s =    3,   k =   14


-----------------------------------------------

Kolmogorov-Smirnov+ statistic = D+    : 6.84e-3
p-value of test                       :    0.68

Kolmogorov-Smirnov- statistic = D-    :   0.012
p-value of test                       :    0.34

Anderson-Darling statistic = A2       :    0.62
p-value of test                       :    0.63

-----------------------------------------------
CPU time used                    :  00:00:53.43

Generator state:




***********************************************************
HOST = node40.local.isima.fr, Linux

MersenneTwiter


sstring_LongestHeadRun test:
-----------------------------------------------
   N =  1,  n = 1000,  r =  0,   s = 3,   L = 10000020


-----------------------------------------------
Number of degrees of freedom          :    8
Chi-square statistic                  :    6.78
p-value of test                       :    0.56

-----------------------------------------------
Global longest run of 1               :   32.00
p-value of test                       :    0.50



-----------------------------------------------
CPU time used                    :  00:02:00.65

Generator state:




***********************************************************
HOST = node40.local.isima.fr, Linux

MersenneTwiter


sstring_LongestHeadRun test:
-----------------------------------------------
   N =  1,  n = 1000,  r = 27,   s = 3,   L = 10000020


-----------------------------------------------
Number of degrees of freedom          :    8
Chi-square statistic                  :    2.60
p-value of test                       :    0.96

-----------------------------------------------
Global longest run of 1               :   32.00
p-value of test                       :    0.50



-----------------------------------------------
CPU time used                    :  00:02:03.22

Generator state:




***********************************************************
HOST = node40.local.isima.fr, Linux

MersenneTwiter


sstring_PeriodsInStrings test:
-----------------------------------------------
   N = 10,  n = 500000000,  r =  0,   s =   10


-----------------------------------------------

Kolmogorov-Smirnov+ statistic = D+    :    0.11
p-value of test                       :    0.74

Kolmogorov-Smirnov- statistic = D-    :    0.27
p-value of test                       :    0.21

Anderson-Darling statistic = A2       :    0.59
p-value of test                       :    0.65

Test on the sum of all N observations
Number of degrees of freedom          :  200
Chi-square statistic                  :  212.64
p-value of test                       :    0.26

-----------------------------------------------
CPU time used                    :  00:03:17.56

Generator state:




***********************************************************
HOST = node40.local.isima.fr, Linux

MersenneTwiter


sstring_PeriodsInStrings test:
-----------------------------------------------
   N = 10,  n = 500000000,  r = 20,   s =   10


-----------------------------------------------

Kolmogorov-Smirnov+ statistic = D+    :   0.035
p-value of test                       :    0.95

Kolmogorov-Smirnov- statistic = D-    :    0.27
p-value of test                       :    0.20

Anderson-Darling statistic = A2       :    0.80
p-value of test                       :    0.48

Test on the sum of all N observations
Number of degrees of freedom          :  200
Chi-square statistic                  :  222.40
p-value of test                       :    0.13

-----------------------------------------------
CPU time used                    :  00:03:24.67

Generator state:




***********************************************************
HOST = node40.local.isima.fr, Linux

MersenneTwiter


sstring_HammingWeight2 test:
-----------------------------------------------
   N = 10,  n = 1000000000,  r =  0,   s = 3,   L = 1000000


-----------------------------------------------

Kolmogorov-Smirnov+ statistic = D+    :    0.26
p-value of test                       :    0.22

Kolmogorov-Smirnov- statistic = D-    :   0.061
p-value of test                       :    0.90

Anderson-Darling statistic = A2       :    0.64
p-value of test                       :    0.61

Test on the sum of all N observations
Number of degrees of freedom          : 10000
Chi-square statistic                  : 9879.35
p-value of test                       :    0.80

-----------------------------------------------
CPU time used                    :  00:01:21.70

Generator state:




***********************************************************
HOST = node40.local.isima.fr, Linux

MersenneTwiter


sstring_HammingWeight2 test:
-----------------------------------------------
   N = 10,  n = 1000000000,  r = 27,   s = 3,   L = 1000000


-----------------------------------------------

Kolmogorov-Smirnov+ statistic = D+    :   0.055
p-value of test                       :    0.91

Kolmogorov-Smirnov- statistic = D-    :    0.20
p-value of test                       :    0.39

Anderson-Darling statistic = A2       :    0.63
p-value of test                       :    0.62

Test on the sum of all N observations
Number of degrees of freedom          : 10000
Chi-square statistic                  :10142.24
p-value of test                       :    0.16

-----------------------------------------------
CPU time used                    :  00:01:23.20

Generator state:




***********************************************************
HOST = node40.local.isima.fr, Linux

MersenneTwiter


sstring_HammingCorr test:
-----------------------------------------------
   N =  1,  n = 1000000000,  r = 10,   s = 10,   L = 30



-----------------------------------------------
Normal statistic                      :    0.41
p-value of test                       :    0.34

-----------------------------------------------
CPU time used                    :  00:01:37.98

Generator state:




***********************************************************
HOST = node40.local.isima.fr, Linux

MersenneTwiter


sstring_HammingCorr test:
-----------------------------------------------
   N =  1,  n = 100000000,  r = 10,   s = 10,   L = 300



-----------------------------------------------
Normal statistic                      :   -0.41
p-value of test                       :    0.66

-----------------------------------------------
CPU time used                    :  00:01:35.54

Generator state:




***********************************************************
HOST = node40.local.isima.fr, Linux

MersenneTwiter


sstring_HammingCorr test:
-----------------------------------------------
   N =  1,  n = 100000000,  r = 10,   s = 10,   L = 1200



-----------------------------------------------
Normal statistic                      :   -2.42
p-value of test                       :    0.9923

-----------------------------------------------
CPU time used                    :  00:06:20.15

Generator state:




***********************************************************
HOST = node40.local.isima.fr, Linux

MersenneTwiter


sstring_HammingIndep test:
-----------------------------------------------
   N = 10,  n = 30000000,  r =  0,   s = 3,   L = 30,   d = 0



Counters with expected numbers >= 10
-----------------------------------------------

Kolmogorov-Smirnov+ statistic = D+    :    0.14
p-value of test                       :    0.61

Kolmogorov-Smirnov- statistic = D-    :    0.11
p-value of test                       :    0.75

Anderson-Darling statistic = A2       :    0.39
p-value of test                       :    0.86

Test on the sum of all N observations
Number of degrees of freedom          : 4890
Chi-square statistic                  : 4901.35
p-value of test                       :    0.45

-----------------------------------------------
CPU time used                    :  00:02:38.27

Generator state:




***********************************************************
HOST = node40.local.isima.fr, Linux

MersenneTwiter


sstring_HammingIndep test:
-----------------------------------------------
   N = 10,  n = 30000000,  r = 27,   s = 3,   L = 30,   d = 0



Counters with expected numbers >= 10
-----------------------------------------------

Kolmogorov-Smirnov+ statistic = D+    :    0.23
p-value of test                       :    0.31

Kolmogorov-Smirnov- statistic = D-    :    0.23
p-value of test                       :    0.31

Anderson-Darling statistic = A2       :    1.06
p-value of test                       :    0.33

Test on the sum of all N observations
Number of degrees of freedom          : 4890
Chi-square statistic                  : 4886.45
p-value of test                       :    0.51

-----------------------------------------------
CPU time used                    :  00:02:42.79

Generator state:




***********************************************************
HOST = node40.local.isima.fr, Linux

MersenneTwiter


sstring_HammingIndep test:
-----------------------------------------------
   N =  1,  n = 30000000,  r =  0,   s = 4,   L = 300,   d = 0



Counters with expected numbers >= 10
-----------------------------------------------
Number of degrees of freedom          : 4117
Chi-square statistic                  : 4100.92
p-value of test                       :    0.57

-----------------------------------------------
CPU time used                    :  00:01:58.11

Generator state:




***********************************************************
HOST = node40.local.isima.fr, Linux

MersenneTwiter


sstring_HammingIndep test:
-----------------------------------------------
   N =  1,  n = 30000000,  r = 26,   s = 4,   L = 300,   d = 0



Counters with expected numbers >= 10
-----------------------------------------------
Number of degrees of freedom          : 4117
Chi-square statistic                  : 4098.09
p-value of test                       :    0.58

-----------------------------------------------
CPU time used                    :  00:01:59.64

Generator state:




***********************************************************
HOST = node40.local.isima.fr, Linux

MersenneTwiter


sstring_HammingIndep test:
-----------------------------------------------
   N =  1,  n = 10000000,  r =  0,   s = 5,   L = 1200,   d = 0



Counters with expected numbers >= 10
-----------------------------------------------
Number of degrees of freedom          : 11825
Chi-square statistic                  :11791.64
p-value of test                       :    0.58

-----------------------------------------------
CPU time used                    :  00:02:10.50

Generator state:




***********************************************************
HOST = node40.local.isima.fr, Linux

MersenneTwiter


sstring_HammingIndep test:
-----------------------------------------------
   N =  1,  n = 10000000,  r = 25,   s = 5,   L = 1200,   d = 0



Counters with expected numbers >= 10
-----------------------------------------------
Number of degrees of freedom          : 11825
Chi-square statistic                  :11841.17
p-value of test                       :    0.46

-----------------------------------------------
CPU time used                    :  00:02:15.48

Generator state:




***********************************************************
HOST = node40.local.isima.fr, Linux

MersenneTwiter


sstring_Run test:
-----------------------------------------------
   N =  1,  n = 2000000000,  r =  0,   s =    3


-----------------------------------------------
Total number of 1 runs:  2000000000

Number of degrees of freedom          :   54
Chi2 statistic for number of runs     :   55.70
p-value of test                       :    0.41


-----------------------------------------------
Total number of bits:  8000054067

Normal statistic for number of bits   :    0.43
p-value of test                       :    0.33



-----------------------------------------------
CPU time used                    :  00:01:40.47

Generator state:




***********************************************************
HOST = node40.local.isima.fr, Linux

MersenneTwiter


sstring_Run test:
-----------------------------------------------
   N =  1,  n = 2000000000,  r = 27,   s =    3


-----------------------------------------------
Total number of 1 runs:  2000000000

Number of degrees of freedom          :   54
Chi2 statistic for number of runs     :   62.07
p-value of test                       :    0.21


-----------------------------------------------
Total number of bits:  7999856673

Normal statistic for number of bits   :   -1.13
p-value of test                       :    0.87



-----------------------------------------------
CPU time used                    :  00:01:48.22

Generator state:




***********************************************************
HOST = node40.local.isima.fr, Linux

MersenneTwiter


sstring_AutoCor test:
-----------------------------------------------
   N = 10,  n = 1000000030,  r =  0,   s = 3,   d = 1


-----------------------------------------------

Kolmogorov-Smirnov+ statistic = D+    :    0.31
p-value of test                       :    0.12

Kolmogorov-Smirnov- statistic = D-    :    0.18
p-value of test                       :    0.48

Anderson-Darling statistic = A2       :    1.31
p-value of test                       :    0.23

Tests on the sum of all N observations
Standardized normal statistic         :   -0.79
p-value of test                       :    0.79

Sample variance                       :    0.26
p-value of test                       :    0.99

-----------------------------------------------
CPU time used                    :  00:01:58.86

Generator state:




***********************************************************
HOST = node40.local.isima.fr, Linux

MersenneTwiter


sstring_AutoCor test:
-----------------------------------------------
   N = 10,  n = 1000000029,  r =  0,   s = 3,   d = 3


-----------------------------------------------

Kolmogorov-Smirnov+ statistic = D+    :    0.13
p-value of test                       :    0.67

Kolmogorov-Smirnov- statistic = D-    :    0.18
p-value of test                       :    0.46

Anderson-Darling statistic = A2       :    0.26
p-value of test                       :    0.97

Tests on the sum of all N observations
Standardized normal statistic         :    0.16
p-value of test                       :    0.44

Sample variance                       :    0.86
p-value of test                       :    0.56

-----------------------------------------------
CPU time used                    :  00:01:36.36

Generator state:




***********************************************************
HOST = node40.local.isima.fr, Linux

MersenneTwiter


sstring_AutoCor test:
-----------------------------------------------
   N = 10,  n = 1000000030,  r = 27,   s = 3,   d = 1


-----------------------------------------------

Kolmogorov-Smirnov+ statistic = D+    :    0.35
p-value of test                       :    0.06

Kolmogorov-Smirnov- statistic = D-    :   0.024
p-value of test                       :    0.97

Anderson-Darling statistic = A2       :    1.77
p-value of test                       :    0.12

Tests on the sum of all N observations
Standardized normal statistic         :   -1.75
p-value of test                       :    0.96

Sample variance                       :    0.77
p-value of test                       :    0.65

-----------------------------------------------
CPU time used                    :  00:01:44.34

Generator state:




***********************************************************
HOST = node40.local.isima.fr, Linux

MersenneTwiter


sstring_AutoCor test:
-----------------------------------------------
   N = 10,  n = 1000000029,  r = 27,   s = 3,   d = 3


-----------------------------------------------

Kolmogorov-Smirnov+ statistic = D+    :    0.13
p-value of test                       :    0.65

Kolmogorov-Smirnov- statistic = D-    :    0.18
p-value of test                       :    0.49

Anderson-Darling statistic = A2       :    0.37
p-value of test                       :    0.87

Tests on the sum of all N observations
Standardized normal statistic         :    0.17
p-value of test                       :    0.43

Sample variance                       :    0.59
p-value of test                       :    0.81

-----------------------------------------------
CPU time used                    :  00:01:07.61

Generator state:





========= Summary results of BigCrush =========

 Version:          TestU01 1.2.3
 Generator:        MersenneTwiter
 Number of statistics:  160
 Total CPU time:   04:42:30.40
 The following tests gave p-values outside [0.001, 0.9990]:
 (eps  means a value < 1.0e-300):
 (eps1 means a value < 1.0e-15):

       Test                          p-value
 ----------------------------------------------
 39  Run, r = 15                     4.6e-4
 80  LinearComp, r = 0              1 - eps1
 81  LinearComp, r = 29             1 - eps1
 ----------------------------------------------
 All other tests were passed



