xxxxxxxxxxxxxxxxxxxxxxxxxxxxxxxxxxxxxxxxxxxxxxxxxxxxxxxxxxx
                 Starting BigCrush
                 Version: TestU01 1.2.3
xxxxxxxxxxxxxxxxxxxxxxxxxxxxxxxxxxxxxxxxxxxxxxxxxxxxxxxxxxx


***********************************************************
Test smarsa_SerialOver calling smultin_MultinomialOver

***********************************************************
HOST = hpcsmp01, Linux

MersenneTwiter


smultin_MultinomialOver test:
-----------------------------------------------
   N =  1,  n = 1000000000,  r =  0,   d =  256,   t =  3,
       Sparse =  FALSE

       GenerCell = smultin_GenerCellSerial
       Number of cells = d^t =           16777216
       Expected number per cell =   59.604645
       Hashing =  FALSE

   For Delta > -1, we use the ChiSquare approximation
   Correction factor of the ChiSquare: 
       Delta =     1,    Mu =   0.0083558402,    Sigma =          1

-----------------------------------------------
Test Results for Delta =   1.0000

Number of degrees of freedom          : 16711680
Value of the statistic                : 1.67e+7
p-value of test                       :    0.43


-----------------------------------------------
CPU time used                    :  00:02:32.00

Generator state:




***********************************************************
Test smarsa_SerialOver calling smultin_MultinomialOver

***********************************************************
HOST = hpcsmp01, Linux

MersenneTwiter


smultin_MultinomialOver test:
-----------------------------------------------
   N =  1,  n = 1000000000,  r = 22,   d =  256,   t =  3,
       Sparse =  FALSE

       GenerCell = smultin_GenerCellSerial
       Number of cells = d^t =           16777216
       Expected number per cell =   59.604645
       Hashing =  FALSE

   For Delta > -1, we use the ChiSquare approximation
   Correction factor of the ChiSquare: 
       Delta =     1,    Mu =   0.0083558402,    Sigma =          1

-----------------------------------------------
Test Results for Delta =   1.0000

Number of degrees of freedom          : 16711680
Value of the statistic                : 1.67e+7
p-value of test                       :    0.53


-----------------------------------------------
CPU time used                    :  00:02:42.76

Generator state:




***********************************************************
Test smarsa_CollisionOver calling smultin_MultinomialOver

***********************************************************
HOST = hpcsmp01, Linux

MersenneTwiter


smultin_MultinomialOver test:
-----------------------------------------------
   N = 30,  n = 20000000,  r =  0,   d = 2097152,   t =  2,
       Sparse =   TRUE

       GenerCell = smultin_GenerCellSerial
       Number of cells = d^t =      4398046511104
       Expected number per cell =  1 /  219902.33
       EColl = n^2 / (2k) =  45.47473509
       Hashing =   TRUE

       Collision test

       CollisionOver:   density = n / k =  1 /  219902.33
       Expected number of collisions = Mu =      45.47


-----------------------------------------------
Results of CollisionOver test:

POISSON approximation                 :
Expected number of collisions = N*Mu  :     1364.24
Observed number of collisions         :     1371
p-value of test                       :    0.43

-----------------------------
Total number of cells containing j balls

  j =  0                              :  131940795334491
  j =  1                              :        599997258
  j =  2                              :             1371
  j =  3                              :                0
  j =  4                              :                0
  j =  5                              :                0

-----------------------------------------------
CPU time used                    :  00:07:05.62

Generator state:




***********************************************************
Test smarsa_CollisionOver calling smultin_MultinomialOver

***********************************************************
HOST = hpcsmp01, Linux

MersenneTwiter


smultin_MultinomialOver test:
-----------------------------------------------
   N = 30,  n = 20000000,  r =  9,   d = 2097152,   t =  2,
       Sparse =   TRUE

       GenerCell = smultin_GenerCellSerial
       Number of cells = d^t =      4398046511104
       Expected number per cell =  1 /  219902.33
       EColl = n^2 / (2k) =  45.47473509
       Hashing =   TRUE

       Collision test

       CollisionOver:   density = n / k =  1 /  219902.33
       Expected number of collisions = Mu =      45.47


-----------------------------------------------
Results of CollisionOver test:

POISSON approximation                 :
Expected number of collisions = N*Mu  :     1364.24
Observed number of collisions         :     1342
p-value of test                       :    0.72

-----------------------------
Total number of cells containing j balls

  j =  0                              :  131940795334462
  j =  1                              :        599997316
  j =  2                              :             1342
  j =  3                              :                0
  j =  4                              :                0
  j =  5                              :                0

-----------------------------------------------
CPU time used                    :  00:06:43.50

Generator state:




***********************************************************
Test smarsa_CollisionOver calling smultin_MultinomialOver

***********************************************************
HOST = hpcsmp01, Linux

MersenneTwiter


smultin_MultinomialOver test:
-----------------------------------------------
   N = 30,  n = 20000000,  r =  0,   d = 16384,   t =  3,
       Sparse =   TRUE

       GenerCell = smultin_GenerCellSerial
       Number of cells = d^t =      4398046511104
       Expected number per cell =  1 /  219902.33
       EColl = n^2 / (2k) =  45.47473509
       Hashing =   TRUE

       Collision test

       CollisionOver:   density = n / k =  1 /  219902.33
       Expected number of collisions = Mu =      45.47


-----------------------------------------------
Results of CollisionOver test:

POISSON approximation                 :
Expected number of collisions = N*Mu  :     1364.24
Observed number of collisions         :     1421
p-value of test                       :    0.06

-----------------------------
Total number of cells containing j balls

  j =  0                              :  131940795334541
  j =  1                              :        599997158
  j =  2                              :             1421
  j =  3                              :                0
  j =  4                              :                0
  j =  5                              :                0

-----------------------------------------------
CPU time used                    :  00:08:26.75

Generator state:




***********************************************************
Test smarsa_CollisionOver calling smultin_MultinomialOver

***********************************************************
HOST = hpcsmp01, Linux

MersenneTwiter


smultin_MultinomialOver test:
-----------------------------------------------
   N = 30,  n = 20000000,  r = 16,   d = 16384,   t =  3,
       Sparse =   TRUE

       GenerCell = smultin_GenerCellSerial
       Number of cells = d^t =      4398046511104
       Expected number per cell =  1 /  219902.33
       EColl = n^2 / (2k) =  45.47473509
       Hashing =   TRUE

       Collision test

       CollisionOver:   density = n / k =  1 /  219902.33
       Expected number of collisions = Mu =      45.47


-----------------------------------------------
Results of CollisionOver test:

POISSON approximation                 :
Expected number of collisions = N*Mu  :     1364.24
Observed number of collisions         :     1305
p-value of test                       :    0.94

-----------------------------
Total number of cells containing j balls

  j =  0                              :  131940795334425
  j =  1                              :        599997390
  j =  2                              :             1305
  j =  3                              :                0
  j =  4                              :                0
  j =  5                              :                0

-----------------------------------------------
CPU time used                    :  00:08:30.44

Generator state:




***********************************************************
Test smarsa_CollisionOver calling smultin_MultinomialOver

***********************************************************
HOST = hpcsmp01, Linux

MersenneTwiter


smultin_MultinomialOver test:
-----------------------------------------------
   N = 30,  n = 20000000,  r =  0,   d =   64,   t =  7,
       Sparse =   TRUE

       GenerCell = smultin_GenerCellSerial
       Number of cells = d^t =      4398046511104
       Expected number per cell =  1 /  219902.33
       EColl = n^2 / (2k) =  45.47473509
       Hashing =   TRUE

       Collision test

       CollisionOver:   density = n / k =  1 /  219902.33
       Expected number of collisions = Mu =      45.47


-----------------------------------------------
Results of CollisionOver test:

POISSON approximation                 :
Expected number of collisions = N*Mu  :     1364.24
Observed number of collisions         :     1399
p-value of test                       :    0.18

-----------------------------
Total number of cells containing j balls

  j =  0                              :  131940795334519
  j =  1                              :        599997202
  j =  2                              :             1399
  j =  3                              :                0
  j =  4                              :                0
  j =  5                              :                0

-----------------------------------------------
CPU time used                    :  00:08:44.26

Generator state:




***********************************************************
Test smarsa_CollisionOver calling smultin_MultinomialOver

***********************************************************
HOST = hpcsmp01, Linux

MersenneTwiter


smultin_MultinomialOver test:
-----------------------------------------------
   N = 30,  n = 20000000,  r = 24,   d =   64,   t =  7,
       Sparse =   TRUE

       GenerCell = smultin_GenerCellSerial
       Number of cells = d^t =      4398046511104
       Expected number per cell =  1 /  219902.33
       EColl = n^2 / (2k) =  45.47473509
       Hashing =   TRUE

       Collision test

       CollisionOver:   density = n / k =  1 /  219902.33
       Expected number of collisions = Mu =      45.47


-----------------------------------------------
Results of CollisionOver test:

POISSON approximation                 :
Expected number of collisions = N*Mu  :     1364.24
Observed number of collisions         :     1372
p-value of test                       :    0.42

-----------------------------
Total number of cells containing j balls

  j =  0                              :  131940795334492
  j =  1                              :        599997256
  j =  2                              :             1372
  j =  3                              :                0
  j =  4                              :                0
  j =  5                              :                0

-----------------------------------------------
CPU time used                    :  00:08:53.63

Generator state:




***********************************************************
Test smarsa_CollisionOver calling smultin_MultinomialOver

***********************************************************
HOST = hpcsmp01, Linux

MersenneTwiter


smultin_MultinomialOver test:
-----------------------------------------------
   N = 30,  n = 20000000,  r =  0,   d =    8,   t = 14,
       Sparse =   TRUE

       GenerCell = smultin_GenerCellSerial
       Number of cells = d^t =      4398046511104
       Expected number per cell =  1 /  219902.33
       EColl = n^2 / (2k) =  45.47473509
       Hashing =   TRUE

       Collision test

       CollisionOver:   density = n / k =  1 /  219902.33
       Expected number of collisions = Mu =      45.47


-----------------------------------------------
Results of CollisionOver test:

POISSON approximation                 :
Expected number of collisions = N*Mu  :     1364.24
Observed number of collisions         :     1323
p-value of test                       :    0.87

-----------------------------
Total number of cells containing j balls

  j =  0                              :  131940795334443
  j =  1                              :        599997354
  j =  2                              :             1323
  j =  3                              :                0
  j =  4                              :                0
  j =  5                              :                0

-----------------------------------------------
CPU time used                    :  00:08:51.46

Generator state:




***********************************************************
Test smarsa_CollisionOver calling smultin_MultinomialOver

***********************************************************
HOST = hpcsmp01, Linux

MersenneTwiter


smultin_MultinomialOver test:
-----------------------------------------------
   N = 30,  n = 20000000,  r = 27,   d =    8,   t = 14,
       Sparse =   TRUE

       GenerCell = smultin_GenerCellSerial
       Number of cells = d^t =      4398046511104
       Expected number per cell =  1 /  219902.33
       EColl = n^2 / (2k) =  45.47473509
       Hashing =   TRUE

       Collision test

       CollisionOver:   density = n / k =  1 /  219902.33
       Expected number of collisions = Mu =      45.47


-----------------------------------------------
Results of CollisionOver test:

POISSON approximation                 :
Expected number of collisions = N*Mu  :     1364.24
Observed number of collisions         :     1377
p-value of test                       :    0.37

-----------------------------
Total number of cells containing j balls

  j =  0                              :  131940795334497
  j =  1                              :        599997246
  j =  2                              :             1377
  j =  3                              :                0
  j =  4                              :                0
  j =  5                              :                0

-----------------------------------------------
CPU time used                    :  00:08:57.88

Generator state:




***********************************************************
Test smarsa_CollisionOver calling smultin_MultinomialOver

***********************************************************
HOST = hpcsmp01, Linux

MersenneTwiter


smultin_MultinomialOver test:
-----------------------------------------------
   N = 30,  n = 20000000,  r =  0,   d =    4,   t = 21,
       Sparse =   TRUE

       GenerCell = smultin_GenerCellSerial
       Number of cells = d^t =      4398046511104
       Expected number per cell =  1 /  219902.33
       EColl = n^2 / (2k) =  45.47473509
       Hashing =   TRUE

       Collision test

       CollisionOver:   density = n / k =  1 /  219902.33
       Expected number of collisions = Mu =      45.47


-----------------------------------------------
Results of CollisionOver test:

POISSON approximation                 :
Expected number of collisions = N*Mu  :     1364.24
Observed number of collisions         :     1324
p-value of test                       :    0.86

-----------------------------
Total number of cells containing j balls

  j =  0                              :  131940795334444
  j =  1                              :        599997352
  j =  2                              :             1324
  j =  3                              :                0
  j =  4                              :                0
  j =  5                              :                0

-----------------------------------------------
CPU time used                    :  00:08:57.72

Generator state:




***********************************************************
Test smarsa_CollisionOver calling smultin_MultinomialOver

***********************************************************
HOST = hpcsmp01, Linux

MersenneTwiter


smultin_MultinomialOver test:
-----------------------------------------------
   N = 30,  n = 20000000,  r = 28,   d =    4,   t = 21,
       Sparse =   TRUE

       GenerCell = smultin_GenerCellSerial
       Number of cells = d^t =      4398046511104
       Expected number per cell =  1 /  219902.33
       EColl = n^2 / (2k) =  45.47473509
       Hashing =   TRUE

       Collision test

       CollisionOver:   density = n / k =  1 /  219902.33
       Expected number of collisions = Mu =      45.47


-----------------------------------------------
Results of CollisionOver test:

POISSON approximation                 :
Expected number of collisions = N*Mu  :     1364.24
Observed number of collisions         :     1328
p-value of test                       :    0.83

-----------------------------
Total number of cells containing j balls

  j =  0                              :  131940795334448
  j =  1                              :        599997344
  j =  2                              :             1328
  j =  3                              :                0
  j =  4                              :                0
  j =  5                              :                0

-----------------------------------------------
CPU time used                    :  00:09:22.47

Generator state:




***********************************************************
HOST = hpcsmp01, Linux

MersenneTwiter


smarsa_BirthdaySpacings test:
-----------------------------------------------
   N = 100,  n = 10000000,  r =  0,    d = 2147483648,    t = 2,    p = 1


      Number of cells = d^t = 4611686018427387904
      Lambda = Poisson mean =      54.2101


----------------------------------------------------
Total expected number = N*Lambda      :    5421.01
Total observed number                 :    5442
p-value of test                       :    0.39


-----------------------------------------------
CPU time used                    :  00:05:28.14

Generator state:




***********************************************************
HOST = hpcsmp01, Linux

MersenneTwiter


smarsa_BirthdaySpacings test:
-----------------------------------------------
   N = 20,  n = 20000000,  r =  0,    d = 2097152,    t = 3,    p = 1


      Number of cells = d^t = 9223372036854775808
      Lambda = Poisson mean =     216.8404


----------------------------------------------------
Total expected number = N*Lambda      :    4336.81
Total observed number                 :    4402
p-value of test                       :    0.16


-----------------------------------------------
CPU time used                    :  00:02:23.81

Generator state:




***********************************************************
HOST = hpcsmp01, Linux

MersenneTwiter


smarsa_BirthdaySpacings test:
-----------------------------------------------
   N = 20,  n = 30000000,  r = 14,    d = 65536,    t = 4,    p = 1


      Number of cells = d^t = 18446744073709551616
      Lambda = Poisson mean =     365.9182


----------------------------------------------------
Total expected number = N*Lambda      :    7318.36
Total observed number                 :    7294
p-value of test                       :    0.61


-----------------------------------------------
CPU time used                    :  00:04:09.71

Generator state:




***********************************************************
HOST = hpcsmp01, Linux

MersenneTwiter


smarsa_BirthdaySpacings test:
-----------------------------------------------
   N = 20,  n = 20000000,  r =  0,    d = 512,    t = 7,    p = 1


      Number of cells = d^t = 9223372036854775808
      Lambda = Poisson mean =     216.8404


----------------------------------------------------
Total expected number = N*Lambda      :    4336.81
Total observed number                 :    4383
p-value of test                       :    0.24


-----------------------------------------------
CPU time used                    :  00:03:14.14

Generator state:




***********************************************************
HOST = hpcsmp01, Linux

MersenneTwiter


smarsa_BirthdaySpacings test:
-----------------------------------------------
   N = 20,  n = 20000000,  r =  7,    d = 512,    t = 7,    p = 1


      Number of cells = d^t = 9223372036854775808
      Lambda = Poisson mean =     216.8404


----------------------------------------------------
Total expected number = N*Lambda      :    4336.81
Total observed number                 :    4488
p-value of test                       :    0.01


-----------------------------------------------
CPU time used                    :  00:03:20.18

Generator state:




***********************************************************
HOST = hpcsmp01, Linux

MersenneTwiter


smarsa_BirthdaySpacings test:
-----------------------------------------------
   N = 20,  n = 30000000,  r = 14,    d = 256,    t = 8,    p = 1


      Number of cells = d^t = 18446744073709551616
      Lambda = Poisson mean =     365.9182


----------------------------------------------------
Total expected number = N*Lambda      :    7318.36
Total observed number                 :    7402
p-value of test                       :    0.17


-----------------------------------------------
CPU time used                    :  00:05:16.10

Generator state:




***********************************************************
HOST = hpcsmp01, Linux

MersenneTwiter


smarsa_BirthdaySpacings test:
-----------------------------------------------
   N = 20,  n = 30000000,  r = 22,    d = 256,    t = 8,    p = 1


      Number of cells = d^t = 18446744073709551616
      Lambda = Poisson mean =     365.9182


----------------------------------------------------
Total expected number = N*Lambda      :    7318.36
Total observed number                 :    7301
p-value of test                       :    0.58


-----------------------------------------------
CPU time used                    :  00:05:15.52

Generator state:




***********************************************************
HOST = hpcsmp01, Linux

MersenneTwiter


smarsa_BirthdaySpacings test:
-----------------------------------------------
   N = 20,  n = 30000000,  r =  0,    d = 16,    t = 16,    p = 1


      Number of cells = d^t = 18446744073709551616
      Lambda = Poisson mean =     365.9182


----------------------------------------------------
Total expected number = N*Lambda      :    7318.36
Total observed number                 :    7334
p-value of test                       :    0.43


-----------------------------------------------
CPU time used                    :  00:06:32.26

Generator state:




***********************************************************
HOST = hpcsmp01, Linux

MersenneTwiter


smarsa_BirthdaySpacings test:
-----------------------------------------------
   N = 20,  n = 30000000,  r = 26,    d = 16,    t = 16,    p = 1


      Number of cells = d^t = 18446744073709551616
      Lambda = Poisson mean =     365.9182


----------------------------------------------------
Total expected number = N*Lambda      :    7318.36
Total observed number                 :    7211
p-value of test                       :    0.89


-----------------------------------------------
CPU time used                    :  00:06:52.42

Generator state:




***********************************************************
HOST = hpcsmp01, Linux

MersenneTwiter


snpair_ClosePairs test:
-----------------------------------------------
   N = 30,  n = 6000000,  r =  0,  t = 3,  p = 0,  m = 30,  Torus =  TRUE


---------------------------------------
Test based on the 2 nearest points (NP):

Stat. AD on the N values (NP)         :    0.73
p-value of test                       :    0.53


A2 test based on the spacings between the
   successive jump times of process Y_n(t):

A2 test on the values of A2 (m-NP)    :    0.55
p-value of test                       :    0.69

Test on the Nm values of W_{n,i}(mNP1):    0.53
p-value of test                       :    0.71

Test on the jump times of Y
   (superposition of Yn):

Expected number of jumps of Y = mN    :     900
Number of jumps of Y                  :     873
p-value of test                       :    0.81

Stat. AD (mNP2)                       :    0.61
p-value of test                       :    0.64

Stat. AD after spacings (mNP2-S)      :    0.86
p-value of test                       :    0.44

-----------------------------------------------
CPU time used                    :  00:04:31.19

Generator state:




***********************************************************
HOST = hpcsmp01, Linux

MersenneTwiter


snpair_ClosePairs test:
-----------------------------------------------
   N = 20,  n = 4000000,  r =  0,  t = 5,  p = 0,  m = 30,  Torus =  TRUE


---------------------------------------
Test based on the 2 nearest points (NP):

Stat. AD on the N values (NP)         :    0.66
p-value of test                       :    0.59


A2 test based on the spacings between the
   successive jump times of process Y_n(t):

A2 test on the values of A2 (m-NP)    :    0.37
p-value of test                       :    0.87

Test on the Nm values of W_{n,i}(mNP1):    0.80
p-value of test                       :    0.48

Test on the jump times of Y
   (superposition of Yn):

Expected number of jumps of Y = mN    :     600
Number of jumps of Y                  :     571
p-value of test                       :    0.88

Stat. AD (mNP2)                       :    1.14
p-value of test                       :    0.29

Stat. AD after spacings (mNP2-S)      :    0.71
p-value of test                       :    0.55

-----------------------------------------------
CPU time used                    :  00:02:51.87

Generator state:




***********************************************************
HOST = hpcsmp01, Linux

MersenneTwiter


snpair_ClosePairs test:
-----------------------------------------------
   N = 10,  n = 3000000,  r =  0,  t = 9,  p = 0,  m = 30,  Torus =  TRUE


---------------------------------------
Test based on the 2 nearest points (NP):

Stat. AD on the N values (NP)         :    1.13
p-value of test                       :    0.30


A2 test based on the spacings between the
   successive jump times of process Y_n(t):

A2 test on the values of A2 (m-NP)    :    0.33
p-value of test                       :    0.91

Test on the Nm values of W_{n,i}(mNP1):    0.40
p-value of test                       :    0.85

Test on the jump times of Y
   (superposition of Yn):

Expected number of jumps of Y = mN    :     300
Number of jumps of Y                  :     306
p-value of test                       :    0.37

Stat. AD (mNP2)                       :    0.62
p-value of test                       :    0.63

Stat. AD after spacings (mNP2-S)      :    0.24
p-value of test                       :    0.98

-----------------------------------------------
CPU time used                    :  00:04:28.70

Generator state:




***********************************************************
HOST = hpcsmp01, Linux

MersenneTwiter


snpair_ClosePairs test:
-----------------------------------------------
   N =  5,  n = 2000000,  r =  0,  t = 16,  p = 0,  m = 30,  Torus =  TRUE


---------------------------------------
Test based on the 2 nearest points (NP):

Stat. AD on the N values (NP)         :    1.77
p-value of test                       :    0.12


A2 test based on the spacings between the
   successive jump times of process Y_n(t):

A2 test on the values of A2 (m-NP)    :    0.88
p-value of test                       :    0.42

Test on the Nm values of W_{n,i}(mNP1):    0.57
p-value of test                       :    0.67

Test on the jump times of Y
   (superposition of Yn):

Expected number of jumps of Y = mN    :     150
Number of jumps of Y                  :     148
p-value of test                       :    0.54

Stat. AD (mNP2)                       :    1.75
p-value of test                       :    0.13

Stat. AD after spacings (mNP2-S)      :    1.00
p-value of test                       :    0.36

-----------------------------------------------
CPU time used                    :  00:05:11.32

Generator state:




***********************************************************
HOST = hpcsmp01, Linux

MersenneTwiter


sknuth_SimpPoker test:
-----------------------------------------------
   N =  1,  n = 400000000,  r =  0,   d =    8,   k =    8


-----------------------------------------------
Number of degrees of freedom          :    7
Chi-square statistic                  :   11.56
p-value of test                       :    0.12

-----------------------------------------------
CPU time used                    :  00:01:11.14

Generator state:




***********************************************************
HOST = hpcsmp01, Linux

MersenneTwiter


sknuth_SimpPoker test:
-----------------------------------------------
   N =  1,  n = 400000000,  r = 27,   d =    8,   k =    8


-----------------------------------------------
Number of degrees of freedom          :    7
Chi-square statistic                  :    3.09
p-value of test                       :    0.88

-----------------------------------------------
CPU time used                    :  00:01:24.06

Generator state:




***********************************************************
HOST = hpcsmp01, Linux

MersenneTwiter


sknuth_SimpPoker test:
-----------------------------------------------
   N =  1,  n = 100000000,  r =  0,   d =   32,   k =   32


-----------------------------------------------
Number of degrees of freedom          :   18
Chi-square statistic                  :   20.46
p-value of test                       :    0.31

-----------------------------------------------
CPU time used                    :  00:01:16.88

Generator state:




***********************************************************
HOST = hpcsmp01, Linux

MersenneTwiter


sknuth_SimpPoker test:
-----------------------------------------------
   N =  1,  n = 100000000,  r = 25,   d =   32,   k =   32


-----------------------------------------------
Number of degrees of freedom          :   18
Chi-square statistic                  :   23.68
p-value of test                       :    0.17

-----------------------------------------------
CPU time used                    :  00:01:29.09

Generator state:




***********************************************************
HOST = hpcsmp01, Linux

MersenneTwiter


sknuth_CouponCollector test:
-----------------------------------------------
   N =  1,  n = 200000000,  r =  0,   d =    8


-----------------------------------------------
Number of degrees of freedom          :   54
Chi-square statistic                  :   57.88
p-value of test                       :    0.33

-----------------------------------------------
CPU time used                    :  00:01:46.12

Generator state:




***********************************************************
HOST = hpcsmp01, Linux

MersenneTwiter


sknuth_CouponCollector test:
-----------------------------------------------
   N =  1,  n = 200000000,  r = 10,   d =    8


-----------------------------------------------
Number of degrees of freedom          :   54
Chi-square statistic                  :   41.83
p-value of test                       :    0.89

-----------------------------------------------
CPU time used                    :  00:02:03.79

Generator state:




***********************************************************
HOST = hpcsmp01, Linux

MersenneTwiter


sknuth_CouponCollector test:
-----------------------------------------------
   N =  1,  n = 200000000,  r = 20,   d =    8


-----------------------------------------------
Number of degrees of freedom          :   54
Chi-square statistic                  :   41.85
p-value of test                       :    0.89

-----------------------------------------------
CPU time used                    :  00:02:03.79

Generator state:




***********************************************************
HOST = hpcsmp01, Linux

MersenneTwiter


sknuth_CouponCollector test:
-----------------------------------------------
   N =  1,  n = 200000000,  r = 27,   d =    8


-----------------------------------------------
Number of degrees of freedom          :   54
Chi-square statistic                  :   48.76
p-value of test                       :    0.68

-----------------------------------------------
CPU time used                    :  00:02:03.54

Generator state:




***********************************************************
HOST = hpcsmp01, Linux

MersenneTwiter


sknuth_Gap test:
-----------------------------------------------
   N =  1,  n = 500000000,  r =  0,   Alpha =        0,   Beta  =   0.0625


-----------------------------------------------
Number of degrees of freedom          :  232
Chi-square statistic                  :  222.99
p-value of test                       :    0.65

-----------------------------------------------
CPU time used                    :  00:02:08.53

Generator state:




***********************************************************
HOST = hpcsmp01, Linux

MersenneTwiter


sknuth_Gap test:
-----------------------------------------------
   N =  1,  n = 300000000,  r = 25,   Alpha =        0,   Beta  =  0.03125


-----------------------------------------------
Number of degrees of freedom          :  434
Chi-square statistic                  :  458.26
p-value of test                       :    0.20

-----------------------------------------------
CPU time used                    :  00:03:02.02

Generator state:




***********************************************************
HOST = hpcsmp01, Linux

MersenneTwiter


sknuth_Gap test:
-----------------------------------------------
   N =  1,  n = 100000000,  r =  0,   Alpha =        0,   Beta  = 0.0078125


-----------------------------------------------
Number of degrees of freedom          : 1437
Chi-square statistic                  : 1473.12
p-value of test                       :    0.25

-----------------------------------------------
CPU time used                    :  00:03:13.67

Generator state:




***********************************************************
HOST = hpcsmp01, Linux

MersenneTwiter


sknuth_Gap test:
-----------------------------------------------
   N =  1,  n = 10000000,  r = 20,   Alpha =        0,   Beta  = 0.000976562


-----------------------------------------------
Number of degrees of freedom          : 7046
Chi-square statistic                  : 7080.04
p-value of test                       :    0.39

-----------------------------------------------
CPU time used                    :  00:03:08.10

Generator state:




***********************************************************
HOST = hpcsmp01, Linux

MersenneTwiter


sknuth_Run test:
-----------------------------------------------
   N =  5,  n = 1000000000,  r =  0,   Up = FALSE


-----------------------------------------------

Kolmogorov-Smirnov+ statistic = D+    :    0.51
p-value of test                       :    0.05

Kolmogorov-Smirnov- statistic = D-    :    0.13
p-value of test                       :    0.79

Anderson-Darling statistic = A2       :    2.34
p-value of test                       :    0.06

Test on the sum of all N observations
Number of degrees of freedom          :   30
Chi-square statistic                  :   16.98
p-value of test                       :    0.97

-----------------------------------------------
CPU time used                    :  00:01:45.14

Generator state:




***********************************************************
HOST = hpcsmp01, Linux

MersenneTwiter


sknuth_Run test:
-----------------------------------------------
   N = 10,  n = 1000000000,  r = 15,   Up =  TRUE


-----------------------------------------------

Kolmogorov-Smirnov+ statistic = D+    :    0.26
p-value of test                       :    0.22

Kolmogorov-Smirnov- statistic = D-    :   0.032
p-value of test                       :    0.96

Anderson-Darling statistic = A2       :    1.27
p-value of test                       :    0.24

Test on the sum of all N observations
Number of degrees of freedom          :   60
Chi-square statistic                  :   44.22
p-value of test                       :    0.94

-----------------------------------------------
CPU time used                    :  00:04:25.59

Generator state:




***********************************************************
Test sknuth_Permutation calling smultin_Multinomial

***********************************************************
HOST = hpcsmp01, Linux

MersenneTwiter


smultin_Multinomial test:
-----------------------------------------------
   N =  1,  n = 1000000000,  r =  5,   t =  3,
       Sparse =  FALSE

       GenerCell = smultin_GenerCellPermut
       Number of cells = t! =                  6
       Expected number per cell =  1.6666667e+08
       Hashing =  FALSE

   For Delta > -1, we use the ChiSquare approximation
   Correction factor of the ChiSquare: 
       Delta =     1,    Mu =  2.5000002e-09,    Sigma =          1

-----------------------------------------------
Test Results for Delta =   1.0000

Number of degrees of freedom          :    5
Value of the statistic                :    0.96
p-value of test                       :    0.97


-----------------------------------------------
CPU time used                    :  00:01:24.01

Generator state:




***********************************************************
Test sknuth_Permutation calling smultin_Multinomial

***********************************************************
HOST = hpcsmp01, Linux

MersenneTwiter


smultin_Multinomial test:
-----------------------------------------------
   N =  1,  n = 1000000000,  r =  5,   t =  5,
       Sparse =  FALSE

       GenerCell = smultin_GenerCellPermut
       Number of cells = t! =                120
       Expected number per cell =   8333333.3
       Hashing =  FALSE

   For Delta > -1, we use the ChiSquare approximation
   Correction factor of the ChiSquare: 
       Delta =     1,    Mu =  5.9500005e-08,    Sigma =          1

-----------------------------------------------
Test Results for Delta =   1.0000

Number of degrees of freedom          :  119
Value of the statistic                :  103.86
p-value of test                       :    0.84


-----------------------------------------------
CPU time used                    :  00:02:37.32

Generator state:




***********************************************************
Test sknuth_Permutation calling smultin_Multinomial

***********************************************************
HOST = hpcsmp01, Linux

MersenneTwiter


smultin_Multinomial test:
-----------------------------------------------
   N =  1,  n = 500000000,  r =  5,   t =  7,
       Sparse =  FALSE

       GenerCell = smultin_GenerCellPermut
       Number of cells = t! =               5040
       Expected number per cell =   99206.349
       Hashing =  FALSE

   For Delta > -1, we use the ChiSquare approximation
   Correction factor of the ChiSquare: 
       Delta =     1,    Mu =  5.0390004e-06,    Sigma =          1

-----------------------------------------------
Test Results for Delta =   1.0000

Number of degrees of freedom          : 5039
Value of the statistic                : 5129.57
p-value of test                       :    0.18


-----------------------------------------------
CPU time used                    :  00:02:03.14

Generator state:




***********************************************************
Test sknuth_Permutation calling smultin_Multinomial

***********************************************************
HOST = hpcsmp01, Linux

MersenneTwiter


smultin_Multinomial test:
-----------------------------------------------
   N =  1,  n = 500000000,  r = 10,   t = 10,
       Sparse =  FALSE

       GenerCell = smultin_GenerCellPermut
       Number of cells = t! =            3628800
       Expected number per cell =    137.7866
       Hashing =  FALSE

   For Delta > -1, we use the ChiSquare approximation
   Correction factor of the ChiSquare: 
       Delta =     1,    Mu =   0.0036287993,    Sigma =          1

-----------------------------------------------
Test Results for Delta =   1.0000

Number of degrees of freedom          : 3628799
Value of the statistic                : 3.63e+6
p-value of test                       :    0.26


-----------------------------------------------
CPU time used                    :  00:04:43.12

Generator state:




***********************************************************
Test sknuth_CollisionPermut calling smultin_Multinomial

***********************************************************
HOST = hpcsmp01, Linux

MersenneTwiter


smultin_Multinomial test:
-----------------------------------------------
   N = 20,  n = 20000000,  r =  0,   t = 14,
       Sparse =   TRUE

       GenerCell = smultin_GenerCellPermut
       Number of cells = t! =        87178291200
       Expected number per cell =  1 /  4358.9146
       EColl = n^2 / (2k) =   2294.14912
       Hashing =   TRUE

       Collision test,    Mu =      2293.9736,    Sigma =    47.8841

-----------------------------------------------
Test Results for Collisions

For the total number of collisions, we use
      the Poisson approximation:
Expected number of collisions = N*Mu  :    45879.47
Observed number of collisions         :    46166
p-value of test                       :    0.09


-----------------------------
Total number of cells containing j balls

  j =  0                              :    1743165870166
  j =  1                              :        399907671
  j =  2                              :            46160
  j =  3                              :                3
  j =  4                              :                0
  j =  5                              :                0

-----------------------------------------------
CPU time used                    :  00:07:01.13

Generator state:




***********************************************************
Test sknuth_CollisionPermut calling smultin_Multinomial

***********************************************************
HOST = hpcsmp01, Linux

MersenneTwiter


smultin_Multinomial test:
-----------------------------------------------
   N = 20,  n = 20000000,  r = 10,   t = 14,
       Sparse =   TRUE

       GenerCell = smultin_GenerCellPermut
       Number of cells = t! =        87178291200
       Expected number per cell =  1 /  4358.9146
       EColl = n^2 / (2k) =   2294.14912
       Hashing =   TRUE

       Collision test,    Mu =      2293.9736,    Sigma =    47.8841

-----------------------------------------------
Test Results for Collisions

For the total number of collisions, we use
      the Poisson approximation:
Expected number of collisions = N*Mu  :    45879.47
Observed number of collisions         :    45338
p-value of test                       :    0.9943


-----------------------------
Total number of cells containing j balls

  j =  0                              :    1743165869338
  j =  1                              :        399909327
  j =  2                              :            45332
  j =  3                              :                3
  j =  4                              :                0
  j =  5                              :                0

-----------------------------------------------
CPU time used                    :  00:07:08.29

Generator state:




***********************************************************
HOST = hpcsmp01, Linux

MersenneTwiter


sknuth_MaxOft test:
-----------------------------------------------
   N = 40,  n = 10000000,  r =  0,   d = 100000,   t =  8

      Number of categories = 100000
      Expected number per category  = 100.00


-----------------------------------------------
Test results for chi2 with 99999 degrees of freedom:

Kolmogorov-Smirnov+ statistic = D+    :    0.13
p-value of test                       :    0.25

Kolmogorov-Smirnov- statistic = D-    :   0.037
p-value of test                       :    0.87

Anderson-Darling statistic = A2       :    0.95
p-value of test                       :    0.38

Test on the sum of all N observations
Number of degrees of freedom          : 3999960
Chi-square statistic                  : 4.00e+6
p-value of test                       :    0.88


-----------------------------------------------
Test results for Anderson-Darling:

Kolmogorov-Smirnov+ statistic = D+    :   0.080
p-value of test                       :    0.57

Kolmogorov-Smirnov- statistic = D-    :    0.14
p-value of test                       :    0.18

Anderson-Darling statistic = A2       :    1.08
p-value of test                       :    0.32


-----------------------------------------------
CPU time used                    :  00:04:19.03

Generator state:




***********************************************************
HOST = hpcsmp01, Linux

MersenneTwiter


sknuth_MaxOft test:
-----------------------------------------------
   N = 30,  n = 10000000,  r =  0,   d = 100000,   t = 16

      Number of categories = 100000
      Expected number per category  = 100.00


-----------------------------------------------
Test results for chi2 with 99999 degrees of freedom:

Kolmogorov-Smirnov+ statistic = D+    :    0.15
p-value of test                       :    0.23

Kolmogorov-Smirnov- statistic = D-    :   0.067
p-value of test                       :    0.73

Anderson-Darling statistic = A2       :    0.55
p-value of test                       :    0.70

Test on the sum of all N observations
Number of degrees of freedom          : 2999970
Chi-square statistic                  : 3.00e+6
p-value of test                       :    0.71


-----------------------------------------------
Test results for Anderson-Darling:

Kolmogorov-Smirnov+ statistic = D+    :    0.24
p-value of test                       :    0.02

Kolmogorov-Smirnov- statistic = D-    :   0.041
p-value of test                       :    0.88

Anderson-Darling statistic = A2       :    1.86
p-value of test                       :    0.11


-----------------------------------------------
CPU time used                    :  00:03:55.77

Generator state:




***********************************************************
HOST = hpcsmp01, Linux

MersenneTwiter


sknuth_MaxOft test:
-----------------------------------------------
   N = 20,  n = 10000000,  r =  0,   d = 100000,   t = 24

      Number of categories = 100000
      Expected number per category  = 100.00


-----------------------------------------------
Test results for chi2 with 99999 degrees of freedom:

Kolmogorov-Smirnov+ statistic = D+    :   0.019
p-value of test                       :    0.97

Kolmogorov-Smirnov- statistic = D-    :    0.18
p-value of test                       :    0.23

Anderson-Darling statistic = A2       :    0.78
p-value of test                       :    0.49

Test on the sum of all N observations
Number of degrees of freedom          : 1999980
Chi-square statistic                  : 2.00e+6
p-value of test                       :    0.10


-----------------------------------------------
Test results for Anderson-Darling:

Kolmogorov-Smirnov+ statistic = D+    :    0.21
p-value of test                       :    0.15

Kolmogorov-Smirnov- statistic = D-    :   0.018
p-value of test                       :    0.97

Anderson-Darling statistic = A2       :    1.32
p-value of test                       :    0.23


-----------------------------------------------
CPU time used                    :  00:03:01.62

Generator state:




***********************************************************
HOST = hpcsmp01, Linux

MersenneTwiter


sknuth_MaxOft test:
-----------------------------------------------
   N = 20,  n = 10000000,  r =  0,   d = 100000,   t = 32

      Number of categories = 100000
      Expected number per category  = 100.00


-----------------------------------------------
Test results for chi2 with 99999 degrees of freedom:

Kolmogorov-Smirnov+ statistic = D+    :    0.11
p-value of test                       :    0.59

Kolmogorov-Smirnov- statistic = D-    :   0.092
p-value of test                       :    0.67

Anderson-Darling statistic = A2       :    0.26
p-value of test                       :    0.97

Test on the sum of all N observations
Number of degrees of freedom          : 1999980
Chi-square statistic                  : 2.00e+6
p-value of test                       :    0.57


-----------------------------------------------
Test results for Anderson-Darling:

Kolmogorov-Smirnov+ statistic = D+    :    0.13
p-value of test                       :    0.48

Kolmogorov-Smirnov- statistic = D-    :    0.15
p-value of test                       :    0.38

Anderson-Darling statistic = A2       :    0.95
p-value of test                       :    0.38


-----------------------------------------------
CPU time used                    :  00:03:30.70

Generator state:




***********************************************************
HOST = hpcsmp01, Linux

MersenneTwiter


svaria_SampleProd test:
-----------------------------------------------
   N = 40,  n = 10000000,  r =  0,   t = 8


-----------------------------------------------

Kolmogorov-Smirnov+ statistic = D+    :   0.079
p-value of test                       :    0.57

Kolmogorov-Smirnov- statistic = D-    :    0.20
p-value of test                       :    0.04

Anderson-Darling statistic = A2       :    2.62
p-value of test                       :    0.04

-----------------------------------------------
CPU time used                    :  00:03:17.95

Generator state:




***********************************************************
HOST = hpcsmp01, Linux

MersenneTwiter


svaria_SampleProd test:
-----------------------------------------------
   N = 20,  n = 10000000,  r =  0,   t = 16


-----------------------------------------------

Kolmogorov-Smirnov+ statistic = D+    :    0.19
p-value of test                       :    0.22

Kolmogorov-Smirnov- statistic = D-    :    0.13
p-value of test                       :    0.48

Anderson-Darling statistic = A2       :    0.85
p-value of test                       :    0.45

-----------------------------------------------
CPU time used                    :  00:02:18.34

Generator state:




***********************************************************
HOST = hpcsmp01, Linux

MersenneTwiter


svaria_SampleProd test:
-----------------------------------------------
   N = 20,  n = 10000000,  r =  0,   t = 24


-----------------------------------------------

Kolmogorov-Smirnov+ statistic = D+    :    0.14
p-value of test                       :    0.40

Kolmogorov-Smirnov- statistic = D-    :   0.052
p-value of test                       :    0.87

Anderson-Darling statistic = A2       :    0.71
p-value of test                       :    0.55

-----------------------------------------------
CPU time used                    :  00:02:54.47

Generator state:




***********************************************************
HOST = hpcsmp01, Linux

MersenneTwiter


svaria_SampleMean test:
-----------------------------------------------
   N = 20000000,  n = 30,  r =  0


-----------------------------------------------

Kolmogorov-Smirnov+ statistic = D+    : 9.41e-5
p-value of test                       :    0.70

Kolmogorov-Smirnov- statistic = D-    : 1.83e-4
p-value of test                       :    0.26

Anderson-Darling statistic = A2       :    0.88
p-value of test                       :    0.43

-----------------------------------------------
CPU time used                    :  00:00:41.12

Generator state:




***********************************************************
HOST = hpcsmp01, Linux

MersenneTwiter


svaria_SampleMean test:
-----------------------------------------------
   N = 20000000,  n = 30,  r = 10


-----------------------------------------------

Kolmogorov-Smirnov+ statistic = D+    : 6.13e-5
p-value of test                       :    0.86

Kolmogorov-Smirnov- statistic = D-    : 1.51e-4
p-value of test                       :    0.40

Anderson-Darling statistic = A2       :    0.46
p-value of test                       :    0.78

-----------------------------------------------
CPU time used                    :  00:00:42.82

Generator state:




***********************************************************
HOST = hpcsmp01, Linux

MersenneTwiter


svaria_SampleCorr test:
-----------------------------------------------
   N =  1,  n = 2000000000,  r =  0,   k = 1


-----------------------------------------------
Normal statistic                      :   -1.19
p-value of test                       :    0.88

-----------------------------------------------
CPU time used                    :  00:00:39.54

Generator state:




***********************************************************
HOST = hpcsmp01, Linux

MersenneTwiter


svaria_SampleCorr test:
-----------------------------------------------
   N =  1,  n = 2000000000,  r =  0,   k = 2


-----------------------------------------------
Normal statistic                      :    0.30
p-value of test                       :    0.38

-----------------------------------------------
CPU time used                    :  00:00:39.68

Generator state:




***********************************************************
HOST = hpcsmp01, Linux

MersenneTwiter


svaria_AppearanceSpacings test:
-----------------------------------------------
   N =  1,   Q = 10000000,   K = 1000000000,   r = 0,   s = 3,   L = 15

   Sequences of n = (K + Q)L =  15150000000 bits
   Q = 10000000 initialization blocks
   K = 1000000000 blocks for the test
   the blocks have L = 15 bits



-----------------------------------------------
Normal statistic                      :    0.11
p-value of test                       :    0.46

-----------------------------------------------
CPU time used                    :  00:02:30.52

Generator state:




***********************************************************
HOST = hpcsmp01, Linux

MersenneTwiter


svaria_AppearanceSpacings test:
-----------------------------------------------
   N =  1,   Q = 10000000,   K = 1000000000,   r = 27,   s = 3,   L = 15

   Sequences of n = (K + Q)L =  15150000000 bits
   Q = 10000000 initialization blocks
   K = 1000000000 blocks for the test
   the blocks have L = 15 bits



-----------------------------------------------
Normal statistic                      :   -2.03
p-value of test                       :    0.98

-----------------------------------------------
CPU time used                    :  00:02:44.00

Generator state:




***********************************************************
HOST = hpcsmp01, Linux

MersenneTwiter


svaria_WeightDistrib test:
-----------------------------------------------
   N =  1,  n = 20000000,  r =  0,  k = 256,  Alpha =      0,  Beta =   0.25


-----------------------------------------------
Number of degrees of freedom          :   67
Chi-square statistic                  :   78.67
p-value of test                       :    0.16

-----------------------------------------------
CPU time used                    :  00:01:15.79

Generator state:




***********************************************************
HOST = hpcsmp01, Linux

MersenneTwiter


svaria_WeightDistrib test:
-----------------------------------------------
   N =  1,  n = 20000000,  r = 20,  k = 256,  Alpha =      0,  Beta =   0.25


-----------------------------------------------
Number of degrees of freedom          :   67
Chi-square statistic                  :   56.14
p-value of test                       :    0.83

-----------------------------------------------
CPU time used                    :  00:01:35.70

Generator state:




***********************************************************
HOST = hpcsmp01, Linux

MersenneTwiter


svaria_WeightDistrib test:
-----------------------------------------------
   N =  1,  n = 20000000,  r = 28,  k = 256,  Alpha =      0,  Beta =   0.25


-----------------------------------------------
Number of degrees of freedom          :   67
Chi-square statistic                  :   75.96
p-value of test                       :    0.21

-----------------------------------------------
CPU time used                    :  00:01:35.67

Generator state:




***********************************************************
HOST = hpcsmp01, Linux

MersenneTwiter


svaria_WeightDistrib test:
-----------------------------------------------
   N =  1,  n = 20000000,  r =  0,  k = 256,  Alpha =      0,  Beta = 0.0625


-----------------------------------------------
Number of degrees of freedom          :   37
Chi-square statistic                  :   31.03
p-value of test                       :    0.74

-----------------------------------------------
CPU time used                    :  00:01:18.06

Generator state:




***********************************************************
HOST = hpcsmp01, Linux

MersenneTwiter


svaria_WeightDistrib test:
-----------------------------------------------
   N =  1,  n = 20000000,  r = 10,  k = 256,  Alpha =      0,  Beta = 0.0625


-----------------------------------------------
Number of degrees of freedom          :   37
Chi-square statistic                  :   39.38
p-value of test                       :    0.36

-----------------------------------------------
CPU time used                    :  00:01:34.67

Generator state:




***********************************************************
HOST = hpcsmp01, Linux

MersenneTwiter


svaria_WeightDistrib test:
-----------------------------------------------
   N =  1,  n = 20000000,  r = 26,  k = 256,  Alpha =      0,  Beta = 0.0625


-----------------------------------------------
Number of degrees of freedom          :   37
Chi-square statistic                  :   31.94
p-value of test                       :    0.70

-----------------------------------------------
CPU time used                    :  00:01:34.71

Generator state:




***********************************************************
HOST = hpcsmp01, Linux

MersenneTwiter


svaria_SumCollector test:
-----------------------------------------------
   N =  1,  n = 500000000,  r =  0,   g = 10


-----------------------------------------------
Number of degrees of freedom          :   29
Chi-square statistic                  :   31.76
p-value of test                       :    0.33

-----------------------------------------------
CPU time used                    :  00:02:40.80

Generator state:




***********************************************************
HOST = hpcsmp01, Linux

MersenneTwiter


smarsa_MatrixRank test:
-----------------------------------------------
   N = 10,  n = 1000000,  r =  0,    s = 5,    L = 30,    k = 30


-----------------------------------------------

Kolmogorov-Smirnov+ statistic = D+    :    0.13
p-value of test                       :    0.66

Kolmogorov-Smirnov- statistic = D-    :    0.15
p-value of test                       :    0.60

Anderson-Darling statistic = A2       :    0.21
p-value of test                       :    0.99

Test on the sum of all N observations
Number of degrees of freedom          :   40
Chi-square statistic                  :   39.74
p-value of test                       :    0.48

-----------------------------------------------
CPU time used                    :  00:01:54.51

Generator state:




***********************************************************
HOST = hpcsmp01, Linux

MersenneTwiter


smarsa_MatrixRank test:
-----------------------------------------------
   N = 10,  n = 1000000,  r = 25,    s = 5,    L = 30,    k = 30


-----------------------------------------------

Kolmogorov-Smirnov+ statistic = D+    :    0.21
p-value of test                       :    0.36

Kolmogorov-Smirnov- statistic = D-    :   0.093
p-value of test                       :    0.79

Anderson-Darling statistic = A2       :    0.76
p-value of test                       :    0.51

Test on the sum of all N observations
Number of degrees of freedom          :   40
Chi-square statistic                  :   37.61
p-value of test                       :    0.58

-----------------------------------------------
CPU time used                    :  00:01:54.14

Generator state:




***********************************************************
HOST = hpcsmp01, Linux

MersenneTwiter


smarsa_MatrixRank test:
-----------------------------------------------
   N =  1,  n = 5000,  r =  0,    s = 4,    L = 1000,    k = 1000


-----------------------------------------------
Number of degrees of freedom          :    3
Chi-square statistic                  :    8.43
p-value of test                       :    0.04

-----------------------------------------------
CPU time used                    :  00:05:58.17

Generator state:




***********************************************************
HOST = hpcsmp01, Linux

MersenneTwiter


smarsa_MatrixRank test:
-----------------------------------------------
   N =  1,  n = 5000,  r = 26,    s = 4,    L = 1000,    k = 1000


-----------------------------------------------
Number of degrees of freedom          :    3
Chi-square statistic                  :    5.68
p-value of test                       :    0.13

-----------------------------------------------
CPU time used                    :  00:06:06.37

Generator state:




***********************************************************
HOST = hpcsmp01, Linux

MersenneTwiter


smarsa_MatrixRank test:
-----------------------------------------------
   N =  1,  n = 80,  r = 15,    s = 15,    L = 5000,    k = 5000


-----------------------------------------------
Number of degrees of freedom          :    2
Chi-square statistic                  :    3.07
p-value of test                       :    0.22

-----------------------------------------------
CPU time used                    :  00:05:05.97

Generator state:




***********************************************************
HOST = hpcsmp01, Linux

MersenneTwiter


smarsa_MatrixRank test:
-----------------------------------------------
   N =  1,  n = 80,  r =  0,    s = 30,    L = 5000,    k = 5000


-----------------------------------------------
Number of degrees of freedom          :    2
Chi-square statistic                  :    0.76
p-value of test                       :    0.69

-----------------------------------------------
CPU time used                    :  00:10:36.13

Generator state:




***********************************************************
HOST = hpcsmp01, Linux

MersenneTwiter


smarsa_Savir2 test:
-----------------------------------------------
   N = 10,  n = 10000000,  r = 10,    m = 1048576,    t = 30


-----------------------------------------------

Kolmogorov-Smirnov+ statistic = D+    :    0.16
p-value of test                       :    0.53

Kolmogorov-Smirnov- statistic = D-    :    0.22
p-value of test                       :    0.35

Anderson-Darling statistic = A2       :    0.81
p-value of test                       :    0.47

Test on the sum of all N observations
Number of degrees of freedom          :  130
Chi-square statistic                  :  135.52
p-value of test                       :    0.35

-----------------------------------------------
CPU time used                    :  00:00:52.54

Generator state:




***********************************************************
HOST = hpcsmp01, Linux

MersenneTwiter


smarsa_GCD test:
-----------------------------------------------
   N = 10,  n = 50000000,  r =  0,   s = 30


-----------------------------------------------
Test results for GCD values:

Kolmogorov-Smirnov+ statistic = D+    :    0.20
p-value of test                       :    0.39

Kolmogorov-Smirnov- statistic = D-    :    0.16
p-value of test                       :    0.54

Anderson-Darling statistic = A2       :    0.54
p-value of test                       :    0.71

Test on the sum of all N observations
Number of degrees of freedom          : 17430
Chi-square statistic                  :17480.67
p-value of test                       :    0.39



-----------------------------------------------
CPU time used                    :  00:02:16.97

Generator state:




***********************************************************
HOST = hpcsmp01, Linux

MersenneTwiter


swalk_RandomWalk1 test:
-----------------------------------------------
   N =  1,  n = 100000000,  r =  0,   s = 5,   L0 =   50,   L1 =   50



-----------------------------------------------
Test on the values of the Statistic H

Number of degrees of freedom          :   36
ChiSquare statistic                   :   41.86
p-value of test                       :    0.23


-----------------------------------------------
Test on the values of the Statistic M

Number of degrees of freedom          :   35
ChiSquare statistic                   :   37.43
p-value of test                       :    0.36


-----------------------------------------------
Test on the values of the Statistic J

Number of degrees of freedom          :   25
ChiSquare statistic                   :   25.96
p-value of test                       :    0.41


-----------------------------------------------
Test on the values of the Statistic R

Number of degrees of freedom          :   24
ChiSquare statistic                   :   12.78
p-value of test                       :    0.97


-----------------------------------------------
Test on the values of the Statistic C

Number of degrees of freedom          :   17
ChiSquare statistic                   :   17.84
p-value of test                       :    0.40


-----------------------------------------------
CPU time used                    :  00:01:16.15

Generator state:




***********************************************************
HOST = hpcsmp01, Linux

MersenneTwiter


swalk_RandomWalk1 test:
-----------------------------------------------
   N =  1,  n = 100000000,  r = 25,   s = 5,   L0 =   50,   L1 =   50



-----------------------------------------------
Test on the values of the Statistic H

Number of degrees of freedom          :   36
ChiSquare statistic                   :   30.49
p-value of test                       :    0.73


-----------------------------------------------
Test on the values of the Statistic M

Number of degrees of freedom          :   35
ChiSquare statistic                   :   23.27
p-value of test                       :    0.94


-----------------------------------------------
Test on the values of the Statistic J

Number of degrees of freedom          :   25
ChiSquare statistic                   :   13.66
p-value of test                       :    0.97


-----------------------------------------------
Test on the values of the Statistic R

Number of degrees of freedom          :   24
ChiSquare statistic                   :   23.28
p-value of test                       :    0.50


-----------------------------------------------
Test on the values of the Statistic C

Number of degrees of freedom          :   17
ChiSquare statistic                   :   14.06
p-value of test                       :    0.66


-----------------------------------------------
CPU time used                    :  00:01:19.00

Generator state:




***********************************************************
HOST = hpcsmp01, Linux

MersenneTwiter


swalk_RandomWalk1 test:
-----------------------------------------------
   N =  1,  n = 10000000,  r =  0,   s = 10,   L0 = 1000,   L1 = 1000



-----------------------------------------------
Test on the values of the Statistic H

Number of degrees of freedom          :  146
ChiSquare statistic                   :  135.63
p-value of test                       :    0.72


-----------------------------------------------
Test on the values of the Statistic M

Number of degrees of freedom          :  146
ChiSquare statistic                   :  128.28
p-value of test                       :    0.85


-----------------------------------------------
Test on the values of the Statistic J

Number of degrees of freedom          :  500
ChiSquare statistic                   :  494.57
p-value of test                       :    0.56


-----------------------------------------------
Test on the values of the Statistic R

Number of degrees of freedom          :  136
ChiSquare statistic                   :  142.64
p-value of test                       :    0.33


-----------------------------------------------
Test on the values of the Statistic C

Number of degrees of freedom          :   74
ChiSquare statistic                   :   89.58
p-value of test                       :    0.10


-----------------------------------------------
CPU time used                    :  00:02:16.02

Generator state:




***********************************************************
HOST = hpcsmp01, Linux

MersenneTwiter


swalk_RandomWalk1 test:
-----------------------------------------------
   N =  1,  n = 10000000,  r = 20,   s = 10,   L0 = 1000,   L1 = 1000



-----------------------------------------------
Test on the values of the Statistic H

Number of degrees of freedom          :  146
ChiSquare statistic                   :  136.43
p-value of test                       :    0.70


-----------------------------------------------
Test on the values of the Statistic M

Number of degrees of freedom          :  146
ChiSquare statistic                   :  138.57
p-value of test                       :    0.66


-----------------------------------------------
Test on the values of the Statistic J

Number of degrees of freedom          :  500
ChiSquare statistic                   :  518.86
p-value of test                       :    0.27


-----------------------------------------------
Test on the values of the Statistic R

Number of degrees of freedom          :  136
ChiSquare statistic                   :  110.60
p-value of test                       :    0.95


-----------------------------------------------
Test on the values of the Statistic C

Number of degrees of freedom          :   74
ChiSquare statistic                   :   86.74
p-value of test                       :    0.15


-----------------------------------------------
CPU time used                    :  00:02:20.63

Generator state:




***********************************************************
HOST = hpcsmp01, Linux

MersenneTwiter


swalk_RandomWalk1 test:
-----------------------------------------------
   N =  1,  n = 1000000,  r =  0,   s = 15,   L0 = 10000,   L1 = 10000



-----------------------------------------------
Test on the values of the Statistic H

Number of degrees of freedom          :  384
ChiSquare statistic                   :  411.03
p-value of test                       :    0.16


-----------------------------------------------
Test on the values of the Statistic M

Number of degrees of freedom          :  384
ChiSquare statistic                   :  396.80
p-value of test                       :    0.32


-----------------------------------------------
Test on the values of the Statistic J

Number of degrees of freedom          : 5000
ChiSquare statistic                   : 5186.31
p-value of test                       :    0.03


-----------------------------------------------
Test on the values of the Statistic R

Number of degrees of freedom          :  378
ChiSquare statistic                   :  347.68
p-value of test                       :    0.87


-----------------------------------------------
Test on the values of the Statistic C

Number of degrees of freedom          :  200
ChiSquare statistic                   :  209.23
p-value of test                       :    0.31


-----------------------------------------------
CPU time used                    :  00:02:14.40

Generator state:




***********************************************************
HOST = hpcsmp01, Linux

MersenneTwiter


swalk_RandomWalk1 test:
-----------------------------------------------
   N =  1,  n = 1000000,  r = 15,   s = 15,   L0 = 10000,   L1 = 10000



-----------------------------------------------
Test on the values of the Statistic H

Number of degrees of freedom          :  384
ChiSquare statistic                   :  368.60
p-value of test                       :    0.71


-----------------------------------------------
Test on the values of the Statistic M

Number of degrees of freedom          :  384
ChiSquare statistic                   :  383.71
p-value of test                       :    0.49


-----------------------------------------------
Test on the values of the Statistic J

Number of degrees of freedom          : 5000
ChiSquare statistic                   : 5014.67
p-value of test                       :    0.44


-----------------------------------------------
Test on the values of the Statistic R

Number of degrees of freedom          :  378
ChiSquare statistic                   :  359.39
p-value of test                       :    0.75


-----------------------------------------------
Test on the values of the Statistic C

Number of degrees of freedom          :  200
ChiSquare statistic                   :  217.28
p-value of test                       :    0.19


-----------------------------------------------
CPU time used                    :  00:02:19.56

Generator state:




***********************************************************
HOST = hpcsmp01, Linux

MersenneTwiter


scomp_LinearComp test:
-----------------------------------------------
   N =  1,  n = 400020,  r =  0,    s = 1



-----------------------------------------------
Number of degrees of freedom          :   12
Chi2 statistic for size of jumps      :   14.32
p-value of test                       :    0.28


-----------------------------------------------
Normal statistic for number of jumps  : -403.30
p-value of test                       : 1 - eps1    *****



-----------------------------------------------
CPU time used                    :  00:00:13.54

Generator state:




***********************************************************
HOST = hpcsmp01, Linux

MersenneTwiter


scomp_LinearComp test:
-----------------------------------------------
   N =  1,  n = 400020,  r = 29,    s = 1



-----------------------------------------------
Number of degrees of freedom          :   12
Chi2 statistic for size of jumps      :    8.38
p-value of test                       :    0.75


-----------------------------------------------
Normal statistic for number of jumps  : -402.74
p-value of test                       : 1 - eps1    *****



-----------------------------------------------
CPU time used                    :  00:00:13.56

Generator state:




***********************************************************
HOST = hpcsmp01, Linux

MersenneTwiter


scomp_LempelZiv test:
-----------------------------------------------
   N = 10,  n = 134217728,  r =  0,   s =   30,   k =   27


-----------------------------------------------

Kolmogorov-Smirnov+ statistic = D+    :    0.43
p-value of test                       :    0.02

Kolmogorov-Smirnov- statistic = D-    :   0.035
p-value of test                       :    0.95

Anderson-Darling statistic = A2       :    3.67
p-value of test                       :    0.01

Tests on the sum of all N observations
Standardized normal statistic         :   -2.41
p-value of test                       :    0.9921

Sample variance                       :    1.10
p-value of test                       :    0.36

-----------------------------------------------
CPU time used                    :  00:01:33.16

Generator state:




***********************************************************
HOST = hpcsmp01, Linux

MersenneTwiter


scomp_LempelZiv test:
-----------------------------------------------
   N = 10,  n = 134217728,  r = 15,   s =   15,   k =   27


-----------------------------------------------

Kolmogorov-Smirnov+ statistic = D+    :    0.12
p-value of test                       :    0.71

Kolmogorov-Smirnov- statistic = D-    :    0.22
p-value of test                       :    0.34

Anderson-Darling statistic = A2       :    0.72
p-value of test                       :    0.54

Tests on the sum of all N observations
Standardized normal statistic         :    0.73
p-value of test                       :    0.23

Sample variance                       :    1.66
p-value of test                       :    0.09

-----------------------------------------------
CPU time used                    :  00:01:35.43

Generator state:




***********************************************************
HOST = hpcsmp01, Linux

MersenneTwiter


sspectral_Fourier3 test:
-----------------------------------------------
   N = 100000,  n = 16384,  r =  0,   s =    3,   k =   14


-----------------------------------------------

Kolmogorov-Smirnov+ statistic = D+    :   0.016
p-value of test                       :    0.14

Kolmogorov-Smirnov- statistic = D-    :   0.014
p-value of test                       :    0.21

Anderson-Darling statistic = A2       :    0.96
p-value of test                       :    0.38

-----------------------------------------------
CPU time used                    :  00:01:04.38

Generator state:




***********************************************************
HOST = hpcsmp01, Linux

MersenneTwiter


sspectral_Fourier3 test:
-----------------------------------------------
   N = 100000,  n = 16384,  r = 27,   s =    3,   k =   14


-----------------------------------------------

Kolmogorov-Smirnov+ statistic = D+    :   0.021
p-value of test                       :    0.03

Kolmogorov-Smirnov- statistic = D-    : 8.30e-3
p-value of test                       :    0.57

Anderson-Darling statistic = A2       :    1.37
p-value of test                       :    0.21

-----------------------------------------------
CPU time used                    :  00:01:04.72

Generator state:




***********************************************************
HOST = hpcsmp01, Linux

MersenneTwiter


sstring_LongestHeadRun test:
-----------------------------------------------
   N =  1,  n = 1000,  r =  0,   s = 3,   L = 10000020


-----------------------------------------------
Number of degrees of freedom          :    8
Chi-square statistic                  :    1.42
p-value of test                       :    0.9939

-----------------------------------------------
Global longest run of 1               :   37.00
p-value of test                       :    0.04



-----------------------------------------------
CPU time used                    :  00:02:08.43

Generator state:




***********************************************************
HOST = hpcsmp01, Linux

MersenneTwiter


sstring_LongestHeadRun test:
-----------------------------------------------
   N =  1,  n = 1000,  r = 27,   s = 3,   L = 10000020


-----------------------------------------------
Number of degrees of freedom          :    8
Chi-square statistic                  :    7.56
p-value of test                       :    0.48

-----------------------------------------------
Global longest run of 1               :   33.00
p-value of test                       :    0.44



-----------------------------------------------
CPU time used                    :  00:01:56.20

Generator state:




***********************************************************
HOST = hpcsmp01, Linux

MersenneTwiter


sstring_PeriodsInStrings test:
-----------------------------------------------
   N = 10,  n = 500000000,  r =  0,   s =   10


-----------------------------------------------

Kolmogorov-Smirnov+ statistic = D+    :   0.077
p-value of test                       :    0.85

Kolmogorov-Smirnov- statistic = D-    :    0.26
p-value of test                       :    0.22

Anderson-Darling statistic = A2       :    0.78
p-value of test                       :    0.50

Test on the sum of all N observations
Number of degrees of freedom          :  200
Chi-square statistic                  :  216.11
p-value of test                       :    0.21

-----------------------------------------------
CPU time used                    :  00:03:17.33

Generator state:




***********************************************************
HOST = hpcsmp01, Linux

MersenneTwiter


sstring_PeriodsInStrings test:
-----------------------------------------------
   N = 10,  n = 500000000,  r = 20,   s =   10


-----------------------------------------------

Kolmogorov-Smirnov+ statistic = D+    :   0.091
p-value of test                       :    0.80

Kolmogorov-Smirnov- statistic = D-    :    0.32
p-value of test                       :    0.10

Anderson-Darling statistic = A2       :    1.09
p-value of test                       :    0.31

Test on the sum of all N observations
Number of degrees of freedom          :  200
Chi-square statistic                  :  215.18
p-value of test                       :    0.22

-----------------------------------------------
CPU time used                    :  00:04:12.84

Generator state:




***********************************************************
HOST = hpcsmp01, Linux

MersenneTwiter


sstring_HammingWeight2 test:
-----------------------------------------------
   N = 10,  n = 1000000000,  r =  0,   s = 3,   L = 1000000


-----------------------------------------------

Kolmogorov-Smirnov+ statistic = D+    :    0.29
p-value of test                       :    0.16

Kolmogorov-Smirnov- statistic = D-    :   0.053
p-value of test                       :    0.92

Anderson-Darling statistic = A2       :    1.39
p-value of test                       :    0.21

Test on the sum of all N observations
Number of degrees of freedom          : 10000
Chi-square statistic                  : 9800.35
p-value of test                       :    0.92

-----------------------------------------------
CPU time used                    :  00:01:20.41

Generator state:




***********************************************************
HOST = hpcsmp01, Linux

MersenneTwiter


sstring_HammingWeight2 test:
-----------------------------------------------
   N = 10,  n = 1000000000,  r = 27,   s = 3,   L = 1000000


-----------------------------------------------

Kolmogorov-Smirnov+ statistic = D+    :   0.073
p-value of test                       :    0.86

Kolmogorov-Smirnov- statistic = D-    :    0.27
p-value of test                       :    0.20

Anderson-Darling statistic = A2       :    0.72
p-value of test                       :    0.54

Test on the sum of all N observations
Number of degrees of freedom          : 10000
Chi-square statistic                  :10120.71
p-value of test                       :    0.20

-----------------------------------------------
CPU time used                    :  00:01:31.25

Generator state:




***********************************************************
HOST = hpcsmp01, Linux

MersenneTwiter


sstring_HammingCorr test:
-----------------------------------------------
   N =  1,  n = 1000000000,  r = 10,   s = 10,   L = 30



-----------------------------------------------
Normal statistic                      :    0.56
p-value of test                       :    0.29

-----------------------------------------------
CPU time used                    :  00:01:47.40

Generator state:




***********************************************************
HOST = hpcsmp01, Linux

MersenneTwiter


sstring_HammingCorr test:
-----------------------------------------------
   N =  1,  n = 100000000,  r = 10,   s = 10,   L = 300



-----------------------------------------------
Normal statistic                      :    2.34
p-value of test                       :  9.8e-3

-----------------------------------------------
CPU time used                    :  00:01:42.43

Generator state:




***********************************************************
HOST = hpcsmp01, Linux

MersenneTwiter


sstring_HammingCorr test:
-----------------------------------------------
   N =  1,  n = 100000000,  r = 10,   s = 10,   L = 1200



-----------------------------------------------
Normal statistic                      :    0.73
p-value of test                       :    0.23

-----------------------------------------------
CPU time used                    :  00:06:44.27

Generator state:




***********************************************************
HOST = hpcsmp01, Linux

MersenneTwiter


sstring_HammingIndep test:
-----------------------------------------------
   N = 10,  n = 30000000,  r =  0,   s = 3,   L = 30,   d = 0



Counters with expected numbers >= 10
-----------------------------------------------

Kolmogorov-Smirnov+ statistic = D+    :    0.15
p-value of test                       :    0.60

Kolmogorov-Smirnov- statistic = D-    :    0.17
p-value of test                       :    0.49

Anderson-Darling statistic = A2       :    0.38
p-value of test                       :    0.87

Test on the sum of all N observations
Number of degrees of freedom          : 4890
Chi-square statistic                  : 4902.58
p-value of test                       :    0.45

-----------------------------------------------
CPU time used                    :  00:02:40.84

Generator state:




***********************************************************
HOST = hpcsmp01, Linux

MersenneTwiter


sstring_HammingIndep test:
-----------------------------------------------
   N = 10,  n = 30000000,  r = 27,   s = 3,   L = 30,   d = 0



Counters with expected numbers >= 10
-----------------------------------------------

Kolmogorov-Smirnov+ statistic = D+    :   0.053
p-value of test                       :    0.91

Kolmogorov-Smirnov- statistic = D-    :    0.30
p-value of test                       :    0.14

Anderson-Darling statistic = A2       :    1.37
p-value of test                       :    0.21

Test on the sum of all N observations
Number of degrees of freedom          : 4890
Chi-square statistic                  : 5027.43
p-value of test                       :    0.08

-----------------------------------------------
CPU time used                    :  00:03:00.97

Generator state:




***********************************************************
HOST = hpcsmp01, Linux

MersenneTwiter


sstring_HammingIndep test:
-----------------------------------------------
   N =  1,  n = 30000000,  r =  0,   s = 4,   L = 300,   d = 0



Counters with expected numbers >= 10
-----------------------------------------------
Number of degrees of freedom          : 4117
Chi-square statistic                  : 4165.87
p-value of test                       :    0.29

-----------------------------------------------
CPU time used                    :  00:01:57.95

Generator state:




***********************************************************
HOST = hpcsmp01, Linux

MersenneTwiter


sstring_HammingIndep test:
-----------------------------------------------
   N =  1,  n = 30000000,  r = 26,   s = 4,   L = 300,   d = 0



Counters with expected numbers >= 10
-----------------------------------------------
Number of degrees of freedom          : 4117
Chi-square statistic                  : 4198.34
p-value of test                       :    0.18

-----------------------------------------------
CPU time used                    :  00:02:13.86

Generator state:




***********************************************************
HOST = hpcsmp01, Linux

MersenneTwiter


sstring_HammingIndep test:
-----------------------------------------------
   N =  1,  n = 10000000,  r =  0,   s = 5,   L = 1200,   d = 0



Counters with expected numbers >= 10
-----------------------------------------------
Number of degrees of freedom          : 11825
Chi-square statistic                  :11850.93
p-value of test                       :    0.43

-----------------------------------------------
CPU time used                    :  00:02:14.97

Generator state:




***********************************************************
HOST = hpcsmp01, Linux

MersenneTwiter


sstring_HammingIndep test:
-----------------------------------------------
   N =  1,  n = 10000000,  r = 25,   s = 5,   L = 1200,   d = 0



Counters with expected numbers >= 10
-----------------------------------------------
Number of degrees of freedom          : 11825
Chi-square statistic                  :11728.74
p-value of test                       :    0.73

-----------------------------------------------
CPU time used                    :  00:02:21.22

Generator state:




***********************************************************
HOST = hpcsmp01, Linux

MersenneTwiter


sstring_Run test:
-----------------------------------------------
   N =  1,  n = 2000000000,  r =  0,   s =    3


-----------------------------------------------
Total number of 1 runs:  2000000000

Number of degrees of freedom          :   54
Chi2 statistic for number of runs     :   43.55
p-value of test                       :    0.84


-----------------------------------------------
Total number of bits:  7999915782

Normal statistic for number of bits   :   -0.67
p-value of test                       :    0.75



-----------------------------------------------
CPU time used                    :  00:01:33.97

Generator state:




***********************************************************
HOST = hpcsmp01, Linux

MersenneTwiter


sstring_Run test:
-----------------------------------------------
   N =  1,  n = 2000000000,  r = 27,   s =    3


-----------------------------------------------
Total number of 1 runs:  2000000000

Number of degrees of freedom          :   54
Chi2 statistic for number of runs     :   76.48
p-value of test                       :    0.02


-----------------------------------------------
Total number of bits:  7999986579

Normal statistic for number of bits   :   -0.11
p-value of test                       :    0.54



-----------------------------------------------
CPU time used                    :  00:01:36.27

Generator state:




***********************************************************
HOST = hpcsmp01, Linux

MersenneTwiter


sstring_AutoCor test:
-----------------------------------------------
   N = 10,  n = 1000000030,  r =  0,   s = 3,   d = 1


-----------------------------------------------

Kolmogorov-Smirnov+ statistic = D+    :    0.17
p-value of test                       :    0.49

Kolmogorov-Smirnov- statistic = D-    :    0.23
p-value of test                       :    0.30

Anderson-Darling statistic = A2       :    0.51
p-value of test                       :    0.73

Tests on the sum of all N observations
Standardized normal statistic         :   0.100
p-value of test                       :    0.46

Sample variance                       :    1.36
p-value of test                       :    0.20

-----------------------------------------------
CPU time used                    :  00:03:11.00

Generator state:




***********************************************************
HOST = hpcsmp01, Linux

MersenneTwiter


sstring_AutoCor test:
-----------------------------------------------
   N = 10,  n = 1000000029,  r =  0,   s = 3,   d = 3


-----------------------------------------------

Kolmogorov-Smirnov+ statistic = D+    :    0.25
p-value of test                       :    0.25

Kolmogorov-Smirnov- statistic = D-    :    0.30
p-value of test                       :    0.14

Anderson-Darling statistic = A2       :    1.34
p-value of test                       :    0.22

Tests on the sum of all N observations
Standardized normal statistic         :    0.34
p-value of test                       :    0.37

Sample variance                       :    0.19
p-value of test                       :    0.9955

-----------------------------------------------
CPU time used                    :  00:02:47.11

Generator state:




***********************************************************
HOST = hpcsmp01, Linux

MersenneTwiter


sstring_AutoCor test:
-----------------------------------------------
   N = 10,  n = 1000000030,  r = 27,   s = 3,   d = 1


-----------------------------------------------

Kolmogorov-Smirnov+ statistic = D+    :   0.094
p-value of test                       :    0.79

Kolmogorov-Smirnov- statistic = D-    :    0.27
p-value of test                       :    0.20

Anderson-Darling statistic = A2       :    1.04
p-value of test                       :    0.33

Tests on the sum of all N observations
Standardized normal statistic         :    0.65
p-value of test                       :    0.26

Sample variance                       :    1.30
p-value of test                       :    0.23

-----------------------------------------------
CPU time used                    :  00:03:09.77

Generator state:




***********************************************************
HOST = hpcsmp01, Linux

MersenneTwiter


sstring_AutoCor test:
-----------------------------------------------
   N = 10,  n = 1000000029,  r = 27,   s = 3,   d = 3


-----------------------------------------------

Kolmogorov-Smirnov+ statistic = D+    :    0.29
p-value of test                       :    0.15

Kolmogorov-Smirnov- statistic = D-    :   0.096
p-value of test                       :    0.78

Anderson-Darling statistic = A2       :    0.68
p-value of test                       :    0.57

Tests on the sum of all N observations
Standardized normal statistic         :   -0.80
p-value of test                       :    0.79

Sample variance                       :    0.81
p-value of test                       :    0.60

-----------------------------------------------
CPU time used                    :  00:02:48.33

Generator state:





========= Summary results of BigCrush =========

 Version:          TestU01 1.2.3
 Generator:        MersenneTwiter
 Number of statistics:  160
 Total CPU time:   05:54:47.29
 The following tests gave p-values outside [0.001, 0.9990]:
 (eps  means a value < 1.0e-300):
 (eps1 means a value < 1.0e-15):

       Test                          p-value
 ----------------------------------------------
 80  LinearComp, r = 0              1 - eps1
 81  LinearComp, r = 29             1 - eps1
 ----------------------------------------------
 All other tests were passed



