xxxxxxxxxxxxxxxxxxxxxxxxxxxxxxxxxxxxxxxxxxxxxxxxxxxxxxxxxxx
                 Starting BigCrush
                 Version: TestU01 1.2.3
xxxxxxxxxxxxxxxxxxxxxxxxxxxxxxxxxxxxxxxxxxxxxxxxxxxxxxxxxxx


***********************************************************
Test smarsa_SerialOver calling smultin_MultinomialOver

***********************************************************
HOST = node38.local.isima.fr, Linux

MersenneTwiter


smultin_MultinomialOver test:
-----------------------------------------------
   N =  1,  n = 1000000000,  r =  0,   d =  256,   t =  3,
       Sparse =  FALSE

       GenerCell = smultin_GenerCellSerial
       Number of cells = d^t =           16777216
       Expected number per cell =   59.604645
       Hashing =  FALSE

   For Delta > -1, we use the ChiSquare approximation
   Correction factor of the ChiSquare: 
       Delta =     1,    Mu =   0.0083558402,    Sigma =          1

-----------------------------------------------
Test Results for Delta =   1.0000

Number of degrees of freedom          : 16711680
Value of the statistic                : 1.67e+7
p-value of test                       :    0.84


-----------------------------------------------
CPU time used                    :  00:01:05.40

Generator state:




***********************************************************
Test smarsa_SerialOver calling smultin_MultinomialOver

***********************************************************
HOST = node38.local.isima.fr, Linux

MersenneTwiter


smultin_MultinomialOver test:
-----------------------------------------------
   N =  1,  n = 1000000000,  r = 22,   d =  256,   t =  3,
       Sparse =  FALSE

       GenerCell = smultin_GenerCellSerial
       Number of cells = d^t =           16777216
       Expected number per cell =   59.604645
       Hashing =  FALSE

   For Delta > -1, we use the ChiSquare approximation
   Correction factor of the ChiSquare: 
       Delta =     1,    Mu =   0.0083558402,    Sigma =          1

-----------------------------------------------
Test Results for Delta =   1.0000

Number of degrees of freedom          : 16711680
Value of the statistic                : 1.67e+7
p-value of test                       :    0.83


-----------------------------------------------
CPU time used                    :  00:01:08.65

Generator state:




***********************************************************
Test smarsa_CollisionOver calling smultin_MultinomialOver

***********************************************************
HOST = node38.local.isima.fr, Linux

MersenneTwiter


smultin_MultinomialOver test:
-----------------------------------------------
   N = 30,  n = 20000000,  r =  0,   d = 2097152,   t =  2,
       Sparse =   TRUE

       GenerCell = smultin_GenerCellSerial
       Number of cells = d^t =      4398046511104
       Expected number per cell =  1 /  219902.33
       EColl = n^2 / (2k) =  45.47473509
       Hashing =   TRUE

       Collision test

       CollisionOver:   density = n / k =  1 /  219902.33
       Expected number of collisions = Mu =      45.47


-----------------------------------------------
Results of CollisionOver test:

POISSON approximation                 :
Expected number of collisions = N*Mu  :     1364.24
Observed number of collisions         :     1349
p-value of test                       :    0.65

-----------------------------
Total number of cells containing j balls

  j =  0                              :  131940795334469
  j =  1                              :        599997302
  j =  2                              :             1349
  j =  3                              :                0
  j =  4                              :                0
  j =  5                              :                0

-----------------------------------------------
CPU time used                    :  00:04:04.17

Generator state:




***********************************************************
Test smarsa_CollisionOver calling smultin_MultinomialOver

***********************************************************
HOST = node38.local.isima.fr, Linux

MersenneTwiter


smultin_MultinomialOver test:
-----------------------------------------------
   N = 30,  n = 20000000,  r =  9,   d = 2097152,   t =  2,
       Sparse =   TRUE

       GenerCell = smultin_GenerCellSerial
       Number of cells = d^t =      4398046511104
       Expected number per cell =  1 /  219902.33
       EColl = n^2 / (2k) =  45.47473509
       Hashing =   TRUE

       Collision test

       CollisionOver:   density = n / k =  1 /  219902.33
       Expected number of collisions = Mu =      45.47


-----------------------------------------------
Results of CollisionOver test:

POISSON approximation                 :
Expected number of collisions = N*Mu  :     1364.24
Observed number of collisions         :     1324
p-value of test                       :    0.86

-----------------------------
Total number of cells containing j balls

  j =  0                              :  131940795334444
  j =  1                              :        599997352
  j =  2                              :             1324
  j =  3                              :                0
  j =  4                              :                0
  j =  5                              :                0

-----------------------------------------------
CPU time used                    :  00:04:10.50

Generator state:




***********************************************************
Test smarsa_CollisionOver calling smultin_MultinomialOver

***********************************************************
HOST = node38.local.isima.fr, Linux

MersenneTwiter


smultin_MultinomialOver test:
-----------------------------------------------
   N = 30,  n = 20000000,  r =  0,   d = 16384,   t =  3,
       Sparse =   TRUE

       GenerCell = smultin_GenerCellSerial
       Number of cells = d^t =      4398046511104
       Expected number per cell =  1 /  219902.33
       EColl = n^2 / (2k) =  45.47473509
       Hashing =   TRUE

       Collision test

       CollisionOver:   density = n / k =  1 /  219902.33
       Expected number of collisions = Mu =      45.47


-----------------------------------------------
Results of CollisionOver test:

POISSON approximation                 :
Expected number of collisions = N*Mu  :     1364.24
Observed number of collisions         :     1351
p-value of test                       :    0.63

-----------------------------
Total number of cells containing j balls

  j =  0                              :  131940795334471
  j =  1                              :        599997298
  j =  2                              :             1351
  j =  3                              :                0
  j =  4                              :                0
  j =  5                              :                0

-----------------------------------------------
CPU time used                    :  00:05:28.94

Generator state:




***********************************************************
Test smarsa_CollisionOver calling smultin_MultinomialOver

***********************************************************
HOST = node38.local.isima.fr, Linux

MersenneTwiter


smultin_MultinomialOver test:
-----------------------------------------------
   N = 30,  n = 20000000,  r = 16,   d = 16384,   t =  3,
       Sparse =   TRUE

       GenerCell = smultin_GenerCellSerial
       Number of cells = d^t =      4398046511104
       Expected number per cell =  1 /  219902.33
       EColl = n^2 / (2k) =  45.47473509
       Hashing =   TRUE

       Collision test

       CollisionOver:   density = n / k =  1 /  219902.33
       Expected number of collisions = Mu =      45.47


-----------------------------------------------
Results of CollisionOver test:

POISSON approximation                 :
Expected number of collisions = N*Mu  :     1364.24
Observed number of collisions         :     1347
p-value of test                       :    0.67

-----------------------------
Total number of cells containing j balls

  j =  0                              :  131940795334467
  j =  1                              :        599997306
  j =  2                              :             1347
  j =  3                              :                0
  j =  4                              :                0
  j =  5                              :                0

-----------------------------------------------
CPU time used                    :  00:05:30.98

Generator state:




***********************************************************
Test smarsa_CollisionOver calling smultin_MultinomialOver

***********************************************************
HOST = node38.local.isima.fr, Linux

MersenneTwiter


smultin_MultinomialOver test:
-----------------------------------------------
   N = 30,  n = 20000000,  r =  0,   d =   64,   t =  7,
       Sparse =   TRUE

       GenerCell = smultin_GenerCellSerial
       Number of cells = d^t =      4398046511104
       Expected number per cell =  1 /  219902.33
       EColl = n^2 / (2k) =  45.47473509
       Hashing =   TRUE

       Collision test

       CollisionOver:   density = n / k =  1 /  219902.33
       Expected number of collisions = Mu =      45.47


-----------------------------------------------
Results of CollisionOver test:

POISSON approximation                 :
Expected number of collisions = N*Mu  :     1364.24
Observed number of collisions         :     1364
p-value of test                       :    0.50

-----------------------------
Total number of cells containing j balls

  j =  0                              :  131940795334484
  j =  1                              :        599997272
  j =  2                              :             1364
  j =  3                              :                0
  j =  4                              :                0
  j =  5                              :                0

-----------------------------------------------
CPU time used                    :  00:05:27.74

Generator state:




***********************************************************
Test smarsa_CollisionOver calling smultin_MultinomialOver

***********************************************************
HOST = node38.local.isima.fr, Linux

MersenneTwiter


smultin_MultinomialOver test:
-----------------------------------------------
   N = 30,  n = 20000000,  r = 24,   d =   64,   t =  7,
       Sparse =   TRUE

       GenerCell = smultin_GenerCellSerial
       Number of cells = d^t =      4398046511104
       Expected number per cell =  1 /  219902.33
       EColl = n^2 / (2k) =  45.47473509
       Hashing =   TRUE

       Collision test

       CollisionOver:   density = n / k =  1 /  219902.33
       Expected number of collisions = Mu =      45.47


-----------------------------------------------
Results of CollisionOver test:

POISSON approximation                 :
Expected number of collisions = N*Mu  :     1364.24
Observed number of collisions         :     1371
p-value of test                       :    0.43

-----------------------------
Total number of cells containing j balls

  j =  0                              :  131940795334491
  j =  1                              :        599997258
  j =  2                              :             1371
  j =  3                              :                0
  j =  4                              :                0
  j =  5                              :                0

-----------------------------------------------
CPU time used                    :  00:05:35.58

Generator state:




***********************************************************
Test smarsa_CollisionOver calling smultin_MultinomialOver

***********************************************************
HOST = node38.local.isima.fr, Linux

MersenneTwiter


smultin_MultinomialOver test:
-----------------------------------------------
   N = 30,  n = 20000000,  r =  0,   d =    8,   t = 14,
       Sparse =   TRUE

       GenerCell = smultin_GenerCellSerial
       Number of cells = d^t =      4398046511104
       Expected number per cell =  1 /  219902.33
       EColl = n^2 / (2k) =  45.47473509
       Hashing =   TRUE

       Collision test

       CollisionOver:   density = n / k =  1 /  219902.33
       Expected number of collisions = Mu =      45.47


-----------------------------------------------
Results of CollisionOver test:

POISSON approximation                 :
Expected number of collisions = N*Mu  :     1364.24
Observed number of collisions         :     1385
p-value of test                       :    0.29

-----------------------------
Total number of cells containing j balls

  j =  0                              :  131940795334505
  j =  1                              :        599997230
  j =  2                              :             1385
  j =  3                              :                0
  j =  4                              :                0
  j =  5                              :                0

-----------------------------------------------
CPU time used                    :  00:05:36.19

Generator state:




***********************************************************
Test smarsa_CollisionOver calling smultin_MultinomialOver

***********************************************************
HOST = node38.local.isima.fr, Linux

MersenneTwiter


smultin_MultinomialOver test:
-----------------------------------------------
   N = 30,  n = 20000000,  r = 27,   d =    8,   t = 14,
       Sparse =   TRUE

       GenerCell = smultin_GenerCellSerial
       Number of cells = d^t =      4398046511104
       Expected number per cell =  1 /  219902.33
       EColl = n^2 / (2k) =  45.47473509
       Hashing =   TRUE

       Collision test

       CollisionOver:   density = n / k =  1 /  219902.33
       Expected number of collisions = Mu =      45.47


-----------------------------------------------
Results of CollisionOver test:

POISSON approximation                 :
Expected number of collisions = N*Mu  :     1364.24
Observed number of collisions         :     1386
p-value of test                       :    0.28

-----------------------------
Total number of cells containing j balls

  j =  0                              :  131940795334506
  j =  1                              :        599997228
  j =  2                              :             1386
  j =  3                              :                0
  j =  4                              :                0
  j =  5                              :                0

-----------------------------------------------
CPU time used                    :  00:05:41.30

Generator state:




***********************************************************
Test smarsa_CollisionOver calling smultin_MultinomialOver

***********************************************************
HOST = node38.local.isima.fr, Linux

MersenneTwiter


smultin_MultinomialOver test:
-----------------------------------------------
   N = 30,  n = 20000000,  r =  0,   d =    4,   t = 21,
       Sparse =   TRUE

       GenerCell = smultin_GenerCellSerial
       Number of cells = d^t =      4398046511104
       Expected number per cell =  1 /  219902.33
       EColl = n^2 / (2k) =  45.47473509
       Hashing =   TRUE

       Collision test

       CollisionOver:   density = n / k =  1 /  219902.33
       Expected number of collisions = Mu =      45.47


-----------------------------------------------
Results of CollisionOver test:

POISSON approximation                 :
Expected number of collisions = N*Mu  :     1364.24
Observed number of collisions         :     1299
p-value of test                       :    0.96

-----------------------------
Total number of cells containing j balls

  j =  0                              :  131940795334419
  j =  1                              :        599997402
  j =  2                              :             1299
  j =  3                              :                0
  j =  4                              :                0
  j =  5                              :                0

-----------------------------------------------
CPU time used                    :  00:05:30.23

Generator state:




***********************************************************
Test smarsa_CollisionOver calling smultin_MultinomialOver

***********************************************************
HOST = node38.local.isima.fr, Linux

MersenneTwiter


smultin_MultinomialOver test:
-----------------------------------------------
   N = 30,  n = 20000000,  r = 28,   d =    4,   t = 21,
       Sparse =   TRUE

       GenerCell = smultin_GenerCellSerial
       Number of cells = d^t =      4398046511104
       Expected number per cell =  1 /  219902.33
       EColl = n^2 / (2k) =  45.47473509
       Hashing =   TRUE

       Collision test

       CollisionOver:   density = n / k =  1 /  219902.33
       Expected number of collisions = Mu =      45.47


-----------------------------------------------
Results of CollisionOver test:

POISSON approximation                 :
Expected number of collisions = N*Mu  :     1364.24
Observed number of collisions         :     1403
p-value of test                       :    0.15

-----------------------------
Total number of cells containing j balls

  j =  0                              :  131940795334523
  j =  1                              :        599997194
  j =  2                              :             1403
  j =  3                              :                0
  j =  4                              :                0
  j =  5                              :                0

-----------------------------------------------
CPU time used                    :  00:05:38.46

Generator state:




***********************************************************
HOST = node38.local.isima.fr, Linux

MersenneTwiter


smarsa_BirthdaySpacings test:
-----------------------------------------------
   N = 100,  n = 10000000,  r =  0,    d = 2147483648,    t = 2,    p = 1


      Number of cells = d^t = 4611686018427387904
      Lambda = Poisson mean =      54.2101


----------------------------------------------------
Total expected number = N*Lambda      :    5421.01
Total observed number                 :    5583
p-value of test                       :    0.01


-----------------------------------------------
CPU time used                    :  00:03:28.96

Generator state:




***********************************************************
HOST = node38.local.isima.fr, Linux

MersenneTwiter


smarsa_BirthdaySpacings test:
-----------------------------------------------
   N = 20,  n = 20000000,  r =  0,    d = 2097152,    t = 3,    p = 1


      Number of cells = d^t = 9223372036854775808
      Lambda = Poisson mean =     216.8404


----------------------------------------------------
Total expected number = N*Lambda      :    4336.81
Total observed number                 :    4317
p-value of test                       :    0.61


-----------------------------------------------
CPU time used                    :  00:01:28.55

Generator state:




***********************************************************
HOST = node38.local.isima.fr, Linux

MersenneTwiter


smarsa_BirthdaySpacings test:
-----------------------------------------------
   N = 20,  n = 30000000,  r = 14,    d = 65536,    t = 4,    p = 1


      Number of cells = d^t = 18446744073709551616
      Lambda = Poisson mean =     365.9182


----------------------------------------------------
Total expected number = N*Lambda      :    7318.36
Total observed number                 :    7276
p-value of test                       :    0.69


-----------------------------------------------
CPU time used                    :  00:02:23.05

Generator state:




***********************************************************
HOST = node38.local.isima.fr, Linux

MersenneTwiter


smarsa_BirthdaySpacings test:
-----------------------------------------------
   N = 20,  n = 20000000,  r =  0,    d = 512,    t = 7,    p = 1


      Number of cells = d^t = 9223372036854775808
      Lambda = Poisson mean =     216.8404


----------------------------------------------------
Total expected number = N*Lambda      :    4336.81
Total observed number                 :    4349
p-value of test                       :    0.43


-----------------------------------------------
CPU time used                    :  00:01:38.96

Generator state:




***********************************************************
HOST = node38.local.isima.fr, Linux

MersenneTwiter


smarsa_BirthdaySpacings test:
-----------------------------------------------
   N = 20,  n = 20000000,  r =  7,    d = 512,    t = 7,    p = 1


      Number of cells = d^t = 9223372036854775808
      Lambda = Poisson mean =     216.8404


----------------------------------------------------
Total expected number = N*Lambda      :    4336.81
Total observed number                 :    4262
p-value of test                       :    0.87


-----------------------------------------------
CPU time used                    :  00:01:42.98

Generator state:




***********************************************************
HOST = node38.local.isima.fr, Linux

MersenneTwiter


smarsa_BirthdaySpacings test:
-----------------------------------------------
   N = 20,  n = 30000000,  r = 14,    d = 256,    t = 8,    p = 1


      Number of cells = d^t = 18446744073709551616
      Lambda = Poisson mean =     365.9182


----------------------------------------------------
Total expected number = N*Lambda      :    7318.36
Total observed number                 :    7269
p-value of test                       :    0.72


-----------------------------------------------
CPU time used                    :  00:02:39.65

Generator state:




***********************************************************
HOST = node38.local.isima.fr, Linux

MersenneTwiter


smarsa_BirthdaySpacings test:
-----------------------------------------------
   N = 20,  n = 30000000,  r = 22,    d = 256,    t = 8,    p = 1


      Number of cells = d^t = 18446744073709551616
      Lambda = Poisson mean =     365.9182


----------------------------------------------------
Total expected number = N*Lambda      :    7318.36
Total observed number                 :    7221
p-value of test                       :    0.87


-----------------------------------------------
CPU time used                    :  00:02:40.39

Generator state:




***********************************************************
HOST = node38.local.isima.fr, Linux

MersenneTwiter


smarsa_BirthdaySpacings test:
-----------------------------------------------
   N = 20,  n = 30000000,  r =  0,    d = 16,    t = 16,    p = 1


      Number of cells = d^t = 18446744073709551616
      Lambda = Poisson mean =     365.9182


----------------------------------------------------
Total expected number = N*Lambda      :    7318.36
Total observed number                 :    7241
p-value of test                       :    0.82


-----------------------------------------------
CPU time used                    :  00:03:08.81

Generator state:




***********************************************************
HOST = node38.local.isima.fr, Linux

MersenneTwiter


smarsa_BirthdaySpacings test:
-----------------------------------------------
   N = 20,  n = 30000000,  r = 26,    d = 16,    t = 16,    p = 1


      Number of cells = d^t = 18446744073709551616
      Lambda = Poisson mean =     365.9182


----------------------------------------------------
Total expected number = N*Lambda      :    7318.36
Total observed number                 :    7266
p-value of test                       :    0.73


-----------------------------------------------
CPU time used                    :  00:03:22.39

Generator state:




***********************************************************
HOST = node38.local.isima.fr, Linux

MersenneTwiter


snpair_ClosePairs test:
-----------------------------------------------
   N = 30,  n = 6000000,  r =  0,  t = 3,  p = 0,  m = 30,  Torus =  TRUE


---------------------------------------
Test based on the 2 nearest points (NP):

Stat. AD on the N values (NP)         :    0.87
p-value of test                       :    0.43


A2 test based on the spacings between the
   successive jump times of process Y_n(t):

A2 test on the values of A2 (m-NP)    :    0.90
p-value of test                       :    0.42

Test on the Nm values of W_{n,i}(mNP1):    0.68
p-value of test                       :    0.57

Test on the jump times of Y
   (superposition of Yn):

Expected number of jumps of Y = mN    :     900
Number of jumps of Y                  :     925
p-value of test                       :    0.21

Stat. AD (mNP2)                       :    1.26
p-value of test                       :    0.25

Stat. AD after spacings (mNP2-S)      :    1.48
p-value of test                       :    0.18

-----------------------------------------------
CPU time used                    :  00:01:48.39

Generator state:




***********************************************************
HOST = node38.local.isima.fr, Linux

MersenneTwiter


snpair_ClosePairs test:
-----------------------------------------------
   N = 20,  n = 4000000,  r =  0,  t = 5,  p = 0,  m = 30,  Torus =  TRUE


---------------------------------------
Test based on the 2 nearest points (NP):

Stat. AD on the N values (NP)         :    1.18
p-value of test                       :    0.27


A2 test based on the spacings between the
   successive jump times of process Y_n(t):

A2 test on the values of A2 (m-NP)    :    2.50
p-value of test                       :    0.05

Test on the Nm values of W_{n,i}(mNP1):    0.34
p-value of test                       :    0.91

Test on the jump times of Y
   (superposition of Yn):

Expected number of jumps of Y = mN    :     600
Number of jumps of Y                  :     612
p-value of test                       :    0.32

Stat. AD (mNP2)                       :    1.15
p-value of test                       :    0.29

Stat. AD after spacings (mNP2-S)      :    0.68
p-value of test                       :    0.58

-----------------------------------------------
CPU time used                    :  00:01:12.21

Generator state:




***********************************************************
HOST = node38.local.isima.fr, Linux

MersenneTwiter


snpair_ClosePairs test:
-----------------------------------------------
   N = 10,  n = 3000000,  r =  0,  t = 9,  p = 0,  m = 30,  Torus =  TRUE


---------------------------------------
Test based on the 2 nearest points (NP):

Stat. AD on the N values (NP)         :    2.01
p-value of test                       :    0.09


A2 test based on the spacings between the
   successive jump times of process Y_n(t):

A2 test on the values of A2 (m-NP)    :    0.29
p-value of test                       :    0.95

Test on the Nm values of W_{n,i}(mNP1):    0.29
p-value of test                       :    0.95

Test on the jump times of Y
   (superposition of Yn):

Expected number of jumps of Y = mN    :     300
Number of jumps of Y                  :     293
p-value of test                       :    0.64

Stat. AD (mNP2)                       :    2.08
p-value of test                       :    0.08

Stat. AD after spacings (mNP2-S)      :    0.58
p-value of test                       :    0.67

-----------------------------------------------
CPU time used                    :  00:02:09.68

Generator state:




***********************************************************
HOST = node38.local.isima.fr, Linux

MersenneTwiter


snpair_ClosePairs test:
-----------------------------------------------
   N =  5,  n = 2000000,  r =  0,  t = 16,  p = 0,  m = 30,  Torus =  TRUE


---------------------------------------
Test based on the 2 nearest points (NP):

Stat. AD on the N values (NP)         :    0.74
p-value of test                       :    0.52


A2 test based on the spacings between the
   successive jump times of process Y_n(t):

A2 test on the values of A2 (m-NP)    :    0.45
p-value of test                       :    0.79

Test on the Nm values of W_{n,i}(mNP1):    0.44
p-value of test                       :    0.81

Test on the jump times of Y
   (superposition of Yn):

Expected number of jumps of Y = mN    :     150
Number of jumps of Y                  :     158
p-value of test                       :    0.27

Stat. AD (mNP2)                       :    0.54
p-value of test                       :    0.70

Stat. AD after spacings (mNP2-S)      :    2.50
p-value of test                       :    0.05

-----------------------------------------------
CPU time used                    :  00:02:35.18

Generator state:




***********************************************************
HOST = node38.local.isima.fr, Linux

MersenneTwiter


sknuth_SimpPoker test:
-----------------------------------------------
   N =  1,  n = 400000000,  r =  0,   d =    8,   k =    8


-----------------------------------------------
Number of degrees of freedom          :    7
Chi-square statistic                  :    2.01
p-value of test                       :    0.96

-----------------------------------------------
CPU time used                    :  00:00:42.02

Generator state:




***********************************************************
HOST = node38.local.isima.fr, Linux

MersenneTwiter


sknuth_SimpPoker test:
-----------------------------------------------
   N =  1,  n = 400000000,  r = 27,   d =    8,   k =    8


-----------------------------------------------
Number of degrees of freedom          :    7
Chi-square statistic                  :    1.55
p-value of test                       :    0.98

-----------------------------------------------
CPU time used                    :  00:00:53.88

Generator state:




***********************************************************
HOST = node38.local.isima.fr, Linux

MersenneTwiter


sknuth_SimpPoker test:
-----------------------------------------------
   N =  1,  n = 100000000,  r =  0,   d =   32,   k =   32


-----------------------------------------------
Number of degrees of freedom          :   18
Chi-square statistic                  :   23.32
p-value of test                       :    0.18

-----------------------------------------------
CPU time used                    :  00:00:45.21

Generator state:




***********************************************************
HOST = node38.local.isima.fr, Linux

MersenneTwiter


sknuth_SimpPoker test:
-----------------------------------------------
   N =  1,  n = 100000000,  r = 25,   d =   32,   k =   32


-----------------------------------------------
Number of degrees of freedom          :   18
Chi-square statistic                  :   16.55
p-value of test                       :    0.55

-----------------------------------------------
CPU time used                    :  00:00:59.10

Generator state:




***********************************************************
HOST = node38.local.isima.fr, Linux

MersenneTwiter


sknuth_CouponCollector test:
-----------------------------------------------
   N =  1,  n = 200000000,  r =  0,   d =    8


-----------------------------------------------
Number of degrees of freedom          :   54
Chi-square statistic                  :   61.46
p-value of test                       :    0.23

-----------------------------------------------
CPU time used                    :  00:00:53.14

Generator state:




***********************************************************
HOST = node38.local.isima.fr, Linux

MersenneTwiter


sknuth_CouponCollector test:
-----------------------------------------------
   N =  1,  n = 200000000,  r = 10,   d =    8


-----------------------------------------------
Number of degrees of freedom          :   54
Chi-square statistic                  :   43.81
p-value of test                       :    0.84

-----------------------------------------------
CPU time used                    :  00:01:06.31

Generator state:




***********************************************************
HOST = node38.local.isima.fr, Linux

MersenneTwiter


sknuth_CouponCollector test:
-----------------------------------------------
   N =  1,  n = 200000000,  r = 20,   d =    8


-----------------------------------------------
Number of degrees of freedom          :   54
Chi-square statistic                  :   46.06
p-value of test                       :    0.77

-----------------------------------------------
CPU time used                    :  00:01:06.28

Generator state:




***********************************************************
HOST = node38.local.isima.fr, Linux

MersenneTwiter


sknuth_CouponCollector test:
-----------------------------------------------
   N =  1,  n = 200000000,  r = 27,   d =    8


-----------------------------------------------
Number of degrees of freedom          :   54
Chi-square statistic                  :   44.79
p-value of test                       :    0.81

-----------------------------------------------
CPU time used                    :  00:01:06.46

Generator state:




***********************************************************
HOST = node38.local.isima.fr, Linux

MersenneTwiter


sknuth_Gap test:
-----------------------------------------------
   N =  1,  n = 500000000,  r =  0,   Alpha =        0,   Beta  =   0.0625


-----------------------------------------------
Number of degrees of freedom          :  232
Chi-square statistic                  :  241.58
p-value of test                       :    0.32

-----------------------------------------------
CPU time used                    :  00:00:54.59

Generator state:




***********************************************************
HOST = node38.local.isima.fr, Linux

MersenneTwiter


sknuth_Gap test:
-----------------------------------------------
   N =  1,  n = 300000000,  r = 25,   Alpha =        0,   Beta  =  0.03125


-----------------------------------------------
Number of degrees of freedom          :  434
Chi-square statistic                  :  424.94
p-value of test                       :    0.61

-----------------------------------------------
CPU time used                    :  00:01:17.97

Generator state:




***********************************************************
HOST = node38.local.isima.fr, Linux

MersenneTwiter


sknuth_Gap test:
-----------------------------------------------
   N =  1,  n = 100000000,  r =  0,   Alpha =        0,   Beta  = 0.0078125


-----------------------------------------------
Number of degrees of freedom          : 1437
Chi-square statistic                  : 1464.27
p-value of test                       :    0.30

-----------------------------------------------
CPU time used                    :  00:01:15.61

Generator state:




***********************************************************
HOST = node38.local.isima.fr, Linux

MersenneTwiter


sknuth_Gap test:
-----------------------------------------------
   N =  1,  n = 10000000,  r = 20,   Alpha =        0,   Beta  = 0.000976562


-----------------------------------------------
Number of degrees of freedom          : 7046
Chi-square statistic                  : 6903.23
p-value of test                       :    0.89

-----------------------------------------------
CPU time used                    :  00:01:15.47

Generator state:




***********************************************************
HOST = node38.local.isima.fr, Linux

MersenneTwiter


sknuth_Run test:
-----------------------------------------------
   N =  5,  n = 1000000000,  r =  0,   Up = FALSE


-----------------------------------------------

Kolmogorov-Smirnov+ statistic = D+    :    0.14
p-value of test                       :    0.76

Kolmogorov-Smirnov- statistic = D-    :    0.32
p-value of test                       :    0.29

Anderson-Darling statistic = A2       :    0.47
p-value of test                       :    0.77

Test on the sum of all N observations
Number of degrees of freedom          :   30
Chi-square statistic                  :   31.51
p-value of test                       :    0.39

-----------------------------------------------
CPU time used                    :  00:00:59.68

Generator state:




***********************************************************
HOST = node38.local.isima.fr, Linux

MersenneTwiter


sknuth_Run test:
-----------------------------------------------
   N = 10,  n = 1000000000,  r = 15,   Up =  TRUE


-----------------------------------------------

Kolmogorov-Smirnov+ statistic = D+    :    0.33
p-value of test                       :    0.09

Kolmogorov-Smirnov- statistic = D-    :    0.25
p-value of test                       :    0.25

Anderson-Darling statistic = A2       :    1.58
p-value of test                       :    0.16

Test on the sum of all N observations
Number of degrees of freedom          :   60
Chi-square statistic                  :   55.44
p-value of test                       :    0.64

-----------------------------------------------
CPU time used                    :  00:02:36.47

Generator state:




***********************************************************
Test sknuth_Permutation calling smultin_Multinomial

***********************************************************
HOST = node38.local.isima.fr, Linux

MersenneTwiter


smultin_Multinomial test:
-----------------------------------------------
   N =  1,  n = 1000000000,  r =  5,   t =  3,
       Sparse =  FALSE

       GenerCell = smultin_GenerCellPermut
       Number of cells = t! =                  6
       Expected number per cell =  1.6666667e+08
       Hashing =  FALSE

   For Delta > -1, we use the ChiSquare approximation
   Correction factor of the ChiSquare: 
       Delta =     1,    Mu =  2.5000002e-09,    Sigma =          1

-----------------------------------------------
Test Results for Delta =   1.0000

Number of degrees of freedom          :    5
Value of the statistic                :    7.07
p-value of test                       :    0.22


-----------------------------------------------
CPU time used                    :  00:00:50.38

Generator state:




***********************************************************
Test sknuth_Permutation calling smultin_Multinomial

***********************************************************
HOST = node38.local.isima.fr, Linux

MersenneTwiter


smultin_Multinomial test:
-----------------------------------------------
   N =  1,  n = 1000000000,  r =  5,   t =  5,
       Sparse =  FALSE

       GenerCell = smultin_GenerCellPermut
       Number of cells = t! =                120
       Expected number per cell =   8333333.3
       Hashing =  FALSE

   For Delta > -1, we use the ChiSquare approximation
   Correction factor of the ChiSquare: 
       Delta =     1,    Mu =  5.9500005e-08,    Sigma =          1

-----------------------------------------------
Test Results for Delta =   1.0000

Number of degrees of freedom          :  119
Value of the statistic                :  138.35
p-value of test                       :    0.11


-----------------------------------------------
CPU time used                    :  00:01:22.31

Generator state:




***********************************************************
Test sknuth_Permutation calling smultin_Multinomial

***********************************************************
HOST = node38.local.isima.fr, Linux

MersenneTwiter


smultin_Multinomial test:
-----------------------------------------------
   N =  1,  n = 500000000,  r =  5,   t =  7,
       Sparse =  FALSE

       GenerCell = smultin_GenerCellPermut
       Number of cells = t! =               5040
       Expected number per cell =   99206.349
       Hashing =  FALSE

   For Delta > -1, we use the ChiSquare approximation
   Correction factor of the ChiSquare: 
       Delta =     1,    Mu =  5.0390004e-06,    Sigma =          1

-----------------------------------------------
Test Results for Delta =   1.0000

Number of degrees of freedom          : 5039
Value of the statistic                : 4877.68
p-value of test                       :    0.95


-----------------------------------------------
CPU time used                    :  00:01:04.15

Generator state:




***********************************************************
Test sknuth_Permutation calling smultin_Multinomial

***********************************************************
HOST = node38.local.isima.fr, Linux

MersenneTwiter


smultin_Multinomial test:
-----------------------------------------------
   N =  1,  n = 500000000,  r = 10,   t = 10,
       Sparse =  FALSE

       GenerCell = smultin_GenerCellPermut
       Number of cells = t! =            3628800
       Expected number per cell =    137.7866
       Hashing =  FALSE

   For Delta > -1, we use the ChiSquare approximation
   Correction factor of the ChiSquare: 
       Delta =     1,    Mu =   0.0036287993,    Sigma =          1

-----------------------------------------------
Test Results for Delta =   1.0000

Number of degrees of freedom          : 3628799
Value of the statistic                : 3.63e+6
p-value of test                       :    0.30


-----------------------------------------------
CPU time used                    :  00:02:53.71

Generator state:




***********************************************************
Test sknuth_CollisionPermut calling smultin_Multinomial

***********************************************************
HOST = node38.local.isima.fr, Linux

MersenneTwiter


smultin_Multinomial test:
-----------------------------------------------
   N = 20,  n = 20000000,  r =  0,   t = 14,
       Sparse =   TRUE

       GenerCell = smultin_GenerCellPermut
       Number of cells = t! =        87178291200
       Expected number per cell =  1 /  4358.9146
       EColl = n^2 / (2k) =   2294.14912
       Hashing =   TRUE

       Collision test,    Mu =      2293.9736,    Sigma =    47.8841

-----------------------------------------------
Test Results for Collisions

For the total number of collisions, we use
      the Poisson approximation:
Expected number of collisions = N*Mu  :    45879.47
Observed number of collisions         :    45492
p-value of test                       :    0.96


-----------------------------
Total number of cells containing j balls

  j =  0                              :    1743165869492
  j =  1                              :        399909018
  j =  2                              :            45488
  j =  3                              :                2
  j =  4                              :                0
  j =  5                              :                0

-----------------------------------------------
CPU time used                    :  00:04:29.39

Generator state:




***********************************************************
Test sknuth_CollisionPermut calling smultin_Multinomial

***********************************************************
HOST = node38.local.isima.fr, Linux

MersenneTwiter


smultin_Multinomial test:
-----------------------------------------------
   N = 20,  n = 20000000,  r = 10,   t = 14,
       Sparse =   TRUE

       GenerCell = smultin_GenerCellPermut
       Number of cells = t! =        87178291200
       Expected number per cell =  1 /  4358.9146
       EColl = n^2 / (2k) =   2294.14912
       Hashing =   TRUE

       Collision test,    Mu =      2293.9736,    Sigma =    47.8841

-----------------------------------------------
Test Results for Collisions

For the total number of collisions, we use
      the Poisson approximation:
Expected number of collisions = N*Mu  :    45879.47
Observed number of collisions         :    45642
p-value of test                       :    0.87


-----------------------------
Total number of cells containing j balls

  j =  0                              :    1743165869642
  j =  1                              :        399908720
  j =  2                              :            45634
  j =  3                              :                4
  j =  4                              :                0
  j =  5                              :                0

-----------------------------------------------
CPU time used                    :  00:04:39.09

Generator state:




***********************************************************
HOST = node38.local.isima.fr, Linux

MersenneTwiter


sknuth_MaxOft test:
-----------------------------------------------
   N = 40,  n = 10000000,  r =  0,   d = 100000,   t =  8

      Number of categories = 100000
      Expected number per category  = 100.00


-----------------------------------------------
Test results for chi2 with 99999 degrees of freedom:

Kolmogorov-Smirnov+ statistic = D+    :    0.14
p-value of test                       :    0.20

Kolmogorov-Smirnov- statistic = D-    :   0.019
p-value of test                       :    0.96

Anderson-Darling statistic = A2       :    0.89
p-value of test                       :    0.42

Test on the sum of all N observations
Number of degrees of freedom          : 3999960
Chi-square statistic                  : 4.00e+6
p-value of test                       :    0.90


-----------------------------------------------
Test results for Anderson-Darling:

Kolmogorov-Smirnov+ statistic = D+    :   0.056
p-value of test                       :    0.75

Kolmogorov-Smirnov- statistic = D-    :    0.12
p-value of test                       :    0.30

Anderson-Darling statistic = A2       :    0.84
p-value of test                       :    0.45


-----------------------------------------------
CPU time used                    :  00:01:30.75

Generator state:




***********************************************************
HOST = node38.local.isima.fr, Linux

MersenneTwiter


sknuth_MaxOft test:
-----------------------------------------------
   N = 30,  n = 10000000,  r =  0,   d = 100000,   t = 16

      Number of categories = 100000
      Expected number per category  = 100.00


-----------------------------------------------
Test results for chi2 with 99999 degrees of freedom:

Kolmogorov-Smirnov+ statistic = D+    :    0.15
p-value of test                       :    0.26

Kolmogorov-Smirnov- statistic = D-    :    0.14
p-value of test                       :    0.30

Anderson-Darling statistic = A2       :    1.13
p-value of test                       :    0.29

Test on the sum of all N observations
Number of degrees of freedom          : 2999970
Chi-square statistic                  : 3.00e+6
p-value of test                       :    0.74


-----------------------------------------------
Test results for Anderson-Darling:

Kolmogorov-Smirnov+ statistic = D+    :   0.028
p-value of test                       :    0.94

Kolmogorov-Smirnov- statistic = D-    :    0.14
p-value of test                       :    0.30

Anderson-Darling statistic = A2       :    0.87
p-value of test                       :    0.43


-----------------------------------------------
CPU time used                    :  00:01:22.18

Generator state:




***********************************************************
HOST = node38.local.isima.fr, Linux

MersenneTwiter


sknuth_MaxOft test:
-----------------------------------------------
   N = 20,  n = 10000000,  r =  0,   d = 100000,   t = 24

      Number of categories = 100000
      Expected number per category  = 100.00


-----------------------------------------------
Test results for chi2 with 99999 degrees of freedom:

Kolmogorov-Smirnov+ statistic = D+    :    0.16
p-value of test                       :    0.33

Kolmogorov-Smirnov- statistic = D-    :    0.15
p-value of test                       :    0.37

Anderson-Darling statistic = A2       :    0.78
p-value of test                       :    0.50

Test on the sum of all N observations
Number of degrees of freedom          : 1999980
Chi-square statistic                  : 2.00e+6
p-value of test                       :    0.67


-----------------------------------------------
Test results for Anderson-Darling:

Kolmogorov-Smirnov+ statistic = D+    :    0.13
p-value of test                       :    0.48

Kolmogorov-Smirnov- statistic = D-    :   0.023
p-value of test                       :    0.97

Anderson-Darling statistic = A2       :    0.45
p-value of test                       :    0.80


-----------------------------------------------
CPU time used                    :  00:01:04.22

Generator state:




***********************************************************
HOST = node38.local.isima.fr, Linux

MersenneTwiter


sknuth_MaxOft test:
-----------------------------------------------
   N = 20,  n = 10000000,  r =  0,   d = 100000,   t = 32

      Number of categories = 100000
      Expected number per category  = 100.00


-----------------------------------------------
Test results for chi2 with 99999 degrees of freedom:

Kolmogorov-Smirnov+ statistic = D+    :   0.042
p-value of test                       :    0.91

Kolmogorov-Smirnov- statistic = D-    :    0.24
p-value of test                       :    0.09

Anderson-Darling statistic = A2       :    1.64
p-value of test                       :    0.15

Test on the sum of all N observations
Number of degrees of freedom          : 1999980
Chi-square statistic                  : 2.00e+6
p-value of test                       :    0.11


-----------------------------------------------
Test results for Anderson-Darling:

Kolmogorov-Smirnov+ statistic = D+    :   0.029
p-value of test                       :    0.95

Kolmogorov-Smirnov- statistic = D-    :    0.20
p-value of test                       :    0.19

Anderson-Darling statistic = A2       :    1.03
p-value of test                       :    0.34


-----------------------------------------------
CPU time used                    :  00:01:13.52

Generator state:




***********************************************************
HOST = node38.local.isima.fr, Linux

MersenneTwiter


svaria_SampleProd test:
-----------------------------------------------
   N = 40,  n = 10000000,  r =  0,   t = 8


-----------------------------------------------

Kolmogorov-Smirnov+ statistic = D+    :   0.088
p-value of test                       :    0.51

Kolmogorov-Smirnov- statistic = D-    :    0.15
p-value of test                       :    0.15

Anderson-Darling statistic = A2       :    0.96
p-value of test                       :    0.38

-----------------------------------------------
CPU time used                    :  00:01:18.81

Generator state:




***********************************************************
HOST = node38.local.isima.fr, Linux

MersenneTwiter


svaria_SampleProd test:
-----------------------------------------------
   N = 20,  n = 10000000,  r =  0,   t = 16


-----------------------------------------------

Kolmogorov-Smirnov+ statistic = D+    :   0.097
p-value of test                       :    0.64

Kolmogorov-Smirnov- statistic = D-    :    0.15
p-value of test                       :    0.39

Anderson-Darling statistic = A2       :    1.17
p-value of test                       :    0.28

-----------------------------------------------
CPU time used                    :  00:00:51.93

Generator state:




***********************************************************
HOST = node38.local.isima.fr, Linux

MersenneTwiter


svaria_SampleProd test:
-----------------------------------------------
   N = 20,  n = 10000000,  r =  0,   t = 24


-----------------------------------------------

Kolmogorov-Smirnov+ statistic = D+    :    0.12
p-value of test                       :    0.53

Kolmogorov-Smirnov- statistic = D-    :    0.13
p-value of test                       :    0.47

Anderson-Darling statistic = A2       :    0.53
p-value of test                       :    0.72

-----------------------------------------------
CPU time used                    :  00:01:03.43

Generator state:




***********************************************************
HOST = node38.local.isima.fr, Linux

MersenneTwiter


svaria_SampleMean test:
-----------------------------------------------
   N = 20000000,  n = 30,  r =  0


-----------------------------------------------

Kolmogorov-Smirnov+ statistic = D+    : 1.27e-4
p-value of test                       :    0.52

Kolmogorov-Smirnov- statistic = D-    : 1.04e-4
p-value of test                       :    0.65

Anderson-Darling statistic = A2       :    0.45
p-value of test                       :    0.80

-----------------------------------------------
CPU time used                    :  00:00:11.77

Generator state:




***********************************************************
HOST = node38.local.isima.fr, Linux

MersenneTwiter


svaria_SampleMean test:
-----------------------------------------------
   N = 20000000,  n = 30,  r = 10


-----------------------------------------------

Kolmogorov-Smirnov+ statistic = D+    : 2.47e-5
p-value of test                       :    0.98

Kolmogorov-Smirnov- statistic = D-    : 3.57e-4
p-value of test                       :  6.0e-3

Anderson-Darling statistic = A2       :    3.09
p-value of test                       :    0.02

-----------------------------------------------
CPU time used                    :  00:00:12.60

Generator state:




***********************************************************
HOST = node38.local.isima.fr, Linux

MersenneTwiter


svaria_SampleCorr test:
-----------------------------------------------
   N =  1,  n = 2000000000,  r =  0,   k = 1


-----------------------------------------------
Normal statistic                      :    0.45
p-value of test                       :    0.33

-----------------------------------------------
CPU time used                    :  00:00:11.63

Generator state:




***********************************************************
HOST = node38.local.isima.fr, Linux

MersenneTwiter


svaria_SampleCorr test:
-----------------------------------------------
   N =  1,  n = 2000000000,  r =  0,   k = 2


-----------------------------------------------
Normal statistic                      :    0.73
p-value of test                       :    0.23

-----------------------------------------------
CPU time used                    :  00:00:11.48

Generator state:




***********************************************************
HOST = node38.local.isima.fr, Linux

MersenneTwiter


svaria_AppearanceSpacings test:
-----------------------------------------------
   N =  1,   Q = 10000000,   K = 1000000000,   r = 0,   s = 3,   L = 15

   Sequences of n = (K + Q)L =  15150000000 bits
   Q = 10000000 initialization blocks
   K = 1000000000 blocks for the test
   the blocks have L = 15 bits



-----------------------------------------------
Normal statistic                      :  -0.034
p-value of test                       :    0.51

-----------------------------------------------
CPU time used                    :  00:00:56.39

Generator state:




***********************************************************
HOST = node38.local.isima.fr, Linux

MersenneTwiter


svaria_AppearanceSpacings test:
-----------------------------------------------
   N =  1,   Q = 10000000,   K = 1000000000,   r = 27,   s = 3,   L = 15

   Sequences of n = (K + Q)L =  15150000000 bits
   Q = 10000000 initialization blocks
   K = 1000000000 blocks for the test
   the blocks have L = 15 bits



-----------------------------------------------
Normal statistic                      :    0.31
p-value of test                       :    0.38

-----------------------------------------------
CPU time used                    :  00:00:57.85

Generator state:




***********************************************************
HOST = node38.local.isima.fr, Linux

MersenneTwiter


svaria_WeightDistrib test:
-----------------------------------------------
   N =  1,  n = 20000000,  r =  0,  k = 256,  Alpha =      0,  Beta =   0.25


-----------------------------------------------
Number of degrees of freedom          :   67
Chi-square statistic                  :   68.33
p-value of test                       :    0.43

-----------------------------------------------
CPU time used                    :  00:00:31.40

Generator state:




***********************************************************
HOST = node38.local.isima.fr, Linux

MersenneTwiter


svaria_WeightDistrib test:
-----------------------------------------------
   N =  1,  n = 20000000,  r = 20,  k = 256,  Alpha =      0,  Beta =   0.25


-----------------------------------------------
Number of degrees of freedom          :   67
Chi-square statistic                  :   50.82
p-value of test                       :    0.93

-----------------------------------------------
CPU time used                    :  00:00:38.06

Generator state:




***********************************************************
HOST = node38.local.isima.fr, Linux

MersenneTwiter


svaria_WeightDistrib test:
-----------------------------------------------
   N =  1,  n = 20000000,  r = 28,  k = 256,  Alpha =      0,  Beta =   0.25


-----------------------------------------------
Number of degrees of freedom          :   67
Chi-square statistic                  :   89.45
p-value of test                       :    0.03

-----------------------------------------------
CPU time used                    :  00:00:37.93

Generator state:




***********************************************************
HOST = node38.local.isima.fr, Linux

MersenneTwiter


svaria_WeightDistrib test:
-----------------------------------------------
   N =  1,  n = 20000000,  r =  0,  k = 256,  Alpha =      0,  Beta = 0.0625


-----------------------------------------------
Number of degrees of freedom          :   37
Chi-square statistic                  :   32.45
p-value of test                       :    0.68

-----------------------------------------------
CPU time used                    :  00:00:31.67

Generator state:




***********************************************************
HOST = node38.local.isima.fr, Linux

MersenneTwiter


svaria_WeightDistrib test:
-----------------------------------------------
   N =  1,  n = 20000000,  r = 10,  k = 256,  Alpha =      0,  Beta = 0.0625


-----------------------------------------------
Number of degrees of freedom          :   37
Chi-square statistic                  :   27.48
p-value of test                       :    0.87

-----------------------------------------------
CPU time used                    :  00:00:38.34

Generator state:




***********************************************************
HOST = node38.local.isima.fr, Linux

MersenneTwiter


svaria_WeightDistrib test:
-----------------------------------------------
   N =  1,  n = 20000000,  r = 26,  k = 256,  Alpha =      0,  Beta = 0.0625


-----------------------------------------------
Number of degrees of freedom          :   37
Chi-square statistic                  :   42.72
p-value of test                       :    0.24

-----------------------------------------------
CPU time used                    :  00:00:37.96

Generator state:




***********************************************************
HOST = node38.local.isima.fr, Linux

MersenneTwiter


svaria_SumCollector test:
-----------------------------------------------
   N =  1,  n = 500000000,  r =  0,   g = 10


-----------------------------------------------
Number of degrees of freedom          :   29
Chi-square statistic                  :   17.69
p-value of test                       :    0.95

-----------------------------------------------
CPU time used                    :  00:01:11.93

Generator state:




***********************************************************
HOST = node38.local.isima.fr, Linux

MersenneTwiter


smarsa_MatrixRank test:
-----------------------------------------------
   N = 10,  n = 1000000,  r =  0,    s = 5,    L = 30,    k = 30


-----------------------------------------------

Kolmogorov-Smirnov+ statistic = D+    :    0.21
p-value of test                       :    0.36

Kolmogorov-Smirnov- statistic = D-    :    0.17
p-value of test                       :    0.51

Anderson-Darling statistic = A2       :    0.56
p-value of test                       :    0.69

Test on the sum of all N observations
Number of degrees of freedom          :   40
Chi-square statistic                  :   37.17
p-value of test                       :    0.60

-----------------------------------------------
CPU time used                    :  00:00:59.98

Generator state:




***********************************************************
HOST = node38.local.isima.fr, Linux

MersenneTwiter


smarsa_MatrixRank test:
-----------------------------------------------
   N = 10,  n = 1000000,  r = 25,    s = 5,    L = 30,    k = 30


-----------------------------------------------

Kolmogorov-Smirnov+ statistic = D+    :    0.11
p-value of test                       :    0.72

Kolmogorov-Smirnov- statistic = D-    :    0.28
p-value of test                       :    0.17

Anderson-Darling statistic = A2       :    0.62
p-value of test                       :    0.63

Test on the sum of all N observations
Number of degrees of freedom          :   40
Chi-square statistic                  :   41.91
p-value of test                       :    0.39

-----------------------------------------------
CPU time used                    :  00:01:00.25

Generator state:




***********************************************************
HOST = node38.local.isima.fr, Linux

MersenneTwiter


smarsa_MatrixRank test:
-----------------------------------------------
   N =  1,  n = 5000,  r =  0,    s = 4,    L = 1000,    k = 1000


-----------------------------------------------
Number of degrees of freedom          :    3
Chi-square statistic                  :    0.35
p-value of test                       :    0.95

-----------------------------------------------
CPU time used                    :  00:01:22.94

Generator state:




***********************************************************
HOST = node38.local.isima.fr, Linux

MersenneTwiter


smarsa_MatrixRank test:
-----------------------------------------------
   N =  1,  n = 5000,  r = 26,    s = 4,    L = 1000,    k = 1000


-----------------------------------------------
Number of degrees of freedom          :    3
Chi-square statistic                  :    2.64
p-value of test                       :    0.45

-----------------------------------------------
CPU time used                    :  00:01:23.10

Generator state:




***********************************************************
HOST = node38.local.isima.fr, Linux

MersenneTwiter


smarsa_MatrixRank test:
-----------------------------------------------
   N =  1,  n = 80,  r = 15,    s = 15,    L = 5000,    k = 5000


-----------------------------------------------
Number of degrees of freedom          :    2
Chi-square statistic                  :    2.47
p-value of test                       :    0.29

-----------------------------------------------
CPU time used                    :  00:01:23.10

Generator state:




***********************************************************
HOST = node38.local.isima.fr, Linux

MersenneTwiter


smarsa_MatrixRank test:
-----------------------------------------------
   N =  1,  n = 80,  r =  0,    s = 30,    L = 5000,    k = 5000


-----------------------------------------------
Number of degrees of freedom          :    2
Chi-square statistic                  :    0.78
p-value of test                       :    0.68

-----------------------------------------------
CPU time used                    :  00:01:18.79

Generator state:




***********************************************************
HOST = node38.local.isima.fr, Linux

MersenneTwiter


smarsa_Savir2 test:
-----------------------------------------------
   N = 10,  n = 10000000,  r = 10,    m = 1048576,    t = 30


-----------------------------------------------

Kolmogorov-Smirnov+ statistic = D+    :    0.35
p-value of test                       :    0.07

Kolmogorov-Smirnov- statistic = D-    :   0.029
p-value of test                       :    0.96

Anderson-Darling statistic = A2       :    1.15
p-value of test                       :    0.28

Test on the sum of all N observations
Number of degrees of freedom          :  130
Chi-square statistic                  :  108.62
p-value of test                       :    0.91

-----------------------------------------------
CPU time used                    :  00:00:23.36

Generator state:




***********************************************************
HOST = node38.local.isima.fr, Linux

MersenneTwiter


smarsa_GCD test:
-----------------------------------------------
   N = 10,  n = 50000000,  r =  0,   s = 30


-----------------------------------------------
Test results for GCD values:

Kolmogorov-Smirnov+ statistic = D+    :    0.52
p-value of test                       :  2.3e-3

Kolmogorov-Smirnov- statistic = D-    :   0.017
p-value of test                       :    0.98

Anderson-Darling statistic = A2       :    4.73
p-value of test                       :  4.1e-3

Test on the sum of all N observations
Number of degrees of freedom          : 17430
Chi-square statistic                  :16900.38
p-value of test                       :    0.9979



-----------------------------------------------
CPU time used                    :  00:00:53.55

Generator state:




***********************************************************
HOST = node38.local.isima.fr, Linux

MersenneTwiter


swalk_RandomWalk1 test:
-----------------------------------------------
   N =  1,  n = 100000000,  r =  0,   s = 5,   L0 =   50,   L1 =   50



-----------------------------------------------
Test on the values of the Statistic H

Number of degrees of freedom          :   36
ChiSquare statistic                   :   31.62
p-value of test                       :    0.68


-----------------------------------------------
Test on the values of the Statistic M

Number of degrees of freedom          :   35
ChiSquare statistic                   :   37.15
p-value of test                       :    0.37


-----------------------------------------------
Test on the values of the Statistic J

Number of degrees of freedom          :   25
ChiSquare statistic                   :   10.37
p-value of test                       :    0.9955


-----------------------------------------------
Test on the values of the Statistic R

Number of degrees of freedom          :   24
ChiSquare statistic                   :   23.58
p-value of test                       :    0.49


-----------------------------------------------
Test on the values of the Statistic C

Number of degrees of freedom          :   17
ChiSquare statistic                   :    6.32
p-value of test                       :    0.9908


-----------------------------------------------
CPU time used                    :  00:00:41.32

Generator state:




***********************************************************
HOST = node38.local.isima.fr, Linux

MersenneTwiter


swalk_RandomWalk1 test:
-----------------------------------------------
   N =  1,  n = 100000000,  r = 25,   s = 5,   L0 =   50,   L1 =   50



-----------------------------------------------
Test on the values of the Statistic H

Number of degrees of freedom          :   36
ChiSquare statistic                   :   37.66
p-value of test                       :    0.39


-----------------------------------------------
Test on the values of the Statistic M

Number of degrees of freedom          :   35
ChiSquare statistic                   :   34.54
p-value of test                       :    0.49


-----------------------------------------------
Test on the values of the Statistic J

Number of degrees of freedom          :   25
ChiSquare statistic                   :   23.23
p-value of test                       :    0.56


-----------------------------------------------
Test on the values of the Statistic R

Number of degrees of freedom          :   24
ChiSquare statistic                   :   27.07
p-value of test                       :    0.30


-----------------------------------------------
Test on the values of the Statistic C

Number of degrees of freedom          :   17
ChiSquare statistic                   :   14.26
p-value of test                       :    0.65


-----------------------------------------------
CPU time used                    :  00:00:41.81

Generator state:




***********************************************************
HOST = node38.local.isima.fr, Linux

MersenneTwiter


swalk_RandomWalk1 test:
-----------------------------------------------
   N =  1,  n = 10000000,  r =  0,   s = 10,   L0 = 1000,   L1 = 1000



-----------------------------------------------
Test on the values of the Statistic H

Number of degrees of freedom          :  146
ChiSquare statistic                   :  165.47
p-value of test                       :    0.13


-----------------------------------------------
Test on the values of the Statistic M

Number of degrees of freedom          :  146
ChiSquare statistic                   :  157.18
p-value of test                       :    0.25


-----------------------------------------------
Test on the values of the Statistic J

Number of degrees of freedom          :  500
ChiSquare statistic                   :  484.95
p-value of test                       :    0.68


-----------------------------------------------
Test on the values of the Statistic R

Number of degrees of freedom          :  136
ChiSquare statistic                   :  127.39
p-value of test                       :    0.69


-----------------------------------------------
Test on the values of the Statistic C

Number of degrees of freedom          :   74
ChiSquare statistic                   :   55.14
p-value of test                       :    0.95


-----------------------------------------------
CPU time used                    :  00:00:44.60

Generator state:




***********************************************************
HOST = node38.local.isima.fr, Linux

MersenneTwiter


swalk_RandomWalk1 test:
-----------------------------------------------
   N =  1,  n = 10000000,  r = 20,   s = 10,   L0 = 1000,   L1 = 1000



-----------------------------------------------
Test on the values of the Statistic H

Number of degrees of freedom          :  146
ChiSquare statistic                   :  139.64
p-value of test                       :    0.63


-----------------------------------------------
Test on the values of the Statistic M

Number of degrees of freedom          :  146
ChiSquare statistic                   :  152.81
p-value of test                       :    0.33


-----------------------------------------------
Test on the values of the Statistic J

Number of degrees of freedom          :  500
ChiSquare statistic                   :  553.22
p-value of test                       :    0.05


-----------------------------------------------
Test on the values of the Statistic R

Number of degrees of freedom          :  136
ChiSquare statistic                   :  163.99
p-value of test                       :    0.05


-----------------------------------------------
Test on the values of the Statistic C

Number of degrees of freedom          :   74
ChiSquare statistic                   :   58.41
p-value of test                       :    0.91


-----------------------------------------------
CPU time used                    :  00:00:45.61

Generator state:




***********************************************************
HOST = node38.local.isima.fr, Linux

MersenneTwiter


swalk_RandomWalk1 test:
-----------------------------------------------
   N =  1,  n = 1000000,  r =  0,   s = 15,   L0 = 10000,   L1 = 10000



-----------------------------------------------
Test on the values of the Statistic H

Number of degrees of freedom          :  384
ChiSquare statistic                   :  382.77
p-value of test                       :    0.51


-----------------------------------------------
Test on the values of the Statistic M

Number of degrees of freedom          :  384
ChiSquare statistic                   :  433.30
p-value of test                       :    0.04


-----------------------------------------------
Test on the values of the Statistic J

Number of degrees of freedom          : 5000
ChiSquare statistic                   : 5167.65
p-value of test                       :    0.05


-----------------------------------------------
Test on the values of the Statistic R

Number of degrees of freedom          :  378
ChiSquare statistic                   :  356.63
p-value of test                       :    0.78


-----------------------------------------------
Test on the values of the Statistic C

Number of degrees of freedom          :  200
ChiSquare statistic                   :  233.18
p-value of test                       :    0.05


-----------------------------------------------
CPU time used                    :  00:00:36.11

Generator state:




***********************************************************
HOST = node38.local.isima.fr, Linux

MersenneTwiter


swalk_RandomWalk1 test:
-----------------------------------------------
   N =  1,  n = 1000000,  r = 15,   s = 15,   L0 = 10000,   L1 = 10000



-----------------------------------------------
Test on the values of the Statistic H

Number of degrees of freedom          :  384
ChiSquare statistic                   :  362.09
p-value of test                       :    0.78


-----------------------------------------------
Test on the values of the Statistic M

Number of degrees of freedom          :  384
ChiSquare statistic                   :  379.14
p-value of test                       :    0.56


-----------------------------------------------
Test on the values of the Statistic J

Number of degrees of freedom          : 5000
ChiSquare statistic                   : 5066.39
p-value of test                       :    0.25


-----------------------------------------------
Test on the values of the Statistic R

Number of degrees of freedom          :  378
ChiSquare statistic                   :  373.43
p-value of test                       :    0.56


-----------------------------------------------
Test on the values of the Statistic C

Number of degrees of freedom          :  200
ChiSquare statistic                   :  206.42
p-value of test                       :    0.36


-----------------------------------------------
CPU time used                    :  00:00:36.88

Generator state:




***********************************************************
HOST = node38.local.isima.fr, Linux

MersenneTwiter


scomp_LinearComp test:
-----------------------------------------------
   N =  1,  n = 400020,  r =  0,    s = 1



-----------------------------------------------
Number of degrees of freedom          :   12
Chi2 statistic for size of jumps      :    9.50
p-value of test                       :    0.66


-----------------------------------------------
Normal statistic for number of jumps  : -402.52
p-value of test                       : 1 - eps1    *****



-----------------------------------------------
CPU time used                    :  00:00:06.02

Generator state:




***********************************************************
HOST = node38.local.isima.fr, Linux

MersenneTwiter


scomp_LinearComp test:
-----------------------------------------------
   N =  1,  n = 400020,  r = 29,    s = 1



-----------------------------------------------
Number of degrees of freedom          :   12
Chi2 statistic for size of jumps      :    6.14
p-value of test                       :    0.91


-----------------------------------------------
Normal statistic for number of jumps  : -402.61
p-value of test                       : 1 - eps1    *****



-----------------------------------------------
CPU time used                    :  00:00:06.02

Generator state:




***********************************************************
HOST = node38.local.isima.fr, Linux

MersenneTwiter


scomp_LempelZiv test:
-----------------------------------------------
   N = 10,  n = 134217728,  r =  0,   s =   30,   k =   27


-----------------------------------------------

Kolmogorov-Smirnov+ statistic = D+    :    0.11
p-value of test                       :    0.71

Kolmogorov-Smirnov- statistic = D-    :    0.16
p-value of test                       :    0.55

Anderson-Darling statistic = A2       :    0.33
p-value of test                       :    0.92

Tests on the sum of all N observations
Standardized normal statistic         :    0.38
p-value of test                       :    0.35

Sample variance                       :    0.87
p-value of test                       :    0.55

-----------------------------------------------
CPU time used                    :  00:01:32.85

Generator state:




***********************************************************
HOST = node38.local.isima.fr, Linux

MersenneTwiter


scomp_LempelZiv test:
-----------------------------------------------
   N = 10,  n = 134217728,  r = 15,   s =   15,   k =   27


-----------------------------------------------

Kolmogorov-Smirnov+ statistic = D+    :    0.45
p-value of test                       :    0.01

Kolmogorov-Smirnov- statistic = D-    :   0.079
p-value of test                       :    0.84

Anderson-Darling statistic = A2       :    2.80
p-value of test                       :    0.04

Tests on the sum of all N observations
Standardized normal statistic         :   -1.80
p-value of test                       :    0.96

Sample variance                       :    0.41
p-value of test                       :    0.93

-----------------------------------------------
CPU time used                    :  00:01:37.72

Generator state:




***********************************************************
HOST = node38.local.isima.fr, Linux

MersenneTwiter


sspectral_Fourier3 test:
-----------------------------------------------
   N = 100000,  n = 16384,  r =  0,   s =    3,   k =   14


-----------------------------------------------

Kolmogorov-Smirnov+ statistic = D+    : 3.88e-3
p-value of test                       :    0.88

Kolmogorov-Smirnov- statistic = D-    : 7.11e-3
p-value of test                       :    0.66

Anderson-Darling statistic = A2       :    0.16
p-value of test                       :    0.9979

-----------------------------------------------
CPU time used                    :  00:00:52.26

Generator state:




***********************************************************
HOST = node38.local.isima.fr, Linux

MersenneTwiter


sspectral_Fourier3 test:
-----------------------------------------------
   N = 100000,  n = 16384,  r = 27,   s =    3,   k =   14


-----------------------------------------------

Kolmogorov-Smirnov+ statistic = D+    :   0.012
p-value of test                       :    0.33

Kolmogorov-Smirnov- statistic = D-    :   0.022
p-value of test                       :    0.02

Anderson-Darling statistic = A2       :    1.11
p-value of test                       :    0.31

-----------------------------------------------
CPU time used                    :  00:00:51.87

Generator state:




***********************************************************
HOST = node38.local.isima.fr, Linux

MersenneTwiter


sstring_LongestHeadRun test:
-----------------------------------------------
   N =  1,  n = 1000,  r =  0,   s = 3,   L = 10000020


-----------------------------------------------
Number of degrees of freedom          :    8
Chi-square statistic                  :   11.20
p-value of test                       :    0.19

-----------------------------------------------
Global longest run of 1               :   33.00
p-value of test                       :    0.44



-----------------------------------------------
CPU time used                    :  00:01:35.05

Generator state:




***********************************************************
HOST = node38.local.isima.fr, Linux

MersenneTwiter


sstring_LongestHeadRun test:
-----------------------------------------------
   N =  1,  n = 1000,  r = 27,   s = 3,   L = 10000020


-----------------------------------------------
Number of degrees of freedom          :    8
Chi-square statistic                  :   11.12
p-value of test                       :    0.20

-----------------------------------------------
Global longest run of 1               :   33.00
p-value of test                       :    0.44



-----------------------------------------------
CPU time used                    :  00:01:36.26

Generator state:




***********************************************************
HOST = node38.local.isima.fr, Linux

MersenneTwiter


sstring_PeriodsInStrings test:
-----------------------------------------------
   N = 10,  n = 500000000,  r =  0,   s =   10


-----------------------------------------------

Kolmogorov-Smirnov+ statistic = D+    :   0.096
p-value of test                       :    0.78

Kolmogorov-Smirnov- statistic = D-    :    0.19
p-value of test                       :    0.42

Anderson-Darling statistic = A2       :    0.67
p-value of test                       :    0.58

Test on the sum of all N observations
Number of degrees of freedom          :  200
Chi-square statistic                  :  222.53
p-value of test                       :    0.13

-----------------------------------------------
CPU time used                    :  00:02:22.62

Generator state:




***********************************************************
HOST = node38.local.isima.fr, Linux

MersenneTwiter


sstring_PeriodsInStrings test:
-----------------------------------------------
   N = 10,  n = 500000000,  r = 20,   s =   10


-----------------------------------------------

Kolmogorov-Smirnov+ statistic = D+    :    0.19
p-value of test                       :    0.44

Kolmogorov-Smirnov- statistic = D-    :   0.067
p-value of test                       :    0.88

Anderson-Darling statistic = A2       :    0.45
p-value of test                       :    0.79

Test on the sum of all N observations
Number of degrees of freedom          :  200
Chi-square statistic                  :  187.77
p-value of test                       :    0.72

-----------------------------------------------
CPU time used                    :  00:02:28.55

Generator state:




***********************************************************
HOST = node38.local.isima.fr, Linux

MersenneTwiter


sstring_HammingWeight2 test:
-----------------------------------------------
   N = 10,  n = 1000000000,  r =  0,   s = 3,   L = 1000000


-----------------------------------------------

Kolmogorov-Smirnov+ statistic = D+    :   0.039
p-value of test                       :    0.94

Kolmogorov-Smirnov- statistic = D-    :    0.33
p-value of test                       :    0.09

Anderson-Darling statistic = A2       :    1.91
p-value of test                       :    0.10

Test on the sum of all N observations
Number of degrees of freedom          : 10000
Chi-square statistic                  :10251.51
p-value of test                       :    0.04

-----------------------------------------------
CPU time used                    :  00:01:09.35

Generator state:




***********************************************************
HOST = node38.local.isima.fr, Linux

MersenneTwiter


sstring_HammingWeight2 test:
-----------------------------------------------
   N = 10,  n = 1000000000,  r = 27,   s = 3,   L = 1000000


-----------------------------------------------

Kolmogorov-Smirnov+ statistic = D+    :    0.11
p-value of test                       :    0.75

Kolmogorov-Smirnov- statistic = D-    :    0.24
p-value of test                       :    0.28

Anderson-Darling statistic = A2       :    0.50
p-value of test                       :    0.75

Test on the sum of all N observations
Number of degrees of freedom          : 10000
Chi-square statistic                  :10048.46
p-value of test                       :    0.36

-----------------------------------------------
CPU time used                    :  00:01:09.31

Generator state:




***********************************************************
HOST = node38.local.isima.fr, Linux

MersenneTwiter


sstring_HammingCorr test:
-----------------------------------------------
   N =  1,  n = 1000000000,  r = 10,   s = 10,   L = 30



-----------------------------------------------
Normal statistic                      :    1.50
p-value of test                       :    0.07

-----------------------------------------------
CPU time used                    :  00:01:16.70

Generator state:




***********************************************************
HOST = node38.local.isima.fr, Linux

MersenneTwiter


sstring_HammingCorr test:
-----------------------------------------------
   N =  1,  n = 100000000,  r = 10,   s = 10,   L = 300



-----------------------------------------------
Normal statistic                      :   0.046
p-value of test                       :    0.48

-----------------------------------------------
CPU time used                    :  00:01:14.67

Generator state:




***********************************************************
HOST = node38.local.isima.fr, Linux

MersenneTwiter


sstring_HammingCorr test:
-----------------------------------------------
   N =  1,  n = 100000000,  r = 10,   s = 10,   L = 1200



-----------------------------------------------
Normal statistic                      :   -0.67
p-value of test                       :    0.75

-----------------------------------------------
CPU time used                    :  00:04:57.54

Generator state:




***********************************************************
HOST = node38.local.isima.fr, Linux

MersenneTwiter


sstring_HammingIndep test:
-----------------------------------------------
   N = 10,  n = 30000000,  r =  0,   s = 3,   L = 30,   d = 0



Counters with expected numbers >= 10
-----------------------------------------------

Kolmogorov-Smirnov+ statistic = D+    :    0.25
p-value of test                       :    0.26

Kolmogorov-Smirnov- statistic = D-    :    0.20
p-value of test                       :    0.40

Anderson-Darling statistic = A2       :    0.62
p-value of test                       :    0.63

Test on the sum of all N observations
Number of degrees of freedom          : 4890
Chi-square statistic                  : 4863.47
p-value of test                       :    0.60

-----------------------------------------------
CPU time used                    :  00:02:06.98

Generator state:




***********************************************************
HOST = node38.local.isima.fr, Linux

MersenneTwiter


sstring_HammingIndep test:
-----------------------------------------------
   N = 10,  n = 30000000,  r = 27,   s = 3,   L = 30,   d = 0



Counters with expected numbers >= 10
-----------------------------------------------

Kolmogorov-Smirnov+ statistic = D+    :    0.39
p-value of test                       :    0.03

Kolmogorov-Smirnov- statistic = D-    :   0.068
p-value of test                       :    0.88

Anderson-Darling statistic = A2       :    1.51
p-value of test                       :    0.17

Test on the sum of all N observations
Number of degrees of freedom          : 4890
Chi-square statistic                  : 4762.67
p-value of test                       :    0.90

-----------------------------------------------
CPU time used                    :  00:02:07.67

Generator state:




***********************************************************
HOST = node38.local.isima.fr, Linux

MersenneTwiter


sstring_HammingIndep test:
-----------------------------------------------
   N =  1,  n = 30000000,  r =  0,   s = 4,   L = 300,   d = 0



Counters with expected numbers >= 10
-----------------------------------------------
Number of degrees of freedom          : 4117
Chi-square statistic                  : 4001.96
p-value of test                       :    0.90

-----------------------------------------------
CPU time used                    :  00:01:37.79

Generator state:




***********************************************************
HOST = node38.local.isima.fr, Linux

MersenneTwiter


sstring_HammingIndep test:
-----------------------------------------------
   N =  1,  n = 30000000,  r = 26,   s = 4,   L = 300,   d = 0



Counters with expected numbers >= 10
-----------------------------------------------
Number of degrees of freedom          : 4117
Chi-square statistic                  : 4168.64
p-value of test                       :    0.28

-----------------------------------------------
CPU time used                    :  00:01:38.53

Generator state:




***********************************************************
HOST = node38.local.isima.fr, Linux

MersenneTwiter


sstring_HammingIndep test:
-----------------------------------------------
   N =  1,  n = 10000000,  r =  0,   s = 5,   L = 1200,   d = 0



Counters with expected numbers >= 10
-----------------------------------------------
Number of degrees of freedom          : 11825
Chi-square statistic                  :11710.17
p-value of test                       :    0.77

-----------------------------------------------
CPU time used                    :  00:01:47.67

Generator state:




***********************************************************
HOST = node38.local.isima.fr, Linux

MersenneTwiter


sstring_HammingIndep test:
-----------------------------------------------
   N =  1,  n = 10000000,  r = 25,   s = 5,   L = 1200,   d = 0



Counters with expected numbers >= 10
-----------------------------------------------
Number of degrees of freedom          : 11825
Chi-square statistic                  :11844.19
p-value of test                       :    0.45

-----------------------------------------------
CPU time used                    :  00:01:48.59

Generator state:




***********************************************************
HOST = node38.local.isima.fr, Linux

MersenneTwiter


sstring_Run test:
-----------------------------------------------
   N =  1,  n = 2000000000,  r =  0,   s =    3


-----------------------------------------------
Total number of 1 runs:  2000000000

Number of degrees of freedom          :   54
Chi2 statistic for number of runs     :   49.96
p-value of test                       :    0.63


-----------------------------------------------
Total number of bits:  8000014572

Normal statistic for number of bits   :    0.12
p-value of test                       :    0.45



-----------------------------------------------
CPU time used                    :  00:01:18.73

Generator state:




***********************************************************
HOST = node38.local.isima.fr, Linux

MersenneTwiter


sstring_Run test:
-----------------------------------------------
   N =  1,  n = 2000000000,  r = 27,   s =    3


-----------------------------------------------
Total number of 1 runs:  2000000000

Number of degrees of freedom          :   54
Chi2 statistic for number of runs     :   52.22
p-value of test                       :    0.54


-----------------------------------------------
Total number of bits:  7999921752

Normal statistic for number of bits   :   -0.62
p-value of test                       :    0.73



-----------------------------------------------
CPU time used                    :  00:01:21.45

Generator state:




***********************************************************
HOST = node38.local.isima.fr, Linux

MersenneTwiter


sstring_AutoCor test:
-----------------------------------------------
   N = 10,  n = 1000000030,  r =  0,   s = 3,   d = 1


-----------------------------------------------

Kolmogorov-Smirnov+ statistic = D+    :   0.064
p-value of test                       :    0.89

Kolmogorov-Smirnov- statistic = D-    :    0.15
p-value of test                       :    0.60

Anderson-Darling statistic = A2       :    0.27
p-value of test                       :    0.96

Tests on the sum of all N observations
Standardized normal statistic         :    0.44
p-value of test                       :    0.33

Sample variance                       :    1.11
p-value of test                       :    0.35

-----------------------------------------------
CPU time used                    :  00:01:25.95

Generator state:




***********************************************************
HOST = node38.local.isima.fr, Linux

MersenneTwiter


sstring_AutoCor test:
-----------------------------------------------
   N = 10,  n = 1000000029,  r =  0,   s = 3,   d = 3


-----------------------------------------------

Kolmogorov-Smirnov+ statistic = D+    :    0.11
p-value of test                       :    0.73

Kolmogorov-Smirnov- statistic = D-    :    0.25
p-value of test                       :    0.25

Anderson-Darling statistic = A2       :    0.49
p-value of test                       :    0.75

Tests on the sum of all N observations
Standardized normal statistic         :    0.57
p-value of test                       :    0.28

Sample variance                       :    1.04
p-value of test                       :    0.41

-----------------------------------------------
CPU time used                    :  00:01:14.00

Generator state:




***********************************************************
HOST = node38.local.isima.fr, Linux

MersenneTwiter


sstring_AutoCor test:
-----------------------------------------------
   N = 10,  n = 1000000030,  r = 27,   s = 3,   d = 1


-----------------------------------------------

Kolmogorov-Smirnov+ statistic = D+    :    0.24
p-value of test                       :    0.27

Kolmogorov-Smirnov- statistic = D-    :   0.040
p-value of test                       :    0.94

Anderson-Darling statistic = A2       :    0.67
p-value of test                       :    0.58

Tests on the sum of all N observations
Standardized normal statistic         :   -1.00
p-value of test                       :    0.84

Sample variance                       :    0.79
p-value of test                       :    0.62

-----------------------------------------------
CPU time used                    :  00:01:27.02

Generator state:




***********************************************************
HOST = node38.local.isima.fr, Linux

MersenneTwiter


sstring_AutoCor test:
-----------------------------------------------
   N = 10,  n = 1000000029,  r = 27,   s = 3,   d = 3


-----------------------------------------------

Kolmogorov-Smirnov+ statistic = D+    :    0.31
p-value of test                       :    0.12

Kolmogorov-Smirnov- statistic = D-    :   0.024
p-value of test                       :    0.97

Anderson-Darling statistic = A2       :    1.20
p-value of test                       :    0.26

Tests on the sum of all N observations
Standardized normal statistic         :   -1.40
p-value of test                       :    0.92

Sample variance                       :    0.74
p-value of test                       :    0.67

-----------------------------------------------
CPU time used                    :  00:01:08.54

Generator state:





========= Summary results of BigCrush =========

 Version:          TestU01 1.2.3
 Generator:        MersenneTwiter
 Number of statistics:  160
 Total CPU time:   03:07:15.02
 The following tests gave p-values outside [0.001, 0.9990]:
 (eps  means a value < 1.0e-300):
 (eps1 means a value < 1.0e-15):

       Test                          p-value
 ----------------------------------------------
 80  LinearComp, r = 0              1 - eps1
 81  LinearComp, r = 29             1 - eps1
 ----------------------------------------------
 All other tests were passed



