xxxxxxxxxxxxxxxxxxxxxxxxxxxxxxxxxxxxxxxxxxxxxxxxxxxxxxxxxxx
                 Starting BigCrush
                 Version: TestU01 1.2.3
xxxxxxxxxxxxxxxxxxxxxxxxxxxxxxxxxxxxxxxxxxxxxxxxxxxxxxxxxxx


***********************************************************
Test smarsa_SerialOver calling smultin_MultinomialOver

***********************************************************
HOST = node38.local.isima.fr, Linux

MersenneTwiter


smultin_MultinomialOver test:
-----------------------------------------------
   N =  1,  n = 1000000000,  r =  0,   d =  256,   t =  3,
       Sparse =  FALSE

       GenerCell = smultin_GenerCellSerial
       Number of cells = d^t =           16777216
       Expected number per cell =   59.604645
       Hashing =  FALSE

   For Delta > -1, we use the ChiSquare approximation
   Correction factor of the ChiSquare: 
       Delta =     1,    Mu =   0.0083558402,    Sigma =          1

-----------------------------------------------
Test Results for Delta =   1.0000

Number of degrees of freedom          : 16711680
Value of the statistic                : 1.67e+7
p-value of test                       :    0.13


-----------------------------------------------
CPU time used                    :  00:01:04.76

Generator state:




***********************************************************
Test smarsa_SerialOver calling smultin_MultinomialOver

***********************************************************
HOST = node38.local.isima.fr, Linux

MersenneTwiter


smultin_MultinomialOver test:
-----------------------------------------------
   N =  1,  n = 1000000000,  r = 22,   d =  256,   t =  3,
       Sparse =  FALSE

       GenerCell = smultin_GenerCellSerial
       Number of cells = d^t =           16777216
       Expected number per cell =   59.604645
       Hashing =  FALSE

   For Delta > -1, we use the ChiSquare approximation
   Correction factor of the ChiSquare: 
       Delta =     1,    Mu =   0.0083558402,    Sigma =          1

-----------------------------------------------
Test Results for Delta =   1.0000

Number of degrees of freedom          : 16711680
Value of the statistic                : 1.67e+7
p-value of test                       :    0.38


-----------------------------------------------
CPU time used                    :  00:01:07.91

Generator state:




***********************************************************
Test smarsa_CollisionOver calling smultin_MultinomialOver

***********************************************************
HOST = node38.local.isima.fr, Linux

MersenneTwiter


smultin_MultinomialOver test:
-----------------------------------------------
   N = 30,  n = 20000000,  r =  0,   d = 2097152,   t =  2,
       Sparse =   TRUE

       GenerCell = smultin_GenerCellSerial
       Number of cells = d^t =      4398046511104
       Expected number per cell =  1 /  219902.33
       EColl = n^2 / (2k) =  45.47473509
       Hashing =   TRUE

       Collision test

       CollisionOver:   density = n / k =  1 /  219902.33
       Expected number of collisions = Mu =      45.47


-----------------------------------------------
Results of CollisionOver test:

POISSON approximation                 :
Expected number of collisions = N*Mu  :     1364.24
Observed number of collisions         :     1350
p-value of test                       :    0.64

-----------------------------
Total number of cells containing j balls

  j =  0                              :  131940795334470
  j =  1                              :        599997300
  j =  2                              :             1350
  j =  3                              :                0
  j =  4                              :                0
  j =  5                              :                0

-----------------------------------------------
CPU time used                    :  00:04:03.04

Generator state:




***********************************************************
Test smarsa_CollisionOver calling smultin_MultinomialOver

***********************************************************
HOST = node38.local.isima.fr, Linux

MersenneTwiter


smultin_MultinomialOver test:
-----------------------------------------------
   N = 30,  n = 20000000,  r =  9,   d = 2097152,   t =  2,
       Sparse =   TRUE

       GenerCell = smultin_GenerCellSerial
       Number of cells = d^t =      4398046511104
       Expected number per cell =  1 /  219902.33
       EColl = n^2 / (2k) =  45.47473509
       Hashing =   TRUE

       Collision test

       CollisionOver:   density = n / k =  1 /  219902.33
       Expected number of collisions = Mu =      45.47


-----------------------------------------------
Results of CollisionOver test:

POISSON approximation                 :
Expected number of collisions = N*Mu  :     1364.24
Observed number of collisions         :     1341
p-value of test                       :    0.73

-----------------------------
Total number of cells containing j balls

  j =  0                              :  131940795334461
  j =  1                              :        599997318
  j =  2                              :             1341
  j =  3                              :                0
  j =  4                              :                0
  j =  5                              :                0

-----------------------------------------------
CPU time used                    :  00:04:08.67

Generator state:




***********************************************************
Test smarsa_CollisionOver calling smultin_MultinomialOver

***********************************************************
HOST = node38.local.isima.fr, Linux

MersenneTwiter


smultin_MultinomialOver test:
-----------------------------------------------
   N = 30,  n = 20000000,  r =  0,   d = 16384,   t =  3,
       Sparse =   TRUE

       GenerCell = smultin_GenerCellSerial
       Number of cells = d^t =      4398046511104
       Expected number per cell =  1 /  219902.33
       EColl = n^2 / (2k) =  45.47473509
       Hashing =   TRUE

       Collision test

       CollisionOver:   density = n / k =  1 /  219902.33
       Expected number of collisions = Mu =      45.47


-----------------------------------------------
Results of CollisionOver test:

POISSON approximation                 :
Expected number of collisions = N*Mu  :     1364.24
Observed number of collisions         :     1343
p-value of test                       :    0.71

-----------------------------
Total number of cells containing j balls

  j =  0                              :  131940795334463
  j =  1                              :        599997314
  j =  2                              :             1343
  j =  3                              :                0
  j =  4                              :                0
  j =  5                              :                0

-----------------------------------------------
CPU time used                    :  00:05:25.62

Generator state:




***********************************************************
Test smarsa_CollisionOver calling smultin_MultinomialOver

***********************************************************
HOST = node38.local.isima.fr, Linux

MersenneTwiter


smultin_MultinomialOver test:
-----------------------------------------------
   N = 30,  n = 20000000,  r = 16,   d = 16384,   t =  3,
       Sparse =   TRUE

       GenerCell = smultin_GenerCellSerial
       Number of cells = d^t =      4398046511104
       Expected number per cell =  1 /  219902.33
       EColl = n^2 / (2k) =  45.47473509
       Hashing =   TRUE

       Collision test

       CollisionOver:   density = n / k =  1 /  219902.33
       Expected number of collisions = Mu =      45.47


-----------------------------------------------
Results of CollisionOver test:

POISSON approximation                 :
Expected number of collisions = N*Mu  :     1364.24
Observed number of collisions         :     1386
p-value of test                       :    0.28

-----------------------------
Total number of cells containing j balls

  j =  0                              :  131940795334506
  j =  1                              :        599997228
  j =  2                              :             1386
  j =  3                              :                0
  j =  4                              :                0
  j =  5                              :                0

-----------------------------------------------
CPU time used                    :  00:05:29.50

Generator state:




***********************************************************
Test smarsa_CollisionOver calling smultin_MultinomialOver

***********************************************************
HOST = node38.local.isima.fr, Linux

MersenneTwiter


smultin_MultinomialOver test:
-----------------------------------------------
   N = 30,  n = 20000000,  r =  0,   d =   64,   t =  7,
       Sparse =   TRUE

       GenerCell = smultin_GenerCellSerial
       Number of cells = d^t =      4398046511104
       Expected number per cell =  1 /  219902.33
       EColl = n^2 / (2k) =  45.47473509
       Hashing =   TRUE

       Collision test

       CollisionOver:   density = n / k =  1 /  219902.33
       Expected number of collisions = Mu =      45.47


-----------------------------------------------
Results of CollisionOver test:

POISSON approximation                 :
Expected number of collisions = N*Mu  :     1364.24
Observed number of collisions         :     1340
p-value of test                       :    0.74

-----------------------------
Total number of cells containing j balls

  j =  0                              :  131940795334460
  j =  1                              :        599997320
  j =  2                              :             1340
  j =  3                              :                0
  j =  4                              :                0
  j =  5                              :                0

-----------------------------------------------
CPU time used                    :  00:05:31.24

Generator state:




***********************************************************
Test smarsa_CollisionOver calling smultin_MultinomialOver

***********************************************************
HOST = node38.local.isima.fr, Linux

MersenneTwiter


smultin_MultinomialOver test:
-----------------------------------------------
   N = 30,  n = 20000000,  r = 24,   d =   64,   t =  7,
       Sparse =   TRUE

       GenerCell = smultin_GenerCellSerial
       Number of cells = d^t =      4398046511104
       Expected number per cell =  1 /  219902.33
       EColl = n^2 / (2k) =  45.47473509
       Hashing =   TRUE

       Collision test

       CollisionOver:   density = n / k =  1 /  219902.33
       Expected number of collisions = Mu =      45.47


-----------------------------------------------
Results of CollisionOver test:

POISSON approximation                 :
Expected number of collisions = N*Mu  :     1364.24
Observed number of collisions         :     1367
p-value of test                       :    0.47

-----------------------------
Total number of cells containing j balls

  j =  0                              :  131940795334487
  j =  1                              :        599997266
  j =  2                              :             1367
  j =  3                              :                0
  j =  4                              :                0
  j =  5                              :                0

-----------------------------------------------
CPU time used                    :  00:05:35.18

Generator state:




***********************************************************
Test smarsa_CollisionOver calling smultin_MultinomialOver

***********************************************************
HOST = node38.local.isima.fr, Linux

MersenneTwiter


smultin_MultinomialOver test:
-----------------------------------------------
   N = 30,  n = 20000000,  r =  0,   d =    8,   t = 14,
       Sparse =   TRUE

       GenerCell = smultin_GenerCellSerial
       Number of cells = d^t =      4398046511104
       Expected number per cell =  1 /  219902.33
       EColl = n^2 / (2k) =  45.47473509
       Hashing =   TRUE

       Collision test

       CollisionOver:   density = n / k =  1 /  219902.33
       Expected number of collisions = Mu =      45.47


-----------------------------------------------
Results of CollisionOver test:

POISSON approximation                 :
Expected number of collisions = N*Mu  :     1364.24
Observed number of collisions         :     1387
p-value of test                       :    0.27

-----------------------------
Total number of cells containing j balls

  j =  0                              :  131940795334507
  j =  1                              :        599997226
  j =  2                              :             1387
  j =  3                              :                0
  j =  4                              :                0
  j =  5                              :                0

-----------------------------------------------
CPU time used                    :  00:05:29.03

Generator state:




***********************************************************
Test smarsa_CollisionOver calling smultin_MultinomialOver

***********************************************************
HOST = node38.local.isima.fr, Linux

MersenneTwiter


smultin_MultinomialOver test:
-----------------------------------------------
   N = 30,  n = 20000000,  r = 27,   d =    8,   t = 14,
       Sparse =   TRUE

       GenerCell = smultin_GenerCellSerial
       Number of cells = d^t =      4398046511104
       Expected number per cell =  1 /  219902.33
       EColl = n^2 / (2k) =  45.47473509
       Hashing =   TRUE

       Collision test

       CollisionOver:   density = n / k =  1 /  219902.33
       Expected number of collisions = Mu =      45.47


-----------------------------------------------
Results of CollisionOver test:

POISSON approximation                 :
Expected number of collisions = N*Mu  :     1364.24
Observed number of collisions         :     1366
p-value of test                       :    0.48

-----------------------------
Total number of cells containing j balls

  j =  0                              :  131940795334486
  j =  1                              :        599997268
  j =  2                              :             1366
  j =  3                              :                0
  j =  4                              :                0
  j =  5                              :                0

-----------------------------------------------
CPU time used                    :  00:05:34.46

Generator state:




***********************************************************
Test smarsa_CollisionOver calling smultin_MultinomialOver

***********************************************************
HOST = node38.local.isima.fr, Linux

MersenneTwiter


smultin_MultinomialOver test:
-----------------------------------------------
   N = 30,  n = 20000000,  r =  0,   d =    4,   t = 21,
       Sparse =   TRUE

       GenerCell = smultin_GenerCellSerial
       Number of cells = d^t =      4398046511104
       Expected number per cell =  1 /  219902.33
       EColl = n^2 / (2k) =  45.47473509
       Hashing =   TRUE

       Collision test

       CollisionOver:   density = n / k =  1 /  219902.33
       Expected number of collisions = Mu =      45.47


-----------------------------------------------
Results of CollisionOver test:

POISSON approximation                 :
Expected number of collisions = N*Mu  :     1364.24
Observed number of collisions         :     1342
p-value of test                       :    0.72

-----------------------------
Total number of cells containing j balls

  j =  0                              :  131940795334462
  j =  1                              :        599997316
  j =  2                              :             1342
  j =  3                              :                0
  j =  4                              :                0
  j =  5                              :                0

-----------------------------------------------
CPU time used                    :  00:05:29.96

Generator state:




***********************************************************
Test smarsa_CollisionOver calling smultin_MultinomialOver

***********************************************************
HOST = node38.local.isima.fr, Linux

MersenneTwiter


smultin_MultinomialOver test:
-----------------------------------------------
   N = 30,  n = 20000000,  r = 28,   d =    4,   t = 21,
       Sparse =   TRUE

       GenerCell = smultin_GenerCellSerial
       Number of cells = d^t =      4398046511104
       Expected number per cell =  1 /  219902.33
       EColl = n^2 / (2k) =  45.47473509
       Hashing =   TRUE

       Collision test

       CollisionOver:   density = n / k =  1 /  219902.33
       Expected number of collisions = Mu =      45.47


-----------------------------------------------
Results of CollisionOver test:

POISSON approximation                 :
Expected number of collisions = N*Mu  :     1364.24
Observed number of collisions         :     1391
p-value of test                       :    0.24

-----------------------------
Total number of cells containing j balls

  j =  0                              :  131940795334511
  j =  1                              :        599997218
  j =  2                              :             1391
  j =  3                              :                0
  j =  4                              :                0
  j =  5                              :                0

-----------------------------------------------
CPU time used                    :  00:05:33.40

Generator state:




***********************************************************
HOST = node38.local.isima.fr, Linux

MersenneTwiter


smarsa_BirthdaySpacings test:
-----------------------------------------------
   N = 100,  n = 10000000,  r =  0,    d = 2147483648,    t = 2,    p = 1


      Number of cells = d^t = 4611686018427387904
      Lambda = Poisson mean =      54.2101


----------------------------------------------------
Total expected number = N*Lambda      :    5421.01
Total observed number                 :    5343
p-value of test                       :    0.85


-----------------------------------------------
CPU time used                    :  00:03:29.59

Generator state:




***********************************************************
HOST = node38.local.isima.fr, Linux

MersenneTwiter


smarsa_BirthdaySpacings test:
-----------------------------------------------
   N = 20,  n = 20000000,  r =  0,    d = 2097152,    t = 3,    p = 1


      Number of cells = d^t = 9223372036854775808
      Lambda = Poisson mean =     216.8404


----------------------------------------------------
Total expected number = N*Lambda      :    4336.81
Total observed number                 :    4334
p-value of test                       :    0.51


-----------------------------------------------
CPU time used                    :  00:01:28.21

Generator state:




***********************************************************
HOST = node38.local.isima.fr, Linux

MersenneTwiter


smarsa_BirthdaySpacings test:
-----------------------------------------------
   N = 20,  n = 30000000,  r = 14,    d = 65536,    t = 4,    p = 1


      Number of cells = d^t = 18446744073709551616
      Lambda = Poisson mean =     365.9182


----------------------------------------------------
Total expected number = N*Lambda      :    7318.36
Total observed number                 :    7346
p-value of test                       :    0.37


-----------------------------------------------
CPU time used                    :  00:02:22.44

Generator state:




***********************************************************
HOST = node38.local.isima.fr, Linux

MersenneTwiter


smarsa_BirthdaySpacings test:
-----------------------------------------------
   N = 20,  n = 20000000,  r =  0,    d = 512,    t = 7,    p = 1


      Number of cells = d^t = 9223372036854775808
      Lambda = Poisson mean =     216.8404


----------------------------------------------------
Total expected number = N*Lambda      :    4336.81
Total observed number                 :    4325
p-value of test                       :    0.57


-----------------------------------------------
CPU time used                    :  00:01:38.71

Generator state:




***********************************************************
HOST = node38.local.isima.fr, Linux

MersenneTwiter


smarsa_BirthdaySpacings test:
-----------------------------------------------
   N = 20,  n = 20000000,  r =  7,    d = 512,    t = 7,    p = 1


      Number of cells = d^t = 9223372036854775808
      Lambda = Poisson mean =     216.8404


----------------------------------------------------
Total expected number = N*Lambda      :    4336.81
Total observed number                 :    4267
p-value of test                       :    0.85


-----------------------------------------------
CPU time used                    :  00:01:43.15

Generator state:




***********************************************************
HOST = node38.local.isima.fr, Linux

MersenneTwiter


smarsa_BirthdaySpacings test:
-----------------------------------------------
   N = 20,  n = 30000000,  r = 14,    d = 256,    t = 8,    p = 1


      Number of cells = d^t = 18446744073709551616
      Lambda = Poisson mean =     365.9182


----------------------------------------------------
Total expected number = N*Lambda      :    7318.36
Total observed number                 :    7328
p-value of test                       :    0.46


-----------------------------------------------
CPU time used                    :  00:02:41.82

Generator state:




***********************************************************
HOST = node38.local.isima.fr, Linux

MersenneTwiter


smarsa_BirthdaySpacings test:
-----------------------------------------------
   N = 20,  n = 30000000,  r = 22,    d = 256,    t = 8,    p = 1


      Number of cells = d^t = 18446744073709551616
      Lambda = Poisson mean =     365.9182


----------------------------------------------------
Total expected number = N*Lambda      :    7318.36
Total observed number                 :    7549
p-value of test                       :  3.7e-3


-----------------------------------------------
CPU time used                    :  00:02:40.71

Generator state:




***********************************************************
HOST = node38.local.isima.fr, Linux

MersenneTwiter


smarsa_BirthdaySpacings test:
-----------------------------------------------
   N = 20,  n = 30000000,  r =  0,    d = 16,    t = 16,    p = 1


      Number of cells = d^t = 18446744073709551616
      Lambda = Poisson mean =     365.9182


----------------------------------------------------
Total expected number = N*Lambda      :    7318.36
Total observed number                 :    7241
p-value of test                       :    0.82


-----------------------------------------------
CPU time used                    :  00:03:08.03

Generator state:




***********************************************************
HOST = node38.local.isima.fr, Linux

MersenneTwiter


smarsa_BirthdaySpacings test:
-----------------------------------------------
   N = 20,  n = 30000000,  r = 26,    d = 16,    t = 16,    p = 1


      Number of cells = d^t = 18446744073709551616
      Lambda = Poisson mean =     365.9182


----------------------------------------------------
Total expected number = N*Lambda      :    7318.36
Total observed number                 :    7333
p-value of test                       :    0.43


-----------------------------------------------
CPU time used                    :  00:03:22.72

Generator state:




***********************************************************
HOST = node38.local.isima.fr, Linux

MersenneTwiter


snpair_ClosePairs test:
-----------------------------------------------
   N = 30,  n = 6000000,  r =  0,  t = 3,  p = 0,  m = 30,  Torus =  TRUE


---------------------------------------
Test based on the 2 nearest points (NP):

Stat. AD on the N values (NP)         :    0.98
p-value of test                       :    0.37


A2 test based on the spacings between the
   successive jump times of process Y_n(t):

A2 test on the values of A2 (m-NP)    :    0.61
p-value of test                       :    0.63

Test on the Nm values of W_{n,i}(mNP1):    0.81
p-value of test                       :    0.47

Test on the jump times of Y
   (superposition of Yn):

Expected number of jumps of Y = mN    :     900
Number of jumps of Y                  :     933
p-value of test                       :    0.14

Stat. AD (mNP2)                       :    1.55
p-value of test                       :    0.16

Stat. AD after spacings (mNP2-S)      :    1.16
p-value of test                       :    0.28

-----------------------------------------------
CPU time used                    :  00:01:49.10

Generator state:




***********************************************************
HOST = node38.local.isima.fr, Linux

MersenneTwiter


snpair_ClosePairs test:
-----------------------------------------------
   N = 20,  n = 4000000,  r =  0,  t = 5,  p = 0,  m = 30,  Torus =  TRUE


---------------------------------------
Test based on the 2 nearest points (NP):

Stat. AD on the N values (NP)         :    1.44
p-value of test                       :    0.19


A2 test based on the spacings between the
   successive jump times of process Y_n(t):

A2 test on the values of A2 (m-NP)    :    0.84
p-value of test                       :    0.45

Test on the Nm values of W_{n,i}(mNP1):    0.63
p-value of test                       :    0.62

Test on the jump times of Y
   (superposition of Yn):

Expected number of jumps of Y = mN    :     600
Number of jumps of Y                  :     570
p-value of test                       :    0.89

Stat. AD (mNP2)                       :    1.32
p-value of test                       :    0.23

Stat. AD after spacings (mNP2-S)      :    0.70
p-value of test                       :    0.56

-----------------------------------------------
CPU time used                    :  00:01:12.81

Generator state:




***********************************************************
HOST = node38.local.isima.fr, Linux

MersenneTwiter


snpair_ClosePairs test:
-----------------------------------------------
   N = 10,  n = 3000000,  r =  0,  t = 9,  p = 0,  m = 30,  Torus =  TRUE


---------------------------------------
Test based on the 2 nearest points (NP):

Stat. AD on the N values (NP)         :    0.76
p-value of test                       :    0.50


A2 test based on the spacings between the
   successive jump times of process Y_n(t):

A2 test on the values of A2 (m-NP)    :    1.18
p-value of test                       :    0.27

Test on the Nm values of W_{n,i}(mNP1):    0.66
p-value of test                       :    0.59

Test on the jump times of Y
   (superposition of Yn):

Expected number of jumps of Y = mN    :     300
Number of jumps of Y                  :     316
p-value of test                       :    0.18

Stat. AD (mNP2)                       :    1.41
p-value of test                       :    0.20

Stat. AD after spacings (mNP2-S)      :    0.77
p-value of test                       :    0.50

-----------------------------------------------
CPU time used                    :  00:02:09.21

Generator state:




***********************************************************
HOST = node38.local.isima.fr, Linux

MersenneTwiter


snpair_ClosePairs test:
-----------------------------------------------
   N =  5,  n = 2000000,  r =  0,  t = 16,  p = 0,  m = 30,  Torus =  TRUE


---------------------------------------
Test based on the 2 nearest points (NP):

Stat. AD on the N values (NP)         :    0.49
p-value of test                       :    0.75


A2 test based on the spacings between the
   successive jump times of process Y_n(t):

A2 test on the values of A2 (m-NP)    :    1.95
p-value of test                       :    0.10

Test on the Nm values of W_{n,i}(mNP1):    3.09
p-value of test                       :    0.02

Test on the jump times of Y
   (superposition of Yn):

Expected number of jumps of Y = mN    :     150
Number of jumps of Y                  :     130
p-value of test                       :    0.95

Stat. AD (mNP2)                       :    0.27
p-value of test                       :    0.96

Stat. AD after spacings (mNP2-S)      :    1.14
p-value of test                       :    0.29

-----------------------------------------------
CPU time used                    :  00:02:37.52

Generator state:




***********************************************************
HOST = node38.local.isima.fr, Linux

MersenneTwiter


sknuth_SimpPoker test:
-----------------------------------------------
   N =  1,  n = 400000000,  r =  0,   d =    8,   k =    8


-----------------------------------------------
Number of degrees of freedom          :    7
Chi-square statistic                  :    3.90
p-value of test                       :    0.79

-----------------------------------------------
CPU time used                    :  00:00:42.47

Generator state:




***********************************************************
HOST = node38.local.isima.fr, Linux

MersenneTwiter


sknuth_SimpPoker test:
-----------------------------------------------
   N =  1,  n = 400000000,  r = 27,   d =    8,   k =    8


-----------------------------------------------
Number of degrees of freedom          :    7
Chi-square statistic                  :    6.83
p-value of test                       :    0.45

-----------------------------------------------
CPU time used                    :  00:00:54.18

Generator state:




***********************************************************
HOST = node38.local.isima.fr, Linux

MersenneTwiter


sknuth_SimpPoker test:
-----------------------------------------------
   N =  1,  n = 100000000,  r =  0,   d =   32,   k =   32


-----------------------------------------------
Number of degrees of freedom          :   18
Chi-square statistic                  :   19.46
p-value of test                       :    0.36

-----------------------------------------------
CPU time used                    :  00:00:45.44

Generator state:




***********************************************************
HOST = node38.local.isima.fr, Linux

MersenneTwiter


sknuth_SimpPoker test:
-----------------------------------------------
   N =  1,  n = 100000000,  r = 25,   d =   32,   k =   32


-----------------------------------------------
Number of degrees of freedom          :   18
Chi-square statistic                  :   16.10
p-value of test                       :    0.59

-----------------------------------------------
CPU time used                    :  00:00:59.31

Generator state:




***********************************************************
HOST = node38.local.isima.fr, Linux

MersenneTwiter


sknuth_CouponCollector test:
-----------------------------------------------
   N =  1,  n = 200000000,  r =  0,   d =    8


-----------------------------------------------
Number of degrees of freedom          :   54
Chi-square statistic                  :   42.71
p-value of test                       :    0.87

-----------------------------------------------
CPU time used                    :  00:00:53.48

Generator state:




***********************************************************
HOST = node38.local.isima.fr, Linux

MersenneTwiter


sknuth_CouponCollector test:
-----------------------------------------------
   N =  1,  n = 200000000,  r = 10,   d =    8


-----------------------------------------------
Number of degrees of freedom          :   54
Chi-square statistic                  :   48.88
p-value of test                       :    0.67

-----------------------------------------------
CPU time used                    :  00:01:06.52

Generator state:




***********************************************************
HOST = node38.local.isima.fr, Linux

MersenneTwiter


sknuth_CouponCollector test:
-----------------------------------------------
   N =  1,  n = 200000000,  r = 20,   d =    8


-----------------------------------------------
Number of degrees of freedom          :   54
Chi-square statistic                  :   50.06
p-value of test                       :    0.63

-----------------------------------------------
CPU time used                    :  00:01:06.42

Generator state:




***********************************************************
HOST = node38.local.isima.fr, Linux

MersenneTwiter


sknuth_CouponCollector test:
-----------------------------------------------
   N =  1,  n = 200000000,  r = 27,   d =    8


-----------------------------------------------
Number of degrees of freedom          :   54
Chi-square statistic                  :   54.71
p-value of test                       :    0.45

-----------------------------------------------
CPU time used                    :  00:01:06.40

Generator state:




***********************************************************
HOST = node38.local.isima.fr, Linux

MersenneTwiter


sknuth_Gap test:
-----------------------------------------------
   N =  1,  n = 500000000,  r =  0,   Alpha =        0,   Beta  =   0.0625


-----------------------------------------------
Number of degrees of freedom          :  232
Chi-square statistic                  :  242.68
p-value of test                       :    0.30

-----------------------------------------------
CPU time used                    :  00:00:54.56

Generator state:




***********************************************************
HOST = node38.local.isima.fr, Linux

MersenneTwiter


sknuth_Gap test:
-----------------------------------------------
   N =  1,  n = 300000000,  r = 25,   Alpha =        0,   Beta  =  0.03125


-----------------------------------------------
Number of degrees of freedom          :  434
Chi-square statistic                  :  413.87
p-value of test                       :    0.75

-----------------------------------------------
CPU time used                    :  00:01:18.19

Generator state:




***********************************************************
HOST = node38.local.isima.fr, Linux

MersenneTwiter


sknuth_Gap test:
-----------------------------------------------
   N =  1,  n = 100000000,  r =  0,   Alpha =        0,   Beta  = 0.0078125


-----------------------------------------------
Number of degrees of freedom          : 1437
Chi-square statistic                  : 1485.86
p-value of test                       :    0.18

-----------------------------------------------
CPU time used                    :  00:01:16.00

Generator state:




***********************************************************
HOST = node38.local.isima.fr, Linux

MersenneTwiter


sknuth_Gap test:
-----------------------------------------------
   N =  1,  n = 10000000,  r = 20,   Alpha =        0,   Beta  = 0.000976562


-----------------------------------------------
Number of degrees of freedom          : 7046
Chi-square statistic                  : 7041.70
p-value of test                       :    0.51

-----------------------------------------------
CPU time used                    :  00:01:15.61

Generator state:




***********************************************************
HOST = node38.local.isima.fr, Linux

MersenneTwiter


sknuth_Run test:
-----------------------------------------------
   N =  5,  n = 1000000000,  r =  0,   Up = FALSE


-----------------------------------------------

Kolmogorov-Smirnov+ statistic = D+    :    0.17
p-value of test                       :    0.68

Kolmogorov-Smirnov- statistic = D-    :    0.40
p-value of test                       :    0.15

Anderson-Darling statistic = A2       :    0.86
p-value of test                       :    0.43

Test on the sum of all N observations
Number of degrees of freedom          :   30
Chi-square statistic                  :   33.73
p-value of test                       :    0.29

-----------------------------------------------
CPU time used                    :  00:01:00.93

Generator state:




***********************************************************
HOST = node38.local.isima.fr, Linux

MersenneTwiter


sknuth_Run test:
-----------------------------------------------
   N = 10,  n = 1000000000,  r = 15,   Up =  TRUE


-----------------------------------------------

Kolmogorov-Smirnov+ statistic = D+    :   0.079
p-value of test                       :    0.84

Kolmogorov-Smirnov- statistic = D-    :    0.19
p-value of test                       :    0.42

Anderson-Darling statistic = A2       :    0.58
p-value of test                       :    0.66

Test on the sum of all N observations
Number of degrees of freedom          :   60
Chi-square statistic                  :   68.29
p-value of test                       :    0.22

-----------------------------------------------
CPU time used                    :  00:02:37.90

Generator state:




***********************************************************
Test sknuth_Permutation calling smultin_Multinomial

***********************************************************
HOST = node38.local.isima.fr, Linux

MersenneTwiter


smultin_Multinomial test:
-----------------------------------------------
   N =  1,  n = 1000000000,  r =  5,   t =  3,
       Sparse =  FALSE

       GenerCell = smultin_GenerCellPermut
       Number of cells = t! =                  6
       Expected number per cell =  1.6666667e+08
       Hashing =  FALSE

   For Delta > -1, we use the ChiSquare approximation
   Correction factor of the ChiSquare: 
       Delta =     1,    Mu =  2.5000002e-09,    Sigma =          1

-----------------------------------------------
Test Results for Delta =   1.0000

Number of degrees of freedom          :    5
Value of the statistic                :    4.15
p-value of test                       :    0.53


-----------------------------------------------
CPU time used                    :  00:00:50.47

Generator state:




***********************************************************
Test sknuth_Permutation calling smultin_Multinomial

***********************************************************
HOST = node38.local.isima.fr, Linux

MersenneTwiter


smultin_Multinomial test:
-----------------------------------------------
   N =  1,  n = 1000000000,  r =  5,   t =  5,
       Sparse =  FALSE

       GenerCell = smultin_GenerCellPermut
       Number of cells = t! =                120
       Expected number per cell =   8333333.3
       Hashing =  FALSE

   For Delta > -1, we use the ChiSquare approximation
   Correction factor of the ChiSquare: 
       Delta =     1,    Mu =  5.9500005e-08,    Sigma =          1

-----------------------------------------------
Test Results for Delta =   1.0000

Number of degrees of freedom          :  119
Value of the statistic                :  120.32
p-value of test                       :    0.45


-----------------------------------------------
CPU time used                    :  00:01:22.60

Generator state:




***********************************************************
Test sknuth_Permutation calling smultin_Multinomial

***********************************************************
HOST = node38.local.isima.fr, Linux

MersenneTwiter


smultin_Multinomial test:
-----------------------------------------------
   N =  1,  n = 500000000,  r =  5,   t =  7,
       Sparse =  FALSE

       GenerCell = smultin_GenerCellPermut
       Number of cells = t! =               5040
       Expected number per cell =   99206.349
       Hashing =  FALSE

   For Delta > -1, we use the ChiSquare approximation
   Correction factor of the ChiSquare: 
       Delta =     1,    Mu =  5.0390004e-06,    Sigma =          1

-----------------------------------------------
Test Results for Delta =   1.0000

Number of degrees of freedom          : 5039
Value of the statistic                : 5026.96
p-value of test                       :    0.55


-----------------------------------------------
CPU time used                    :  00:01:04.39

Generator state:




***********************************************************
Test sknuth_Permutation calling smultin_Multinomial

***********************************************************
HOST = node38.local.isima.fr, Linux

MersenneTwiter


smultin_Multinomial test:
-----------------------------------------------
   N =  1,  n = 500000000,  r = 10,   t = 10,
       Sparse =  FALSE

       GenerCell = smultin_GenerCellPermut
       Number of cells = t! =            3628800
       Expected number per cell =    137.7866
       Hashing =  FALSE

   For Delta > -1, we use the ChiSquare approximation
   Correction factor of the ChiSquare: 
       Delta =     1,    Mu =   0.0036287993,    Sigma =          1

-----------------------------------------------
Test Results for Delta =   1.0000

Number of degrees of freedom          : 3628799
Value of the statistic                : 3.63e+6
p-value of test                       :    0.48


-----------------------------------------------
CPU time used                    :  00:02:53.97

Generator state:




***********************************************************
Test sknuth_CollisionPermut calling smultin_Multinomial

***********************************************************
HOST = node38.local.isima.fr, Linux

MersenneTwiter


smultin_Multinomial test:
-----------------------------------------------
   N = 20,  n = 20000000,  r =  0,   t = 14,
       Sparse =   TRUE

       GenerCell = smultin_GenerCellPermut
       Number of cells = t! =        87178291200
       Expected number per cell =  1 /  4358.9146
       EColl = n^2 / (2k) =   2294.14912
       Hashing =   TRUE

       Collision test,    Mu =      2293.9736,    Sigma =    47.8841

-----------------------------------------------
Test Results for Collisions

For the total number of collisions, we use
      the Poisson approximation:
Expected number of collisions = N*Mu  :    45879.47
Observed number of collisions         :    45364
p-value of test                       :    0.9920


-----------------------------
Total number of cells containing j balls

  j =  0                              :    1743165869364
  j =  1                              :        399909278
  j =  2                              :            45352
  j =  3                              :                6
  j =  4                              :                0
  j =  5                              :                0

-----------------------------------------------
CPU time used                    :  00:04:31.82

Generator state:




***********************************************************
Test sknuth_CollisionPermut calling smultin_Multinomial

***********************************************************
HOST = node38.local.isima.fr, Linux

MersenneTwiter


smultin_Multinomial test:
-----------------------------------------------
   N = 20,  n = 20000000,  r = 10,   t = 14,
       Sparse =   TRUE

       GenerCell = smultin_GenerCellPermut
       Number of cells = t! =        87178291200
       Expected number per cell =  1 /  4358.9146
       EColl = n^2 / (2k) =   2294.14912
       Hashing =   TRUE

       Collision test,    Mu =      2293.9736,    Sigma =    47.8841

-----------------------------------------------
Test Results for Collisions

For the total number of collisions, we use
      the Poisson approximation:
Expected number of collisions = N*Mu  :    45879.47
Observed number of collisions         :    45841
p-value of test                       :    0.57


-----------------------------
Total number of cells containing j balls

  j =  0                              :    1743165869841
  j =  1                              :        399908324
  j =  2                              :            45829
  j =  3                              :                6
  j =  4                              :                0
  j =  5                              :                0

-----------------------------------------------
CPU time used                    :  00:04:40.88

Generator state:




***********************************************************
HOST = node38.local.isima.fr, Linux

MersenneTwiter


sknuth_MaxOft test:
-----------------------------------------------
   N = 40,  n = 10000000,  r =  0,   d = 100000,   t =  8

      Number of categories = 100000
      Expected number per category  = 100.00


-----------------------------------------------
Test results for chi2 with 99999 degrees of freedom:

Kolmogorov-Smirnov+ statistic = D+    :    0.10
p-value of test                       :    0.41

Kolmogorov-Smirnov- statistic = D-    :    0.13
p-value of test                       :    0.25

Anderson-Darling statistic = A2       :    0.84
p-value of test                       :    0.45

Test on the sum of all N observations
Number of degrees of freedom          : 3999960
Chi-square statistic                  : 4.00e+6
p-value of test                       :    0.36


-----------------------------------------------
Test results for Anderson-Darling:

Kolmogorov-Smirnov+ statistic = D+    :   0.097
p-value of test                       :    0.44

Kolmogorov-Smirnov- statistic = D-    :   0.051
p-value of test                       :    0.78

Anderson-Darling statistic = A2       :    0.34
p-value of test                       :    0.90


-----------------------------------------------
CPU time used                    :  00:01:31.80

Generator state:




***********************************************************
HOST = node38.local.isima.fr, Linux

MersenneTwiter


sknuth_MaxOft test:
-----------------------------------------------
   N = 30,  n = 10000000,  r =  0,   d = 100000,   t = 16

      Number of categories = 100000
      Expected number per category  = 100.00


-----------------------------------------------
Test results for chi2 with 99999 degrees of freedom:

Kolmogorov-Smirnov+ statistic = D+    :    0.18
p-value of test                       :    0.14

Kolmogorov-Smirnov- statistic = D-    :   0.038
p-value of test                       :    0.89

Anderson-Darling statistic = A2       :    1.05
p-value of test                       :    0.33

Test on the sum of all N observations
Number of degrees of freedom          : 2999970
Chi-square statistic                  : 3.00e+6
p-value of test                       :    0.86


-----------------------------------------------
Test results for Anderson-Darling:

Kolmogorov-Smirnov+ statistic = D+    :    0.13
p-value of test                       :    0.34

Kolmogorov-Smirnov- statistic = D-    :   0.022
p-value of test                       :    0.96

Anderson-Darling statistic = A2       :    0.94
p-value of test                       :    0.39


-----------------------------------------------
CPU time used                    :  00:01:22.88

Generator state:




***********************************************************
HOST = node38.local.isima.fr, Linux

MersenneTwiter


sknuth_MaxOft test:
-----------------------------------------------
   N = 20,  n = 10000000,  r =  0,   d = 100000,   t = 24

      Number of categories = 100000
      Expected number per category  = 100.00


-----------------------------------------------
Test results for chi2 with 99999 degrees of freedom:

Kolmogorov-Smirnov+ statistic = D+    :    0.10
p-value of test                       :    0.61

Kolmogorov-Smirnov- statistic = D-    :   0.096
p-value of test                       :    0.65

Anderson-Darling statistic = A2       :    0.40
p-value of test                       :    0.85

Test on the sum of all N observations
Number of degrees of freedom          : 1999980
Chi-square statistic                  : 2.00e+6
p-value of test                       :    0.72


-----------------------------------------------
Test results for Anderson-Darling:

Kolmogorov-Smirnov+ statistic = D+    :    0.24
p-value of test                       :    0.08

Kolmogorov-Smirnov- statistic = D-    :    0.18
p-value of test                       :    0.23

Anderson-Darling statistic = A2       :    1.30
p-value of test                       :    0.23


-----------------------------------------------
CPU time used                    :  00:01:04.81

Generator state:




***********************************************************
HOST = node38.local.isima.fr, Linux

MersenneTwiter


sknuth_MaxOft test:
-----------------------------------------------
   N = 20,  n = 10000000,  r =  0,   d = 100000,   t = 32

      Number of categories = 100000
      Expected number per category  = 100.00


-----------------------------------------------
Test results for chi2 with 99999 degrees of freedom:

Kolmogorov-Smirnov+ statistic = D+    :   0.036
p-value of test                       :    0.93

Kolmogorov-Smirnov- statistic = D-    :    0.12
p-value of test                       :    0.50

Anderson-Darling statistic = A2       :    0.27
p-value of test                       :    0.96

Test on the sum of all N observations
Number of degrees of freedom          : 1999980
Chi-square statistic                  : 2.00e+6
p-value of test                       :    0.29


-----------------------------------------------
Test results for Anderson-Darling:

Kolmogorov-Smirnov+ statistic = D+    :    0.15
p-value of test                       :    0.37

Kolmogorov-Smirnov- statistic = D-    :    0.24
p-value of test                       :    0.09

Anderson-Darling statistic = A2       :    1.63
p-value of test                       :    0.15


-----------------------------------------------
CPU time used                    :  00:01:14.09

Generator state:




***********************************************************
HOST = node38.local.isima.fr, Linux

MersenneTwiter


svaria_SampleProd test:
-----------------------------------------------
   N = 40,  n = 10000000,  r =  0,   t = 8


-----------------------------------------------

Kolmogorov-Smirnov+ statistic = D+    :    0.19
p-value of test                       :    0.05

Kolmogorov-Smirnov- statistic = D-    :   0.048
p-value of test                       :    0.81

Anderson-Darling statistic = A2       :    1.64
p-value of test                       :    0.15

-----------------------------------------------
CPU time used                    :  00:01:18.64

Generator state:




***********************************************************
HOST = node38.local.isima.fr, Linux

MersenneTwiter


svaria_SampleProd test:
-----------------------------------------------
   N = 20,  n = 10000000,  r =  0,   t = 16


-----------------------------------------------

Kolmogorov-Smirnov+ statistic = D+    :    0.25
p-value of test                       :    0.08

Kolmogorov-Smirnov- statistic = D-    :   0.054
p-value of test                       :    0.86

Anderson-Darling statistic = A2       :    1.21
p-value of test                       :    0.26

-----------------------------------------------
CPU time used                    :  00:00:51.85

Generator state:




***********************************************************
HOST = node38.local.isima.fr, Linux

MersenneTwiter


svaria_SampleProd test:
-----------------------------------------------
   N = 20,  n = 10000000,  r =  0,   t = 24


-----------------------------------------------

Kolmogorov-Smirnov+ statistic = D+    :   0.074
p-value of test                       :    0.77

Kolmogorov-Smirnov- statistic = D-    :    0.16
p-value of test                       :    0.34

Anderson-Darling statistic = A2       :    0.40
p-value of test                       :    0.85

-----------------------------------------------
CPU time used                    :  00:01:03.09

Generator state:




***********************************************************
HOST = node38.local.isima.fr, Linux

MersenneTwiter


svaria_SampleMean test:
-----------------------------------------------
   N = 20000000,  n = 30,  r =  0


-----------------------------------------------

Kolmogorov-Smirnov+ statistic = D+    : 2.57e-5
p-value of test                       :    0.97

Kolmogorov-Smirnov- statistic = D-    : 1.68e-4
p-value of test                       :    0.32

Anderson-Darling statistic = A2       :    1.07
p-value of test                       :    0.32

-----------------------------------------------
CPU time used                    :  00:00:11.93

Generator state:




***********************************************************
HOST = node38.local.isima.fr, Linux

MersenneTwiter


svaria_SampleMean test:
-----------------------------------------------
   N = 20000000,  n = 30,  r = 10


-----------------------------------------------

Kolmogorov-Smirnov+ statistic = D+    : 1.17e-4
p-value of test                       :    0.58

Kolmogorov-Smirnov- statistic = D-    : 1.02e-4
p-value of test                       :    0.66

Anderson-Darling statistic = A2       :    0.27
p-value of test                       :    0.96

-----------------------------------------------
CPU time used                    :  00:00:12.56

Generator state:




***********************************************************
HOST = node38.local.isima.fr, Linux

MersenneTwiter


svaria_SampleCorr test:
-----------------------------------------------
   N =  1,  n = 2000000000,  r =  0,   k = 1


-----------------------------------------------
Normal statistic                      :    0.34
p-value of test                       :    0.37

-----------------------------------------------
CPU time used                    :  00:00:11.56

Generator state:




***********************************************************
HOST = node38.local.isima.fr, Linux

MersenneTwiter


svaria_SampleCorr test:
-----------------------------------------------
   N =  1,  n = 2000000000,  r =  0,   k = 2


-----------------------------------------------
Normal statistic                      :   -0.17
p-value of test                       :    0.57

-----------------------------------------------
CPU time used                    :  00:00:11.51

Generator state:




***********************************************************
HOST = node38.local.isima.fr, Linux

MersenneTwiter


svaria_AppearanceSpacings test:
-----------------------------------------------
   N =  1,   Q = 10000000,   K = 1000000000,   r = 0,   s = 3,   L = 15

   Sequences of n = (K + Q)L =  15150000000 bits
   Q = 10000000 initialization blocks
   K = 1000000000 blocks for the test
   the blocks have L = 15 bits



-----------------------------------------------
Normal statistic                      :   -0.35
p-value of test                       :    0.64

-----------------------------------------------
CPU time used                    :  00:00:57.31

Generator state:




***********************************************************
HOST = node38.local.isima.fr, Linux

MersenneTwiter


svaria_AppearanceSpacings test:
-----------------------------------------------
   N =  1,   Q = 10000000,   K = 1000000000,   r = 27,   s = 3,   L = 15

   Sequences of n = (K + Q)L =  15150000000 bits
   Q = 10000000 initialization blocks
   K = 1000000000 blocks for the test
   the blocks have L = 15 bits



-----------------------------------------------
Normal statistic                      :   -2.14
p-value of test                       :    0.98

-----------------------------------------------
CPU time used                    :  00:00:58.98

Generator state:




***********************************************************
HOST = node38.local.isima.fr, Linux

MersenneTwiter


svaria_WeightDistrib test:
-----------------------------------------------
   N =  1,  n = 20000000,  r =  0,  k = 256,  Alpha =      0,  Beta =   0.25


-----------------------------------------------
Number of degrees of freedom          :   67
Chi-square statistic                  :   54.35
p-value of test                       :    0.87

-----------------------------------------------
CPU time used                    :  00:00:31.42

Generator state:




***********************************************************
HOST = node38.local.isima.fr, Linux

MersenneTwiter


svaria_WeightDistrib test:
-----------------------------------------------
   N =  1,  n = 20000000,  r = 20,  k = 256,  Alpha =      0,  Beta =   0.25


-----------------------------------------------
Number of degrees of freedom          :   67
Chi-square statistic                  :   64.09
p-value of test                       :    0.58

-----------------------------------------------
CPU time used                    :  00:00:38.47

Generator state:




***********************************************************
HOST = node38.local.isima.fr, Linux

MersenneTwiter


svaria_WeightDistrib test:
-----------------------------------------------
   N =  1,  n = 20000000,  r = 28,  k = 256,  Alpha =      0,  Beta =   0.25


-----------------------------------------------
Number of degrees of freedom          :   67
Chi-square statistic                  :   60.82
p-value of test                       :    0.69

-----------------------------------------------
CPU time used                    :  00:00:38.55

Generator state:




***********************************************************
HOST = node38.local.isima.fr, Linux

MersenneTwiter


svaria_WeightDistrib test:
-----------------------------------------------
   N =  1,  n = 20000000,  r =  0,  k = 256,  Alpha =      0,  Beta = 0.0625


-----------------------------------------------
Number of degrees of freedom          :   37
Chi-square statistic                  :   21.96
p-value of test                       :    0.98

-----------------------------------------------
CPU time used                    :  00:00:32.03

Generator state:




***********************************************************
HOST = node38.local.isima.fr, Linux

MersenneTwiter


svaria_WeightDistrib test:
-----------------------------------------------
   N =  1,  n = 20000000,  r = 10,  k = 256,  Alpha =      0,  Beta = 0.0625


-----------------------------------------------
Number of degrees of freedom          :   37
Chi-square statistic                  :   45.77
p-value of test                       :    0.15

-----------------------------------------------
CPU time used                    :  00:00:38.31

Generator state:




***********************************************************
HOST = node38.local.isima.fr, Linux

MersenneTwiter


svaria_WeightDistrib test:
-----------------------------------------------
   N =  1,  n = 20000000,  r = 26,  k = 256,  Alpha =      0,  Beta = 0.0625


-----------------------------------------------
Number of degrees of freedom          :   37
Chi-square statistic                  :   28.24
p-value of test                       :    0.85

-----------------------------------------------
CPU time used                    :  00:00:38.43

Generator state:




***********************************************************
HOST = node38.local.isima.fr, Linux

MersenneTwiter


svaria_SumCollector test:
-----------------------------------------------
   N =  1,  n = 500000000,  r =  0,   g = 10


-----------------------------------------------
Number of degrees of freedom          :   29
Chi-square statistic                  :   41.39
p-value of test                       :    0.06

-----------------------------------------------
CPU time used                    :  00:01:12.35

Generator state:




***********************************************************
HOST = node38.local.isima.fr, Linux

MersenneTwiter


smarsa_MatrixRank test:
-----------------------------------------------
   N = 10,  n = 1000000,  r =  0,    s = 5,    L = 30,    k = 30


-----------------------------------------------

Kolmogorov-Smirnov+ statistic = D+    :    0.13
p-value of test                       :    0.66

Kolmogorov-Smirnov- statistic = D-    :    0.19
p-value of test                       :    0.43

Anderson-Darling statistic = A2       :    0.32
p-value of test                       :    0.92

Test on the sum of all N observations
Number of degrees of freedom          :   40
Chi-square statistic                  :   37.84
p-value of test                       :    0.57

-----------------------------------------------
CPU time used                    :  00:01:00.67

Generator state:




***********************************************************
HOST = node38.local.isima.fr, Linux

MersenneTwiter


smarsa_MatrixRank test:
-----------------------------------------------
   N = 10,  n = 1000000,  r = 25,    s = 5,    L = 30,    k = 30


-----------------------------------------------

Kolmogorov-Smirnov+ statistic = D+    :   0.083
p-value of test                       :    0.83

Kolmogorov-Smirnov- statistic = D-    :    0.29
p-value of test                       :    0.15

Anderson-Darling statistic = A2       :    1.30
p-value of test                       :    0.23

Test on the sum of all N observations
Number of degrees of freedom          :   40
Chi-square statistic                  :   51.40
p-value of test                       :    0.11

-----------------------------------------------
CPU time used                    :  00:01:00.68

Generator state:




***********************************************************
HOST = node38.local.isima.fr, Linux

MersenneTwiter


smarsa_MatrixRank test:
-----------------------------------------------
   N =  1,  n = 5000,  r =  0,    s = 4,    L = 1000,    k = 1000


-----------------------------------------------
Number of degrees of freedom          :    3
Chi-square statistic                  :    4.72
p-value of test                       :    0.19

-----------------------------------------------
CPU time used                    :  00:01:24.02

Generator state:




***********************************************************
HOST = node38.local.isima.fr, Linux

MersenneTwiter


smarsa_MatrixRank test:
-----------------------------------------------
   N =  1,  n = 5000,  r = 26,    s = 4,    L = 1000,    k = 1000


-----------------------------------------------
Number of degrees of freedom          :    3
Chi-square statistic                  :    9.48
p-value of test                       :    0.02

-----------------------------------------------
CPU time used                    :  00:01:24.28

Generator state:




***********************************************************
HOST = node38.local.isima.fr, Linux

MersenneTwiter


smarsa_MatrixRank test:
-----------------------------------------------
   N =  1,  n = 80,  r = 15,    s = 15,    L = 5000,    k = 5000


-----------------------------------------------
Number of degrees of freedom          :    2
Chi-square statistic                  :    4.22
p-value of test                       :    0.12

-----------------------------------------------
CPU time used                    :  00:01:28.10

Generator state:




***********************************************************
HOST = node38.local.isima.fr, Linux

MersenneTwiter


smarsa_MatrixRank test:
-----------------------------------------------
   N =  1,  n = 80,  r =  0,    s = 30,    L = 5000,    k = 5000


-----------------------------------------------
Number of degrees of freedom          :    2
Chi-square statistic                  :    3.19
p-value of test                       :    0.20

-----------------------------------------------
CPU time used                    :  00:01:19.73

Generator state:




***********************************************************
HOST = node38.local.isima.fr, Linux

MersenneTwiter


smarsa_Savir2 test:
-----------------------------------------------
   N = 10,  n = 10000000,  r = 10,    m = 1048576,    t = 30


-----------------------------------------------

Kolmogorov-Smirnov+ statistic = D+    :    0.14
p-value of test                       :    0.61

Kolmogorov-Smirnov- statistic = D-    :    0.10
p-value of test                       :    0.76

Anderson-Darling statistic = A2       :    0.20
p-value of test                       :    0.9909

Test on the sum of all N observations
Number of degrees of freedom          :  130
Chi-square statistic                  :  127.25
p-value of test                       :    0.55

-----------------------------------------------
CPU time used                    :  00:00:23.05

Generator state:




***********************************************************
HOST = node38.local.isima.fr, Linux

MersenneTwiter


smarsa_GCD test:
-----------------------------------------------
   N = 10,  n = 50000000,  r =  0,   s = 30


-----------------------------------------------
Test results for GCD values:

Kolmogorov-Smirnov+ statistic = D+    :    0.19
p-value of test                       :    0.44

Kolmogorov-Smirnov- statistic = D-    :    0.26
p-value of test                       :    0.22

Anderson-Darling statistic = A2       :    0.77
p-value of test                       :    0.50

Test on the sum of all N observations
Number of degrees of freedom          : 17430
Chi-square statistic                  :17409.01
p-value of test                       :    0.54



-----------------------------------------------
CPU time used                    :  00:00:53.67

Generator state:




***********************************************************
HOST = node38.local.isima.fr, Linux

MersenneTwiter


swalk_RandomWalk1 test:
-----------------------------------------------
   N =  1,  n = 100000000,  r =  0,   s = 5,   L0 =   50,   L1 =   50



-----------------------------------------------
Test on the values of the Statistic H

Number of degrees of freedom          :   36
ChiSquare statistic                   :   21.00
p-value of test                       :    0.98


-----------------------------------------------
Test on the values of the Statistic M

Number of degrees of freedom          :   35
ChiSquare statistic                   :   30.94
p-value of test                       :    0.66


-----------------------------------------------
Test on the values of the Statistic J

Number of degrees of freedom          :   25
ChiSquare statistic                   :   24.84
p-value of test                       :    0.47


-----------------------------------------------
Test on the values of the Statistic R

Number of degrees of freedom          :   24
ChiSquare statistic                   :   18.94
p-value of test                       :    0.75


-----------------------------------------------
Test on the values of the Statistic C

Number of degrees of freedom          :   17
ChiSquare statistic                   :    6.67
p-value of test                       :    0.99


-----------------------------------------------
CPU time used                    :  00:00:40.32

Generator state:




***********************************************************
HOST = node38.local.isima.fr, Linux

MersenneTwiter


swalk_RandomWalk1 test:
-----------------------------------------------
   N =  1,  n = 100000000,  r = 25,   s = 5,   L0 =   50,   L1 =   50



-----------------------------------------------
Test on the values of the Statistic H

Number of degrees of freedom          :   36
ChiSquare statistic                   :   35.17
p-value of test                       :    0.51


-----------------------------------------------
Test on the values of the Statistic M

Number of degrees of freedom          :   35
ChiSquare statistic                   :   39.55
p-value of test                       :    0.27


-----------------------------------------------
Test on the values of the Statistic J

Number of degrees of freedom          :   25
ChiSquare statistic                   :   37.81
p-value of test                       :    0.05


-----------------------------------------------
Test on the values of the Statistic R

Number of degrees of freedom          :   24
ChiSquare statistic                   :   18.54
p-value of test                       :    0.78


-----------------------------------------------
Test on the values of the Statistic C

Number of degrees of freedom          :   17
ChiSquare statistic                   :    8.67
p-value of test                       :    0.95


-----------------------------------------------
CPU time used                    :  00:00:40.87

Generator state:




***********************************************************
HOST = node38.local.isima.fr, Linux

MersenneTwiter


swalk_RandomWalk1 test:
-----------------------------------------------
   N =  1,  n = 10000000,  r =  0,   s = 10,   L0 = 1000,   L1 = 1000



-----------------------------------------------
Test on the values of the Statistic H

Number of degrees of freedom          :  146
ChiSquare statistic                   :  167.44
p-value of test                       :    0.11


-----------------------------------------------
Test on the values of the Statistic M

Number of degrees of freedom          :  146
ChiSquare statistic                   :  143.97
p-value of test                       :    0.53


-----------------------------------------------
Test on the values of the Statistic J

Number of degrees of freedom          :  500
ChiSquare statistic                   :  541.83
p-value of test                       :    0.10


-----------------------------------------------
Test on the values of the Statistic R

Number of degrees of freedom          :  136
ChiSquare statistic                   :  154.39
p-value of test                       :    0.13


-----------------------------------------------
Test on the values of the Statistic C

Number of degrees of freedom          :   74
ChiSquare statistic                   :   55.43
p-value of test                       :    0.95


-----------------------------------------------
CPU time used                    :  00:00:44.25

Generator state:




***********************************************************
HOST = node38.local.isima.fr, Linux

MersenneTwiter


swalk_RandomWalk1 test:
-----------------------------------------------
   N =  1,  n = 10000000,  r = 20,   s = 10,   L0 = 1000,   L1 = 1000



-----------------------------------------------
Test on the values of the Statistic H

Number of degrees of freedom          :  146
ChiSquare statistic                   :  144.50
p-value of test                       :    0.52


-----------------------------------------------
Test on the values of the Statistic M

Number of degrees of freedom          :  146
ChiSquare statistic                   :  143.94
p-value of test                       :    0.53


-----------------------------------------------
Test on the values of the Statistic J

Number of degrees of freedom          :  500
ChiSquare statistic                   :  446.69
p-value of test                       :    0.96


-----------------------------------------------
Test on the values of the Statistic R

Number of degrees of freedom          :  136
ChiSquare statistic                   :  122.87
p-value of test                       :    0.78


-----------------------------------------------
Test on the values of the Statistic C

Number of degrees of freedom          :   74
ChiSquare statistic                   :   82.83
p-value of test                       :    0.23


-----------------------------------------------
CPU time used                    :  00:00:44.80

Generator state:




***********************************************************
HOST = node38.local.isima.fr, Linux

MersenneTwiter


swalk_RandomWalk1 test:
-----------------------------------------------
   N =  1,  n = 1000000,  r =  0,   s = 15,   L0 = 10000,   L1 = 10000



-----------------------------------------------
Test on the values of the Statistic H

Number of degrees of freedom          :  384
ChiSquare statistic                   :  378.19
p-value of test                       :    0.57


-----------------------------------------------
Test on the values of the Statistic M

Number of degrees of freedom          :  384
ChiSquare statistic                   :  391.96
p-value of test                       :    0.38


-----------------------------------------------
Test on the values of the Statistic J

Number of degrees of freedom          : 5000
ChiSquare statistic                   : 5025.45
p-value of test                       :    0.40


-----------------------------------------------
Test on the values of the Statistic R

Number of degrees of freedom          :  378
ChiSquare statistic                   :  355.95
p-value of test                       :    0.79


-----------------------------------------------
Test on the values of the Statistic C

Number of degrees of freedom          :  200
ChiSquare statistic                   :  164.94
p-value of test                       :    0.97


-----------------------------------------------
CPU time used                    :  00:00:35.70

Generator state:




***********************************************************
HOST = node38.local.isima.fr, Linux

MersenneTwiter


swalk_RandomWalk1 test:
-----------------------------------------------
   N =  1,  n = 1000000,  r = 15,   s = 15,   L0 = 10000,   L1 = 10000



-----------------------------------------------
Test on the values of the Statistic H

Number of degrees of freedom          :  384
ChiSquare statistic                   :  416.00
p-value of test                       :    0.13


-----------------------------------------------
Test on the values of the Statistic M

Number of degrees of freedom          :  384
ChiSquare statistic                   :  343.08
p-value of test                       :    0.93


-----------------------------------------------
Test on the values of the Statistic J

Number of degrees of freedom          : 5000
ChiSquare statistic                   : 4825.30
p-value of test                       :    0.96


-----------------------------------------------
Test on the values of the Statistic R

Number of degrees of freedom          :  378
ChiSquare statistic                   :  359.82
p-value of test                       :    0.74


-----------------------------------------------
Test on the values of the Statistic C

Number of degrees of freedom          :  200
ChiSquare statistic                   :  191.12
p-value of test                       :    0.66


-----------------------------------------------
CPU time used                    :  00:00:35.72

Generator state:




***********************************************************
HOST = node38.local.isima.fr, Linux

MersenneTwiter


scomp_LinearComp test:
-----------------------------------------------
   N =  1,  n = 400020,  r =  0,    s = 1



-----------------------------------------------
Number of degrees of freedom          :   12
Chi2 statistic for size of jumps      :    6.33
p-value of test                       :    0.90


-----------------------------------------------
Normal statistic for number of jumps  : -402.94
p-value of test                       : 1 - eps1    *****



-----------------------------------------------
CPU time used                    :  00:00:06.04

Generator state:




***********************************************************
HOST = node38.local.isima.fr, Linux

MersenneTwiter


scomp_LinearComp test:
-----------------------------------------------
   N =  1,  n = 400020,  r = 29,    s = 1



-----------------------------------------------
Number of degrees of freedom          :   12
Chi2 statistic for size of jumps      :   15.66
p-value of test                       :    0.21


-----------------------------------------------
Normal statistic for number of jumps  : -402.78
p-value of test                       : 1 - eps1    *****



-----------------------------------------------
CPU time used                    :  00:00:06.04

Generator state:




***********************************************************
HOST = node38.local.isima.fr, Linux

MersenneTwiter


scomp_LempelZiv test:
-----------------------------------------------
   N = 10,  n = 134217728,  r =  0,   s =   30,   k =   27


-----------------------------------------------

Kolmogorov-Smirnov+ statistic = D+    :    0.20
p-value of test                       :    0.38

Kolmogorov-Smirnov- statistic = D-    :    0.17
p-value of test                       :    0.50

Anderson-Darling statistic = A2       :    0.42
p-value of test                       :    0.83

Tests on the sum of all N observations
Standardized normal statistic         :   -0.18
p-value of test                       :    0.57

Sample variance                       :    0.68
p-value of test                       :    0.73

-----------------------------------------------
CPU time used                    :  00:01:35.92

Generator state:




***********************************************************
HOST = node38.local.isima.fr, Linux

MersenneTwiter


scomp_LempelZiv test:
-----------------------------------------------
   N = 10,  n = 134217728,  r = 15,   s =   15,   k =   27


-----------------------------------------------

Kolmogorov-Smirnov+ statistic = D+    :    0.13
p-value of test                       :    0.67

Kolmogorov-Smirnov- statistic = D-    :    0.25
p-value of test                       :    0.26

Anderson-Darling statistic = A2       :    0.59
p-value of test                       :    0.66

Tests on the sum of all N observations
Standardized normal statistic         :    0.54
p-value of test                       :    0.30

Sample variance                       :    0.59
p-value of test                       :    0.81

-----------------------------------------------
CPU time used                    :  00:01:36.97

Generator state:




***********************************************************
HOST = node38.local.isima.fr, Linux

MersenneTwiter


sspectral_Fourier3 test:
-----------------------------------------------
   N = 100000,  n = 16384,  r =  0,   s =    3,   k =   14


-----------------------------------------------

Kolmogorov-Smirnov+ statistic = D+    : 3.75e-3
p-value of test                       :    0.89

Kolmogorov-Smirnov- statistic = D-    :   0.015
p-value of test                       :    0.15

Anderson-Darling statistic = A2       :    0.93
p-value of test                       :    0.39

-----------------------------------------------
CPU time used                    :  00:00:52.89

Generator state:




***********************************************************
HOST = node38.local.isima.fr, Linux

MersenneTwiter


sspectral_Fourier3 test:
-----------------------------------------------
   N = 100000,  n = 16384,  r = 27,   s =    3,   k =   14


-----------------------------------------------

Kolmogorov-Smirnov+ statistic = D+    :   0.010
p-value of test                       :    0.43

Kolmogorov-Smirnov- statistic = D-    : 3.97e-3
p-value of test                       :    0.88

Anderson-Darling statistic = A2       :    0.36
p-value of test                       :    0.88

-----------------------------------------------
CPU time used                    :  00:00:52.23

Generator state:




***********************************************************
HOST = node38.local.isima.fr, Linux

MersenneTwiter


sstring_LongestHeadRun test:
-----------------------------------------------
   N =  1,  n = 1000,  r =  0,   s = 3,   L = 10000020


-----------------------------------------------
Number of degrees of freedom          :    8
Chi-square statistic                  :    2.14
p-value of test                       :    0.98

-----------------------------------------------
Global longest run of 1               :   32.00
p-value of test                       :    0.50



-----------------------------------------------
CPU time used                    :  00:01:36.32

Generator state:




***********************************************************
HOST = node38.local.isima.fr, Linux

MersenneTwiter


sstring_LongestHeadRun test:
-----------------------------------------------
   N =  1,  n = 1000,  r = 27,   s = 3,   L = 10000020


-----------------------------------------------
Number of degrees of freedom          :    8
Chi-square statistic                  :    6.49
p-value of test                       :    0.59

-----------------------------------------------
Global longest run of 1               :   32.00
p-value of test                       :    0.50



-----------------------------------------------
CPU time used                    :  00:01:38.18

Generator state:




***********************************************************
HOST = node38.local.isima.fr, Linux

MersenneTwiter


sstring_PeriodsInStrings test:
-----------------------------------------------
   N = 10,  n = 500000000,  r =  0,   s =   10


-----------------------------------------------

Kolmogorov-Smirnov+ statistic = D+    :    0.22
p-value of test                       :    0.34

Kolmogorov-Smirnov- statistic = D-    :    0.12
p-value of test                       :    0.69

Anderson-Darling statistic = A2       :    0.77
p-value of test                       :    0.50

Test on the sum of all N observations
Number of degrees of freedom          :  200
Chi-square statistic                  :  183.15
p-value of test                       :    0.80

-----------------------------------------------
CPU time used                    :  00:02:23.54

Generator state:




***********************************************************
HOST = node38.local.isima.fr, Linux

MersenneTwiter


sstring_PeriodsInStrings test:
-----------------------------------------------
   N = 10,  n = 500000000,  r = 20,   s =   10


-----------------------------------------------

Kolmogorov-Smirnov+ statistic = D+    :    0.12
p-value of test                       :    0.70

Kolmogorov-Smirnov- statistic = D-    :    0.13
p-value of test                       :    0.67

Anderson-Darling statistic = A2       :    0.52
p-value of test                       :    0.72

Test on the sum of all N observations
Number of degrees of freedom          :  200
Chi-square statistic                  :  190.23
p-value of test                       :    0.68

-----------------------------------------------
CPU time used                    :  00:02:30.31

Generator state:




***********************************************************
HOST = node38.local.isima.fr, Linux

MersenneTwiter


sstring_HammingWeight2 test:
-----------------------------------------------
   N = 10,  n = 1000000000,  r =  0,   s = 3,   L = 1000000


-----------------------------------------------

Kolmogorov-Smirnov+ statistic = D+    :    0.49
p-value of test                       :  4.8e-3

Kolmogorov-Smirnov- statistic = D-    : 8.60e-3
p-value of test                       :    0.9907

Anderson-Darling statistic = A2       :    3.74
p-value of test                       :    0.01

Test on the sum of all N observations
Number of degrees of freedom          : 10000
Chi-square statistic                  : 9648.26
p-value of test                       :    0.9940

-----------------------------------------------
CPU time used                    :  00:01:10.27

Generator state:




***********************************************************
HOST = node38.local.isima.fr, Linux

MersenneTwiter


sstring_HammingWeight2 test:
-----------------------------------------------
   N = 10,  n = 1000000000,  r = 27,   s = 3,   L = 1000000


-----------------------------------------------

Kolmogorov-Smirnov+ statistic = D+    :    0.20
p-value of test                       :    0.39

Kolmogorov-Smirnov- statistic = D-    :    0.12
p-value of test                       :    0.71

Anderson-Darling statistic = A2       :    0.38
p-value of test                       :    0.87

Test on the sum of all N observations
Number of degrees of freedom          : 10000
Chi-square statistic                  : 9940.24
p-value of test                       :    0.66

-----------------------------------------------
CPU time used                    :  00:01:09.75

Generator state:




***********************************************************
HOST = node38.local.isima.fr, Linux

MersenneTwiter


sstring_HammingCorr test:
-----------------------------------------------
   N =  1,  n = 1000000000,  r = 10,   s = 10,   L = 30



-----------------------------------------------
Normal statistic                      :    1.62
p-value of test                       :    0.05

-----------------------------------------------
CPU time used                    :  00:01:17.37

Generator state:




***********************************************************
HOST = node38.local.isima.fr, Linux

MersenneTwiter


sstring_HammingCorr test:
-----------------------------------------------
   N =  1,  n = 100000000,  r = 10,   s = 10,   L = 300



-----------------------------------------------
Normal statistic                      :   -1.58
p-value of test                       :    0.94

-----------------------------------------------
CPU time used                    :  00:01:15.00

Generator state:




***********************************************************
HOST = node38.local.isima.fr, Linux

MersenneTwiter


sstring_HammingCorr test:
-----------------------------------------------
   N =  1,  n = 100000000,  r = 10,   s = 10,   L = 1200



-----------------------------------------------
Normal statistic                      :    1.59
p-value of test                       :    0.06

-----------------------------------------------
CPU time used                    :  00:04:58.90

Generator state:




***********************************************************
HOST = node38.local.isima.fr, Linux

MersenneTwiter


sstring_HammingIndep test:
-----------------------------------------------
   N = 10,  n = 30000000,  r =  0,   s = 3,   L = 30,   d = 0



Counters with expected numbers >= 10
-----------------------------------------------

Kolmogorov-Smirnov+ statistic = D+    :   0.093
p-value of test                       :    0.79

Kolmogorov-Smirnov- statistic = D-    :    0.24
p-value of test                       :    0.26

Anderson-Darling statistic = A2       :    0.56
p-value of test                       :    0.68

Test on the sum of all N observations
Number of degrees of freedom          : 4890
Chi-square statistic                  : 4948.50
p-value of test                       :    0.28

-----------------------------------------------
CPU time used                    :  00:02:07.78

Generator state:




***********************************************************
HOST = node38.local.isima.fr, Linux

MersenneTwiter


sstring_HammingIndep test:
-----------------------------------------------
   N = 10,  n = 30000000,  r = 27,   s = 3,   L = 30,   d = 0



Counters with expected numbers >= 10
-----------------------------------------------

Kolmogorov-Smirnov+ statistic = D+    :    0.31
p-value of test                       :    0.11

Kolmogorov-Smirnov- statistic = D-    :   0.085
p-value of test                       :    0.82

Anderson-Darling statistic = A2       :    1.05
p-value of test                       :    0.33

Test on the sum of all N observations
Number of degrees of freedom          : 4890
Chi-square statistic                  : 4772.01
p-value of test                       :    0.88

-----------------------------------------------
CPU time used                    :  00:02:08.45

Generator state:




***********************************************************
HOST = node38.local.isima.fr, Linux

MersenneTwiter


sstring_HammingIndep test:
-----------------------------------------------
   N =  1,  n = 30000000,  r =  0,   s = 4,   L = 300,   d = 0



Counters with expected numbers >= 10
-----------------------------------------------
Number of degrees of freedom          : 4117
Chi-square statistic                  : 4076.14
p-value of test                       :    0.67

-----------------------------------------------
CPU time used                    :  00:01:38.31

Generator state:




***********************************************************
HOST = node38.local.isima.fr, Linux

MersenneTwiter


sstring_HammingIndep test:
-----------------------------------------------
   N =  1,  n = 30000000,  r = 26,   s = 4,   L = 300,   d = 0



Counters with expected numbers >= 10
-----------------------------------------------
Number of degrees of freedom          : 4117
Chi-square statistic                  : 3970.30
p-value of test                       :    0.95

-----------------------------------------------
CPU time used                    :  00:01:38.96

Generator state:




***********************************************************
HOST = node38.local.isima.fr, Linux

MersenneTwiter


sstring_HammingIndep test:
-----------------------------------------------
   N =  1,  n = 10000000,  r =  0,   s = 5,   L = 1200,   d = 0



Counters with expected numbers >= 10
-----------------------------------------------
Number of degrees of freedom          : 11825
Chi-square statistic                  :12113.36
p-value of test                       :    0.03

-----------------------------------------------
CPU time used                    :  00:01:47.82

Generator state:




***********************************************************
HOST = node38.local.isima.fr, Linux

MersenneTwiter


sstring_HammingIndep test:
-----------------------------------------------
   N =  1,  n = 10000000,  r = 25,   s = 5,   L = 1200,   d = 0



Counters with expected numbers >= 10
-----------------------------------------------
Number of degrees of freedom          : 11825
Chi-square statistic                  :11668.88
p-value of test                       :    0.85

-----------------------------------------------
CPU time used                    :  00:01:48.80

Generator state:




***********************************************************
HOST = node38.local.isima.fr, Linux

MersenneTwiter


sstring_Run test:
-----------------------------------------------
   N =  1,  n = 2000000000,  r =  0,   s =    3


-----------------------------------------------
Total number of 1 runs:  2000000000

Number of degrees of freedom          :   54
Chi2 statistic for number of runs     :   62.32
p-value of test                       :    0.20


-----------------------------------------------
Total number of bits:  7999958646

Normal statistic for number of bits   :   -0.33
p-value of test                       :    0.63



-----------------------------------------------
CPU time used                    :  00:01:19.69

Generator state:




***********************************************************
HOST = node38.local.isima.fr, Linux

MersenneTwiter


sstring_Run test:
-----------------------------------------------
   N =  1,  n = 2000000000,  r = 27,   s =    3


-----------------------------------------------
Total number of 1 runs:  2000000000

Number of degrees of freedom          :   54
Chi2 statistic for number of runs     :   39.35
p-value of test                       :    0.93


-----------------------------------------------
Total number of bits:  7999964661

Normal statistic for number of bits   :   -0.28
p-value of test                       :    0.61



-----------------------------------------------
CPU time used                    :  00:01:24.05

Generator state:




***********************************************************
HOST = node38.local.isima.fr, Linux

MersenneTwiter


sstring_AutoCor test:
-----------------------------------------------
   N = 10,  n = 1000000030,  r =  0,   s = 3,   d = 1


-----------------------------------------------

Kolmogorov-Smirnov+ statistic = D+    :    0.21
p-value of test                       :    0.35

Kolmogorov-Smirnov- statistic = D-    :    0.13
p-value of test                       :    0.68

Anderson-Darling statistic = A2       :    0.47
p-value of test                       :    0.77

Tests on the sum of all N observations
Standardized normal statistic         :   -0.66
p-value of test                       :    0.75

Sample variance                       :    0.78
p-value of test                       :    0.63

-----------------------------------------------
CPU time used                    :  00:01:26.72

Generator state:




***********************************************************
HOST = node38.local.isima.fr, Linux

MersenneTwiter


sstring_AutoCor test:
-----------------------------------------------
   N = 10,  n = 1000000029,  r =  0,   s = 3,   d = 3


-----------------------------------------------

Kolmogorov-Smirnov+ statistic = D+    : 3.78e-3
p-value of test                       :    0.9961

Kolmogorov-Smirnov- statistic = D-    :    0.22
p-value of test                       :    0.32

Anderson-Darling statistic = A2       :    1.14
p-value of test                       :    0.29

Tests on the sum of all N observations
Standardized normal statistic         :    1.54
p-value of test                       :    0.06

Sample variance                       :    1.29
p-value of test                       :    0.24

-----------------------------------------------
CPU time used                    :  00:01:14.19

Generator state:




***********************************************************
HOST = node38.local.isima.fr, Linux

MersenneTwiter


sstring_AutoCor test:
-----------------------------------------------
   N = 10,  n = 1000000030,  r = 27,   s = 3,   d = 1


-----------------------------------------------

Kolmogorov-Smirnov+ statistic = D+    :    0.37
p-value of test                       :    0.05

Kolmogorov-Smirnov- statistic = D-    :   0.016
p-value of test                       :    0.98

Anderson-Darling statistic = A2       :    2.37
p-value of test                       :    0.06

Tests on the sum of all N observations
Standardized normal statistic         :   -2.05
p-value of test                       :    0.98

Sample variance                       :    0.71
p-value of test                       :    0.70

-----------------------------------------------
CPU time used                    :  00:01:27.47

Generator state:




***********************************************************
HOST = node38.local.isima.fr, Linux

MersenneTwiter


sstring_AutoCor test:
-----------------------------------------------
   N = 10,  n = 1000000029,  r = 27,   s = 3,   d = 3


-----------------------------------------------

Kolmogorov-Smirnov+ statistic = D+    :    0.27
p-value of test                       :    0.19

Kolmogorov-Smirnov- statistic = D-    :    0.25
p-value of test                       :    0.26

Anderson-Darling statistic = A2       :    1.09
p-value of test                       :    0.31

Tests on the sum of all N observations
Standardized normal statistic         :   -0.20
p-value of test                       :    0.58

Sample variance                       :    0.22
p-value of test                       :    0.9916

-----------------------------------------------
CPU time used                    :  00:01:08.09

Generator state:





========= Summary results of BigCrush =========

 Version:          TestU01 1.2.3
 Generator:        MersenneTwiter
 Number of statistics:  160
 Total CPU time:   03:07:36.42
 The following tests gave p-values outside [0.001, 0.9990]:
 (eps  means a value < 1.0e-300):
 (eps1 means a value < 1.0e-15):

       Test                          p-value
 ----------------------------------------------
 80  LinearComp, r = 0              1 - eps1
 81  LinearComp, r = 29             1 - eps1
 ----------------------------------------------
 All other tests were passed



