xxxxxxxxxxxxxxxxxxxxxxxxxxxxxxxxxxxxxxxxxxxxxxxxxxxxxxxxxxx
                 Starting BigCrush
                 Version: TestU01 1.2.3
xxxxxxxxxxxxxxxxxxxxxxxxxxxxxxxxxxxxxxxxxxxxxxxxxxxxxxxxxxx


***********************************************************
Test smarsa_SerialOver calling smultin_MultinomialOver

***********************************************************
HOST = node38.local.isima.fr, Linux

MersenneTwiter


smultin_MultinomialOver test:
-----------------------------------------------
   N =  1,  n = 1000000000,  r =  0,   d =  256,   t =  3,
       Sparse =  FALSE

       GenerCell = smultin_GenerCellSerial
       Number of cells = d^t =           16777216
       Expected number per cell =   59.604645
       Hashing =  FALSE

   For Delta > -1, we use the ChiSquare approximation
   Correction factor of the ChiSquare: 
       Delta =     1,    Mu =   0.0083558402,    Sigma =          1

-----------------------------------------------
Test Results for Delta =   1.0000

Number of degrees of freedom          : 16711680
Value of the statistic                : 1.67e+7
p-value of test                       :    0.84


-----------------------------------------------
CPU time used                    :  00:01:05.12

Generator state:




***********************************************************
Test smarsa_SerialOver calling smultin_MultinomialOver

***********************************************************
HOST = node38.local.isima.fr, Linux

MersenneTwiter


smultin_MultinomialOver test:
-----------------------------------------------
   N =  1,  n = 1000000000,  r = 22,   d =  256,   t =  3,
       Sparse =  FALSE

       GenerCell = smultin_GenerCellSerial
       Number of cells = d^t =           16777216
       Expected number per cell =   59.604645
       Hashing =  FALSE

   For Delta > -1, we use the ChiSquare approximation
   Correction factor of the ChiSquare: 
       Delta =     1,    Mu =   0.0083558402,    Sigma =          1

-----------------------------------------------
Test Results for Delta =   1.0000

Number of degrees of freedom          : 16711680
Value of the statistic                : 1.67e+7
p-value of test                       :    0.74


-----------------------------------------------
CPU time used                    :  00:01:08.28

Generator state:




***********************************************************
Test smarsa_CollisionOver calling smultin_MultinomialOver

***********************************************************
HOST = node38.local.isima.fr, Linux

MersenneTwiter


smultin_MultinomialOver test:
-----------------------------------------------
   N = 30,  n = 20000000,  r =  0,   d = 2097152,   t =  2,
       Sparse =   TRUE

       GenerCell = smultin_GenerCellSerial
       Number of cells = d^t =      4398046511104
       Expected number per cell =  1 /  219902.33
       EColl = n^2 / (2k) =  45.47473509
       Hashing =   TRUE

       Collision test

       CollisionOver:   density = n / k =  1 /  219902.33
       Expected number of collisions = Mu =      45.47


-----------------------------------------------
Results of CollisionOver test:

POISSON approximation                 :
Expected number of collisions = N*Mu  :     1364.24
Observed number of collisions         :     1368
p-value of test                       :    0.46

-----------------------------
Total number of cells containing j balls

  j =  0                              :  131940795334488
  j =  1                              :        599997264
  j =  2                              :             1368
  j =  3                              :                0
  j =  4                              :                0
  j =  5                              :                0

-----------------------------------------------
CPU time used                    :  00:04:04.60

Generator state:




***********************************************************
Test smarsa_CollisionOver calling smultin_MultinomialOver

***********************************************************
HOST = node38.local.isima.fr, Linux

MersenneTwiter


smultin_MultinomialOver test:
-----------------------------------------------
   N = 30,  n = 20000000,  r =  9,   d = 2097152,   t =  2,
       Sparse =   TRUE

       GenerCell = smultin_GenerCellSerial
       Number of cells = d^t =      4398046511104
       Expected number per cell =  1 /  219902.33
       EColl = n^2 / (2k) =  45.47473509
       Hashing =   TRUE

       Collision test

       CollisionOver:   density = n / k =  1 /  219902.33
       Expected number of collisions = Mu =      45.47


-----------------------------------------------
Results of CollisionOver test:

POISSON approximation                 :
Expected number of collisions = N*Mu  :     1364.24
Observed number of collisions         :     1386
p-value of test                       :    0.28

-----------------------------
Total number of cells containing j balls

  j =  0                              :  131940795334506
  j =  1                              :        599997228
  j =  2                              :             1386
  j =  3                              :                0
  j =  4                              :                0
  j =  5                              :                0

-----------------------------------------------
CPU time used                    :  00:04:08.88

Generator state:




***********************************************************
Test smarsa_CollisionOver calling smultin_MultinomialOver

***********************************************************
HOST = node38.local.isima.fr, Linux

MersenneTwiter


smultin_MultinomialOver test:
-----------------------------------------------
   N = 30,  n = 20000000,  r =  0,   d = 16384,   t =  3,
       Sparse =   TRUE

       GenerCell = smultin_GenerCellSerial
       Number of cells = d^t =      4398046511104
       Expected number per cell =  1 /  219902.33
       EColl = n^2 / (2k) =  45.47473509
       Hashing =   TRUE

       Collision test

       CollisionOver:   density = n / k =  1 /  219902.33
       Expected number of collisions = Mu =      45.47


-----------------------------------------------
Results of CollisionOver test:

POISSON approximation                 :
Expected number of collisions = N*Mu  :     1364.24
Observed number of collisions         :     1417
p-value of test                       :    0.08

-----------------------------
Total number of cells containing j balls

  j =  0                              :  131940795334537
  j =  1                              :        599997166
  j =  2                              :             1417
  j =  3                              :                0
  j =  4                              :                0
  j =  5                              :                0

-----------------------------------------------
CPU time used                    :  00:05:27.12

Generator state:




***********************************************************
Test smarsa_CollisionOver calling smultin_MultinomialOver

***********************************************************
HOST = node38.local.isima.fr, Linux

MersenneTwiter


smultin_MultinomialOver test:
-----------------------------------------------
   N = 30,  n = 20000000,  r = 16,   d = 16384,   t =  3,
       Sparse =   TRUE

       GenerCell = smultin_GenerCellSerial
       Number of cells = d^t =      4398046511104
       Expected number per cell =  1 /  219902.33
       EColl = n^2 / (2k) =  45.47473509
       Hashing =   TRUE

       Collision test

       CollisionOver:   density = n / k =  1 /  219902.33
       Expected number of collisions = Mu =      45.47


-----------------------------------------------
Results of CollisionOver test:

POISSON approximation                 :
Expected number of collisions = N*Mu  :     1364.24
Observed number of collisions         :     1379
p-value of test                       :    0.35

-----------------------------
Total number of cells containing j balls

  j =  0                              :  131940795334499
  j =  1                              :        599997242
  j =  2                              :             1379
  j =  3                              :                0
  j =  4                              :                0
  j =  5                              :                0

-----------------------------------------------
CPU time used                    :  00:05:32.05

Generator state:




***********************************************************
Test smarsa_CollisionOver calling smultin_MultinomialOver

***********************************************************
HOST = node38.local.isima.fr, Linux

MersenneTwiter


smultin_MultinomialOver test:
-----------------------------------------------
   N = 30,  n = 20000000,  r =  0,   d =   64,   t =  7,
       Sparse =   TRUE

       GenerCell = smultin_GenerCellSerial
       Number of cells = d^t =      4398046511104
       Expected number per cell =  1 /  219902.33
       EColl = n^2 / (2k) =  45.47473509
       Hashing =   TRUE

       Collision test

       CollisionOver:   density = n / k =  1 /  219902.33
       Expected number of collisions = Mu =      45.47


-----------------------------------------------
Results of CollisionOver test:

POISSON approximation                 :
Expected number of collisions = N*Mu  :     1364.24
Observed number of collisions         :     1424
p-value of test                       :    0.06

-----------------------------
Total number of cells containing j balls

  j =  0                              :  131940795334544
  j =  1                              :        599997152
  j =  2                              :             1424
  j =  3                              :                0
  j =  4                              :                0
  j =  5                              :                0

-----------------------------------------------
CPU time used                    :  00:05:31.56

Generator state:




***********************************************************
Test smarsa_CollisionOver calling smultin_MultinomialOver

***********************************************************
HOST = node38.local.isima.fr, Linux

MersenneTwiter


smultin_MultinomialOver test:
-----------------------------------------------
   N = 30,  n = 20000000,  r = 24,   d =   64,   t =  7,
       Sparse =   TRUE

       GenerCell = smultin_GenerCellSerial
       Number of cells = d^t =      4398046511104
       Expected number per cell =  1 /  219902.33
       EColl = n^2 / (2k) =  45.47473509
       Hashing =   TRUE

       Collision test

       CollisionOver:   density = n / k =  1 /  219902.33
       Expected number of collisions = Mu =      45.47


-----------------------------------------------
Results of CollisionOver test:

POISSON approximation                 :
Expected number of collisions = N*Mu  :     1364.24
Observed number of collisions         :     1318
p-value of test                       :    0.89

-----------------------------
Total number of cells containing j balls

  j =  0                              :  131940795334438
  j =  1                              :        599997364
  j =  2                              :             1318
  j =  3                              :                0
  j =  4                              :                0
  j =  5                              :                0

-----------------------------------------------
CPU time used                    :  00:05:35.85

Generator state:




***********************************************************
Test smarsa_CollisionOver calling smultin_MultinomialOver

***********************************************************
HOST = node38.local.isima.fr, Linux

MersenneTwiter


smultin_MultinomialOver test:
-----------------------------------------------
   N = 30,  n = 20000000,  r =  0,   d =    8,   t = 14,
       Sparse =   TRUE

       GenerCell = smultin_GenerCellSerial
       Number of cells = d^t =      4398046511104
       Expected number per cell =  1 /  219902.33
       EColl = n^2 / (2k) =  45.47473509
       Hashing =   TRUE

       Collision test

       CollisionOver:   density = n / k =  1 /  219902.33
       Expected number of collisions = Mu =      45.47


-----------------------------------------------
Results of CollisionOver test:

POISSON approximation                 :
Expected number of collisions = N*Mu  :     1364.24
Observed number of collisions         :     1393
p-value of test                       :    0.22

-----------------------------
Total number of cells containing j balls

  j =  0                              :  131940795334513
  j =  1                              :        599997214
  j =  2                              :             1393
  j =  3                              :                0
  j =  4                              :                0
  j =  5                              :                0

-----------------------------------------------
CPU time used                    :  00:05:32.03

Generator state:




***********************************************************
Test smarsa_CollisionOver calling smultin_MultinomialOver

***********************************************************
HOST = node38.local.isima.fr, Linux

MersenneTwiter


smultin_MultinomialOver test:
-----------------------------------------------
   N = 30,  n = 20000000,  r = 27,   d =    8,   t = 14,
       Sparse =   TRUE

       GenerCell = smultin_GenerCellSerial
       Number of cells = d^t =      4398046511104
       Expected number per cell =  1 /  219902.33
       EColl = n^2 / (2k) =  45.47473509
       Hashing =   TRUE

       Collision test

       CollisionOver:   density = n / k =  1 /  219902.33
       Expected number of collisions = Mu =      45.47


-----------------------------------------------
Results of CollisionOver test:

POISSON approximation                 :
Expected number of collisions = N*Mu  :     1364.24
Observed number of collisions         :     1340
p-value of test                       :    0.74

-----------------------------
Total number of cells containing j balls

  j =  0                              :  131940795334460
  j =  1                              :        599997320
  j =  2                              :             1340
  j =  3                              :                0
  j =  4                              :                0
  j =  5                              :                0

-----------------------------------------------
CPU time used                    :  00:05:40.01

Generator state:




***********************************************************
Test smarsa_CollisionOver calling smultin_MultinomialOver

***********************************************************
HOST = node38.local.isima.fr, Linux

MersenneTwiter


smultin_MultinomialOver test:
-----------------------------------------------
   N = 30,  n = 20000000,  r =  0,   d =    4,   t = 21,
       Sparse =   TRUE

       GenerCell = smultin_GenerCellSerial
       Number of cells = d^t =      4398046511104
       Expected number per cell =  1 /  219902.33
       EColl = n^2 / (2k) =  45.47473509
       Hashing =   TRUE

       Collision test

       CollisionOver:   density = n / k =  1 /  219902.33
       Expected number of collisions = Mu =      45.47


-----------------------------------------------
Results of CollisionOver test:

POISSON approximation                 :
Expected number of collisions = N*Mu  :     1364.24
Observed number of collisions         :     1479
p-value of test                       :  1.1e-3

-----------------------------
Total number of cells containing j balls

  j =  0                              :  131940795334599
  j =  1                              :        599997042
  j =  2                              :             1479
  j =  3                              :                0
  j =  4                              :                0
  j =  5                              :                0

-----------------------------------------------
CPU time used                    :  00:05:30.15

Generator state:




***********************************************************
Test smarsa_CollisionOver calling smultin_MultinomialOver

***********************************************************
HOST = node38.local.isima.fr, Linux

MersenneTwiter


smultin_MultinomialOver test:
-----------------------------------------------
   N = 30,  n = 20000000,  r = 28,   d =    4,   t = 21,
       Sparse =   TRUE

       GenerCell = smultin_GenerCellSerial
       Number of cells = d^t =      4398046511104
       Expected number per cell =  1 /  219902.33
       EColl = n^2 / (2k) =  45.47473509
       Hashing =   TRUE

       Collision test

       CollisionOver:   density = n / k =  1 /  219902.33
       Expected number of collisions = Mu =      45.47


-----------------------------------------------
Results of CollisionOver test:

POISSON approximation                 :
Expected number of collisions = N*Mu  :     1364.24
Observed number of collisions         :     1332
p-value of test                       :    0.80

-----------------------------
Total number of cells containing j balls

  j =  0                              :  131940795334452
  j =  1                              :        599997336
  j =  2                              :             1332
  j =  3                              :                0
  j =  4                              :                0
  j =  5                              :                0

-----------------------------------------------
CPU time used                    :  00:05:32.01

Generator state:




***********************************************************
HOST = node38.local.isima.fr, Linux

MersenneTwiter


smarsa_BirthdaySpacings test:
-----------------------------------------------
   N = 100,  n = 10000000,  r =  0,    d = 2147483648,    t = 2,    p = 1


      Number of cells = d^t = 4611686018427387904
      Lambda = Poisson mean =      54.2101


----------------------------------------------------
Total expected number = N*Lambda      :    5421.01
Total observed number                 :    5434
p-value of test                       :    0.43


-----------------------------------------------
CPU time used                    :  00:03:29.21

Generator state:




***********************************************************
HOST = node38.local.isima.fr, Linux

MersenneTwiter


smarsa_BirthdaySpacings test:
-----------------------------------------------
   N = 20,  n = 20000000,  r =  0,    d = 2097152,    t = 3,    p = 1


      Number of cells = d^t = 9223372036854775808
      Lambda = Poisson mean =     216.8404


----------------------------------------------------
Total expected number = N*Lambda      :    4336.81
Total observed number                 :    4224
p-value of test                       :    0.96


-----------------------------------------------
CPU time used                    :  00:01:29.13

Generator state:




***********************************************************
HOST = node38.local.isima.fr, Linux

MersenneTwiter


smarsa_BirthdaySpacings test:
-----------------------------------------------
   N = 20,  n = 30000000,  r = 14,    d = 65536,    t = 4,    p = 1


      Number of cells = d^t = 18446744073709551616
      Lambda = Poisson mean =     365.9182


----------------------------------------------------
Total expected number = N*Lambda      :    7318.36
Total observed number                 :    7280
p-value of test                       :    0.67


-----------------------------------------------
CPU time used                    :  00:02:23.01

Generator state:




***********************************************************
HOST = node38.local.isima.fr, Linux

MersenneTwiter


smarsa_BirthdaySpacings test:
-----------------------------------------------
   N = 20,  n = 20000000,  r =  0,    d = 512,    t = 7,    p = 1


      Number of cells = d^t = 9223372036854775808
      Lambda = Poisson mean =     216.8404


----------------------------------------------------
Total expected number = N*Lambda      :    4336.81
Total observed number                 :    4327
p-value of test                       :    0.56


-----------------------------------------------
CPU time used                    :  00:01:39.19

Generator state:




***********************************************************
HOST = node38.local.isima.fr, Linux

MersenneTwiter


smarsa_BirthdaySpacings test:
-----------------------------------------------
   N = 20,  n = 20000000,  r =  7,    d = 512,    t = 7,    p = 1


      Number of cells = d^t = 9223372036854775808
      Lambda = Poisson mean =     216.8404


----------------------------------------------------
Total expected number = N*Lambda      :    4336.81
Total observed number                 :    4286
p-value of test                       :    0.78


-----------------------------------------------
CPU time used                    :  00:01:43.38

Generator state:




***********************************************************
HOST = node38.local.isima.fr, Linux

MersenneTwiter


smarsa_BirthdaySpacings test:
-----------------------------------------------
   N = 20,  n = 30000000,  r = 14,    d = 256,    t = 8,    p = 1


      Number of cells = d^t = 18446744073709551616
      Lambda = Poisson mean =     365.9182


----------------------------------------------------
Total expected number = N*Lambda      :    7318.36
Total observed number                 :    7465
p-value of test                       :    0.04


-----------------------------------------------
CPU time used                    :  00:02:40.96

Generator state:




***********************************************************
HOST = node38.local.isima.fr, Linux

MersenneTwiter


smarsa_BirthdaySpacings test:
-----------------------------------------------
   N = 20,  n = 30000000,  r = 22,    d = 256,    t = 8,    p = 1


      Number of cells = d^t = 18446744073709551616
      Lambda = Poisson mean =     365.9182


----------------------------------------------------
Total expected number = N*Lambda      :    7318.36
Total observed number                 :    7337
p-value of test                       :    0.42


-----------------------------------------------
CPU time used                    :  00:02:40.76

Generator state:




***********************************************************
HOST = node38.local.isima.fr, Linux

MersenneTwiter


smarsa_BirthdaySpacings test:
-----------------------------------------------
   N = 20,  n = 30000000,  r =  0,    d = 16,    t = 16,    p = 1


      Number of cells = d^t = 18446744073709551616
      Lambda = Poisson mean =     365.9182


----------------------------------------------------
Total expected number = N*Lambda      :    7318.36
Total observed number                 :    7265
p-value of test                       :    0.73


-----------------------------------------------
CPU time used                    :  00:03:08.56

Generator state:




***********************************************************
HOST = node38.local.isima.fr, Linux

MersenneTwiter


smarsa_BirthdaySpacings test:
-----------------------------------------------
   N = 20,  n = 30000000,  r = 26,    d = 16,    t = 16,    p = 1


      Number of cells = d^t = 18446744073709551616
      Lambda = Poisson mean =     365.9182


----------------------------------------------------
Total expected number = N*Lambda      :    7318.36
Total observed number                 :    7185
p-value of test                       :    0.94


-----------------------------------------------
CPU time used                    :  00:03:22.25

Generator state:




***********************************************************
HOST = node38.local.isima.fr, Linux

MersenneTwiter


snpair_ClosePairs test:
-----------------------------------------------
   N = 30,  n = 6000000,  r =  0,  t = 3,  p = 0,  m = 30,  Torus =  TRUE


---------------------------------------
Test based on the 2 nearest points (NP):

Stat. AD on the N values (NP)         :    1.76
p-value of test                       :    0.12


A2 test based on the spacings between the
   successive jump times of process Y_n(t):

A2 test on the values of A2 (m-NP)    :    0.69
p-value of test                       :    0.56

Test on the Nm values of W_{n,i}(mNP1):    0.24
p-value of test                       :    0.98

Test on the jump times of Y
   (superposition of Yn):

Expected number of jumps of Y = mN    :     900
Number of jumps of Y                  :     914
p-value of test                       :    0.32

Stat. AD (mNP2)                       :    0.98
p-value of test                       :    0.37

Stat. AD after spacings (mNP2-S)      :    1.32
p-value of test                       :    0.23

-----------------------------------------------
CPU time used                    :  00:01:47.13

Generator state:




***********************************************************
HOST = node38.local.isima.fr, Linux

MersenneTwiter


snpair_ClosePairs test:
-----------------------------------------------
   N = 20,  n = 4000000,  r =  0,  t = 5,  p = 0,  m = 30,  Torus =  TRUE


---------------------------------------
Test based on the 2 nearest points (NP):

Stat. AD on the N values (NP)         :    1.56
p-value of test                       :    0.16


A2 test based on the spacings between the
   successive jump times of process Y_n(t):

A2 test on the values of A2 (m-NP)    :    0.82
p-value of test                       :    0.46

Test on the Nm values of W_{n,i}(mNP1):    0.82
p-value of test                       :    0.46

Test on the jump times of Y
   (superposition of Yn):

Expected number of jumps of Y = mN    :     600
Number of jumps of Y                  :     643
p-value of test                       :    0.04

Stat. AD (mNP2)                       :    0.40
p-value of test                       :    0.85

Stat. AD after spacings (mNP2-S)      :    0.24
p-value of test                       :    0.98

-----------------------------------------------
CPU time used                    :  00:01:11.97

Generator state:




***********************************************************
HOST = node38.local.isima.fr, Linux

MersenneTwiter


snpair_ClosePairs test:
-----------------------------------------------
   N = 10,  n = 3000000,  r =  0,  t = 9,  p = 0,  m = 30,  Torus =  TRUE


---------------------------------------
Test based on the 2 nearest points (NP):

Stat. AD on the N values (NP)         :    1.06
p-value of test                       :    0.33


A2 test based on the spacings between the
   successive jump times of process Y_n(t):

A2 test on the values of A2 (m-NP)    :    0.44
p-value of test                       :    0.80

Test on the Nm values of W_{n,i}(mNP1):    1.69
p-value of test                       :    0.14

Test on the jump times of Y
   (superposition of Yn):

Expected number of jumps of Y = mN    :     300
Number of jumps of Y                  :     271
p-value of test                       :    0.95

Stat. AD (mNP2)                       :    4.53
p-value of test                       :  4.9e-3

Stat. AD after spacings (mNP2-S)      :    0.69
p-value of test                       :    0.57

-----------------------------------------------
CPU time used                    :  00:02:11.02

Generator state:




***********************************************************
HOST = node38.local.isima.fr, Linux

MersenneTwiter


snpair_ClosePairs test:
-----------------------------------------------
   N =  5,  n = 2000000,  r =  0,  t = 16,  p = 0,  m = 30,  Torus =  TRUE


---------------------------------------
Test based on the 2 nearest points (NP):

Stat. AD on the N values (NP)         :    0.40
p-value of test                       :    0.84


A2 test based on the spacings between the
   successive jump times of process Y_n(t):

A2 test on the values of A2 (m-NP)    :    0.21
p-value of test                       :    0.99

Test on the Nm values of W_{n,i}(mNP1):    1.75
p-value of test                       :    0.13

Test on the jump times of Y
   (superposition of Yn):

Expected number of jumps of Y = mN    :     150
Number of jumps of Y                  :     141
p-value of test                       :    0.75

Stat. AD (mNP2)                       :    1.07
p-value of test                       :    0.32

Stat. AD after spacings (mNP2-S)      :    0.46
p-value of test                       :    0.79

-----------------------------------------------
CPU time used                    :  00:02:34.64

Generator state:




***********************************************************
HOST = node38.local.isima.fr, Linux

MersenneTwiter


sknuth_SimpPoker test:
-----------------------------------------------
   N =  1,  n = 400000000,  r =  0,   d =    8,   k =    8


-----------------------------------------------
Number of degrees of freedom          :    7
Chi-square statistic                  :    4.59
p-value of test                       :    0.71

-----------------------------------------------
CPU time used                    :  00:00:42.05

Generator state:




***********************************************************
HOST = node38.local.isima.fr, Linux

MersenneTwiter


sknuth_SimpPoker test:
-----------------------------------------------
   N =  1,  n = 400000000,  r = 27,   d =    8,   k =    8


-----------------------------------------------
Number of degrees of freedom          :    7
Chi-square statistic                  :    7.48
p-value of test                       :    0.38

-----------------------------------------------
CPU time used                    :  00:00:54.00

Generator state:




***********************************************************
HOST = node38.local.isima.fr, Linux

MersenneTwiter


sknuth_SimpPoker test:
-----------------------------------------------
   N =  1,  n = 100000000,  r =  0,   d =   32,   k =   32


-----------------------------------------------
Number of degrees of freedom          :   18
Chi-square statistic                  :   14.29
p-value of test                       :    0.71

-----------------------------------------------
CPU time used                    :  00:00:45.35

Generator state:




***********************************************************
HOST = node38.local.isima.fr, Linux

MersenneTwiter


sknuth_SimpPoker test:
-----------------------------------------------
   N =  1,  n = 100000000,  r = 25,   d =   32,   k =   32


-----------------------------------------------
Number of degrees of freedom          :   18
Chi-square statistic                  :    9.49
p-value of test                       :    0.95

-----------------------------------------------
CPU time used                    :  00:00:59.22

Generator state:




***********************************************************
HOST = node38.local.isima.fr, Linux

MersenneTwiter


sknuth_CouponCollector test:
-----------------------------------------------
   N =  1,  n = 200000000,  r =  0,   d =    8


-----------------------------------------------
Number of degrees of freedom          :   54
Chi-square statistic                  :   65.73
p-value of test                       :    0.13

-----------------------------------------------
CPU time used                    :  00:00:53.36

Generator state:




***********************************************************
HOST = node38.local.isima.fr, Linux

MersenneTwiter


sknuth_CouponCollector test:
-----------------------------------------------
   N =  1,  n = 200000000,  r = 10,   d =    8


-----------------------------------------------
Number of degrees of freedom          :   54
Chi-square statistic                  :   44.59
p-value of test                       :    0.82

-----------------------------------------------
CPU time used                    :  00:01:06.43

Generator state:




***********************************************************
HOST = node38.local.isima.fr, Linux

MersenneTwiter


sknuth_CouponCollector test:
-----------------------------------------------
   N =  1,  n = 200000000,  r = 20,   d =    8


-----------------------------------------------
Number of degrees of freedom          :   54
Chi-square statistic                  :   48.54
p-value of test                       :    0.68

-----------------------------------------------
CPU time used                    :  00:01:06.42

Generator state:




***********************************************************
HOST = node38.local.isima.fr, Linux

MersenneTwiter


sknuth_CouponCollector test:
-----------------------------------------------
   N =  1,  n = 200000000,  r = 27,   d =    8


-----------------------------------------------
Number of degrees of freedom          :   54
Chi-square statistic                  :   40.06
p-value of test                       :    0.92

-----------------------------------------------
CPU time used                    :  00:01:06.39

Generator state:




***********************************************************
HOST = node38.local.isima.fr, Linux

MersenneTwiter


sknuth_Gap test:
-----------------------------------------------
   N =  1,  n = 500000000,  r =  0,   Alpha =        0,   Beta  =   0.0625


-----------------------------------------------
Number of degrees of freedom          :  232
Chi-square statistic                  :  217.55
p-value of test                       :    0.74

-----------------------------------------------
CPU time used                    :  00:00:54.65

Generator state:




***********************************************************
HOST = node38.local.isima.fr, Linux

MersenneTwiter


sknuth_Gap test:
-----------------------------------------------
   N =  1,  n = 300000000,  r = 25,   Alpha =        0,   Beta  =  0.03125


-----------------------------------------------
Number of degrees of freedom          :  434
Chi-square statistic                  :  475.50
p-value of test                       :    0.08

-----------------------------------------------
CPU time used                    :  00:01:18.18

Generator state:




***********************************************************
HOST = node38.local.isima.fr, Linux

MersenneTwiter


sknuth_Gap test:
-----------------------------------------------
   N =  1,  n = 100000000,  r =  0,   Alpha =        0,   Beta  = 0.0078125


-----------------------------------------------
Number of degrees of freedom          : 1437
Chi-square statistic                  : 1476.81
p-value of test                       :    0.23

-----------------------------------------------
CPU time used                    :  00:01:16.01

Generator state:




***********************************************************
HOST = node38.local.isima.fr, Linux

MersenneTwiter


sknuth_Gap test:
-----------------------------------------------
   N =  1,  n = 10000000,  r = 20,   Alpha =        0,   Beta  = 0.000976562


-----------------------------------------------
Number of degrees of freedom          : 7046
Chi-square statistic                  : 6933.38
p-value of test                       :    0.83

-----------------------------------------------
CPU time used                    :  00:01:15.46

Generator state:




***********************************************************
HOST = node38.local.isima.fr, Linux

MersenneTwiter


sknuth_Run test:
-----------------------------------------------
   N =  5,  n = 1000000000,  r =  0,   Up = FALSE


-----------------------------------------------

Kolmogorov-Smirnov+ statistic = D+    :    0.43
p-value of test                       :    0.11

Kolmogorov-Smirnov- statistic = D-    :    0.19
p-value of test                       :    0.62

Anderson-Darling statistic = A2       :    0.82
p-value of test                       :    0.46

Test on the sum of all N observations
Number of degrees of freedom          :   30
Chi-square statistic                  :   24.39
p-value of test                       :    0.75

-----------------------------------------------
CPU time used                    :  00:00:59.94

Generator state:




***********************************************************
HOST = node38.local.isima.fr, Linux

MersenneTwiter


sknuth_Run test:
-----------------------------------------------
   N = 10,  n = 1000000000,  r = 15,   Up =  TRUE


-----------------------------------------------

Kolmogorov-Smirnov+ statistic = D+    :    0.13
p-value of test                       :    0.67

Kolmogorov-Smirnov- statistic = D-    :    0.22
p-value of test                       :    0.32

Anderson-Darling statistic = A2       :    0.87
p-value of test                       :    0.43

Test on the sum of all N observations
Number of degrees of freedom          :   60
Chi-square statistic                  :   69.87
p-value of test                       :    0.18

-----------------------------------------------
CPU time used                    :  00:02:36.63

Generator state:




***********************************************************
Test sknuth_Permutation calling smultin_Multinomial

***********************************************************
HOST = node38.local.isima.fr, Linux

MersenneTwiter


smultin_Multinomial test:
-----------------------------------------------
   N =  1,  n = 1000000000,  r =  5,   t =  3,
       Sparse =  FALSE

       GenerCell = smultin_GenerCellPermut
       Number of cells = t! =                  6
       Expected number per cell =  1.6666667e+08
       Hashing =  FALSE

   For Delta > -1, we use the ChiSquare approximation
   Correction factor of the ChiSquare: 
       Delta =     1,    Mu =  2.5000002e-09,    Sigma =          1

-----------------------------------------------
Test Results for Delta =   1.0000

Number of degrees of freedom          :    5
Value of the statistic                :    6.18
p-value of test                       :    0.29


-----------------------------------------------
CPU time used                    :  00:01:01.39

Generator state:




***********************************************************
Test sknuth_Permutation calling smultin_Multinomial

***********************************************************
HOST = node38.local.isima.fr, Linux

MersenneTwiter


smultin_Multinomial test:
-----------------------------------------------
   N =  1,  n = 1000000000,  r =  5,   t =  5,
       Sparse =  FALSE

       GenerCell = smultin_GenerCellPermut
       Number of cells = t! =                120
       Expected number per cell =   8333333.3
       Hashing =  FALSE

   For Delta > -1, we use the ChiSquare approximation
   Correction factor of the ChiSquare: 
       Delta =     1,    Mu =  5.9500005e-08,    Sigma =          1

-----------------------------------------------
Test Results for Delta =   1.0000

Number of degrees of freedom          :  119
Value of the statistic                :  119.62
p-value of test                       :    0.47


-----------------------------------------------
CPU time used                    :  00:01:41.31

Generator state:




***********************************************************
Test sknuth_Permutation calling smultin_Multinomial

***********************************************************
HOST = node38.local.isima.fr, Linux

MersenneTwiter


smultin_Multinomial test:
-----------------------------------------------
   N =  1,  n = 500000000,  r =  5,   t =  7,
       Sparse =  FALSE

       GenerCell = smultin_GenerCellPermut
       Number of cells = t! =               5040
       Expected number per cell =   99206.349
       Hashing =  FALSE

   For Delta > -1, we use the ChiSquare approximation
   Correction factor of the ChiSquare: 
       Delta =     1,    Mu =  5.0390004e-06,    Sigma =          1

-----------------------------------------------
Test Results for Delta =   1.0000

Number of degrees of freedom          : 5039
Value of the statistic                : 5058.15
p-value of test                       :    0.42


-----------------------------------------------
CPU time used                    :  00:01:16.71

Generator state:




***********************************************************
Test sknuth_Permutation calling smultin_Multinomial

***********************************************************
HOST = node38.local.isima.fr, Linux

MersenneTwiter


smultin_Multinomial test:
-----------------------------------------------
   N =  1,  n = 500000000,  r = 10,   t = 10,
       Sparse =  FALSE

       GenerCell = smultin_GenerCellPermut
       Number of cells = t! =            3628800
       Expected number per cell =    137.7866
       Hashing =  FALSE

   For Delta > -1, we use the ChiSquare approximation
   Correction factor of the ChiSquare: 
       Delta =     1,    Mu =   0.0036287993,    Sigma =          1

-----------------------------------------------
Test Results for Delta =   1.0000

Number of degrees of freedom          : 3628799
Value of the statistic                : 3.63e+6
p-value of test                       :    0.57


-----------------------------------------------
CPU time used                    :  00:03:20.64

Generator state:




***********************************************************
Test sknuth_CollisionPermut calling smultin_Multinomial

***********************************************************
HOST = node38.local.isima.fr, Linux

MersenneTwiter


smultin_Multinomial test:
-----------------------------------------------
   N = 20,  n = 20000000,  r =  0,   t = 14,
       Sparse =   TRUE

       GenerCell = smultin_GenerCellPermut
       Number of cells = t! =        87178291200
       Expected number per cell =  1 /  4358.9146
       EColl = n^2 / (2k) =   2294.14912
       Hashing =   TRUE

       Collision test,    Mu =      2293.9736,    Sigma =    47.8841

-----------------------------------------------
Test Results for Collisions

For the total number of collisions, we use
      the Poisson approximation:
Expected number of collisions = N*Mu  :    45879.47
Observed number of collisions         :    45989
p-value of test                       :    0.31


-----------------------------
Total number of cells containing j balls

  j =  0                              :    1743165869989
  j =  1                              :        399908024
  j =  2                              :            45985
  j =  3                              :                2
  j =  4                              :                0
  j =  5                              :                0

-----------------------------------------------
CPU time used                    :  00:04:29.10

Generator state:




***********************************************************
Test sknuth_CollisionPermut calling smultin_Multinomial

***********************************************************
HOST = node38.local.isima.fr, Linux

MersenneTwiter


smultin_Multinomial test:
-----------------------------------------------
   N = 20,  n = 20000000,  r = 10,   t = 14,
       Sparse =   TRUE

       GenerCell = smultin_GenerCellPermut
       Number of cells = t! =        87178291200
       Expected number per cell =  1 /  4358.9146
       EColl = n^2 / (2k) =   2294.14912
       Hashing =   TRUE

       Collision test,    Mu =      2293.9736,    Sigma =    47.8841

-----------------------------------------------
Test Results for Collisions

For the total number of collisions, we use
      the Poisson approximation:
Expected number of collisions = N*Mu  :    45879.47
Observed number of collisions         :    46113
p-value of test                       :    0.14


-----------------------------
Total number of cells containing j balls

  j =  0                              :    1743165870113
  j =  1                              :        399907778
  j =  2                              :            46105
  j =  3                              :                4
  j =  4                              :                0
  j =  5                              :                0

-----------------------------------------------
CPU time used                    :  00:05:02.77

Generator state:




***********************************************************
HOST = node38.local.isima.fr, Linux

MersenneTwiter


sknuth_MaxOft test:
-----------------------------------------------
   N = 40,  n = 10000000,  r =  0,   d = 100000,   t =  8

      Number of categories = 100000
      Expected number per category  = 100.00


-----------------------------------------------
Test results for chi2 with 99999 degrees of freedom:

Kolmogorov-Smirnov+ statistic = D+    :   0.034
p-value of test                       :    0.89

Kolmogorov-Smirnov- statistic = D-    :    0.20
p-value of test                       :    0.04

Anderson-Darling statistic = A2       :    2.11
p-value of test                       :    0.08

Test on the sum of all N observations
Number of degrees of freedom          : 3999960
Chi-square statistic                  : 4.00e+6
p-value of test                       :    0.05


-----------------------------------------------
Test results for Anderson-Darling:

Kolmogorov-Smirnov+ statistic = D+    :   0.074
p-value of test                       :    0.62

Kolmogorov-Smirnov- statistic = D-    :    0.13
p-value of test                       :    0.26

Anderson-Darling statistic = A2       :    0.64
p-value of test                       :    0.61


-----------------------------------------------
CPU time used                    :  00:01:31.44

Generator state:




***********************************************************
HOST = node38.local.isima.fr, Linux

MersenneTwiter


sknuth_MaxOft test:
-----------------------------------------------
   N = 30,  n = 10000000,  r =  0,   d = 100000,   t = 16

      Number of categories = 100000
      Expected number per category  = 100.00


-----------------------------------------------
Test results for chi2 with 99999 degrees of freedom:

Kolmogorov-Smirnov+ statistic = D+    :    0.22
p-value of test                       :    0.05

Kolmogorov-Smirnov- statistic = D-    :   0.052
p-value of test                       :    0.82

Anderson-Darling statistic = A2       :    1.25
p-value of test                       :    0.25

Test on the sum of all N observations
Number of degrees of freedom          : 2999970
Chi-square statistic                  : 3.00e+6
p-value of test                       :    0.88


-----------------------------------------------
Test results for Anderson-Darling:

Kolmogorov-Smirnov+ statistic = D+    :   0.025
p-value of test                       :    0.95

Kolmogorov-Smirnov- statistic = D-    :    0.18
p-value of test                       :    0.14

Anderson-Darling statistic = A2       :    0.93
p-value of test                       :    0.39


-----------------------------------------------
CPU time used                    :  00:01:22.52

Generator state:




***********************************************************
HOST = node38.local.isima.fr, Linux

MersenneTwiter


sknuth_MaxOft test:
-----------------------------------------------
   N = 20,  n = 10000000,  r =  0,   d = 100000,   t = 24

      Number of categories = 100000
      Expected number per category  = 100.00


-----------------------------------------------
Test results for chi2 with 99999 degrees of freedom:

Kolmogorov-Smirnov+ statistic = D+    :   0.057
p-value of test                       :    0.84

Kolmogorov-Smirnov- statistic = D-    :    0.17
p-value of test                       :    0.28

Anderson-Darling statistic = A2       :    0.64
p-value of test                       :    0.61

Test on the sum of all N observations
Number of degrees of freedom          : 1999980
Chi-square statistic                  : 2.00e+6
p-value of test                       :    0.32


-----------------------------------------------
Test results for Anderson-Darling:

Kolmogorov-Smirnov+ statistic = D+    :   0.021
p-value of test                       :    0.97

Kolmogorov-Smirnov- statistic = D-    :    0.21
p-value of test                       :    0.14

Anderson-Darling statistic = A2       :    0.78
p-value of test                       :    0.50


-----------------------------------------------
CPU time used                    :  00:01:04.35

Generator state:




***********************************************************
HOST = node38.local.isima.fr, Linux

MersenneTwiter


sknuth_MaxOft test:
-----------------------------------------------
   N = 20,  n = 10000000,  r =  0,   d = 100000,   t = 32

      Number of categories = 100000
      Expected number per category  = 100.00


-----------------------------------------------
Test results for chi2 with 99999 degrees of freedom:

Kolmogorov-Smirnov+ statistic = D+    :    0.18
p-value of test                       :    0.23

Kolmogorov-Smirnov- statistic = D-    :   0.071
p-value of test                       :    0.78

Anderson-Darling statistic = A2       :    0.80
p-value of test                       :    0.48

Test on the sum of all N observations
Number of degrees of freedom          : 1999980
Chi-square statistic                  : 2.00e+6
p-value of test                       :    0.65


-----------------------------------------------
Test results for Anderson-Darling:

Kolmogorov-Smirnov+ statistic = D+    :    0.14
p-value of test                       :    0.43

Kolmogorov-Smirnov- statistic = D-    :   0.078
p-value of test                       :    0.75

Anderson-Darling statistic = A2       :    0.38
p-value of test                       :    0.87


-----------------------------------------------
CPU time used                    :  00:01:13.32

Generator state:




***********************************************************
HOST = node38.local.isima.fr, Linux

MersenneTwiter


svaria_SampleProd test:
-----------------------------------------------
   N = 40,  n = 10000000,  r =  0,   t = 8


-----------------------------------------------

Kolmogorov-Smirnov+ statistic = D+    :   0.080
p-value of test                       :    0.57

Kolmogorov-Smirnov- statistic = D-    :    0.23
p-value of test                       :    0.01

Anderson-Darling statistic = A2       :    2.22
p-value of test                       :    0.07

-----------------------------------------------
CPU time used                    :  00:01:18.97

Generator state:




***********************************************************
HOST = node38.local.isima.fr, Linux

MersenneTwiter


svaria_SampleProd test:
-----------------------------------------------
   N = 20,  n = 10000000,  r =  0,   t = 16


-----------------------------------------------

Kolmogorov-Smirnov+ statistic = D+    :   0.071
p-value of test                       :    0.78

Kolmogorov-Smirnov- statistic = D-    :    0.26
p-value of test                       :    0.05

Anderson-Darling statistic = A2       :    1.28
p-value of test                       :    0.24

-----------------------------------------------
CPU time used                    :  00:00:52.42

Generator state:




***********************************************************
HOST = node38.local.isima.fr, Linux

MersenneTwiter


svaria_SampleProd test:
-----------------------------------------------
   N = 20,  n = 10000000,  r =  0,   t = 24


-----------------------------------------------

Kolmogorov-Smirnov+ statistic = D+    :   0.089
p-value of test                       :    0.69

Kolmogorov-Smirnov- statistic = D-    :    0.26
p-value of test                       :    0.05

Anderson-Darling statistic = A2       :    1.48
p-value of test                       :    0.18

-----------------------------------------------
CPU time used                    :  00:01:03.86

Generator state:




***********************************************************
HOST = node38.local.isima.fr, Linux

MersenneTwiter


svaria_SampleMean test:
-----------------------------------------------
   N = 20000000,  n = 30,  r =  0


-----------------------------------------------

Kolmogorov-Smirnov+ statistic = D+    : 1.96e-4
p-value of test                       :    0.21

Kolmogorov-Smirnov- statistic = D-    : 6.51e-5
p-value of test                       :    0.84

Anderson-Darling statistic = A2       :    1.20
p-value of test                       :    0.27

-----------------------------------------------
CPU time used                    :  00:00:11.60

Generator state:




***********************************************************
HOST = node38.local.isima.fr, Linux

MersenneTwiter


svaria_SampleMean test:
-----------------------------------------------
   N = 20000000,  n = 30,  r = 10


-----------------------------------------------

Kolmogorov-Smirnov+ statistic = D+    : 1.23e-4
p-value of test                       :    0.54

Kolmogorov-Smirnov- statistic = D-    : 1.04e-4
p-value of test                       :    0.65

Anderson-Darling statistic = A2       :    0.50
p-value of test                       :    0.75

-----------------------------------------------
CPU time used                    :  00:00:12.27

Generator state:




***********************************************************
HOST = node38.local.isima.fr, Linux

MersenneTwiter


svaria_SampleCorr test:
-----------------------------------------------
   N =  1,  n = 2000000000,  r =  0,   k = 1


-----------------------------------------------
Normal statistic                      :    1.26
p-value of test                       :    0.10

-----------------------------------------------
CPU time used                    :  00:00:11.25

Generator state:




***********************************************************
HOST = node38.local.isima.fr, Linux

MersenneTwiter


svaria_SampleCorr test:
-----------------------------------------------
   N =  1,  n = 2000000000,  r =  0,   k = 2


-----------------------------------------------
Normal statistic                      :   0.081
p-value of test                       :    0.47

-----------------------------------------------
CPU time used                    :  00:00:11.26

Generator state:




***********************************************************
HOST = node38.local.isima.fr, Linux

MersenneTwiter


svaria_AppearanceSpacings test:
-----------------------------------------------
   N =  1,   Q = 10000000,   K = 1000000000,   r = 0,   s = 3,   L = 15

   Sequences of n = (K + Q)L =  15150000000 bits
   Q = 10000000 initialization blocks
   K = 1000000000 blocks for the test
   the blocks have L = 15 bits



-----------------------------------------------
Normal statistic                      :    0.12
p-value of test                       :    0.45

-----------------------------------------------
CPU time used                    :  00:01:19.46

Generator state:




***********************************************************
HOST = node38.local.isima.fr, Linux

MersenneTwiter


svaria_AppearanceSpacings test:
-----------------------------------------------
   N =  1,   Q = 10000000,   K = 1000000000,   r = 27,   s = 3,   L = 15

   Sequences of n = (K + Q)L =  15150000000 bits
   Q = 10000000 initialization blocks
   K = 1000000000 blocks for the test
   the blocks have L = 15 bits



-----------------------------------------------
Normal statistic                      :   -1.15
p-value of test                       :    0.87

-----------------------------------------------
CPU time used                    :  00:01:19.61

Generator state:




***********************************************************
HOST = node38.local.isima.fr, Linux

MersenneTwiter


svaria_WeightDistrib test:
-----------------------------------------------
   N =  1,  n = 20000000,  r =  0,  k = 256,  Alpha =      0,  Beta =   0.25


-----------------------------------------------
Number of degrees of freedom          :   67
Chi-square statistic                  :   59.99
p-value of test                       :    0.72

-----------------------------------------------
CPU time used                    :  00:00:30.27

Generator state:




***********************************************************
HOST = node38.local.isima.fr, Linux

MersenneTwiter


svaria_WeightDistrib test:
-----------------------------------------------
   N =  1,  n = 20000000,  r = 20,  k = 256,  Alpha =      0,  Beta =   0.25


-----------------------------------------------
Number of degrees of freedom          :   67
Chi-square statistic                  :   57.71
p-value of test                       :    0.78

-----------------------------------------------
CPU time used                    :  00:00:38.07

Generator state:




***********************************************************
HOST = node38.local.isima.fr, Linux

MersenneTwiter


svaria_WeightDistrib test:
-----------------------------------------------
   N =  1,  n = 20000000,  r = 28,  k = 256,  Alpha =      0,  Beta =   0.25


-----------------------------------------------
Number of degrees of freedom          :   67
Chi-square statistic                  :   68.67
p-value of test                       :    0.42

-----------------------------------------------
CPU time used                    :  00:00:38.10

Generator state:




***********************************************************
HOST = node38.local.isima.fr, Linux

MersenneTwiter


svaria_WeightDistrib test:
-----------------------------------------------
   N =  1,  n = 20000000,  r =  0,  k = 256,  Alpha =      0,  Beta = 0.0625


-----------------------------------------------
Number of degrees of freedom          :   37
Chi-square statistic                  :   30.50
p-value of test                       :    0.77

-----------------------------------------------
CPU time used                    :  00:00:29.65

Generator state:




***********************************************************
HOST = node38.local.isima.fr, Linux

MersenneTwiter


svaria_WeightDistrib test:
-----------------------------------------------
   N =  1,  n = 20000000,  r = 10,  k = 256,  Alpha =      0,  Beta = 0.0625


-----------------------------------------------
Number of degrees of freedom          :   37
Chi-square statistic                  :   28.76
p-value of test                       :    0.83

-----------------------------------------------
CPU time used                    :  00:00:37.40

Generator state:




***********************************************************
HOST = node38.local.isima.fr, Linux

MersenneTwiter


svaria_WeightDistrib test:
-----------------------------------------------
   N =  1,  n = 20000000,  r = 26,  k = 256,  Alpha =      0,  Beta = 0.0625


-----------------------------------------------
Number of degrees of freedom          :   37
Chi-square statistic                  :   45.95
p-value of test                       :    0.15

-----------------------------------------------
CPU time used                    :  00:00:37.30

Generator state:




***********************************************************
HOST = node38.local.isima.fr, Linux

MersenneTwiter


svaria_SumCollector test:
-----------------------------------------------
   N =  1,  n = 500000000,  r =  0,   g = 10


-----------------------------------------------
Number of degrees of freedom          :   29
Chi-square statistic                  :   29.67
p-value of test                       :    0.43

-----------------------------------------------
CPU time used                    :  00:01:08.35

Generator state:




***********************************************************
HOST = node38.local.isima.fr, Linux

MersenneTwiter


smarsa_MatrixRank test:
-----------------------------------------------
   N = 10,  n = 1000000,  r =  0,    s = 5,    L = 30,    k = 30


-----------------------------------------------

Kolmogorov-Smirnov+ statistic = D+    :    0.18
p-value of test                       :    0.48

Kolmogorov-Smirnov- statistic = D-    :    0.17
p-value of test                       :    0.49

Anderson-Darling statistic = A2       :    0.51
p-value of test                       :    0.74

Test on the sum of all N observations
Number of degrees of freedom          :   40
Chi-square statistic                  :   36.36
p-value of test                       :    0.63

-----------------------------------------------
CPU time used                    :  00:01:01.44

Generator state:




***********************************************************
HOST = node38.local.isima.fr, Linux

MersenneTwiter


smarsa_MatrixRank test:
-----------------------------------------------
   N = 10,  n = 1000000,  r = 25,    s = 5,    L = 30,    k = 30


-----------------------------------------------

Kolmogorov-Smirnov+ statistic = D+    :    0.23
p-value of test                       :    0.30

Kolmogorov-Smirnov- statistic = D-    :    0.19
p-value of test                       :    0.42

Anderson-Darling statistic = A2       :    0.96
p-value of test                       :    0.38

Test on the sum of all N observations
Number of degrees of freedom          :   40
Chi-square statistic                  :   43.81
p-value of test                       :    0.31

-----------------------------------------------
CPU time used                    :  00:01:01.43

Generator state:




***********************************************************
HOST = node38.local.isima.fr, Linux

MersenneTwiter


smarsa_MatrixRank test:
-----------------------------------------------
   N =  1,  n = 5000,  r =  0,    s = 4,    L = 1000,    k = 1000


-----------------------------------------------
Number of degrees of freedom          :    3
Chi-square statistic                  :    2.48
p-value of test                       :    0.48

-----------------------------------------------
CPU time used                    :  00:01:26.02

Generator state:




***********************************************************
HOST = node38.local.isima.fr, Linux

MersenneTwiter


smarsa_MatrixRank test:
-----------------------------------------------
   N =  1,  n = 5000,  r = 26,    s = 4,    L = 1000,    k = 1000


-----------------------------------------------
Number of degrees of freedom          :    3
Chi-square statistic                  :    2.35
p-value of test                       :    0.50

-----------------------------------------------
CPU time used                    :  00:01:26.96

Generator state:




***********************************************************
HOST = node38.local.isima.fr, Linux

MersenneTwiter


smarsa_MatrixRank test:
-----------------------------------------------
   N =  1,  n = 80,  r = 15,    s = 15,    L = 5000,    k = 5000


-----------------------------------------------
Number of degrees of freedom          :    2
Chi-square statistic                  :    1.53
p-value of test                       :    0.47

-----------------------------------------------
CPU time used                    :  00:01:17.25

Generator state:




***********************************************************
HOST = node38.local.isima.fr, Linux

MersenneTwiter


smarsa_MatrixRank test:
-----------------------------------------------
   N =  1,  n = 80,  r =  0,    s = 30,    L = 5000,    k = 5000


-----------------------------------------------
Number of degrees of freedom          :    2
Chi-square statistic                  :    3.42
p-value of test                       :    0.18

-----------------------------------------------
CPU time used                    :  00:01:01.87

Generator state:




***********************************************************
HOST = node38.local.isima.fr, Linux

MersenneTwiter


smarsa_Savir2 test:
-----------------------------------------------
   N = 10,  n = 10000000,  r = 10,    m = 1048576,    t = 30


-----------------------------------------------

Kolmogorov-Smirnov+ statistic = D+    :    0.12
p-value of test                       :    0.70

Kolmogorov-Smirnov- statistic = D-    :    0.33
p-value of test                       :    0.09

Anderson-Darling statistic = A2       :    1.06
p-value of test                       :    0.33

Test on the sum of all N observations
Number of degrees of freedom          :  130
Chi-square statistic                  :  141.05
p-value of test                       :    0.24

-----------------------------------------------
CPU time used                    :  00:00:22.94

Generator state:




***********************************************************
HOST = node38.local.isima.fr, Linux

MersenneTwiter


smarsa_GCD test:
-----------------------------------------------
   N = 10,  n = 50000000,  r =  0,   s = 30


-----------------------------------------------
Test results for GCD values:

Kolmogorov-Smirnov+ statistic = D+    :    0.34
p-value of test                       :    0.08

Kolmogorov-Smirnov- statistic = D-    :    0.11
p-value of test                       :    0.71

Anderson-Darling statistic = A2       :    1.11
p-value of test                       :    0.30

Test on the sum of all N observations
Number of degrees of freedom          : 17430
Chi-square statistic                  :17247.04
p-value of test                       :    0.84



-----------------------------------------------
CPU time used                    :  00:00:53.92

Generator state:




***********************************************************
HOST = node38.local.isima.fr, Linux

MersenneTwiter


swalk_RandomWalk1 test:
-----------------------------------------------
   N =  1,  n = 100000000,  r =  0,   s = 5,   L0 =   50,   L1 =   50



-----------------------------------------------
Test on the values of the Statistic H

Number of degrees of freedom          :   36
ChiSquare statistic                   :   43.80
p-value of test                       :    0.17


-----------------------------------------------
Test on the values of the Statistic M

Number of degrees of freedom          :   35
ChiSquare statistic                   :   42.48
p-value of test                       :    0.18


-----------------------------------------------
Test on the values of the Statistic J

Number of degrees of freedom          :   25
ChiSquare statistic                   :   20.53
p-value of test                       :    0.72


-----------------------------------------------
Test on the values of the Statistic R

Number of degrees of freedom          :   24
ChiSquare statistic                   :   16.22
p-value of test                       :    0.88


-----------------------------------------------
Test on the values of the Statistic C

Number of degrees of freedom          :   17
ChiSquare statistic                   :   16.81
p-value of test                       :    0.47


-----------------------------------------------
CPU time used                    :  00:00:40.87

Generator state:




***********************************************************
HOST = node38.local.isima.fr, Linux

MersenneTwiter


swalk_RandomWalk1 test:
-----------------------------------------------
   N =  1,  n = 100000000,  r = 25,   s = 5,   L0 =   50,   L1 =   50



-----------------------------------------------
Test on the values of the Statistic H

Number of degrees of freedom          :   36
ChiSquare statistic                   :   56.40
p-value of test                       :    0.02


-----------------------------------------------
Test on the values of the Statistic M

Number of degrees of freedom          :   35
ChiSquare statistic                   :   36.48
p-value of test                       :    0.40


-----------------------------------------------
Test on the values of the Statistic J

Number of degrees of freedom          :   25
ChiSquare statistic                   :   31.55
p-value of test                       :    0.17


-----------------------------------------------
Test on the values of the Statistic R

Number of degrees of freedom          :   24
ChiSquare statistic                   :   21.59
p-value of test                       :    0.60


-----------------------------------------------
Test on the values of the Statistic C

Number of degrees of freedom          :   17
ChiSquare statistic                   :   25.43
p-value of test                       :    0.09


-----------------------------------------------
CPU time used                    :  00:00:41.39

Generator state:




***********************************************************
HOST = node38.local.isima.fr, Linux

MersenneTwiter


swalk_RandomWalk1 test:
-----------------------------------------------
   N =  1,  n = 10000000,  r =  0,   s = 10,   L0 = 1000,   L1 = 1000



-----------------------------------------------
Test on the values of the Statistic H

Number of degrees of freedom          :  146
ChiSquare statistic                   :  190.58
p-value of test                       :  7.7e-3


-----------------------------------------------
Test on the values of the Statistic M

Number of degrees of freedom          :  146
ChiSquare statistic                   :  175.62
p-value of test                       :    0.05


-----------------------------------------------
Test on the values of the Statistic J

Number of degrees of freedom          :  500
ChiSquare statistic                   :  495.33
p-value of test                       :    0.55


-----------------------------------------------
Test on the values of the Statistic R

Number of degrees of freedom          :  136
ChiSquare statistic                   :  128.77
p-value of test                       :    0.66


-----------------------------------------------
Test on the values of the Statistic C

Number of degrees of freedom          :   74
ChiSquare statistic                   :   77.90
p-value of test                       :    0.36


-----------------------------------------------
CPU time used                    :  00:00:43.70

Generator state:




***********************************************************
HOST = node38.local.isima.fr, Linux

MersenneTwiter


swalk_RandomWalk1 test:
-----------------------------------------------
   N =  1,  n = 10000000,  r = 20,   s = 10,   L0 = 1000,   L1 = 1000



-----------------------------------------------
Test on the values of the Statistic H

Number of degrees of freedom          :  146
ChiSquare statistic                   :  145.82
p-value of test                       :    0.49


-----------------------------------------------
Test on the values of the Statistic M

Number of degrees of freedom          :  146
ChiSquare statistic                   :  155.12
p-value of test                       :    0.29


-----------------------------------------------
Test on the values of the Statistic J

Number of degrees of freedom          :  500
ChiSquare statistic                   :  528.61
p-value of test                       :    0.18


-----------------------------------------------
Test on the values of the Statistic R

Number of degrees of freedom          :  136
ChiSquare statistic                   :  131.90
p-value of test                       :    0.58


-----------------------------------------------
Test on the values of the Statistic C

Number of degrees of freedom          :   74
ChiSquare statistic                   :   66.29
p-value of test                       :    0.73


-----------------------------------------------
CPU time used                    :  00:00:44.45

Generator state:




***********************************************************
HOST = node38.local.isima.fr, Linux

MersenneTwiter


swalk_RandomWalk1 test:
-----------------------------------------------
   N =  1,  n = 1000000,  r =  0,   s = 15,   L0 = 10000,   L1 = 10000



-----------------------------------------------
Test on the values of the Statistic H

Number of degrees of freedom          :  384
ChiSquare statistic                   :  373.44
p-value of test                       :    0.64


-----------------------------------------------
Test on the values of the Statistic M

Number of degrees of freedom          :  384
ChiSquare statistic                   :  398.81
p-value of test                       :    0.29


-----------------------------------------------
Test on the values of the Statistic J

Number of degrees of freedom          : 5000
ChiSquare statistic                   : 5203.42
p-value of test                       :    0.02


-----------------------------------------------
Test on the values of the Statistic R

Number of degrees of freedom          :  378
ChiSquare statistic                   :  355.50
p-value of test                       :    0.79


-----------------------------------------------
Test on the values of the Statistic C

Number of degrees of freedom          :  200
ChiSquare statistic                   :  210.17
p-value of test                       :    0.30


-----------------------------------------------
CPU time used                    :  00:00:34.60

Generator state:




***********************************************************
HOST = node38.local.isima.fr, Linux

MersenneTwiter


swalk_RandomWalk1 test:
-----------------------------------------------
   N =  1,  n = 1000000,  r = 15,   s = 15,   L0 = 10000,   L1 = 10000



-----------------------------------------------
Test on the values of the Statistic H

Number of degrees of freedom          :  384
ChiSquare statistic                   :  333.08
p-value of test                       :    0.97


-----------------------------------------------
Test on the values of the Statistic M

Number of degrees of freedom          :  384
ChiSquare statistic                   :  357.10
p-value of test                       :    0.83


-----------------------------------------------
Test on the values of the Statistic J

Number of degrees of freedom          : 5000
ChiSquare statistic                   : 5016.10
p-value of test                       :    0.43


-----------------------------------------------
Test on the values of the Statistic R

Number of degrees of freedom          :  378
ChiSquare statistic                   :  412.29
p-value of test                       :    0.11


-----------------------------------------------
Test on the values of the Statistic C

Number of degrees of freedom          :  200
ChiSquare statistic                   :  196.76
p-value of test                       :    0.55


-----------------------------------------------
CPU time used                    :  00:00:35.02

Generator state:




***********************************************************
HOST = node38.local.isima.fr, Linux

MersenneTwiter


scomp_LinearComp test:
-----------------------------------------------
   N =  1,  n = 400020,  r =  0,    s = 1



-----------------------------------------------
Number of degrees of freedom          :   12
Chi2 statistic for size of jumps      :    9.32
p-value of test                       :    0.68


-----------------------------------------------
Normal statistic for number of jumps  : -403.06
p-value of test                       : 1 - eps1    *****



-----------------------------------------------
CPU time used                    :  00:00:06.01

Generator state:




***********************************************************
HOST = node38.local.isima.fr, Linux

MersenneTwiter


scomp_LinearComp test:
-----------------------------------------------
   N =  1,  n = 400020,  r = 29,    s = 1



-----------------------------------------------
Number of degrees of freedom          :   12
Chi2 statistic for size of jumps      :    6.40
p-value of test                       :    0.89


-----------------------------------------------
Normal statistic for number of jumps  : -402.93
p-value of test                       : 1 - eps1    *****



-----------------------------------------------
CPU time used                    :  00:00:06.01

Generator state:




***********************************************************
HOST = node38.local.isima.fr, Linux

MersenneTwiter


scomp_LempelZiv test:
-----------------------------------------------
   N = 10,  n = 134217728,  r =  0,   s =   30,   k =   27


-----------------------------------------------

Kolmogorov-Smirnov+ statistic = D+    :   0.014
p-value of test                       :    0.98

Kolmogorov-Smirnov- statistic = D-    :    0.25
p-value of test                       :    0.25

Anderson-Darling statistic = A2       :    0.95
p-value of test                       :    0.38

Tests on the sum of all N observations
Standardized normal statistic         :    1.36
p-value of test                       :    0.09

Sample variance                       :    1.34
p-value of test                       :    0.21

-----------------------------------------------
CPU time used                    :  00:01:34.36

Generator state:




***********************************************************
HOST = node38.local.isima.fr, Linux

MersenneTwiter


scomp_LempelZiv test:
-----------------------------------------------
   N = 10,  n = 134217728,  r = 15,   s =   15,   k =   27


-----------------------------------------------

Kolmogorov-Smirnov+ statistic = D+    :    0.19
p-value of test                       :    0.44

Kolmogorov-Smirnov- statistic = D-    :    0.10
p-value of test                       :    0.75

Anderson-Darling statistic = A2       :    0.27
p-value of test                       :    0.96

Tests on the sum of all N observations
Standardized normal statistic         :1.40e-16
p-value of test                       :    0.50

Sample variance                       :    0.86
p-value of test                       :    0.56

-----------------------------------------------
CPU time used                    :  00:01:16.15

Generator state:




***********************************************************
HOST = node38.local.isima.fr, Linux

MersenneTwiter


sspectral_Fourier3 test:
-----------------------------------------------
   N = 100000,  n = 16384,  r =  0,   s =    3,   k =   14


-----------------------------------------------

Kolmogorov-Smirnov+ statistic = D+    :   0.013
p-value of test                       :    0.25

Kolmogorov-Smirnov- statistic = D-    : 2.10e-3
p-value of test                       :    0.96

Anderson-Darling statistic = A2       :    0.66
p-value of test                       :    0.59

-----------------------------------------------
CPU time used                    :  00:00:51.53

Generator state:




***********************************************************
HOST = node38.local.isima.fr, Linux

MersenneTwiter


sspectral_Fourier3 test:
-----------------------------------------------
   N = 100000,  n = 16384,  r = 27,   s =    3,   k =   14


-----------------------------------------------

Kolmogorov-Smirnov+ statistic = D+    : 5.09e-3
p-value of test                       :    0.81

Kolmogorov-Smirnov- statistic = D-    :   0.013
p-value of test                       :    0.26

Anderson-Darling statistic = A2       :    0.47
p-value of test                       :    0.77

-----------------------------------------------
CPU time used                    :  00:00:49.93

Generator state:




***********************************************************
HOST = node38.local.isima.fr, Linux

MersenneTwiter


sstring_LongestHeadRun test:
-----------------------------------------------
   N =  1,  n = 1000,  r =  0,   s = 3,   L = 10000020


-----------------------------------------------
Number of degrees of freedom          :    8
Chi-square statistic                  :   18.36
p-value of test                       :    0.02

-----------------------------------------------
Global longest run of 1               :   32.00
p-value of test                       :    0.50



-----------------------------------------------
CPU time used                    :  00:01:35.22

Generator state:




***********************************************************
HOST = node38.local.isima.fr, Linux

MersenneTwiter


sstring_LongestHeadRun test:
-----------------------------------------------
   N =  1,  n = 1000,  r = 27,   s = 3,   L = 10000020


-----------------------------------------------
Number of degrees of freedom          :    8
Chi-square statistic                  :    6.45
p-value of test                       :    0.60

-----------------------------------------------
Global longest run of 1               :   32.00
p-value of test                       :    0.50



-----------------------------------------------
CPU time used                    :  00:01:38.36

Generator state:




***********************************************************
HOST = node38.local.isima.fr, Linux

MersenneTwiter


sstring_PeriodsInStrings test:
-----------------------------------------------
   N = 10,  n = 500000000,  r =  0,   s =   10


-----------------------------------------------

Kolmogorov-Smirnov+ statistic = D+    :   0.080
p-value of test                       :    0.84

Kolmogorov-Smirnov- statistic = D-    :    0.43
p-value of test                       :    0.02

Anderson-Darling statistic = A2       :    2.84
p-value of test                       :    0.03

Test on the sum of all N observations
Number of degrees of freedom          :  200
Chi-square statistic                  :  244.58
p-value of test                       :    0.02

-----------------------------------------------
CPU time used                    :  00:02:21.84

Generator state:




***********************************************************
HOST = node38.local.isima.fr, Linux

MersenneTwiter


sstring_PeriodsInStrings test:
-----------------------------------------------
   N = 10,  n = 500000000,  r = 20,   s =   10


-----------------------------------------------

Kolmogorov-Smirnov+ statistic = D+    :    0.37
p-value of test                       :    0.05

Kolmogorov-Smirnov- statistic = D-    :   0.039
p-value of test                       :    0.95

Anderson-Darling statistic = A2       :    2.12
p-value of test                       :    0.08

Test on the sum of all N observations
Number of degrees of freedom          :  200
Chi-square statistic                  :  164.83
p-value of test                       :    0.97

-----------------------------------------------
CPU time used                    :  00:02:29.93

Generator state:




***********************************************************
HOST = node38.local.isima.fr, Linux

MersenneTwiter


sstring_HammingWeight2 test:
-----------------------------------------------
   N = 10,  n = 1000000000,  r =  0,   s = 3,   L = 1000000


-----------------------------------------------

Kolmogorov-Smirnov+ statistic = D+    :   0.092
p-value of test                       :    0.80

Kolmogorov-Smirnov- statistic = D-    :    0.21
p-value of test                       :    0.37

Anderson-Darling statistic = A2       :    0.58
p-value of test                       :    0.67

Test on the sum of all N observations
Number of degrees of freedom          : 10000
Chi-square statistic                  :10116.11
p-value of test                       :    0.21

-----------------------------------------------
CPU time used                    :  00:01:09.26

Generator state:




***********************************************************
HOST = node38.local.isima.fr, Linux

MersenneTwiter


sstring_HammingWeight2 test:
-----------------------------------------------
   N = 10,  n = 1000000000,  r = 27,   s = 3,   L = 1000000


-----------------------------------------------

Kolmogorov-Smirnov+ statistic = D+    :    0.19
p-value of test                       :    0.42

Kolmogorov-Smirnov- statistic = D-    :    0.14
p-value of test                       :    0.62

Anderson-Darling statistic = A2       :    0.33
p-value of test                       :    0.91

Test on the sum of all N observations
Number of degrees of freedom          : 10000
Chi-square statistic                  : 9978.53
p-value of test                       :    0.56

-----------------------------------------------
CPU time used                    :  00:01:08.81

Generator state:




***********************************************************
HOST = node38.local.isima.fr, Linux

MersenneTwiter


sstring_HammingCorr test:
-----------------------------------------------
   N =  1,  n = 1000000000,  r = 10,   s = 10,   L = 30



-----------------------------------------------
Normal statistic                      :   -1.13
p-value of test                       :    0.87

-----------------------------------------------
CPU time used                    :  00:01:17.00

Generator state:




***********************************************************
HOST = node38.local.isima.fr, Linux

MersenneTwiter


sstring_HammingCorr test:
-----------------------------------------------
   N =  1,  n = 100000000,  r = 10,   s = 10,   L = 300



-----------------------------------------------
Normal statistic                      :   -0.73
p-value of test                       :    0.77

-----------------------------------------------
CPU time used                    :  00:01:14.73

Generator state:




***********************************************************
HOST = node38.local.isima.fr, Linux

MersenneTwiter


sstring_HammingCorr test:
-----------------------------------------------
   N =  1,  n = 100000000,  r = 10,   s = 10,   L = 1200



-----------------------------------------------
Normal statistic                      :   -1.34
p-value of test                       :    0.91

-----------------------------------------------
CPU time used                    :  00:04:58.56

Generator state:




***********************************************************
HOST = node38.local.isima.fr, Linux

MersenneTwiter


sstring_HammingIndep test:
-----------------------------------------------
   N = 10,  n = 30000000,  r =  0,   s = 3,   L = 30,   d = 0



Counters with expected numbers >= 10
-----------------------------------------------

Kolmogorov-Smirnov+ statistic = D+    :    0.19
p-value of test                       :    0.44

Kolmogorov-Smirnov- statistic = D-    :    0.21
p-value of test                       :    0.36

Anderson-Darling statistic = A2       :    0.54
p-value of test                       :    0.70

Test on the sum of all N observations
Number of degrees of freedom          : 4890
Chi-square statistic                  : 4909.04
p-value of test                       :    0.42

-----------------------------------------------
CPU time used                    :  00:02:07.04

Generator state:




***********************************************************
HOST = node38.local.isima.fr, Linux

MersenneTwiter


sstring_HammingIndep test:
-----------------------------------------------
   N = 10,  n = 30000000,  r = 27,   s = 3,   L = 30,   d = 0



Counters with expected numbers >= 10
-----------------------------------------------

Kolmogorov-Smirnov+ statistic = D+    :    0.25
p-value of test                       :    0.23

Kolmogorov-Smirnov- statistic = D-    :   0.094
p-value of test                       :    0.79

Anderson-Darling statistic = A2       :    0.54
p-value of test                       :    0.70

Test on the sum of all N observations
Number of degrees of freedom          : 4890
Chi-square statistic                  : 4878.11
p-value of test                       :    0.55

-----------------------------------------------
CPU time used                    :  00:02:07.59

Generator state:




***********************************************************
HOST = node38.local.isima.fr, Linux

MersenneTwiter


sstring_HammingIndep test:
-----------------------------------------------
   N =  1,  n = 30000000,  r =  0,   s = 4,   L = 300,   d = 0



Counters with expected numbers >= 10
-----------------------------------------------
Number of degrees of freedom          : 4117
Chi-square statistic                  : 4130.14
p-value of test                       :    0.44

-----------------------------------------------
CPU time used                    :  00:01:37.55

Generator state:




***********************************************************
HOST = node38.local.isima.fr, Linux

MersenneTwiter


sstring_HammingIndep test:
-----------------------------------------------
   N =  1,  n = 30000000,  r = 26,   s = 4,   L = 300,   d = 0



Counters with expected numbers >= 10
-----------------------------------------------
Number of degrees of freedom          : 4117
Chi-square statistic                  : 4219.39
p-value of test                       :    0.13

-----------------------------------------------
CPU time used                    :  00:01:38.50

Generator state:




***********************************************************
HOST = node38.local.isima.fr, Linux

MersenneTwiter


sstring_HammingIndep test:
-----------------------------------------------
   N =  1,  n = 10000000,  r =  0,   s = 5,   L = 1200,   d = 0



Counters with expected numbers >= 10
-----------------------------------------------
Number of degrees of freedom          : 11825
Chi-square statistic                  :11845.33
p-value of test                       :    0.45

-----------------------------------------------
CPU time used                    :  00:01:47.44

Generator state:




***********************************************************
HOST = node38.local.isima.fr, Linux

MersenneTwiter


sstring_HammingIndep test:
-----------------------------------------------
   N =  1,  n = 10000000,  r = 25,   s = 5,   L = 1200,   d = 0



Counters with expected numbers >= 10
-----------------------------------------------
Number of degrees of freedom          : 11825
Chi-square statistic                  :11834.14
p-value of test                       :    0.47

-----------------------------------------------
CPU time used                    :  00:01:47.68

Generator state:




***********************************************************
HOST = node38.local.isima.fr, Linux

MersenneTwiter


sstring_Run test:
-----------------------------------------------
   N =  1,  n = 2000000000,  r =  0,   s =    3


-----------------------------------------------
Total number of 1 runs:  2000000000

Number of degrees of freedom          :   54
Chi2 statistic for number of runs     :   45.33
p-value of test                       :    0.79


-----------------------------------------------
Total number of bits:  7999910949

Normal statistic for number of bits   :   -0.70
p-value of test                       :    0.76



-----------------------------------------------
CPU time used                    :  00:01:19.00

Generator state:




***********************************************************
HOST = node38.local.isima.fr, Linux

MersenneTwiter


sstring_Run test:
-----------------------------------------------
   N =  1,  n = 2000000000,  r = 27,   s =    3


-----------------------------------------------
Total number of 1 runs:  2000000000

Number of degrees of freedom          :   54
Chi2 statistic for number of runs     :   51.62
p-value of test                       :    0.57


-----------------------------------------------
Total number of bits:  8000064021

Normal statistic for number of bits   :    0.51
p-value of test                       :    0.31



-----------------------------------------------
CPU time used                    :  00:01:22.60

Generator state:




***********************************************************
HOST = node38.local.isima.fr, Linux

MersenneTwiter


sstring_AutoCor test:
-----------------------------------------------
   N = 10,  n = 1000000030,  r =  0,   s = 3,   d = 1


-----------------------------------------------

Kolmogorov-Smirnov+ statistic = D+    :    0.17
p-value of test                       :    0.49

Kolmogorov-Smirnov- statistic = D-    :    0.10
p-value of test                       :    0.75

Anderson-Darling statistic = A2       :    0.35
p-value of test                       :    0.90

Tests on the sum of all N observations
Standardized normal statistic         :   -0.35
p-value of test                       :    0.64

Sample variance                       :    0.60
p-value of test                       :    0.80

-----------------------------------------------
CPU time used                    :  00:01:26.70

Generator state:




***********************************************************
HOST = node38.local.isima.fr, Linux

MersenneTwiter


sstring_AutoCor test:
-----------------------------------------------
   N = 10,  n = 1000000029,  r =  0,   s = 3,   d = 3


-----------------------------------------------

Kolmogorov-Smirnov+ statistic = D+    :   0.058
p-value of test                       :    0.90

Kolmogorov-Smirnov- statistic = D-    :    0.34
p-value of test                       :    0.08

Anderson-Darling statistic = A2       :    1.72
p-value of test                       :    0.13

Tests on the sum of all N observations
Standardized normal statistic         :    1.51
p-value of test                       :    0.07

Sample variance                       :    0.52
p-value of test                       :    0.86

-----------------------------------------------
CPU time used                    :  00:01:13.12

Generator state:




***********************************************************
HOST = node38.local.isima.fr, Linux

MersenneTwiter


sstring_AutoCor test:
-----------------------------------------------
   N = 10,  n = 1000000030,  r = 27,   s = 3,   d = 1


-----------------------------------------------

Kolmogorov-Smirnov+ statistic = D+    :    0.36
p-value of test                       :    0.05

Kolmogorov-Smirnov- statistic = D-    :   0.090
p-value of test                       :    0.80

Anderson-Darling statistic = A2       :    1.31
p-value of test                       :    0.23

Tests on the sum of all N observations
Standardized normal statistic         :   -1.19
p-value of test                       :    0.88

Sample variance                       :    0.46
p-value of test                       :    0.90

-----------------------------------------------
CPU time used                    :  00:01:25.50

Generator state:




***********************************************************
HOST = node38.local.isima.fr, Linux

MersenneTwiter


sstring_AutoCor test:
-----------------------------------------------
   N = 10,  n = 1000000029,  r = 27,   s = 3,   d = 3


-----------------------------------------------

Kolmogorov-Smirnov+ statistic = D+    :   0.080
p-value of test                       :    0.84

Kolmogorov-Smirnov- statistic = D-    :    0.36
p-value of test                       :    0.05

Anderson-Darling statistic = A2       :    1.53
p-value of test                       :    0.17

Tests on the sum of all N observations
Standardized normal statistic         :    1.45
p-value of test                       :    0.07

Sample variance                       :    0.59
p-value of test                       :    0.81

-----------------------------------------------
CPU time used                    :  00:01:07.32

Generator state:





========= Summary results of BigCrush =========

 Version:          TestU01 1.2.3
 Generator:        MersenneTwiter
 Number of statistics:  160
 Total CPU time:   03:08:37.53
 The following tests gave p-values outside [0.001, 0.9990]:
 (eps  means a value < 1.0e-300):
 (eps1 means a value < 1.0e-15):

       Test                          p-value
 ----------------------------------------------
 80  LinearComp, r = 0              1 - eps1
 81  LinearComp, r = 29             1 - eps1
 ----------------------------------------------
 All other tests were passed



