xxxxxxxxxxxxxxxxxxxxxxxxxxxxxxxxxxxxxxxxxxxxxxxxxxxxxxxxxxx
                 Starting BigCrush
                 Version: TestU01 1.2.3
xxxxxxxxxxxxxxxxxxxxxxxxxxxxxxxxxxxxxxxxxxxxxxxxxxxxxxxxxxx


***********************************************************
Test smarsa_SerialOver calling smultin_MultinomialOver

***********************************************************
HOST = hpcsmp01, Linux

MersenneTwiter


smultin_MultinomialOver test:
-----------------------------------------------
   N =  1,  n = 1000000000,  r =  0,   d =  256,   t =  3,
       Sparse =  FALSE

       GenerCell = smultin_GenerCellSerial
       Number of cells = d^t =           16777216
       Expected number per cell =   59.604645
       Hashing =  FALSE

   For Delta > -1, we use the ChiSquare approximation
   Correction factor of the ChiSquare: 
       Delta =     1,    Mu =   0.0083558402,    Sigma =          1

-----------------------------------------------
Test Results for Delta =   1.0000

Number of degrees of freedom          : 16711680
Value of the statistic                : 1.67e+7
p-value of test                       :    0.79


-----------------------------------------------
CPU time used                    :  00:03:29.28

Generator state:




***********************************************************
Test smarsa_SerialOver calling smultin_MultinomialOver

***********************************************************
HOST = hpcsmp01, Linux

MersenneTwiter


smultin_MultinomialOver test:
-----------------------------------------------
   N =  1,  n = 1000000000,  r = 22,   d =  256,   t =  3,
       Sparse =  FALSE

       GenerCell = smultin_GenerCellSerial
       Number of cells = d^t =           16777216
       Expected number per cell =   59.604645
       Hashing =  FALSE

   For Delta > -1, we use the ChiSquare approximation
   Correction factor of the ChiSquare: 
       Delta =     1,    Mu =   0.0083558402,    Sigma =          1

-----------------------------------------------
Test Results for Delta =   1.0000

Number of degrees of freedom          : 16711680
Value of the statistic                : 1.67e+7
p-value of test                       :    0.08


-----------------------------------------------
CPU time used                    :  00:03:32.06

Generator state:




***********************************************************
Test smarsa_CollisionOver calling smultin_MultinomialOver

***********************************************************
HOST = hpcsmp01, Linux

MersenneTwiter


smultin_MultinomialOver test:
-----------------------------------------------
   N = 30,  n = 20000000,  r =  0,   d = 2097152,   t =  2,
       Sparse =   TRUE

       GenerCell = smultin_GenerCellSerial
       Number of cells = d^t =      4398046511104
       Expected number per cell =  1 /  219902.33
       EColl = n^2 / (2k) =  45.47473509
       Hashing =   TRUE

       Collision test

       CollisionOver:   density = n / k =  1 /  219902.33
       Expected number of collisions = Mu =      45.47


-----------------------------------------------
Results of CollisionOver test:

POISSON approximation                 :
Expected number of collisions = N*Mu  :     1364.24
Observed number of collisions         :     1376
p-value of test                       :    0.38

-----------------------------
Total number of cells containing j balls

  j =  0                              :  131940795334496
  j =  1                              :        599997248
  j =  2                              :             1376
  j =  3                              :                0
  j =  4                              :                0
  j =  5                              :                0

-----------------------------------------------
CPU time used                    :  00:06:56.24

Generator state:




***********************************************************
Test smarsa_CollisionOver calling smultin_MultinomialOver

***********************************************************
HOST = hpcsmp01, Linux

MersenneTwiter


smultin_MultinomialOver test:
-----------------------------------------------
   N = 30,  n = 20000000,  r =  9,   d = 2097152,   t =  2,
       Sparse =   TRUE

       GenerCell = smultin_GenerCellSerial
       Number of cells = d^t =      4398046511104
       Expected number per cell =  1 /  219902.33
       EColl = n^2 / (2k) =  45.47473509
       Hashing =   TRUE

       Collision test

       CollisionOver:   density = n / k =  1 /  219902.33
       Expected number of collisions = Mu =      45.47


-----------------------------------------------
Results of CollisionOver test:

POISSON approximation                 :
Expected number of collisions = N*Mu  :     1364.24
Observed number of collisions         :     1329
p-value of test                       :    0.83

-----------------------------
Total number of cells containing j balls

  j =  0                              :  131940795334449
  j =  1                              :        599997342
  j =  2                              :             1329
  j =  3                              :                0
  j =  4                              :                0
  j =  5                              :                0

-----------------------------------------------
CPU time used                    :  00:10:58.98

Generator state:




***********************************************************
Test smarsa_CollisionOver calling smultin_MultinomialOver

***********************************************************
HOST = hpcsmp01, Linux

MersenneTwiter


smultin_MultinomialOver test:
-----------------------------------------------
   N = 30,  n = 20000000,  r =  0,   d = 16384,   t =  3,
       Sparse =   TRUE

       GenerCell = smultin_GenerCellSerial
       Number of cells = d^t =      4398046511104
       Expected number per cell =  1 /  219902.33
       EColl = n^2 / (2k) =  45.47473509
       Hashing =   TRUE

       Collision test

       CollisionOver:   density = n / k =  1 /  219902.33
       Expected number of collisions = Mu =      45.47


-----------------------------------------------
Results of CollisionOver test:

POISSON approximation                 :
Expected number of collisions = N*Mu  :     1364.24
Observed number of collisions         :     1306
p-value of test                       :    0.94

-----------------------------
Total number of cells containing j balls

  j =  0                              :  131940795334426
  j =  1                              :        599997388
  j =  2                              :             1306
  j =  3                              :                0
  j =  4                              :                0
  j =  5                              :                0

-----------------------------------------------
CPU time used                    :  00:10:17.09

Generator state:




***********************************************************
Test smarsa_CollisionOver calling smultin_MultinomialOver

***********************************************************
HOST = hpcsmp01, Linux

MersenneTwiter


smultin_MultinomialOver test:
-----------------------------------------------
   N = 30,  n = 20000000,  r = 16,   d = 16384,   t =  3,
       Sparse =   TRUE

       GenerCell = smultin_GenerCellSerial
       Number of cells = d^t =      4398046511104
       Expected number per cell =  1 /  219902.33
       EColl = n^2 / (2k) =  45.47473509
       Hashing =   TRUE

       Collision test

       CollisionOver:   density = n / k =  1 /  219902.33
       Expected number of collisions = Mu =      45.47


-----------------------------------------------
Results of CollisionOver test:

POISSON approximation                 :
Expected number of collisions = N*Mu  :     1364.24
Observed number of collisions         :     1412
p-value of test                       :    0.10

-----------------------------
Total number of cells containing j balls

  j =  0                              :  131940795334532
  j =  1                              :        599997176
  j =  2                              :             1412
  j =  3                              :                0
  j =  4                              :                0
  j =  5                              :                0

-----------------------------------------------
CPU time used                    :  00:45:30.51

Generator state:




***********************************************************
Test smarsa_CollisionOver calling smultin_MultinomialOver

***********************************************************
HOST = hpcsmp01, Linux

MersenneTwiter


smultin_MultinomialOver test:
-----------------------------------------------
   N = 30,  n = 20000000,  r =  0,   d =   64,   t =  7,
       Sparse =   TRUE

       GenerCell = smultin_GenerCellSerial
       Number of cells = d^t =      4398046511104
       Expected number per cell =  1 /  219902.33
       EColl = n^2 / (2k) =  45.47473509
       Hashing =   TRUE

       Collision test

       CollisionOver:   density = n / k =  1 /  219902.33
       Expected number of collisions = Mu =      45.47


-----------------------------------------------
Results of CollisionOver test:

POISSON approximation                 :
Expected number of collisions = N*Mu  :     1364.24
Observed number of collisions         :     1325
p-value of test                       :    0.85

-----------------------------
Total number of cells containing j balls

  j =  0                              :  131940795334445
  j =  1                              :        599997350
  j =  2                              :             1325
  j =  3                              :                0
  j =  4                              :                0
  j =  5                              :                0

-----------------------------------------------
CPU time used                    :  00:10:05.50

Generator state:




***********************************************************
Test smarsa_CollisionOver calling smultin_MultinomialOver

***********************************************************
HOST = hpcsmp01, Linux

MersenneTwiter


smultin_MultinomialOver test:
-----------------------------------------------
   N = 30,  n = 20000000,  r = 24,   d =   64,   t =  7,
       Sparse =   TRUE

       GenerCell = smultin_GenerCellSerial
       Number of cells = d^t =      4398046511104
       Expected number per cell =  1 /  219902.33
       EColl = n^2 / (2k) =  45.47473509
       Hashing =   TRUE

       Collision test

       CollisionOver:   density = n / k =  1 /  219902.33
       Expected number of collisions = Mu =      45.47


-----------------------------------------------
Results of CollisionOver test:

POISSON approximation                 :
Expected number of collisions = N*Mu  :     1364.24
Observed number of collisions         :     1412
p-value of test                       :    0.10

-----------------------------
Total number of cells containing j balls

  j =  0                              :  131940795334532
  j =  1                              :        599997176
  j =  2                              :             1412
  j =  3                              :                0
  j =  4                              :                0
  j =  5                              :                0

-----------------------------------------------
CPU time used                    :  00:10:12.53

Generator state:




***********************************************************
Test smarsa_CollisionOver calling smultin_MultinomialOver

***********************************************************
HOST = hpcsmp01, Linux

MersenneTwiter


smultin_MultinomialOver test:
-----------------------------------------------
   N = 30,  n = 20000000,  r =  0,   d =    8,   t = 14,
       Sparse =   TRUE

       GenerCell = smultin_GenerCellSerial
       Number of cells = d^t =      4398046511104
       Expected number per cell =  1 /  219902.33
       EColl = n^2 / (2k) =  45.47473509
       Hashing =   TRUE

       Collision test

       CollisionOver:   density = n / k =  1 /  219902.33
       Expected number of collisions = Mu =      45.47


-----------------------------------------------
Results of CollisionOver test:

POISSON approximation                 :
Expected number of collisions = N*Mu  :     1364.24
Observed number of collisions         :     1397
p-value of test                       :    0.19

-----------------------------
Total number of cells containing j balls

  j =  0                              :  131940795334517
  j =  1                              :        599997206
  j =  2                              :             1397
  j =  3                              :                0
  j =  4                              :                0
  j =  5                              :                0

-----------------------------------------------
CPU time used                    :  00:10:03.34

Generator state:




***********************************************************
Test smarsa_CollisionOver calling smultin_MultinomialOver

***********************************************************
HOST = hpcsmp01, Linux

MersenneTwiter


smultin_MultinomialOver test:
-----------------------------------------------
   N = 30,  n = 20000000,  r = 27,   d =    8,   t = 14,
       Sparse =   TRUE

       GenerCell = smultin_GenerCellSerial
       Number of cells = d^t =      4398046511104
       Expected number per cell =  1 /  219902.33
       EColl = n^2 / (2k) =  45.47473509
       Hashing =   TRUE

       Collision test

       CollisionOver:   density = n / k =  1 /  219902.33
       Expected number of collisions = Mu =      45.47


-----------------------------------------------
Results of CollisionOver test:

POISSON approximation                 :
Expected number of collisions = N*Mu  :     1364.24
Observed number of collisions         :     1381
p-value of test                       :    0.33

-----------------------------
Total number of cells containing j balls

  j =  0                              :  131940795334501
  j =  1                              :        599997238
  j =  2                              :             1381
  j =  3                              :                0
  j =  4                              :                0
  j =  5                              :                0

-----------------------------------------------
CPU time used                    :  00:09:08.44

Generator state:




***********************************************************
Test smarsa_CollisionOver calling smultin_MultinomialOver

***********************************************************
HOST = hpcsmp01, Linux

MersenneTwiter


smultin_MultinomialOver test:
-----------------------------------------------
   N = 30,  n = 20000000,  r =  0,   d =    4,   t = 21,
       Sparse =   TRUE

       GenerCell = smultin_GenerCellSerial
       Number of cells = d^t =      4398046511104
       Expected number per cell =  1 /  219902.33
       EColl = n^2 / (2k) =  45.47473509
       Hashing =   TRUE

       Collision test

       CollisionOver:   density = n / k =  1 /  219902.33
       Expected number of collisions = Mu =      45.47


-----------------------------------------------
Results of CollisionOver test:

POISSON approximation                 :
Expected number of collisions = N*Mu  :     1364.24
Observed number of collisions         :     1364
p-value of test                       :    0.50

-----------------------------
Total number of cells containing j balls

  j =  0                              :  131940795334484
  j =  1                              :        599997272
  j =  2                              :             1364
  j =  3                              :                0
  j =  4                              :                0
  j =  5                              :                0

-----------------------------------------------
CPU time used                    :  00:08:51.51

Generator state:




***********************************************************
Test smarsa_CollisionOver calling smultin_MultinomialOver

***********************************************************
HOST = hpcsmp01, Linux

MersenneTwiter


smultin_MultinomialOver test:
-----------------------------------------------
   N = 30,  n = 20000000,  r = 28,   d =    4,   t = 21,
       Sparse =   TRUE

       GenerCell = smultin_GenerCellSerial
       Number of cells = d^t =      4398046511104
       Expected number per cell =  1 /  219902.33
       EColl = n^2 / (2k) =  45.47473509
       Hashing =   TRUE

       Collision test

       CollisionOver:   density = n / k =  1 /  219902.33
       Expected number of collisions = Mu =      45.47


-----------------------------------------------
Results of CollisionOver test:

POISSON approximation                 :
Expected number of collisions = N*Mu  :     1364.24
Observed number of collisions         :     1327
p-value of test                       :    0.84

-----------------------------
Total number of cells containing j balls

  j =  0                              :  131940795334447
  j =  1                              :        599997346
  j =  2                              :             1327
  j =  3                              :                0
  j =  4                              :                0
  j =  5                              :                0

-----------------------------------------------
CPU time used                    :  00:07:55.86

Generator state:




***********************************************************
HOST = hpcsmp01, Linux

MersenneTwiter


smarsa_BirthdaySpacings test:
-----------------------------------------------
   N = 100,  n = 10000000,  r =  0,    d = 2147483648,    t = 2,    p = 1


      Number of cells = d^t = 4611686018427387904
      Lambda = Poisson mean =      54.2101


----------------------------------------------------
Total expected number = N*Lambda      :    5421.01
Total observed number                 :    5522
p-value of test                       :    0.09


-----------------------------------------------
CPU time used                    :  00:06:36.37

Generator state:




***********************************************************
HOST = hpcsmp01, Linux

MersenneTwiter


smarsa_BirthdaySpacings test:
-----------------------------------------------
   N = 20,  n = 20000000,  r =  0,    d = 2097152,    t = 3,    p = 1


      Number of cells = d^t = 9223372036854775808
      Lambda = Poisson mean =     216.8404


----------------------------------------------------
Total expected number = N*Lambda      :    4336.81
Total observed number                 :    4359
p-value of test                       :    0.37


-----------------------------------------------
CPU time used                    :  00:03:03.63

Generator state:




***********************************************************
HOST = hpcsmp01, Linux

MersenneTwiter


smarsa_BirthdaySpacings test:
-----------------------------------------------
   N = 20,  n = 30000000,  r = 14,    d = 65536,    t = 4,    p = 1


      Number of cells = d^t = 18446744073709551616
      Lambda = Poisson mean =     365.9182


----------------------------------------------------
Total expected number = N*Lambda      :    7318.36
Total observed number                 :    7409
p-value of test                       :    0.15


-----------------------------------------------
CPU time used                    :  00:04:43.36

Generator state:




***********************************************************
HOST = hpcsmp01, Linux

MersenneTwiter


smarsa_BirthdaySpacings test:
-----------------------------------------------
   N = 20,  n = 20000000,  r =  0,    d = 512,    t = 7,    p = 1


      Number of cells = d^t = 9223372036854775808
      Lambda = Poisson mean =     216.8404


----------------------------------------------------
Total expected number = N*Lambda      :    4336.81
Total observed number                 :    4317
p-value of test                       :    0.61


-----------------------------------------------
CPU time used                    :  00:03:12.61

Generator state:




***********************************************************
HOST = hpcsmp01, Linux

MersenneTwiter


smarsa_BirthdaySpacings test:
-----------------------------------------------
   N = 20,  n = 20000000,  r =  7,    d = 512,    t = 7,    p = 1


      Number of cells = d^t = 9223372036854775808
      Lambda = Poisson mean =     216.8404


----------------------------------------------------
Total expected number = N*Lambda      :    4336.81
Total observed number                 :    4358
p-value of test                       :    0.38


-----------------------------------------------
CPU time used                    :  00:03:18.19

Generator state:




***********************************************************
HOST = hpcsmp01, Linux

MersenneTwiter


smarsa_BirthdaySpacings test:
-----------------------------------------------
   N = 20,  n = 30000000,  r = 14,    d = 256,    t = 8,    p = 1


      Number of cells = d^t = 18446744073709551616
      Lambda = Poisson mean =     365.9182


----------------------------------------------------
Total expected number = N*Lambda      :    7318.36
Total observed number                 :    7422
p-value of test                       :    0.11


-----------------------------------------------
CPU time used                    :  00:05:05.32

Generator state:




***********************************************************
HOST = hpcsmp01, Linux

MersenneTwiter


smarsa_BirthdaySpacings test:
-----------------------------------------------
   N = 20,  n = 30000000,  r = 22,    d = 256,    t = 8,    p = 1


      Number of cells = d^t = 18446744073709551616
      Lambda = Poisson mean =     365.9182


----------------------------------------------------
Total expected number = N*Lambda      :    7318.36
Total observed number                 :    7378
p-value of test                       :    0.24


-----------------------------------------------
CPU time used                    :  00:05:03.50

Generator state:




***********************************************************
HOST = hpcsmp01, Linux

MersenneTwiter


smarsa_BirthdaySpacings test:
-----------------------------------------------
   N = 20,  n = 30000000,  r =  0,    d = 16,    t = 16,    p = 1


      Number of cells = d^t = 18446744073709551616
      Lambda = Poisson mean =     365.9182


----------------------------------------------------
Total expected number = N*Lambda      :    7318.36
Total observed number                 :    7374
p-value of test                       :    0.26


-----------------------------------------------
CPU time used                    :  00:06:17.57

Generator state:




***********************************************************
HOST = hpcsmp01, Linux

MersenneTwiter


smarsa_BirthdaySpacings test:
-----------------------------------------------
   N = 20,  n = 30000000,  r = 26,    d = 16,    t = 16,    p = 1


      Number of cells = d^t = 18446744073709551616
      Lambda = Poisson mean =     365.9182


----------------------------------------------------
Total expected number = N*Lambda      :    7318.36
Total observed number                 :    7316
p-value of test                       :    0.51


-----------------------------------------------
CPU time used                    :  00:06:38.37

Generator state:




***********************************************************
HOST = hpcsmp01, Linux

MersenneTwiter


snpair_ClosePairs test:
-----------------------------------------------
   N = 30,  n = 6000000,  r =  0,  t = 3,  p = 0,  m = 30,  Torus =  TRUE


---------------------------------------
Test based on the 2 nearest points (NP):

Stat. AD on the N values (NP)         :    0.76
p-value of test                       :    0.51


A2 test based on the spacings between the
   successive jump times of process Y_n(t):

A2 test on the values of A2 (m-NP)    :    0.51
p-value of test                       :    0.73

Test on the Nm values of W_{n,i}(mNP1):    0.54
p-value of test                       :    0.70

Test on the jump times of Y
   (superposition of Yn):

Expected number of jumps of Y = mN    :     900
Number of jumps of Y                  :     888
p-value of test                       :    0.65

Stat. AD (mNP2)                       :    1.44
p-value of test                       :    0.19

Stat. AD after spacings (mNP2-S)      :    0.65
p-value of test                       :    0.60

-----------------------------------------------
CPU time used                    :  00:03:19.09

Generator state:




***********************************************************
HOST = hpcsmp01, Linux

MersenneTwiter


snpair_ClosePairs test:
-----------------------------------------------
   N = 20,  n = 4000000,  r =  0,  t = 5,  p = 0,  m = 30,  Torus =  TRUE


---------------------------------------
Test based on the 2 nearest points (NP):

Stat. AD on the N values (NP)         :    0.45
p-value of test                       :    0.79


A2 test based on the spacings between the
   successive jump times of process Y_n(t):

A2 test on the values of A2 (m-NP)    :    3.18
p-value of test                       :    0.02

Test on the Nm values of W_{n,i}(mNP1):    1.18
p-value of test                       :    0.27

Test on the jump times of Y
   (superposition of Yn):

Expected number of jumps of Y = mN    :     600
Number of jumps of Y                  :     576
p-value of test                       :    0.83

Stat. AD (mNP2)                       :    0.18
p-value of test                       :    0.9949

Stat. AD after spacings (mNP2-S)      :    0.69
p-value of test                       :    0.56

-----------------------------------------------
CPU time used                    :  00:02:06.53

Generator state:




***********************************************************
HOST = hpcsmp01, Linux

MersenneTwiter


snpair_ClosePairs test:
-----------------------------------------------
   N = 10,  n = 3000000,  r =  0,  t = 9,  p = 0,  m = 30,  Torus =  TRUE


---------------------------------------
Test based on the 2 nearest points (NP):

Stat. AD on the N values (NP)         :    0.23
p-value of test                       :    0.98


A2 test based on the spacings between the
   successive jump times of process Y_n(t):

A2 test on the values of A2 (m-NP)    :    0.61
p-value of test                       :    0.64

Test on the Nm values of W_{n,i}(mNP1):    1.78
p-value of test                       :    0.12

Test on the jump times of Y
   (superposition of Yn):

Expected number of jumps of Y = mN    :     300
Number of jumps of Y                  :     310
p-value of test                       :    0.29

Stat. AD (mNP2)                       :    0.77
p-value of test                       :    0.51

Stat. AD after spacings (mNP2-S)      :    0.34
p-value of test                       :    0.91

-----------------------------------------------
CPU time used                    :  00:03:39.60

Generator state:




***********************************************************
HOST = hpcsmp01, Linux

MersenneTwiter


snpair_ClosePairs test:
-----------------------------------------------
   N =  5,  n = 2000000,  r =  0,  t = 16,  p = 0,  m = 30,  Torus =  TRUE


---------------------------------------
Test based on the 2 nearest points (NP):

Stat. AD on the N values (NP)         :    0.24
p-value of test                       :    0.97


A2 test based on the spacings between the
   successive jump times of process Y_n(t):

A2 test on the values of A2 (m-NP)    :    0.66
p-value of test                       :    0.59

Test on the Nm values of W_{n,i}(mNP1):    1.53
p-value of test                       :    0.17

Test on the jump times of Y
   (superposition of Yn):

Expected number of jumps of Y = mN    :     150
Number of jumps of Y                  :     167
p-value of test                       :    0.09

Stat. AD (mNP2)                       :    0.67
p-value of test                       :    0.59

Stat. AD after spacings (mNP2-S)      :    0.99
p-value of test                       :    0.36

-----------------------------------------------
CPU time used                    :  00:04:11.14

Generator state:




***********************************************************
HOST = hpcsmp01, Linux

MersenneTwiter


sknuth_SimpPoker test:
-----------------------------------------------
   N =  1,  n = 400000000,  r =  0,   d =    8,   k =    8


-----------------------------------------------
Number of degrees of freedom          :    7
Chi-square statistic                  :    3.90
p-value of test                       :    0.79

-----------------------------------------------
CPU time used                    :  00:01:12.12

Generator state:




***********************************************************
HOST = hpcsmp01, Linux

MersenneTwiter


sknuth_SimpPoker test:
-----------------------------------------------
   N =  1,  n = 400000000,  r = 27,   d =    8,   k =    8


-----------------------------------------------
Number of degrees of freedom          :    7
Chi-square statistic                  :    9.87
p-value of test                       :    0.20

-----------------------------------------------
CPU time used                    :  00:01:23.65

Generator state:




***********************************************************
HOST = hpcsmp01, Linux

MersenneTwiter


sknuth_SimpPoker test:
-----------------------------------------------
   N =  1,  n = 100000000,  r =  0,   d =   32,   k =   32


-----------------------------------------------
Number of degrees of freedom          :   18
Chi-square statistic                  :   16.58
p-value of test                       :    0.55

-----------------------------------------------
CPU time used                    :  00:01:14.63

Generator state:




***********************************************************
HOST = hpcsmp01, Linux

MersenneTwiter


sknuth_SimpPoker test:
-----------------------------------------------
   N =  1,  n = 100000000,  r = 25,   d =   32,   k =   32


-----------------------------------------------
Number of degrees of freedom          :   18
Chi-square statistic                  :   19.09
p-value of test                       :    0.39

-----------------------------------------------
CPU time used                    :  00:01:25.96

Generator state:




***********************************************************
HOST = hpcsmp01, Linux

MersenneTwiter


sknuth_CouponCollector test:
-----------------------------------------------
   N =  1,  n = 200000000,  r =  0,   d =    8


-----------------------------------------------
Number of degrees of freedom          :   54
Chi-square statistic                  :   68.47
p-value of test                       :    0.09

-----------------------------------------------
CPU time used                    :  00:01:35.45

Generator state:




***********************************************************
HOST = hpcsmp01, Linux

MersenneTwiter


sknuth_CouponCollector test:
-----------------------------------------------
   N =  1,  n = 200000000,  r = 10,   d =    8


-----------------------------------------------
Number of degrees of freedom          :   54
Chi-square statistic                  :   61.13
p-value of test                       :    0.24

-----------------------------------------------
CPU time used                    :  00:01:51.43

Generator state:




***********************************************************
HOST = hpcsmp01, Linux

MersenneTwiter


sknuth_CouponCollector test:
-----------------------------------------------
   N =  1,  n = 200000000,  r = 20,   d =    8


-----------------------------------------------
Number of degrees of freedom          :   54
Chi-square statistic                  :   55.37
p-value of test                       :    0.42

-----------------------------------------------
CPU time used                    :  00:01:51.45

Generator state:




***********************************************************
HOST = hpcsmp01, Linux

MersenneTwiter


sknuth_CouponCollector test:
-----------------------------------------------
   N =  1,  n = 200000000,  r = 27,   d =    8


-----------------------------------------------
Number of degrees of freedom          :   54
Chi-square statistic                  :   50.04
p-value of test                       :    0.63

-----------------------------------------------
CPU time used                    :  00:01:51.64

Generator state:




***********************************************************
HOST = hpcsmp01, Linux

MersenneTwiter


sknuth_Gap test:
-----------------------------------------------
   N =  1,  n = 500000000,  r =  0,   Alpha =        0,   Beta  =   0.0625


-----------------------------------------------
Number of degrees of freedom          :  232
Chi-square statistic                  :  207.90
p-value of test                       :    0.87

-----------------------------------------------
CPU time used                    :  00:02:00.63

Generator state:




***********************************************************
HOST = hpcsmp01, Linux

MersenneTwiter


sknuth_Gap test:
-----------------------------------------------
   N =  1,  n = 300000000,  r = 25,   Alpha =        0,   Beta  =  0.03125


-----------------------------------------------
Number of degrees of freedom          :  434
Chi-square statistic                  :  502.21
p-value of test                       :    0.01

-----------------------------------------------
CPU time used                    :  00:02:50.89

Generator state:




***********************************************************
HOST = hpcsmp01, Linux

MersenneTwiter


sknuth_Gap test:
-----------------------------------------------
   N =  1,  n = 100000000,  r =  0,   Alpha =        0,   Beta  = 0.0078125


-----------------------------------------------
Number of degrees of freedom          : 1437
Chi-square statistic                  : 1406.31
p-value of test                       :    0.71

-----------------------------------------------
CPU time used                    :  00:03:01.36

Generator state:




***********************************************************
HOST = hpcsmp01, Linux

MersenneTwiter


sknuth_Gap test:
-----------------------------------------------
   N =  1,  n = 10000000,  r = 20,   Alpha =        0,   Beta  = 0.000976562


-----------------------------------------------
Number of degrees of freedom          : 7046
Chi-square statistic                  : 7127.79
p-value of test                       :    0.24

-----------------------------------------------
CPU time used                    :  00:03:03.13

Generator state:




***********************************************************
HOST = hpcsmp01, Linux

MersenneTwiter


sknuth_Run test:
-----------------------------------------------
   N =  5,  n = 1000000000,  r =  0,   Up = FALSE


-----------------------------------------------

Kolmogorov-Smirnov+ statistic = D+    :   0.098
p-value of test                       :    0.86

Kolmogorov-Smirnov- statistic = D-    :    0.40
p-value of test                       :    0.15

Anderson-Darling statistic = A2       :    0.70
p-value of test                       :    0.55

Test on the sum of all N observations
Number of degrees of freedom          :   30
Chi-square statistic                  :   34.51
p-value of test                       :    0.26

-----------------------------------------------
CPU time used                    :  00:01:42.75

Generator state:




***********************************************************
HOST = hpcsmp01, Linux

MersenneTwiter


sknuth_Run test:
-----------------------------------------------
   N = 10,  n = 1000000000,  r = 15,   Up =  TRUE


-----------------------------------------------

Kolmogorov-Smirnov+ statistic = D+    :    0.25
p-value of test                       :    0.25

Kolmogorov-Smirnov- statistic = D-    :   0.046
p-value of test                       :    0.93

Anderson-Darling statistic = A2       :    1.34
p-value of test                       :    0.22

Test on the sum of all N observations
Number of degrees of freedom          :   60
Chi-square statistic                  :   47.29
p-value of test                       :    0.88

-----------------------------------------------
CPU time used                    :  00:04:05.00

Generator state:




***********************************************************
Test sknuth_Permutation calling smultin_Multinomial

***********************************************************
HOST = hpcsmp01, Linux

MersenneTwiter


smultin_Multinomial test:
-----------------------------------------------
   N =  1,  n = 1000000000,  r =  5,   t =  3,
       Sparse =  FALSE

       GenerCell = smultin_GenerCellPermut
       Number of cells = t! =                  6
       Expected number per cell =  1.6666667e+08
       Hashing =  FALSE

   For Delta > -1, we use the ChiSquare approximation
   Correction factor of the ChiSquare: 
       Delta =     1,    Mu =  2.5000002e-09,    Sigma =          1

-----------------------------------------------
Test Results for Delta =   1.0000

Number of degrees of freedom          :    5
Value of the statistic                :    4.76
p-value of test                       :    0.45


-----------------------------------------------
CPU time used                    :  00:01:23.67

Generator state:




***********************************************************
Test sknuth_Permutation calling smultin_Multinomial

***********************************************************
HOST = hpcsmp01, Linux

MersenneTwiter


smultin_Multinomial test:
-----------------------------------------------
   N =  1,  n = 1000000000,  r =  5,   t =  5,
       Sparse =  FALSE

       GenerCell = smultin_GenerCellPermut
       Number of cells = t! =                120
       Expected number per cell =   8333333.3
       Hashing =  FALSE

   For Delta > -1, we use the ChiSquare approximation
   Correction factor of the ChiSquare: 
       Delta =     1,    Mu =  5.9500005e-08,    Sigma =          1

-----------------------------------------------
Test Results for Delta =   1.0000

Number of degrees of freedom          :  119
Value of the statistic                :   92.57
p-value of test                       :    0.97


-----------------------------------------------
CPU time used                    :  00:02:34.69

Generator state:




***********************************************************
Test sknuth_Permutation calling smultin_Multinomial

***********************************************************
HOST = hpcsmp01, Linux

MersenneTwiter


smultin_Multinomial test:
-----------------------------------------------
   N =  1,  n = 500000000,  r =  5,   t =  7,
       Sparse =  FALSE

       GenerCell = smultin_GenerCellPermut
       Number of cells = t! =               5040
       Expected number per cell =   99206.349
       Hashing =  FALSE

   For Delta > -1, we use the ChiSquare approximation
   Correction factor of the ChiSquare: 
       Delta =     1,    Mu =  5.0390004e-06,    Sigma =          1

-----------------------------------------------
Test Results for Delta =   1.0000

Number of degrees of freedom          : 5039
Value of the statistic                : 5111.73
p-value of test                       :    0.23


-----------------------------------------------
CPU time used                    :  00:02:02.56

Generator state:




***********************************************************
Test sknuth_Permutation calling smultin_Multinomial

***********************************************************
HOST = hpcsmp01, Linux

MersenneTwiter


smultin_Multinomial test:
-----------------------------------------------
   N =  1,  n = 500000000,  r = 10,   t = 10,
       Sparse =  FALSE

       GenerCell = smultin_GenerCellPermut
       Number of cells = t! =            3628800
       Expected number per cell =    137.7866
       Hashing =  FALSE

   For Delta > -1, we use the ChiSquare approximation
   Correction factor of the ChiSquare: 
       Delta =     1,    Mu =   0.0036287993,    Sigma =          1

-----------------------------------------------
Test Results for Delta =   1.0000

Number of degrees of freedom          : 3628799
Value of the statistic                : 3.63e+6
p-value of test                       :    0.71


-----------------------------------------------
CPU time used                    :  00:04:41.86

Generator state:




***********************************************************
Test sknuth_CollisionPermut calling smultin_Multinomial

***********************************************************
HOST = hpcsmp01, Linux

MersenneTwiter


smultin_Multinomial test:
-----------------------------------------------
   N = 20,  n = 20000000,  r =  0,   t = 14,
       Sparse =   TRUE

       GenerCell = smultin_GenerCellPermut
       Number of cells = t! =        87178291200
       Expected number per cell =  1 /  4358.9146
       EColl = n^2 / (2k) =   2294.14912
       Hashing =   TRUE

       Collision test,    Mu =      2293.9736,    Sigma =    47.8841

-----------------------------------------------
Test Results for Collisions

For the total number of collisions, we use
      the Poisson approximation:
Expected number of collisions = N*Mu  :    45879.47
Observed number of collisions         :    45948
p-value of test                       :    0.38


-----------------------------
Total number of cells containing j balls

  j =  0                              :    1743165869948
  j =  1                              :        399908107
  j =  2                              :            45942
  j =  3                              :                3
  j =  4                              :                0
  j =  5                              :                0

-----------------------------------------------
CPU time used                    :  00:06:49.82

Generator state:




***********************************************************
Test sknuth_CollisionPermut calling smultin_Multinomial

***********************************************************
HOST = hpcsmp01, Linux

MersenneTwiter


smultin_Multinomial test:
-----------------------------------------------
   N = 20,  n = 20000000,  r = 10,   t = 14,
       Sparse =   TRUE

       GenerCell = smultin_GenerCellPermut
       Number of cells = t! =        87178291200
       Expected number per cell =  1 /  4358.9146
       EColl = n^2 / (2k) =   2294.14912
       Hashing =   TRUE

       Collision test,    Mu =      2293.9736,    Sigma =    47.8841

-----------------------------------------------
Test Results for Collisions

For the total number of collisions, we use
      the Poisson approximation:
Expected number of collisions = N*Mu  :    45879.47
Observed number of collisions         :    46050
p-value of test                       :    0.21


-----------------------------
Total number of cells containing j balls

  j =  0                              :    1743165870050
  j =  1                              :        399907905
  j =  2                              :            46040
  j =  3                              :                5
  j =  4                              :                0
  j =  5                              :                0

-----------------------------------------------
CPU time used                    :  00:07:05.43

Generator state:




***********************************************************
HOST = hpcsmp01, Linux

MersenneTwiter


sknuth_MaxOft test:
-----------------------------------------------
   N = 40,  n = 10000000,  r =  0,   d = 100000,   t =  8

      Number of categories = 100000
      Expected number per category  = 100.00


-----------------------------------------------
Test results for chi2 with 99999 degrees of freedom:

Kolmogorov-Smirnov+ statistic = D+    :   0.065
p-value of test                       :    0.68

Kolmogorov-Smirnov- statistic = D-    :    0.14
p-value of test                       :    0.20

Anderson-Darling statistic = A2       :    0.91
p-value of test                       :    0.41

Test on the sum of all N observations
Number of degrees of freedom          : 3999960
Chi-square statistic                  : 4.00e+6
p-value of test                       :    0.31


-----------------------------------------------
Test results for Anderson-Darling:

Kolmogorov-Smirnov+ statistic = D+    :   0.049
p-value of test                       :    0.80

Kolmogorov-Smirnov- statistic = D-    :    0.14
p-value of test                       :    0.20

Anderson-Darling statistic = A2       :    1.09
p-value of test                       :    0.31


-----------------------------------------------
CPU time used                    :  00:04:07.20

Generator state:




***********************************************************
HOST = hpcsmp01, Linux

MersenneTwiter


sknuth_MaxOft test:
-----------------------------------------------
   N = 30,  n = 10000000,  r =  0,   d = 100000,   t = 16

      Number of categories = 100000
      Expected number per category  = 100.00


-----------------------------------------------
Test results for chi2 with 99999 degrees of freedom:

Kolmogorov-Smirnov+ statistic = D+    :    0.16
p-value of test                       :    0.18

Kolmogorov-Smirnov- statistic = D-    :    0.11
p-value of test                       :    0.46

Anderson-Darling statistic = A2       :    0.82
p-value of test                       :    0.47

Test on the sum of all N observations
Number of degrees of freedom          : 2999970
Chi-square statistic                  : 3.00e+6
p-value of test                       :    0.69


-----------------------------------------------
Test results for Anderson-Darling:

Kolmogorov-Smirnov+ statistic = D+    :    0.11
p-value of test                       :    0.44

Kolmogorov-Smirnov- statistic = D-    :    0.12
p-value of test                       :    0.36

Anderson-Darling statistic = A2       :    0.82
p-value of test                       :    0.47


-----------------------------------------------
CPU time used                    :  00:03:42.76

Generator state:




***********************************************************
HOST = hpcsmp01, Linux

MersenneTwiter


sknuth_MaxOft test:
-----------------------------------------------
   N = 20,  n = 10000000,  r =  0,   d = 100000,   t = 24

      Number of categories = 100000
      Expected number per category  = 100.00


-----------------------------------------------
Test results for chi2 with 99999 degrees of freedom:

Kolmogorov-Smirnov+ statistic = D+    :    0.11
p-value of test                       :    0.56

Kolmogorov-Smirnov- statistic = D-    :   0.062
p-value of test                       :    0.82

Anderson-Darling statistic = A2       :    0.28
p-value of test                       :    0.95

Test on the sum of all N observations
Number of degrees of freedom          : 1999980
Chi-square statistic                  : 2.00e+6
p-value of test                       :    0.58


-----------------------------------------------
Test results for Anderson-Darling:

Kolmogorov-Smirnov+ statistic = D+    :    0.14
p-value of test                       :    0.43

Kolmogorov-Smirnov- statistic = D-    :   0.059
p-value of test                       :    0.84

Anderson-Darling statistic = A2       :    0.49
p-value of test                       :    0.76


-----------------------------------------------
CPU time used                    :  00:02:51.82

Generator state:




***********************************************************
HOST = hpcsmp01, Linux

MersenneTwiter


sknuth_MaxOft test:
-----------------------------------------------
   N = 20,  n = 10000000,  r =  0,   d = 100000,   t = 32

      Number of categories = 100000
      Expected number per category  = 100.00


-----------------------------------------------
Test results for chi2 with 99999 degrees of freedom:

Kolmogorov-Smirnov+ statistic = D+    :    0.34
p-value of test                       :  7.5e-3

Kolmogorov-Smirnov- statistic = D-    : 4.43e-3
p-value of test                       :    0.9952

Anderson-Darling statistic = A2       :    3.70
p-value of test                       :    0.01

Test on the sum of all N observations
Number of degrees of freedom          : 1999980
Chi-square statistic                  : 1.99e+6
p-value of test                       :    0.9965


-----------------------------------------------
Test results for Anderson-Darling:

Kolmogorov-Smirnov+ statistic = D+    :   0.051
p-value of test                       :    0.87

Kolmogorov-Smirnov- statistic = D-    :    0.19
p-value of test                       :    0.22

Anderson-Darling statistic = A2       :    0.92
p-value of test                       :    0.40


-----------------------------------------------
CPU time used                    :  00:03:15.45

Generator state:




***********************************************************
HOST = hpcsmp01, Linux

MersenneTwiter


svaria_SampleProd test:
-----------------------------------------------
   N = 40,  n = 10000000,  r =  0,   t = 8


-----------------------------------------------

Kolmogorov-Smirnov+ statistic = D+    :   0.035
p-value of test                       :    0.89

Kolmogorov-Smirnov- statistic = D-    :    0.13
p-value of test                       :    0.26

Anderson-Darling statistic = A2       :    0.70
p-value of test                       :    0.56

-----------------------------------------------
CPU time used                    :  00:03:13.98

Generator state:




***********************************************************
HOST = hpcsmp01, Linux

MersenneTwiter


svaria_SampleProd test:
-----------------------------------------------
   N = 20,  n = 10000000,  r =  0,   t = 16


-----------------------------------------------

Kolmogorov-Smirnov+ statistic = D+    :    0.14
p-value of test                       :    0.40

Kolmogorov-Smirnov- statistic = D-    :   0.021
p-value of test                       :    0.97

Anderson-Darling statistic = A2       :    0.80
p-value of test                       :    0.48

-----------------------------------------------
CPU time used                    :  00:02:15.56

Generator state:




***********************************************************
HOST = hpcsmp01, Linux

MersenneTwiter


svaria_SampleProd test:
-----------------------------------------------
   N = 20,  n = 10000000,  r =  0,   t = 24


-----------------------------------------------

Kolmogorov-Smirnov+ statistic = D+    :    0.27
p-value of test                       :    0.05

Kolmogorov-Smirnov- statistic = D-    :   0.056
p-value of test                       :    0.85

Anderson-Darling statistic = A2       :    1.66
p-value of test                       :    0.14

-----------------------------------------------
CPU time used                    :  00:02:52.94

Generator state:




***********************************************************
HOST = hpcsmp01, Linux

MersenneTwiter


svaria_SampleMean test:
-----------------------------------------------
   N = 20000000,  n = 30,  r =  0


-----------------------------------------------

Kolmogorov-Smirnov+ statistic = D+    : 8.81e-5
p-value of test                       :    0.73

Kolmogorov-Smirnov- statistic = D-    : 1.07e-4
p-value of test                       :    0.63

Anderson-Darling statistic = A2       :    0.20
p-value of test                       :    0.9905

-----------------------------------------------
CPU time used                    :  00:00:40.62

Generator state:




***********************************************************
HOST = hpcsmp01, Linux

MersenneTwiter


svaria_SampleMean test:
-----------------------------------------------
   N = 20000000,  n = 30,  r = 10


-----------------------------------------------

Kolmogorov-Smirnov+ statistic = D+    : 4.08e-5
p-value of test                       :    0.94

Kolmogorov-Smirnov- statistic = D-    : 2.44e-4
p-value of test                       :    0.09

Anderson-Darling statistic = A2       :    2.41
p-value of test                       :    0.06

-----------------------------------------------
CPU time used                    :  00:00:42.85

Generator state:




***********************************************************
HOST = hpcsmp01, Linux

MersenneTwiter


svaria_SampleCorr test:
-----------------------------------------------
   N =  1,  n = 2000000000,  r =  0,   k = 1


-----------------------------------------------
Normal statistic                      :   -0.22
p-value of test                       :    0.59

-----------------------------------------------
CPU time used                    :  00:00:37.04

Generator state:




***********************************************************
HOST = hpcsmp01, Linux

MersenneTwiter


svaria_SampleCorr test:
-----------------------------------------------
   N =  1,  n = 2000000000,  r =  0,   k = 2


-----------------------------------------------
Normal statistic                      :    0.41
p-value of test                       :    0.34

-----------------------------------------------
CPU time used                    :  00:00:37.07

Generator state:




***********************************************************
HOST = hpcsmp01, Linux

MersenneTwiter


svaria_AppearanceSpacings test:
-----------------------------------------------
   N =  1,   Q = 10000000,   K = 1000000000,   r = 0,   s = 3,   L = 15

   Sequences of n = (K + Q)L =  15150000000 bits
   Q = 10000000 initialization blocks
   K = 1000000000 blocks for the test
   the blocks have L = 15 bits



-----------------------------------------------
Normal statistic                      :  -0.050
p-value of test                       :    0.52

-----------------------------------------------
CPU time used                    :  00:02:50.13

Generator state:




***********************************************************
HOST = hpcsmp01, Linux

MersenneTwiter


svaria_AppearanceSpacings test:
-----------------------------------------------
   N =  1,   Q = 10000000,   K = 1000000000,   r = 27,   s = 3,   L = 15

   Sequences of n = (K + Q)L =  15150000000 bits
   Q = 10000000 initialization blocks
   K = 1000000000 blocks for the test
   the blocks have L = 15 bits



-----------------------------------------------
Normal statistic                      :    0.40
p-value of test                       :    0.34

-----------------------------------------------
CPU time used                    :  00:03:08.63

Generator state:




***********************************************************
HOST = hpcsmp01, Linux

MersenneTwiter


svaria_WeightDistrib test:
-----------------------------------------------
   N =  1,  n = 20000000,  r =  0,  k = 256,  Alpha =      0,  Beta =   0.25


-----------------------------------------------
Number of degrees of freedom          :   67
Chi-square statistic                  :   85.35
p-value of test                       :    0.06

-----------------------------------------------
CPU time used                    :  00:01:07.27

Generator state:




***********************************************************
HOST = hpcsmp01, Linux

MersenneTwiter


svaria_WeightDistrib test:
-----------------------------------------------
   N =  1,  n = 20000000,  r = 20,  k = 256,  Alpha =      0,  Beta =   0.25


-----------------------------------------------
Number of degrees of freedom          :   67
Chi-square statistic                  :   61.86
p-value of test                       :    0.65

-----------------------------------------------
CPU time used                    :  00:01:26.68

Generator state:




***********************************************************
HOST = hpcsmp01, Linux

MersenneTwiter


svaria_WeightDistrib test:
-----------------------------------------------
   N =  1,  n = 20000000,  r = 28,  k = 256,  Alpha =      0,  Beta =   0.25


-----------------------------------------------
Number of degrees of freedom          :   67
Chi-square statistic                  :   80.86
p-value of test                       :    0.12

-----------------------------------------------
CPU time used                    :  00:01:26.59

Generator state:




***********************************************************
HOST = hpcsmp01, Linux

MersenneTwiter


svaria_WeightDistrib test:
-----------------------------------------------
   N =  1,  n = 20000000,  r =  0,  k = 256,  Alpha =      0,  Beta = 0.0625


-----------------------------------------------
Number of degrees of freedom          :   37
Chi-square statistic                  :   40.19
p-value of test                       :    0.33

-----------------------------------------------
CPU time used                    :  00:01:07.36

Generator state:




***********************************************************
HOST = hpcsmp01, Linux

MersenneTwiter


svaria_WeightDistrib test:
-----------------------------------------------
   N =  1,  n = 20000000,  r = 10,  k = 256,  Alpha =      0,  Beta = 0.0625


-----------------------------------------------
Number of degrees of freedom          :   37
Chi-square statistic                  :   39.14
p-value of test                       :    0.37

-----------------------------------------------
CPU time used                    :  00:01:26.56

Generator state:




***********************************************************
HOST = hpcsmp01, Linux

MersenneTwiter


svaria_WeightDistrib test:
-----------------------------------------------
   N =  1,  n = 20000000,  r = 26,  k = 256,  Alpha =      0,  Beta = 0.0625


-----------------------------------------------
Number of degrees of freedom          :   37
Chi-square statistic                  :   33.10
p-value of test                       :    0.65

-----------------------------------------------
CPU time used                    :  00:01:26.50

Generator state:




***********************************************************
HOST = hpcsmp01, Linux

MersenneTwiter


svaria_SumCollector test:
-----------------------------------------------
   N =  1,  n = 500000000,  r =  0,   g = 10


-----------------------------------------------
Number of degrees of freedom          :   29
Chi-square statistic                  :   16.10
p-value of test                       :    0.97

-----------------------------------------------
CPU time used                    :  00:02:37.66

Generator state:




***********************************************************
HOST = hpcsmp01, Linux

MersenneTwiter


smarsa_MatrixRank test:
-----------------------------------------------
   N = 10,  n = 1000000,  r =  0,    s = 5,    L = 30,    k = 30


-----------------------------------------------

Kolmogorov-Smirnov+ statistic = D+    :   0.042
p-value of test                       :    0.94

Kolmogorov-Smirnov- statistic = D-    :    0.25
p-value of test                       :    0.26

Anderson-Darling statistic = A2       :    0.56
p-value of test                       :    0.69

Test on the sum of all N observations
Number of degrees of freedom          :   40
Chi-square statistic                  :   48.94
p-value of test                       :    0.16

-----------------------------------------------
CPU time used                    :  00:01:55.54

Generator state:




***********************************************************
HOST = hpcsmp01, Linux

MersenneTwiter


smarsa_MatrixRank test:
-----------------------------------------------
   N = 10,  n = 1000000,  r = 25,    s = 5,    L = 30,    k = 30


-----------------------------------------------

Kolmogorov-Smirnov+ statistic = D+    :    0.14
p-value of test                       :    0.61

Kolmogorov-Smirnov- statistic = D-    :    0.13
p-value of test                       :    0.64

Anderson-Darling statistic = A2       :    0.28
p-value of test                       :    0.95

Test on the sum of all N observations
Number of degrees of freedom          :   40
Chi-square statistic                  :   41.36
p-value of test                       :    0.41

-----------------------------------------------
CPU time used                    :  00:01:59.49

Generator state:




***********************************************************
HOST = hpcsmp01, Linux

MersenneTwiter


smarsa_MatrixRank test:
-----------------------------------------------
   N =  1,  n = 5000,  r =  0,    s = 4,    L = 1000,    k = 1000


-----------------------------------------------
Number of degrees of freedom          :    3
Chi-square statistic                  :    4.52
p-value of test                       :    0.21

-----------------------------------------------
CPU time used                    :  00:06:06.40

Generator state:




***********************************************************
HOST = hpcsmp01, Linux

MersenneTwiter


smarsa_MatrixRank test:
-----------------------------------------------
   N =  1,  n = 5000,  r = 26,    s = 4,    L = 1000,    k = 1000


-----------------------------------------------
Number of degrees of freedom          :    3
Chi-square statistic                  :    0.84
p-value of test                       :    0.84

-----------------------------------------------
CPU time used                    :  00:05:37.52

Generator state:




***********************************************************
HOST = hpcsmp01, Linux

MersenneTwiter


smarsa_MatrixRank test:
-----------------------------------------------
   N =  1,  n = 80,  r = 15,    s = 15,    L = 5000,    k = 5000


-----------------------------------------------
Number of degrees of freedom          :    2
Chi-square statistic                  :    0.32
p-value of test                       :    0.85

-----------------------------------------------
CPU time used                    :  00:04:05.18

Generator state:




***********************************************************
HOST = hpcsmp01, Linux

MersenneTwiter


smarsa_MatrixRank test:
-----------------------------------------------
   N =  1,  n = 80,  r =  0,    s = 30,    L = 5000,    k = 5000


-----------------------------------------------
Number of degrees of freedom          :    2
Chi-square statistic                  :    3.96
p-value of test                       :    0.14

-----------------------------------------------
CPU time used                    :  00:03:36.45

Generator state:




***********************************************************
HOST = hpcsmp01, Linux

MersenneTwiter


smarsa_Savir2 test:
-----------------------------------------------
   N = 10,  n = 10000000,  r = 10,    m = 1048576,    t = 30


-----------------------------------------------

Kolmogorov-Smirnov+ statistic = D+    :    0.36
p-value of test                       :    0.06

Kolmogorov-Smirnov- statistic = D-    :   0.064
p-value of test                       :    0.89

Anderson-Darling statistic = A2       :    1.61
p-value of test                       :    0.15

Test on the sum of all N observations
Number of degrees of freedom          :  130
Chi-square statistic                  :  106.57
p-value of test                       :    0.93

-----------------------------------------------
CPU time used                    :  00:00:57.15

Generator state:




***********************************************************
HOST = hpcsmp01, Linux

MersenneTwiter


smarsa_GCD test:
-----------------------------------------------
   N = 10,  n = 50000000,  r =  0,   s = 30


-----------------------------------------------
Test results for GCD values:

Kolmogorov-Smirnov+ statistic = D+    :    0.16
p-value of test                       :    0.55

Kolmogorov-Smirnov- statistic = D-    :    0.33
p-value of test                       :    0.09

Anderson-Darling statistic = A2       :    1.64
p-value of test                       :    0.15

Test on the sum of all N observations
Number of degrees of freedom          : 17430
Chi-square statistic                  :17515.22
p-value of test                       :    0.32



-----------------------------------------------
CPU time used                    :  00:02:26.27

Generator state:




***********************************************************
HOST = hpcsmp01, Linux

MersenneTwiter


swalk_RandomWalk1 test:
-----------------------------------------------
   N =  1,  n = 100000000,  r =  0,   s = 5,   L0 =   50,   L1 =   50



-----------------------------------------------
Test on the values of the Statistic H

Number of degrees of freedom          :   36
ChiSquare statistic                   :   49.41
p-value of test                       :    0.07


-----------------------------------------------
Test on the values of the Statistic M

Number of degrees of freedom          :   35
ChiSquare statistic                   :   39.05
p-value of test                       :    0.29


-----------------------------------------------
Test on the values of the Statistic J

Number of degrees of freedom          :   25
ChiSquare statistic                   :   21.84
p-value of test                       :    0.64


-----------------------------------------------
Test on the values of the Statistic R

Number of degrees of freedom          :   24
ChiSquare statistic                   :   32.07
p-value of test                       :    0.13


-----------------------------------------------
Test on the values of the Statistic C

Number of degrees of freedom          :   17
ChiSquare statistic                   :   16.54
p-value of test                       :    0.49


-----------------------------------------------
CPU time used                    :  00:01:28.95

Generator state:




***********************************************************
HOST = hpcsmp01, Linux

MersenneTwiter


swalk_RandomWalk1 test:
-----------------------------------------------
   N =  1,  n = 100000000,  r = 25,   s = 5,   L0 =   50,   L1 =   50



-----------------------------------------------
Test on the values of the Statistic H

Number of degrees of freedom          :   36
ChiSquare statistic                   :   37.85
p-value of test                       :    0.39


-----------------------------------------------
Test on the values of the Statistic M

Number of degrees of freedom          :   35
ChiSquare statistic                   :   35.64
p-value of test                       :    0.44


-----------------------------------------------
Test on the values of the Statistic J

Number of degrees of freedom          :   25
ChiSquare statistic                   :   14.99
p-value of test                       :    0.94


-----------------------------------------------
Test on the values of the Statistic R

Number of degrees of freedom          :   24
ChiSquare statistic                   :   32.10
p-value of test                       :    0.12


-----------------------------------------------
Test on the values of the Statistic C

Number of degrees of freedom          :   17
ChiSquare statistic                   :   15.51
p-value of test                       :    0.56


-----------------------------------------------
CPU time used                    :  00:01:31.02

Generator state:




***********************************************************
HOST = hpcsmp01, Linux

MersenneTwiter


swalk_RandomWalk1 test:
-----------------------------------------------
   N =  1,  n = 10000000,  r =  0,   s = 10,   L0 = 1000,   L1 = 1000



-----------------------------------------------
Test on the values of the Statistic H

Number of degrees of freedom          :  146
ChiSquare statistic                   :  175.96
p-value of test                       :    0.05


-----------------------------------------------
Test on the values of the Statistic M

Number of degrees of freedom          :  146
ChiSquare statistic                   :  143.43
p-value of test                       :    0.54


-----------------------------------------------
Test on the values of the Statistic J

Number of degrees of freedom          :  500
ChiSquare statistic                   :  515.62
p-value of test                       :    0.31


-----------------------------------------------
Test on the values of the Statistic R

Number of degrees of freedom          :  136
ChiSquare statistic                   :  130.94
p-value of test                       :    0.61


-----------------------------------------------
Test on the values of the Statistic C

Number of degrees of freedom          :   74
ChiSquare statistic                   :   63.29
p-value of test                       :    0.81


-----------------------------------------------
CPU time used                    :  00:02:28.00

Generator state:




***********************************************************
HOST = hpcsmp01, Linux

MersenneTwiter


swalk_RandomWalk1 test:
-----------------------------------------------
   N =  1,  n = 10000000,  r = 20,   s = 10,   L0 = 1000,   L1 = 1000



-----------------------------------------------
Test on the values of the Statistic H

Number of degrees of freedom          :  146
ChiSquare statistic                   :  141.80
p-value of test                       :    0.58


-----------------------------------------------
Test on the values of the Statistic M

Number of degrees of freedom          :  146
ChiSquare statistic                   :  160.14
p-value of test                       :    0.20


-----------------------------------------------
Test on the values of the Statistic J

Number of degrees of freedom          :  500
ChiSquare statistic                   :  530.35
p-value of test                       :    0.17


-----------------------------------------------
Test on the values of the Statistic R

Number of degrees of freedom          :  136
ChiSquare statistic                   :  101.11
p-value of test                       :    0.99


-----------------------------------------------
Test on the values of the Statistic C

Number of degrees of freedom          :   74
ChiSquare statistic                   :   86.73
p-value of test                       :    0.15


-----------------------------------------------
CPU time used                    :  00:02:32.72

Generator state:




***********************************************************
HOST = hpcsmp01, Linux

MersenneTwiter


swalk_RandomWalk1 test:
-----------------------------------------------
   N =  1,  n = 1000000,  r =  0,   s = 15,   L0 = 10000,   L1 = 10000



-----------------------------------------------
Test on the values of the Statistic H

Number of degrees of freedom          :  384
ChiSquare statistic                   :  391.91
p-value of test                       :    0.38


-----------------------------------------------
Test on the values of the Statistic M

Number of degrees of freedom          :  384
ChiSquare statistic                   :  367.71
p-value of test                       :    0.72


-----------------------------------------------
Test on the values of the Statistic J

Number of degrees of freedom          : 5000
ChiSquare statistic                   : 5038.40
p-value of test                       :    0.35


-----------------------------------------------
Test on the values of the Statistic R

Number of degrees of freedom          :  378
ChiSquare statistic                   :  405.95
p-value of test                       :    0.15


-----------------------------------------------
Test on the values of the Statistic C

Number of degrees of freedom          :  200
ChiSquare statistic                   :  177.73
p-value of test                       :    0.87


-----------------------------------------------
CPU time used                    :  00:02:15.88

Generator state:




***********************************************************
HOST = hpcsmp01, Linux

MersenneTwiter


swalk_RandomWalk1 test:
-----------------------------------------------
   N =  1,  n = 1000000,  r = 15,   s = 15,   L0 = 10000,   L1 = 10000



-----------------------------------------------
Test on the values of the Statistic H

Number of degrees of freedom          :  384
ChiSquare statistic                   :  364.49
p-value of test                       :    0.76


-----------------------------------------------
Test on the values of the Statistic M

Number of degrees of freedom          :  384
ChiSquare statistic                   :  398.36
p-value of test                       :    0.30


-----------------------------------------------
Test on the values of the Statistic J

Number of degrees of freedom          : 5000
ChiSquare statistic                   : 4903.01
p-value of test                       :    0.83


-----------------------------------------------
Test on the values of the Statistic R

Number of degrees of freedom          :  378
ChiSquare statistic                   :  349.62
p-value of test                       :    0.85


-----------------------------------------------
Test on the values of the Statistic C

Number of degrees of freedom          :  200
ChiSquare statistic                   :  179.75
p-value of test                       :    0.84


-----------------------------------------------
CPU time used                    :  00:02:17.34

Generator state:




***********************************************************
HOST = hpcsmp01, Linux

MersenneTwiter


scomp_LinearComp test:
-----------------------------------------------
   N =  1,  n = 400020,  r =  0,    s = 1



-----------------------------------------------
Number of degrees of freedom          :   12
Chi2 statistic for size of jumps      :   10.19
p-value of test                       :    0.60


-----------------------------------------------
Normal statistic for number of jumps  : -402.52
p-value of test                       : 1 - eps1    *****



-----------------------------------------------
CPU time used                    :  00:00:13.38

Generator state:




***********************************************************
HOST = hpcsmp01, Linux

MersenneTwiter


scomp_LinearComp test:
-----------------------------------------------
   N =  1,  n = 400020,  r = 29,    s = 1



-----------------------------------------------
Number of degrees of freedom          :   12
Chi2 statistic for size of jumps      :    5.99
p-value of test                       :    0.92


-----------------------------------------------
Normal statistic for number of jumps  : -403.10
p-value of test                       : 1 - eps1    *****



-----------------------------------------------
CPU time used                    :  00:00:13.38

Generator state:




***********************************************************
HOST = hpcsmp01, Linux

MersenneTwiter


scomp_LempelZiv test:
-----------------------------------------------
   N = 10,  n = 134217728,  r =  0,   s =   30,   k =   27


-----------------------------------------------

Kolmogorov-Smirnov+ statistic = D+    :   0.091
p-value of test                       :    0.80

Kolmogorov-Smirnov- statistic = D-    :    0.29
p-value of test                       :    0.15

Anderson-Darling statistic = A2       :    0.99
p-value of test                       :    0.36

Tests on the sum of all N observations
Standardized normal statistic         :    0.64
p-value of test                       :    0.26

Sample variance                       :    1.78
p-value of test                       :    0.07

-----------------------------------------------
CPU time used                    :  00:01:10.72

Generator state:




***********************************************************
HOST = hpcsmp01, Linux

MersenneTwiter


scomp_LempelZiv test:
-----------------------------------------------
   N = 10,  n = 134217728,  r = 15,   s =   15,   k =   27


-----------------------------------------------

Kolmogorov-Smirnov+ statistic = D+    :    0.28
p-value of test                       :    0.18

Kolmogorov-Smirnov- statistic = D-    :    0.16
p-value of test                       :    0.55

Anderson-Darling statistic = A2       :    1.30
p-value of test                       :    0.23

Tests on the sum of all N observations
Standardized normal statistic         :   -0.89
p-value of test                       :    0.81

Sample variance                       :    0.34
p-value of test                       :    0.96

-----------------------------------------------
CPU time used                    :  00:01:13.77

Generator state:




***********************************************************
HOST = hpcsmp01, Linux

MersenneTwiter


sspectral_Fourier3 test:
-----------------------------------------------
   N = 100000,  n = 16384,  r =  0,   s =    3,   k =   14


-----------------------------------------------

Kolmogorov-Smirnov+ statistic = D+    :   0.010
p-value of test                       :    0.41

Kolmogorov-Smirnov- statistic = D-    :   0.019
p-value of test                       :    0.06

Anderson-Darling statistic = A2       :    1.17
p-value of test                       :    0.28

-----------------------------------------------
CPU time used                    :  00:01:03.41

Generator state:




***********************************************************
HOST = hpcsmp01, Linux

MersenneTwiter


sspectral_Fourier3 test:
-----------------------------------------------
   N = 100000,  n = 16384,  r = 27,   s =    3,   k =   14


-----------------------------------------------

Kolmogorov-Smirnov+ statistic = D+    :   0.013
p-value of test                       :    0.23

Kolmogorov-Smirnov- statistic = D-    :   0.011
p-value of test                       :    0.38

Anderson-Darling statistic = A2       :    1.03
p-value of test                       :    0.34

-----------------------------------------------
CPU time used                    :  00:01:03.88

Generator state:




***********************************************************
HOST = hpcsmp01, Linux

MersenneTwiter


sstring_LongestHeadRun test:
-----------------------------------------------
   N =  1,  n = 1000,  r =  0,   s = 3,   L = 10000020


-----------------------------------------------
Number of degrees of freedom          :    8
Chi-square statistic                  :    5.62
p-value of test                       :    0.69

-----------------------------------------------
Global longest run of 1               :   36.00
p-value of test                       :    0.07



-----------------------------------------------
CPU time used                    :  00:02:09.77

Generator state:




***********************************************************
HOST = hpcsmp01, Linux

MersenneTwiter


sstring_LongestHeadRun test:
-----------------------------------------------
   N =  1,  n = 1000,  r = 27,   s = 3,   L = 10000020


-----------------------------------------------
Number of degrees of freedom          :    8
Chi-square statistic                  :    8.80
p-value of test                       :    0.36

-----------------------------------------------
Global longest run of 1               :   33.00
p-value of test                       :    0.44



-----------------------------------------------
CPU time used                    :  00:02:20.34

Generator state:




***********************************************************
HOST = hpcsmp01, Linux

MersenneTwiter


sstring_PeriodsInStrings test:
-----------------------------------------------
   N = 10,  n = 500000000,  r =  0,   s =   10


-----------------------------------------------

Kolmogorov-Smirnov+ statistic = D+    :    0.27
p-value of test                       :    0.20

Kolmogorov-Smirnov- statistic = D-    :    0.11
p-value of test                       :    0.72

Anderson-Darling statistic = A2       :    1.18
p-value of test                       :    0.27

Test on the sum of all N observations
Number of degrees of freedom          :  200
Chi-square statistic                  :  175.44
p-value of test                       :    0.89

-----------------------------------------------
CPU time used                    :  00:03:55.95

Generator state:




***********************************************************
HOST = hpcsmp01, Linux

MersenneTwiter


sstring_PeriodsInStrings test:
-----------------------------------------------
   N = 10,  n = 500000000,  r = 20,   s =   10


-----------------------------------------------

Kolmogorov-Smirnov+ statistic = D+    :    0.37
p-value of test                       :    0.05

Kolmogorov-Smirnov- statistic = D-    :    0.12
p-value of test                       :    0.68

Anderson-Darling statistic = A2       :    1.14
p-value of test                       :    0.29

Test on the sum of all N observations
Number of degrees of freedom          :  200
Chi-square statistic                  :  179.22
p-value of test                       :    0.85

-----------------------------------------------
CPU time used                    :  00:04:12.95

Generator state:




***********************************************************
HOST = hpcsmp01, Linux

MersenneTwiter


sstring_HammingWeight2 test:
-----------------------------------------------
   N = 10,  n = 1000000000,  r =  0,   s = 3,   L = 1000000


-----------------------------------------------

Kolmogorov-Smirnov+ statistic = D+    :    0.29
p-value of test                       :    0.16

Kolmogorov-Smirnov- statistic = D-    :    0.11
p-value of test                       :    0.74

Anderson-Darling statistic = A2       :    0.85
p-value of test                       :    0.44

Test on the sum of all N observations
Number of degrees of freedom          : 10000
Chi-square statistic                  : 9888.30
p-value of test                       :    0.78

-----------------------------------------------
CPU time used                    :  00:01:26.74

Generator state:




***********************************************************
HOST = hpcsmp01, Linux

MersenneTwiter


sstring_HammingWeight2 test:
-----------------------------------------------
   N = 10,  n = 1000000000,  r = 27,   s = 3,   L = 1000000


-----------------------------------------------

Kolmogorov-Smirnov+ statistic = D+    :    0.34
p-value of test                       :    0.08

Kolmogorov-Smirnov- statistic = D-    :   0.087
p-value of test                       :    0.81

Anderson-Darling statistic = A2       :    1.43
p-value of test                       :    0.19

Test on the sum of all N observations
Number of degrees of freedom          : 10000
Chi-square statistic                  : 9814.02
p-value of test                       :    0.91

-----------------------------------------------
CPU time used                    :  00:01:35.56

Generator state:




***********************************************************
HOST = hpcsmp01, Linux

MersenneTwiter


sstring_HammingCorr test:
-----------------------------------------------
   N =  1,  n = 1000000000,  r = 10,   s = 10,   L = 30



-----------------------------------------------
Normal statistic                      :   -0.65
p-value of test                       :    0.74

-----------------------------------------------
CPU time used                    :  00:01:47.06

Generator state:




***********************************************************
HOST = hpcsmp01, Linux

MersenneTwiter


sstring_HammingCorr test:
-----------------------------------------------
   N =  1,  n = 100000000,  r = 10,   s = 10,   L = 300



-----------------------------------------------
Normal statistic                      :   -1.13
p-value of test                       :    0.87

-----------------------------------------------
CPU time used                    :  00:01:41.29

Generator state:




***********************************************************
HOST = hpcsmp01, Linux

MersenneTwiter


sstring_HammingCorr test:
-----------------------------------------------
   N =  1,  n = 100000000,  r = 10,   s = 10,   L = 1200



-----------------------------------------------
Normal statistic                      :    0.64
p-value of test                       :    0.26

-----------------------------------------------
CPU time used                    :  00:06:38.93

Generator state:




***********************************************************
HOST = hpcsmp01, Linux

MersenneTwiter


sstring_HammingIndep test:
-----------------------------------------------
   N = 10,  n = 30000000,  r =  0,   s = 3,   L = 30,   d = 0



Counters with expected numbers >= 10
-----------------------------------------------

Kolmogorov-Smirnov+ statistic = D+    :    0.14
p-value of test                       :    0.61

Kolmogorov-Smirnov- statistic = D-    :    0.34
p-value of test                       :    0.07

Anderson-Darling statistic = A2       :    1.25
p-value of test                       :    0.25

Test on the sum of all N observations
Number of degrees of freedom          : 4890
Chi-square statistic                  : 4969.48
p-value of test                       :    0.21

-----------------------------------------------
CPU time used                    :  00:02:38.22

Generator state:




***********************************************************
HOST = hpcsmp01, Linux

MersenneTwiter


sstring_HammingIndep test:
-----------------------------------------------
   N = 10,  n = 30000000,  r = 27,   s = 3,   L = 30,   d = 0



Counters with expected numbers >= 10
-----------------------------------------------

Kolmogorov-Smirnov+ statistic = D+    :    0.27
p-value of test                       :    0.19

Kolmogorov-Smirnov- statistic = D-    :   0.082
p-value of test                       :    0.83

Anderson-Darling statistic = A2       :    0.80
p-value of test                       :    0.48

Test on the sum of all N observations
Number of degrees of freedom          : 4890
Chi-square statistic                  : 4806.32
p-value of test                       :    0.80

-----------------------------------------------
CPU time used                    :  00:02:59.86

Generator state:




***********************************************************
HOST = hpcsmp01, Linux

MersenneTwiter


sstring_HammingIndep test:
-----------------------------------------------
   N =  1,  n = 30000000,  r =  0,   s = 4,   L = 300,   d = 0



Counters with expected numbers >= 10
-----------------------------------------------
Number of degrees of freedom          : 4117
Chi-square statistic                  : 4109.72
p-value of test                       :    0.53

-----------------------------------------------
CPU time used                    :  00:01:58.29

Generator state:




***********************************************************
HOST = hpcsmp01, Linux

MersenneTwiter


sstring_HammingIndep test:
-----------------------------------------------
   N =  1,  n = 30000000,  r = 26,   s = 4,   L = 300,   d = 0



Counters with expected numbers >= 10
-----------------------------------------------
Number of degrees of freedom          : 4117
Chi-square statistic                  : 3989.42
p-value of test                       :    0.92

-----------------------------------------------
CPU time used                    :  00:02:11.75

Generator state:




***********************************************************
HOST = hpcsmp01, Linux

MersenneTwiter


sstring_HammingIndep test:
-----------------------------------------------
   N =  1,  n = 10000000,  r =  0,   s = 5,   L = 1200,   d = 0



Counters with expected numbers >= 10
-----------------------------------------------
Number of degrees of freedom          : 11825
Chi-square statistic                  :11866.01
p-value of test                       :    0.39

-----------------------------------------------
CPU time used                    :  00:02:09.40

Generator state:




***********************************************************
HOST = hpcsmp01, Linux

MersenneTwiter


sstring_HammingIndep test:
-----------------------------------------------
   N =  1,  n = 10000000,  r = 25,   s = 5,   L = 1200,   d = 0



Counters with expected numbers >= 10
-----------------------------------------------
Number of degrees of freedom          : 11825
Chi-square statistic                  :11728.12
p-value of test                       :    0.73

-----------------------------------------------
CPU time used                    :  00:02:15.31

Generator state:




***********************************************************
HOST = hpcsmp01, Linux

MersenneTwiter


sstring_Run test:
-----------------------------------------------
   N =  1,  n = 2000000000,  r =  0,   s =    3


-----------------------------------------------
Total number of 1 runs:  2000000000

Number of degrees of freedom          :   54
Chi2 statistic for number of runs     :   52.57
p-value of test                       :    0.53


-----------------------------------------------
Total number of bits:  7999959402

Normal statistic for number of bits   :   -0.32
p-value of test                       :    0.63



-----------------------------------------------
CPU time used                    :  00:01:38.18

Generator state:




***********************************************************
HOST = hpcsmp01, Linux

MersenneTwiter


sstring_Run test:
-----------------------------------------------
   N =  1,  n = 2000000000,  r = 27,   s =    3


-----------------------------------------------
Total number of 1 runs:  2000000001

Number of degrees of freedom          :   54
Chi2 statistic for number of runs     :   55.46
p-value of test                       :    0.42


-----------------------------------------------
Total number of bits:  8000072103

Normal statistic for number of bits   :    0.57
p-value of test                       :    0.28



-----------------------------------------------
CPU time used                    :  00:01:43.88

Generator state:




***********************************************************
HOST = hpcsmp01, Linux

MersenneTwiter


sstring_AutoCor test:
-----------------------------------------------
   N = 10,  n = 1000000030,  r =  0,   s = 3,   d = 1


-----------------------------------------------

Kolmogorov-Smirnov+ statistic = D+    :    0.47
p-value of test                       :  8.2e-3

Kolmogorov-Smirnov- statistic = D-    :   0.020
p-value of test                       :    0.98

Anderson-Darling statistic = A2       :    2.47
p-value of test                       :    0.05

Tests on the sum of all N observations
Standardized normal statistic         :   -1.93
p-value of test                       :    0.97

Sample variance                       :    0.47
p-value of test                       :    0.90

-----------------------------------------------
CPU time used                    :  00:03:13.36

Generator state:




***********************************************************
HOST = hpcsmp01, Linux

MersenneTwiter


sstring_AutoCor test:
-----------------------------------------------
   N = 10,  n = 1000000029,  r =  0,   s = 3,   d = 3


-----------------------------------------------

Kolmogorov-Smirnov+ statistic = D+    :    0.21
p-value of test                       :    0.37

Kolmogorov-Smirnov- statistic = D-    :    0.24
p-value of test                       :    0.28

Anderson-Darling statistic = A2       :    1.50
p-value of test                       :    0.18

Tests on the sum of all N observations
Standardized normal statistic         :    0.95
p-value of test                       :    0.17

Sample variance                       :    2.25
p-value of test                       :    0.02

-----------------------------------------------
CPU time used                    :  00:03:06.88

Generator state:




***********************************************************
HOST = hpcsmp01, Linux

MersenneTwiter


sstring_AutoCor test:
-----------------------------------------------
   N = 10,  n = 1000000030,  r = 27,   s = 3,   d = 1


-----------------------------------------------

Kolmogorov-Smirnov+ statistic = D+    :    0.21
p-value of test                       :    0.36

Kolmogorov-Smirnov- statistic = D-    :    0.15
p-value of test                       :    0.57

Anderson-Darling statistic = A2       :    0.57
p-value of test                       :    0.68

Tests on the sum of all N observations
Standardized normal statistic         :   -0.17
p-value of test                       :    0.57

Sample variance                       :    1.49
p-value of test                       :    0.15

-----------------------------------------------
CPU time used                    :  00:02:55.97

Generator state:




***********************************************************
HOST = hpcsmp01, Linux

MersenneTwiter


sstring_AutoCor test:
-----------------------------------------------
   N = 10,  n = 1000000029,  r = 27,   s = 3,   d = 3


-----------------------------------------------

Kolmogorov-Smirnov+ statistic = D+    :    0.10
p-value of test                       :    0.75

Kolmogorov-Smirnov- statistic = D-    :    0.27
p-value of test                       :    0.20

Anderson-Darling statistic = A2       :    0.94
p-value of test                       :    0.39

Tests on the sum of all N observations
Standardized normal statistic         :    1.03
p-value of test                       :    0.15

Sample variance                       :    0.85
p-value of test                       :    0.57

-----------------------------------------------
CPU time used                    :  00:02:34.27

Generator state:





========= Summary results of BigCrush =========

 Version:          TestU01 1.2.3
 Generator:        MersenneTwiter
 Number of statistics:  160
 Total CPU time:   06:29:11.22
 The following tests gave p-values outside [0.001, 0.9990]:
 (eps  means a value < 1.0e-300):
 (eps1 means a value < 1.0e-15):

       Test                          p-value
 ----------------------------------------------
 80  LinearComp, r = 0              1 - eps1
 81  LinearComp, r = 29             1 - eps1
 ----------------------------------------------
 All other tests were passed



