xxxxxxxxxxxxxxxxxxxxxxxxxxxxxxxxxxxxxxxxxxxxxxxxxxxxxxxxxxx
                 Starting BigCrush
                 Version: TestU01 1.2.3
xxxxxxxxxxxxxxxxxxxxxxxxxxxxxxxxxxxxxxxxxxxxxxxxxxxxxxxxxxx


***********************************************************
Test smarsa_SerialOver calling smultin_MultinomialOver

***********************************************************
HOST = node36.local.isima.fr, Linux

MersenneTwiter


smultin_MultinomialOver test:
-----------------------------------------------
   N =  1,  n = 1000000000,  r =  0,   d =  256,   t =  3,
       Sparse =  FALSE

       GenerCell = smultin_GenerCellSerial
       Number of cells = d^t =           16777216
       Expected number per cell =   59.604645
       Hashing =  FALSE

   For Delta > -1, we use the ChiSquare approximation
   Correction factor of the ChiSquare: 
       Delta =     1,    Mu =   0.0083558402,    Sigma =          1

-----------------------------------------------
Test Results for Delta =   1.0000

Number of degrees of freedom          : 16711680
Value of the statistic                : 1.67e+7
p-value of test                       :    0.30


-----------------------------------------------
CPU time used                    :  00:01:05.43

Generator state:




***********************************************************
Test smarsa_SerialOver calling smultin_MultinomialOver

***********************************************************
HOST = node36.local.isima.fr, Linux

MersenneTwiter


smultin_MultinomialOver test:
-----------------------------------------------
   N =  1,  n = 1000000000,  r = 22,   d =  256,   t =  3,
       Sparse =  FALSE

       GenerCell = smultin_GenerCellSerial
       Number of cells = d^t =           16777216
       Expected number per cell =   59.604645
       Hashing =  FALSE

   For Delta > -1, we use the ChiSquare approximation
   Correction factor of the ChiSquare: 
       Delta =     1,    Mu =   0.0083558402,    Sigma =          1

-----------------------------------------------
Test Results for Delta =   1.0000

Number of degrees of freedom          : 16711680
Value of the statistic                : 1.67e+7
p-value of test                       :    0.33


-----------------------------------------------
CPU time used                    :  00:01:08.37

Generator state:




***********************************************************
Test smarsa_CollisionOver calling smultin_MultinomialOver

***********************************************************
HOST = node36.local.isima.fr, Linux

MersenneTwiter


smultin_MultinomialOver test:
-----------------------------------------------
   N = 30,  n = 20000000,  r =  0,   d = 2097152,   t =  2,
       Sparse =   TRUE

       GenerCell = smultin_GenerCellSerial
       Number of cells = d^t =      4398046511104
       Expected number per cell =  1 /  219902.33
       EColl = n^2 / (2k) =  45.47473509
       Hashing =   TRUE

       Collision test

       CollisionOver:   density = n / k =  1 /  219902.33
       Expected number of collisions = Mu =      45.47


-----------------------------------------------
Results of CollisionOver test:

POISSON approximation                 :
Expected number of collisions = N*Mu  :     1364.24
Observed number of collisions         :     1373
p-value of test                       :    0.41

-----------------------------
Total number of cells containing j balls

  j =  0                              :  131940795334493
  j =  1                              :        599997254
  j =  2                              :             1373
  j =  3                              :                0
  j =  4                              :                0
  j =  5                              :                0

-----------------------------------------------
CPU time used                    :  00:04:01.26

Generator state:




***********************************************************
Test smarsa_CollisionOver calling smultin_MultinomialOver

***********************************************************
HOST = node36.local.isima.fr, Linux

MersenneTwiter


smultin_MultinomialOver test:
-----------------------------------------------
   N = 30,  n = 20000000,  r =  9,   d = 2097152,   t =  2,
       Sparse =   TRUE

       GenerCell = smultin_GenerCellSerial
       Number of cells = d^t =      4398046511104
       Expected number per cell =  1 /  219902.33
       EColl = n^2 / (2k) =  45.47473509
       Hashing =   TRUE

       Collision test

       CollisionOver:   density = n / k =  1 /  219902.33
       Expected number of collisions = Mu =      45.47


-----------------------------------------------
Results of CollisionOver test:

POISSON approximation                 :
Expected number of collisions = N*Mu  :     1364.24
Observed number of collisions         :     1395
p-value of test                       :    0.21

-----------------------------
Total number of cells containing j balls

  j =  0                              :  131940795334515
  j =  1                              :        599997210
  j =  2                              :             1395
  j =  3                              :                0
  j =  4                              :                0
  j =  5                              :                0

-----------------------------------------------
CPU time used                    :  00:04:09.42

Generator state:




***********************************************************
Test smarsa_CollisionOver calling smultin_MultinomialOver

***********************************************************
HOST = node36.local.isima.fr, Linux

MersenneTwiter


smultin_MultinomialOver test:
-----------------------------------------------
   N = 30,  n = 20000000,  r =  0,   d = 16384,   t =  3,
       Sparse =   TRUE

       GenerCell = smultin_GenerCellSerial
       Number of cells = d^t =      4398046511104
       Expected number per cell =  1 /  219902.33
       EColl = n^2 / (2k) =  45.47473509
       Hashing =   TRUE

       Collision test

       CollisionOver:   density = n / k =  1 /  219902.33
       Expected number of collisions = Mu =      45.47


-----------------------------------------------
Results of CollisionOver test:

POISSON approximation                 :
Expected number of collisions = N*Mu  :     1364.24
Observed number of collisions         :     1404
p-value of test                       :    0.14

-----------------------------
Total number of cells containing j balls

  j =  0                              :  131940795334524
  j =  1                              :        599997192
  j =  2                              :             1404
  j =  3                              :                0
  j =  4                              :                0
  j =  5                              :                0

-----------------------------------------------
CPU time used                    :  00:05:05.78

Generator state:




***********************************************************
Test smarsa_CollisionOver calling smultin_MultinomialOver

***********************************************************
HOST = node36.local.isima.fr, Linux

MersenneTwiter


smultin_MultinomialOver test:
-----------------------------------------------
   N = 30,  n = 20000000,  r = 16,   d = 16384,   t =  3,
       Sparse =   TRUE

       GenerCell = smultin_GenerCellSerial
       Number of cells = d^t =      4398046511104
       Expected number per cell =  1 /  219902.33
       EColl = n^2 / (2k) =  45.47473509
       Hashing =   TRUE

       Collision test

       CollisionOver:   density = n / k =  1 /  219902.33
       Expected number of collisions = Mu =      45.47


-----------------------------------------------
Results of CollisionOver test:

POISSON approximation                 :
Expected number of collisions = N*Mu  :     1364.24
Observed number of collisions         :     1380
p-value of test                       :    0.34

-----------------------------
Total number of cells containing j balls

  j =  0                              :  131940795334500
  j =  1                              :        599997240
  j =  2                              :             1380
  j =  3                              :                0
  j =  4                              :                0
  j =  5                              :                0

-----------------------------------------------
CPU time used                    :  00:05:32.80

Generator state:




***********************************************************
Test smarsa_CollisionOver calling smultin_MultinomialOver

***********************************************************
HOST = node36.local.isima.fr, Linux

MersenneTwiter


smultin_MultinomialOver test:
-----------------------------------------------
   N = 30,  n = 20000000,  r =  0,   d =   64,   t =  7,
       Sparse =   TRUE

       GenerCell = smultin_GenerCellSerial
       Number of cells = d^t =      4398046511104
       Expected number per cell =  1 /  219902.33
       EColl = n^2 / (2k) =  45.47473509
       Hashing =   TRUE

       Collision test

       CollisionOver:   density = n / k =  1 /  219902.33
       Expected number of collisions = Mu =      45.47


-----------------------------------------------
Results of CollisionOver test:

POISSON approximation                 :
Expected number of collisions = N*Mu  :     1364.24
Observed number of collisions         :     1359
p-value of test                       :    0.55

-----------------------------
Total number of cells containing j balls

  j =  0                              :  131940795334479
  j =  1                              :        599997282
  j =  2                              :             1359
  j =  3                              :                0
  j =  4                              :                0
  j =  5                              :                0

-----------------------------------------------
CPU time used                    :  00:05:09.01

Generator state:




***********************************************************
Test smarsa_CollisionOver calling smultin_MultinomialOver

***********************************************************
HOST = node36.local.isima.fr, Linux

MersenneTwiter


smultin_MultinomialOver test:
-----------------------------------------------
   N = 30,  n = 20000000,  r = 24,   d =   64,   t =  7,
       Sparse =   TRUE

       GenerCell = smultin_GenerCellSerial
       Number of cells = d^t =      4398046511104
       Expected number per cell =  1 /  219902.33
       EColl = n^2 / (2k) =  45.47473509
       Hashing =   TRUE

       Collision test

       CollisionOver:   density = n / k =  1 /  219902.33
       Expected number of collisions = Mu =      45.47


-----------------------------------------------
Results of CollisionOver test:

POISSON approximation                 :
Expected number of collisions = N*Mu  :     1364.24
Observed number of collisions         :     1330
p-value of test                       :    0.82

-----------------------------
Total number of cells containing j balls

  j =  0                              :  131940795334450
  j =  1                              :        599997340
  j =  2                              :             1330
  j =  3                              :                0
  j =  4                              :                0
  j =  5                              :                0

-----------------------------------------------
CPU time used                    :  00:05:39.05

Generator state:




***********************************************************
Test smarsa_CollisionOver calling smultin_MultinomialOver

***********************************************************
HOST = node36.local.isima.fr, Linux

MersenneTwiter


smultin_MultinomialOver test:
-----------------------------------------------
   N = 30,  n = 20000000,  r =  0,   d =    8,   t = 14,
       Sparse =   TRUE

       GenerCell = smultin_GenerCellSerial
       Number of cells = d^t =      4398046511104
       Expected number per cell =  1 /  219902.33
       EColl = n^2 / (2k) =  45.47473509
       Hashing =   TRUE

       Collision test

       CollisionOver:   density = n / k =  1 /  219902.33
       Expected number of collisions = Mu =      45.47


-----------------------------------------------
Results of CollisionOver test:

POISSON approximation                 :
Expected number of collisions = N*Mu  :     1364.24
Observed number of collisions         :     1305
p-value of test                       :    0.94

-----------------------------
Total number of cells containing j balls

  j =  0                              :  131940795334425
  j =  1                              :        599997390
  j =  2                              :             1305
  j =  3                              :                0
  j =  4                              :                0
  j =  5                              :                0

-----------------------------------------------
CPU time used                    :  00:05:07.36

Generator state:




***********************************************************
Test smarsa_CollisionOver calling smultin_MultinomialOver

***********************************************************
HOST = node36.local.isima.fr, Linux

MersenneTwiter


smultin_MultinomialOver test:
-----------------------------------------------
   N = 30,  n = 20000000,  r = 27,   d =    8,   t = 14,
       Sparse =   TRUE

       GenerCell = smultin_GenerCellSerial
       Number of cells = d^t =      4398046511104
       Expected number per cell =  1 /  219902.33
       EColl = n^2 / (2k) =  45.47473509
       Hashing =   TRUE

       Collision test

       CollisionOver:   density = n / k =  1 /  219902.33
       Expected number of collisions = Mu =      45.47


-----------------------------------------------
Results of CollisionOver test:

POISSON approximation                 :
Expected number of collisions = N*Mu  :     1364.24
Observed number of collisions         :     1418
p-value of test                       :    0.08

-----------------------------
Total number of cells containing j balls

  j =  0                              :  131940795334538
  j =  1                              :        599997164
  j =  2                              :             1418
  j =  3                              :                0
  j =  4                              :                0
  j =  5                              :                0

-----------------------------------------------
CPU time used                    :  00:05:40.34

Generator state:




***********************************************************
Test smarsa_CollisionOver calling smultin_MultinomialOver

***********************************************************
HOST = node36.local.isima.fr, Linux

MersenneTwiter


smultin_MultinomialOver test:
-----------------------------------------------
   N = 30,  n = 20000000,  r =  0,   d =    4,   t = 21,
       Sparse =   TRUE

       GenerCell = smultin_GenerCellSerial
       Number of cells = d^t =      4398046511104
       Expected number per cell =  1 /  219902.33
       EColl = n^2 / (2k) =  45.47473509
       Hashing =   TRUE

       Collision test

       CollisionOver:   density = n / k =  1 /  219902.33
       Expected number of collisions = Mu =      45.47


-----------------------------------------------
Results of CollisionOver test:

POISSON approximation                 :
Expected number of collisions = N*Mu  :     1364.24
Observed number of collisions         :     1386
p-value of test                       :    0.28

-----------------------------
Total number of cells containing j balls

  j =  0                              :  131940795334506
  j =  1                              :        599997228
  j =  2                              :             1386
  j =  3                              :                0
  j =  4                              :                0
  j =  5                              :                0

-----------------------------------------------
CPU time used                    :  00:05:08.80

Generator state:




***********************************************************
Test smarsa_CollisionOver calling smultin_MultinomialOver

***********************************************************
HOST = node36.local.isima.fr, Linux

MersenneTwiter


smultin_MultinomialOver test:
-----------------------------------------------
   N = 30,  n = 20000000,  r = 28,   d =    4,   t = 21,
       Sparse =   TRUE

       GenerCell = smultin_GenerCellSerial
       Number of cells = d^t =      4398046511104
       Expected number per cell =  1 /  219902.33
       EColl = n^2 / (2k) =  45.47473509
       Hashing =   TRUE

       Collision test

       CollisionOver:   density = n / k =  1 /  219902.33
       Expected number of collisions = Mu =      45.47


-----------------------------------------------
Results of CollisionOver test:

POISSON approximation                 :
Expected number of collisions = N*Mu  :     1364.24
Observed number of collisions         :     1368
p-value of test                       :    0.46

-----------------------------
Total number of cells containing j balls

  j =  0                              :  131940795334488
  j =  1                              :        599997264
  j =  2                              :             1368
  j =  3                              :                0
  j =  4                              :                0
  j =  5                              :                0

-----------------------------------------------
CPU time used                    :  00:05:43.98

Generator state:




***********************************************************
HOST = node36.local.isima.fr, Linux

MersenneTwiter


smarsa_BirthdaySpacings test:
-----------------------------------------------
   N = 100,  n = 10000000,  r =  0,    d = 2147483648,    t = 2,    p = 1


      Number of cells = d^t = 4611686018427387904
      Lambda = Poisson mean =      54.2101


----------------------------------------------------
Total expected number = N*Lambda      :    5421.01
Total observed number                 :    5542
p-value of test                       :    0.05


-----------------------------------------------
CPU time used                    :  00:03:26.69

Generator state:




***********************************************************
HOST = node36.local.isima.fr, Linux

MersenneTwiter


smarsa_BirthdaySpacings test:
-----------------------------------------------
   N = 20,  n = 20000000,  r =  0,    d = 2097152,    t = 3,    p = 1


      Number of cells = d^t = 9223372036854775808
      Lambda = Poisson mean =     216.8404


----------------------------------------------------
Total expected number = N*Lambda      :    4336.81
Total observed number                 :    4417
p-value of test                       :    0.11


-----------------------------------------------
CPU time used                    :  00:01:27.32

Generator state:




***********************************************************
HOST = node36.local.isima.fr, Linux

MersenneTwiter


smarsa_BirthdaySpacings test:
-----------------------------------------------
   N = 20,  n = 30000000,  r = 14,    d = 65536,    t = 4,    p = 1


      Number of cells = d^t = 18446744073709551616
      Lambda = Poisson mean =     365.9182


----------------------------------------------------
Total expected number = N*Lambda      :    7318.36
Total observed number                 :    7252
p-value of test                       :    0.78


-----------------------------------------------
CPU time used                    :  00:02:21.07

Generator state:




***********************************************************
HOST = node36.local.isima.fr, Linux

MersenneTwiter


smarsa_BirthdaySpacings test:
-----------------------------------------------
   N = 20,  n = 20000000,  r =  0,    d = 512,    t = 7,    p = 1


      Number of cells = d^t = 9223372036854775808
      Lambda = Poisson mean =     216.8404


----------------------------------------------------
Total expected number = N*Lambda      :    4336.81
Total observed number                 :    4258
p-value of test                       :    0.88


-----------------------------------------------
CPU time used                    :  00:01:37.71

Generator state:




***********************************************************
HOST = node36.local.isima.fr, Linux

MersenneTwiter


smarsa_BirthdaySpacings test:
-----------------------------------------------
   N = 20,  n = 20000000,  r =  7,    d = 512,    t = 7,    p = 1


      Number of cells = d^t = 9223372036854775808
      Lambda = Poisson mean =     216.8404


----------------------------------------------------
Total expected number = N*Lambda      :    4336.81
Total observed number                 :    4315
p-value of test                       :    0.63


-----------------------------------------------
CPU time used                    :  00:01:42.07

Generator state:




***********************************************************
HOST = node36.local.isima.fr, Linux

MersenneTwiter


smarsa_BirthdaySpacings test:
-----------------------------------------------
   N = 20,  n = 30000000,  r = 14,    d = 256,    t = 8,    p = 1


      Number of cells = d^t = 18446744073709551616
      Lambda = Poisson mean =     365.9182


----------------------------------------------------
Total expected number = N*Lambda      :    7318.36
Total observed number                 :    7370
p-value of test                       :    0.27


-----------------------------------------------
CPU time used                    :  00:02:39.88

Generator state:




***********************************************************
HOST = node36.local.isima.fr, Linux

MersenneTwiter


smarsa_BirthdaySpacings test:
-----------------------------------------------
   N = 20,  n = 30000000,  r = 22,    d = 256,    t = 8,    p = 1


      Number of cells = d^t = 18446744073709551616
      Lambda = Poisson mean =     365.9182


----------------------------------------------------
Total expected number = N*Lambda      :    7318.36
Total observed number                 :    7345
p-value of test                       :    0.38


-----------------------------------------------
CPU time used                    :  00:02:39.75

Generator state:




***********************************************************
HOST = node36.local.isima.fr, Linux

MersenneTwiter


smarsa_BirthdaySpacings test:
-----------------------------------------------
   N = 20,  n = 30000000,  r =  0,    d = 16,    t = 16,    p = 1


      Number of cells = d^t = 18446744073709551616
      Lambda = Poisson mean =     365.9182


----------------------------------------------------
Total expected number = N*Lambda      :    7318.36
Total observed number                 :    7223
p-value of test                       :    0.87


-----------------------------------------------
CPU time used                    :  00:03:08.22

Generator state:




***********************************************************
HOST = node36.local.isima.fr, Linux

MersenneTwiter


smarsa_BirthdaySpacings test:
-----------------------------------------------
   N = 20,  n = 30000000,  r = 26,    d = 16,    t = 16,    p = 1


      Number of cells = d^t = 18446744073709551616
      Lambda = Poisson mean =     365.9182


----------------------------------------------------
Total expected number = N*Lambda      :    7318.36
Total observed number                 :    7273
p-value of test                       :    0.70


-----------------------------------------------
CPU time used                    :  00:03:22.22

Generator state:




***********************************************************
HOST = node36.local.isima.fr, Linux

MersenneTwiter


snpair_ClosePairs test:
-----------------------------------------------
   N = 30,  n = 6000000,  r =  0,  t = 3,  p = 0,  m = 30,  Torus =  TRUE


---------------------------------------
Test based on the 2 nearest points (NP):

Stat. AD on the N values (NP)         :    0.31
p-value of test                       :    0.93


A2 test based on the spacings between the
   successive jump times of process Y_n(t):

A2 test on the values of A2 (m-NP)    :    0.70
p-value of test                       :    0.56

Test on the Nm values of W_{n,i}(mNP1):    0.51
p-value of test                       :    0.73

Test on the jump times of Y
   (superposition of Yn):

Expected number of jumps of Y = mN    :     900
Number of jumps of Y                  :     888
p-value of test                       :    0.65

Stat. AD (mNP2)                       :    2.07
p-value of test                       :    0.08

Stat. AD after spacings (mNP2-S)      :    1.15
p-value of test                       :    0.29

-----------------------------------------------
CPU time used                    :  00:01:47.03

Generator state:




***********************************************************
HOST = node36.local.isima.fr, Linux

MersenneTwiter


snpair_ClosePairs test:
-----------------------------------------------
   N = 20,  n = 4000000,  r =  0,  t = 5,  p = 0,  m = 30,  Torus =  TRUE


---------------------------------------
Test based on the 2 nearest points (NP):

Stat. AD on the N values (NP)         :    0.38
p-value of test                       :    0.87


A2 test based on the spacings between the
   successive jump times of process Y_n(t):

A2 test on the values of A2 (m-NP)    :    0.48
p-value of test                       :    0.77

Test on the Nm values of W_{n,i}(mNP1):    0.61
p-value of test                       :    0.64

Test on the jump times of Y
   (superposition of Yn):

Expected number of jumps of Y = mN    :     600
Number of jumps of Y                  :     592
p-value of test                       :    0.62

Stat. AD (mNP2)                       :    0.38
p-value of test                       :    0.87

Stat. AD after spacings (mNP2-S)      :    0.54
p-value of test                       :    0.71

-----------------------------------------------
CPU time used                    :  00:01:12.97

Generator state:




***********************************************************
HOST = node36.local.isima.fr, Linux

MersenneTwiter


snpair_ClosePairs test:
-----------------------------------------------
   N = 10,  n = 3000000,  r =  0,  t = 9,  p = 0,  m = 30,  Torus =  TRUE


---------------------------------------
Test based on the 2 nearest points (NP):

Stat. AD on the N values (NP)         :    1.44
p-value of test                       :    0.19


A2 test based on the spacings between the
   successive jump times of process Y_n(t):

A2 test on the values of A2 (m-NP)    :    0.66
p-value of test                       :    0.59

Test on the Nm values of W_{n,i}(mNP1):    0.58
p-value of test                       :    0.67

Test on the jump times of Y
   (superposition of Yn):

Expected number of jumps of Y = mN    :     300
Number of jumps of Y                  :     315
p-value of test                       :    0.20

Stat. AD (mNP2)                       :    1.73
p-value of test                       :    0.13

Stat. AD after spacings (mNP2-S)      :    0.91
p-value of test                       :    0.41

-----------------------------------------------
CPU time used                    :  00:02:09.30

Generator state:




***********************************************************
HOST = node36.local.isima.fr, Linux

MersenneTwiter


snpair_ClosePairs test:
-----------------------------------------------
   N =  5,  n = 2000000,  r =  0,  t = 16,  p = 0,  m = 30,  Torus =  TRUE


---------------------------------------
Test based on the 2 nearest points (NP):

Stat. AD on the N values (NP)         :    0.49
p-value of test                       :    0.75


A2 test based on the spacings between the
   successive jump times of process Y_n(t):

A2 test on the values of A2 (m-NP)    :    2.21
p-value of test                       :    0.07

Test on the Nm values of W_{n,i}(mNP1):    0.37
p-value of test                       :    0.87

Test on the jump times of Y
   (superposition of Yn):

Expected number of jumps of Y = mN    :     150
Number of jumps of Y                  :     155
p-value of test                       :    0.35

Stat. AD (mNP2)                       :    0.52
p-value of test                       :    0.72

Stat. AD after spacings (mNP2-S)      :    3.97
p-value of test                       :  9.1e-3

-----------------------------------------------
CPU time used                    :  00:02:34.47

Generator state:




***********************************************************
HOST = node36.local.isima.fr, Linux

MersenneTwiter


sknuth_SimpPoker test:
-----------------------------------------------
   N =  1,  n = 400000000,  r =  0,   d =    8,   k =    8


-----------------------------------------------
Number of degrees of freedom          :    7
Chi-square statistic                  :    9.25
p-value of test                       :    0.24

-----------------------------------------------
CPU time used                    :  00:00:42.36

Generator state:




***********************************************************
HOST = node36.local.isima.fr, Linux

MersenneTwiter


sknuth_SimpPoker test:
-----------------------------------------------
   N =  1,  n = 400000000,  r = 27,   d =    8,   k =    8


-----------------------------------------------
Number of degrees of freedom          :    7
Chi-square statistic                  :   14.73
p-value of test                       :    0.04

-----------------------------------------------
CPU time used                    :  00:00:53.23

Generator state:




***********************************************************
HOST = node36.local.isima.fr, Linux

MersenneTwiter


sknuth_SimpPoker test:
-----------------------------------------------
   N =  1,  n = 100000000,  r =  0,   d =   32,   k =   32


-----------------------------------------------
Number of degrees of freedom          :   18
Chi-square statistic                  :   19.00
p-value of test                       :    0.39

-----------------------------------------------
CPU time used                    :  00:00:45.43

Generator state:




***********************************************************
HOST = node36.local.isima.fr, Linux

MersenneTwiter


sknuth_SimpPoker test:
-----------------------------------------------
   N =  1,  n = 100000000,  r = 25,   d =   32,   k =   32


-----------------------------------------------
Number of degrees of freedom          :   18
Chi-square statistic                  :   16.80
p-value of test                       :    0.54

-----------------------------------------------
CPU time used                    :  00:00:58.44

Generator state:




***********************************************************
HOST = node36.local.isima.fr, Linux

MersenneTwiter


sknuth_CouponCollector test:
-----------------------------------------------
   N =  1,  n = 200000000,  r =  0,   d =    8


-----------------------------------------------
Number of degrees of freedom          :   54
Chi-square statistic                  :   46.19
p-value of test                       :    0.77

-----------------------------------------------
CPU time used                    :  00:00:52.68

Generator state:




***********************************************************
HOST = node36.local.isima.fr, Linux

MersenneTwiter


sknuth_CouponCollector test:
-----------------------------------------------
   N =  1,  n = 200000000,  r = 10,   d =    8


-----------------------------------------------
Number of degrees of freedom          :   54
Chi-square statistic                  :   57.50
p-value of test                       :    0.35

-----------------------------------------------
CPU time used                    :  00:01:05.64

Generator state:




***********************************************************
HOST = node36.local.isima.fr, Linux

MersenneTwiter


sknuth_CouponCollector test:
-----------------------------------------------
   N =  1,  n = 200000000,  r = 20,   d =    8


-----------------------------------------------
Number of degrees of freedom          :   54
Chi-square statistic                  :   52.17
p-value of test                       :    0.55

-----------------------------------------------
CPU time used                    :  00:01:05.67

Generator state:




***********************************************************
HOST = node36.local.isima.fr, Linux

MersenneTwiter


sknuth_CouponCollector test:
-----------------------------------------------
   N =  1,  n = 200000000,  r = 27,   d =    8


-----------------------------------------------
Number of degrees of freedom          :   54
Chi-square statistic                  :   50.29
p-value of test                       :    0.62

-----------------------------------------------
CPU time used                    :  00:01:05.71

Generator state:




***********************************************************
HOST = node36.local.isima.fr, Linux

MersenneTwiter


sknuth_Gap test:
-----------------------------------------------
   N =  1,  n = 500000000,  r =  0,   Alpha =        0,   Beta  =   0.0625


-----------------------------------------------
Number of degrees of freedom          :  232
Chi-square statistic                  :  233.45
p-value of test                       :    0.46

-----------------------------------------------
CPU time used                    :  00:00:56.02

Generator state:




***********************************************************
HOST = node36.local.isima.fr, Linux

MersenneTwiter


sknuth_Gap test:
-----------------------------------------------
   N =  1,  n = 300000000,  r = 25,   Alpha =        0,   Beta  =  0.03125


-----------------------------------------------
Number of degrees of freedom          :  434
Chi-square statistic                  :  396.30
p-value of test                       :    0.90

-----------------------------------------------
CPU time used                    :  00:01:18.72

Generator state:




***********************************************************
HOST = node36.local.isima.fr, Linux

MersenneTwiter


sknuth_Gap test:
-----------------------------------------------
   N =  1,  n = 100000000,  r =  0,   Alpha =        0,   Beta  = 0.0078125


-----------------------------------------------
Number of degrees of freedom          : 1437
Chi-square statistic                  : 1418.79
p-value of test                       :    0.63

-----------------------------------------------
CPU time used                    :  00:01:18.55

Generator state:




***********************************************************
HOST = node36.local.isima.fr, Linux

MersenneTwiter


sknuth_Gap test:
-----------------------------------------------
   N =  1,  n = 10000000,  r = 20,   Alpha =        0,   Beta  = 0.000976562


-----------------------------------------------
Number of degrees of freedom          : 7046
Chi-square statistic                  : 7005.91
p-value of test                       :    0.63

-----------------------------------------------
CPU time used                    :  00:01:17.06

Generator state:




***********************************************************
HOST = node36.local.isima.fr, Linux

MersenneTwiter


sknuth_Run test:
-----------------------------------------------
   N =  5,  n = 1000000000,  r =  0,   Up = FALSE


-----------------------------------------------

Kolmogorov-Smirnov+ statistic = D+    :    0.26
p-value of test                       :    0.44

Kolmogorov-Smirnov- statistic = D-    :    0.24
p-value of test                       :    0.49

Anderson-Darling statistic = A2       :    0.51
p-value of test                       :    0.73

Test on the sum of all N observations
Number of degrees of freedom          :   30
Chi-square statistic                  :   26.60
p-value of test                       :    0.64

-----------------------------------------------
CPU time used                    :  00:01:00.35

Generator state:




***********************************************************
HOST = node36.local.isima.fr, Linux

MersenneTwiter


sknuth_Run test:
-----------------------------------------------
   N = 10,  n = 1000000000,  r = 15,   Up =  TRUE


-----------------------------------------------

Kolmogorov-Smirnov+ statistic = D+    :    0.29
p-value of test                       :    0.14

Kolmogorov-Smirnov- statistic = D-    :   0.056
p-value of test                       :    0.91

Anderson-Darling statistic = A2       :    0.63
p-value of test                       :    0.61

Test on the sum of all N observations
Number of degrees of freedom          :   60
Chi-square statistic                  :   50.92
p-value of test                       :    0.79

-----------------------------------------------
CPU time used                    :  00:02:36.38

Generator state:




***********************************************************
Test sknuth_Permutation calling smultin_Multinomial

***********************************************************
HOST = node36.local.isima.fr, Linux

MersenneTwiter


smultin_Multinomial test:
-----------------------------------------------
   N =  1,  n = 1000000000,  r =  5,   t =  3,
       Sparse =  FALSE

       GenerCell = smultin_GenerCellPermut
       Number of cells = t! =                  6
       Expected number per cell =  1.6666667e+08
       Hashing =  FALSE

   For Delta > -1, we use the ChiSquare approximation
   Correction factor of the ChiSquare: 
       Delta =     1,    Mu =  2.5000002e-09,    Sigma =          1

-----------------------------------------------
Test Results for Delta =   1.0000

Number of degrees of freedom          :    5
Value of the statistic                :    2.81
p-value of test                       :    0.73


-----------------------------------------------
CPU time used                    :  00:00:50.28

Generator state:




***********************************************************
Test sknuth_Permutation calling smultin_Multinomial

***********************************************************
HOST = node36.local.isima.fr, Linux

MersenneTwiter


smultin_Multinomial test:
-----------------------------------------------
   N =  1,  n = 1000000000,  r =  5,   t =  5,
       Sparse =  FALSE

       GenerCell = smultin_GenerCellPermut
       Number of cells = t! =                120
       Expected number per cell =   8333333.3
       Hashing =  FALSE

   For Delta > -1, we use the ChiSquare approximation
   Correction factor of the ChiSquare: 
       Delta =     1,    Mu =  5.9500005e-08,    Sigma =          1

-----------------------------------------------
Test Results for Delta =   1.0000

Number of degrees of freedom          :  119
Value of the statistic                :   97.01
p-value of test                       :    0.93


-----------------------------------------------
CPU time used                    :  00:01:21.94

Generator state:




***********************************************************
Test sknuth_Permutation calling smultin_Multinomial

***********************************************************
HOST = node36.local.isima.fr, Linux

MersenneTwiter


smultin_Multinomial test:
-----------------------------------------------
   N =  1,  n = 500000000,  r =  5,   t =  7,
       Sparse =  FALSE

       GenerCell = smultin_GenerCellPermut
       Number of cells = t! =               5040
       Expected number per cell =   99206.349
       Hashing =  FALSE

   For Delta > -1, we use the ChiSquare approximation
   Correction factor of the ChiSquare: 
       Delta =     1,    Mu =  5.0390004e-06,    Sigma =          1

-----------------------------------------------
Test Results for Delta =   1.0000

Number of degrees of freedom          : 5039
Value of the statistic                : 5131.10
p-value of test                       :    0.18


-----------------------------------------------
CPU time used                    :  00:01:04.31

Generator state:




***********************************************************
Test sknuth_Permutation calling smultin_Multinomial

***********************************************************
HOST = node36.local.isima.fr, Linux

MersenneTwiter


smultin_Multinomial test:
-----------------------------------------------
   N =  1,  n = 500000000,  r = 10,   t = 10,
       Sparse =  FALSE

       GenerCell = smultin_GenerCellPermut
       Number of cells = t! =            3628800
       Expected number per cell =    137.7866
       Hashing =  FALSE

   For Delta > -1, we use the ChiSquare approximation
   Correction factor of the ChiSquare: 
       Delta =     1,    Mu =   0.0036287993,    Sigma =          1

-----------------------------------------------
Test Results for Delta =   1.0000

Number of degrees of freedom          : 3628799
Value of the statistic                : 3.63e+6
p-value of test                       :    0.20


-----------------------------------------------
CPU time used                    :  00:02:50.89

Generator state:




***********************************************************
Test sknuth_CollisionPermut calling smultin_Multinomial

***********************************************************
HOST = node36.local.isima.fr, Linux

MersenneTwiter


smultin_Multinomial test:
-----------------------------------------------
   N = 20,  n = 20000000,  r =  0,   t = 14,
       Sparse =   TRUE

       GenerCell = smultin_GenerCellPermut
       Number of cells = t! =        87178291200
       Expected number per cell =  1 /  4358.9146
       EColl = n^2 / (2k) =   2294.14912
       Hashing =   TRUE

       Collision test,    Mu =      2293.9736,    Sigma =    47.8841

-----------------------------------------------
Test Results for Collisions

For the total number of collisions, we use
      the Poisson approximation:
Expected number of collisions = N*Mu  :    45879.47
Observed number of collisions         :    45540
p-value of test                       :    0.94


-----------------------------
Total number of cells containing j balls

  j =  0                              :    1743165869540
  j =  1                              :        399908921
  j =  2                              :            45538
  j =  3                              :                1
  j =  4                              :                0
  j =  5                              :                0

-----------------------------------------------
CPU time used                    :  00:04:29.61

Generator state:




***********************************************************
Test sknuth_CollisionPermut calling smultin_Multinomial

***********************************************************
HOST = node36.local.isima.fr, Linux

MersenneTwiter


smultin_Multinomial test:
-----------------------------------------------
   N = 20,  n = 20000000,  r = 10,   t = 14,
       Sparse =   TRUE

       GenerCell = smultin_GenerCellPermut
       Number of cells = t! =        87178291200
       Expected number per cell =  1 /  4358.9146
       EColl = n^2 / (2k) =   2294.14912
       Hashing =   TRUE

       Collision test,    Mu =      2293.9736,    Sigma =    47.8841

-----------------------------------------------
Test Results for Collisions

For the total number of collisions, we use
      the Poisson approximation:
Expected number of collisions = N*Mu  :    45879.47
Observed number of collisions         :    46100
p-value of test                       :    0.15


-----------------------------
Total number of cells containing j balls

  j =  0                              :    1743165870100
  j =  1                              :        399907801
  j =  2                              :            46098
  j =  3                              :                1
  j =  4                              :                0
  j =  5                              :                0

-----------------------------------------------
CPU time used                    :  00:04:36.60

Generator state:




***********************************************************
HOST = node36.local.isima.fr, Linux

MersenneTwiter


sknuth_MaxOft test:
-----------------------------------------------
   N = 40,  n = 10000000,  r =  0,   d = 100000,   t =  8

      Number of categories = 100000
      Expected number per category  = 100.00


-----------------------------------------------
Test results for chi2 with 99999 degrees of freedom:

Kolmogorov-Smirnov+ statistic = D+    :    0.15
p-value of test                       :    0.15

Kolmogorov-Smirnov- statistic = D-    :   0.093
p-value of test                       :    0.47

Anderson-Darling statistic = A2       :    0.87
p-value of test                       :    0.43

Test on the sum of all N observations
Number of degrees of freedom          : 3999960
Chi-square statistic                  : 4.00e+6
p-value of test                       :    0.69


-----------------------------------------------
Test results for Anderson-Darling:

Kolmogorov-Smirnov+ statistic = D+    :    0.23
p-value of test                       :    0.01

Kolmogorov-Smirnov- statistic = D-    :   0.081
p-value of test                       :    0.56

Anderson-Darling statistic = A2       :    2.94
p-value of test                       :    0.03


-----------------------------------------------
CPU time used                    :  00:01:32.22

Generator state:




***********************************************************
HOST = node36.local.isima.fr, Linux

MersenneTwiter


sknuth_MaxOft test:
-----------------------------------------------
   N = 30,  n = 10000000,  r =  0,   d = 100000,   t = 16

      Number of categories = 100000
      Expected number per category  = 100.00


-----------------------------------------------
Test results for chi2 with 99999 degrees of freedom:

Kolmogorov-Smirnov+ statistic = D+    :    0.15
p-value of test                       :    0.25

Kolmogorov-Smirnov- statistic = D-    :   0.051
p-value of test                       :    0.83

Anderson-Darling statistic = A2       :    0.76
p-value of test                       :    0.51

Test on the sum of all N observations
Number of degrees of freedom          : 2999970
Chi-square statistic                  : 3.00e+6
p-value of test                       :    0.76


-----------------------------------------------
Test results for Anderson-Darling:

Kolmogorov-Smirnov+ statistic = D+    :    0.11
p-value of test                       :    0.44

Kolmogorov-Smirnov- statistic = D-    :   0.091
p-value of test                       :    0.58

Anderson-Darling statistic = A2       :    0.48
p-value of test                       :    0.76


-----------------------------------------------
CPU time used                    :  00:01:23.85

Generator state:




***********************************************************
HOST = node36.local.isima.fr, Linux

MersenneTwiter


sknuth_MaxOft test:
-----------------------------------------------
   N = 20,  n = 10000000,  r =  0,   d = 100000,   t = 24

      Number of categories = 100000
      Expected number per category  = 100.00


-----------------------------------------------
Test results for chi2 with 99999 degrees of freedom:

Kolmogorov-Smirnov+ statistic = D+    :    0.11
p-value of test                       :    0.56

Kolmogorov-Smirnov- statistic = D-    :    0.14
p-value of test                       :    0.44

Anderson-Darling statistic = A2       :    0.57
p-value of test                       :    0.68

Test on the sum of all N observations
Number of degrees of freedom          : 1999980
Chi-square statistic                  : 2.00e+6
p-value of test                       :    0.49


-----------------------------------------------
Test results for Anderson-Darling:

Kolmogorov-Smirnov+ statistic = D+    :   0.026
p-value of test                       :    0.96

Kolmogorov-Smirnov- statistic = D-    :    0.16
p-value of test                       :    0.31

Anderson-Darling statistic = A2       :    0.77
p-value of test                       :    0.50


-----------------------------------------------
CPU time used                    :  00:01:05.27

Generator state:




***********************************************************
HOST = node36.local.isima.fr, Linux

MersenneTwiter


sknuth_MaxOft test:
-----------------------------------------------
   N = 20,  n = 10000000,  r =  0,   d = 100000,   t = 32

      Number of categories = 100000
      Expected number per category  = 100.00


-----------------------------------------------
Test results for chi2 with 99999 degrees of freedom:

Kolmogorov-Smirnov+ statistic = D+    :    0.19
p-value of test                       :    0.22

Kolmogorov-Smirnov- statistic = D-    :   0.092
p-value of test                       :    0.67

Anderson-Darling statistic = A2       :    1.17
p-value of test                       :    0.28

Test on the sum of all N observations
Number of degrees of freedom          : 1999980
Chi-square statistic                  : 2.00e+6
p-value of test                       :    0.82


-----------------------------------------------
Test results for Anderson-Darling:

Kolmogorov-Smirnov+ statistic = D+    :    0.21
p-value of test                       :    0.14

Kolmogorov-Smirnov- statistic = D-    :   0.039
p-value of test                       :    0.92

Anderson-Darling statistic = A2       :    1.47
p-value of test                       :    0.19


-----------------------------------------------
CPU time used                    :  00:01:14.81

Generator state:




***********************************************************
HOST = node36.local.isima.fr, Linux

MersenneTwiter


svaria_SampleProd test:
-----------------------------------------------
   N = 40,  n = 10000000,  r =  0,   t = 8


-----------------------------------------------

Kolmogorov-Smirnov+ statistic = D+    :   0.082
p-value of test                       :    0.56

Kolmogorov-Smirnov- statistic = D-    :   0.047
p-value of test                       :    0.81

Anderson-Darling statistic = A2       :    0.41
p-value of test                       :    0.84

-----------------------------------------------
CPU time used                    :  00:01:18.71

Generator state:




***********************************************************
HOST = node36.local.isima.fr, Linux

MersenneTwiter


svaria_SampleProd test:
-----------------------------------------------
   N = 20,  n = 10000000,  r =  0,   t = 16


-----------------------------------------------

Kolmogorov-Smirnov+ statistic = D+    :    0.15
p-value of test                       :    0.38

Kolmogorov-Smirnov- statistic = D-    :   0.079
p-value of test                       :    0.74

Anderson-Darling statistic = A2       :    0.50
p-value of test                       :    0.74

-----------------------------------------------
CPU time used                    :  00:00:51.82

Generator state:




***********************************************************
HOST = node36.local.isima.fr, Linux

MersenneTwiter


svaria_SampleProd test:
-----------------------------------------------
   N = 20,  n = 10000000,  r =  0,   t = 24


-----------------------------------------------

Kolmogorov-Smirnov+ statistic = D+    :   0.054
p-value of test                       :    0.86

Kolmogorov-Smirnov- statistic = D-    :    0.18
p-value of test                       :    0.25

Anderson-Darling statistic = A2       :    0.68
p-value of test                       :    0.57

-----------------------------------------------
CPU time used                    :  00:01:02.81

Generator state:




***********************************************************
HOST = node36.local.isima.fr, Linux

MersenneTwiter


svaria_SampleMean test:
-----------------------------------------------
   N = 20000000,  n = 30,  r =  0


-----------------------------------------------

Kolmogorov-Smirnov+ statistic = D+    : 1.44e-4
p-value of test                       :    0.44

Kolmogorov-Smirnov- statistic = D-    : 1.39e-4
p-value of test                       :    0.46

Anderson-Darling statistic = A2       :    0.73
p-value of test                       :    0.54

-----------------------------------------------
CPU time used                    :  00:00:11.64

Generator state:




***********************************************************
HOST = node36.local.isima.fr, Linux

MersenneTwiter


svaria_SampleMean test:
-----------------------------------------------
   N = 20000000,  n = 30,  r = 10


-----------------------------------------------

Kolmogorov-Smirnov+ statistic = D+    : 1.35e-4
p-value of test                       :    0.48

Kolmogorov-Smirnov- statistic = D-    : 1.09e-4
p-value of test                       :    0.62

Anderson-Darling statistic = A2       :    0.44
p-value of test                       :    0.81

-----------------------------------------------
CPU time used                    :  00:00:12.22

Generator state:




***********************************************************
HOST = node36.local.isima.fr, Linux

MersenneTwiter


svaria_SampleCorr test:
-----------------------------------------------
   N =  1,  n = 2000000000,  r =  0,   k = 1


-----------------------------------------------
Normal statistic                      :    1.45
p-value of test                       :    0.07

-----------------------------------------------
CPU time used                    :  00:00:11.94

Generator state:




***********************************************************
HOST = node36.local.isima.fr, Linux

MersenneTwiter


svaria_SampleCorr test:
-----------------------------------------------
   N =  1,  n = 2000000000,  r =  0,   k = 2


-----------------------------------------------
Normal statistic                      :    0.28
p-value of test                       :    0.39

-----------------------------------------------
CPU time used                    :  00:00:12.05

Generator state:




***********************************************************
HOST = node36.local.isima.fr, Linux

MersenneTwiter


svaria_AppearanceSpacings test:
-----------------------------------------------
   N =  1,   Q = 10000000,   K = 1000000000,   r = 0,   s = 3,   L = 15

   Sequences of n = (K + Q)L =  15150000000 bits
   Q = 10000000 initialization blocks
   K = 1000000000 blocks for the test
   the blocks have L = 15 bits



-----------------------------------------------
Normal statistic                      :   -1.59
p-value of test                       :    0.94

-----------------------------------------------
CPU time used                    :  00:00:47.53

Generator state:




***********************************************************
HOST = node36.local.isima.fr, Linux

MersenneTwiter


svaria_AppearanceSpacings test:
-----------------------------------------------
   N =  1,   Q = 10000000,   K = 1000000000,   r = 27,   s = 3,   L = 15

   Sequences of n = (K + Q)L =  15150000000 bits
   Q = 10000000 initialization blocks
   K = 1000000000 blocks for the test
   the blocks have L = 15 bits



-----------------------------------------------
Normal statistic                      :    1.73
p-value of test                       :    0.04

-----------------------------------------------
CPU time used                    :  00:00:49.11

Generator state:




***********************************************************
HOST = node36.local.isima.fr, Linux

MersenneTwiter


svaria_WeightDistrib test:
-----------------------------------------------
   N =  1,  n = 20000000,  r =  0,  k = 256,  Alpha =      0,  Beta =   0.25


-----------------------------------------------
Number of degrees of freedom          :   67
Chi-square statistic                  :   35.98
p-value of test                       :    0.9993    *****

-----------------------------------------------
CPU time used                    :  00:00:29.14

Generator state:




***********************************************************
HOST = node36.local.isima.fr, Linux

MersenneTwiter


svaria_WeightDistrib test:
-----------------------------------------------
   N =  1,  n = 20000000,  r = 20,  k = 256,  Alpha =      0,  Beta =   0.25


-----------------------------------------------
Number of degrees of freedom          :   67
Chi-square statistic                  :   80.21
p-value of test                       :    0.13

-----------------------------------------------
CPU time used                    :  00:00:38.27

Generator state:




***********************************************************
HOST = node36.local.isima.fr, Linux

MersenneTwiter


svaria_WeightDistrib test:
-----------------------------------------------
   N =  1,  n = 20000000,  r = 28,  k = 256,  Alpha =      0,  Beta =   0.25


-----------------------------------------------
Number of degrees of freedom          :   67
Chi-square statistic                  :   58.56
p-value of test                       :    0.76

-----------------------------------------------
CPU time used                    :  00:00:38.42

Generator state:




***********************************************************
HOST = node36.local.isima.fr, Linux

MersenneTwiter


svaria_WeightDistrib test:
-----------------------------------------------
   N =  1,  n = 20000000,  r =  0,  k = 256,  Alpha =      0,  Beta = 0.0625


-----------------------------------------------
Number of degrees of freedom          :   37
Chi-square statistic                  :   38.50
p-value of test                       :    0.40

-----------------------------------------------
CPU time used                    :  00:00:29.47

Generator state:




***********************************************************
HOST = node36.local.isima.fr, Linux

MersenneTwiter


svaria_WeightDistrib test:
-----------------------------------------------
   N =  1,  n = 20000000,  r = 10,  k = 256,  Alpha =      0,  Beta = 0.0625


-----------------------------------------------
Number of degrees of freedom          :   37
Chi-square statistic                  :   33.44
p-value of test                       :    0.64

-----------------------------------------------
CPU time used                    :  00:00:38.43

Generator state:




***********************************************************
HOST = node36.local.isima.fr, Linux

MersenneTwiter


svaria_WeightDistrib test:
-----------------------------------------------
   N =  1,  n = 20000000,  r = 26,  k = 256,  Alpha =      0,  Beta = 0.0625


-----------------------------------------------
Number of degrees of freedom          :   37
Chi-square statistic                  :   30.22
p-value of test                       :    0.78

-----------------------------------------------
CPU time used                    :  00:00:38.40

Generator state:




***********************************************************
HOST = node36.local.isima.fr, Linux

MersenneTwiter


svaria_SumCollector test:
-----------------------------------------------
   N =  1,  n = 500000000,  r =  0,   g = 10


-----------------------------------------------
Number of degrees of freedom          :   29
Chi-square statistic                  :   35.87
p-value of test                       :    0.18

-----------------------------------------------
CPU time used                    :  00:01:08.48

Generator state:




***********************************************************
HOST = node36.local.isima.fr, Linux

MersenneTwiter


smarsa_MatrixRank test:
-----------------------------------------------
   N = 10,  n = 1000000,  r =  0,    s = 5,    L = 30,    k = 30


-----------------------------------------------

Kolmogorov-Smirnov+ statistic = D+    :   0.092
p-value of test                       :    0.80

Kolmogorov-Smirnov- statistic = D-    :    0.18
p-value of test                       :    0.48

Anderson-Darling statistic = A2       :    0.38
p-value of test                       :    0.87

Test on the sum of all N observations
Number of degrees of freedom          :   40
Chi-square statistic                  :   44.65
p-value of test                       :    0.28

-----------------------------------------------
CPU time used                    :  00:00:58.27

Generator state:




***********************************************************
HOST = node36.local.isima.fr, Linux

MersenneTwiter


smarsa_MatrixRank test:
-----------------------------------------------
   N = 10,  n = 1000000,  r = 25,    s = 5,    L = 30,    k = 30


-----------------------------------------------

Kolmogorov-Smirnov+ statistic = D+    :    0.19
p-value of test                       :    0.42

Kolmogorov-Smirnov- statistic = D-    :    0.15
p-value of test                       :    0.58

Anderson-Darling statistic = A2       :    0.46
p-value of test                       :    0.79

Test on the sum of all N observations
Number of degrees of freedom          :   40
Chi-square statistic                  :   33.88
p-value of test                       :    0.74

-----------------------------------------------
CPU time used                    :  00:00:58.03

Generator state:




***********************************************************
HOST = node36.local.isima.fr, Linux

MersenneTwiter


smarsa_MatrixRank test:
-----------------------------------------------
   N =  1,  n = 5000,  r =  0,    s = 4,    L = 1000,    k = 1000


-----------------------------------------------
Number of degrees of freedom          :    3
Chi-square statistic                  :    3.18
p-value of test                       :    0.36

-----------------------------------------------
CPU time used                    :  00:01:22.28

Generator state:




***********************************************************
HOST = node36.local.isima.fr, Linux

MersenneTwiter


smarsa_MatrixRank test:
-----------------------------------------------
   N =  1,  n = 5000,  r = 26,    s = 4,    L = 1000,    k = 1000


-----------------------------------------------
Number of degrees of freedom          :    3
Chi-square statistic                  :    1.72
p-value of test                       :    0.63

-----------------------------------------------
CPU time used                    :  00:01:22.68

Generator state:




***********************************************************
HOST = node36.local.isima.fr, Linux

MersenneTwiter


smarsa_MatrixRank test:
-----------------------------------------------
   N =  1,  n = 80,  r = 15,    s = 15,    L = 5000,    k = 5000


-----------------------------------------------
Number of degrees of freedom          :    2
Chi-square statistic                  :    0.34
p-value of test                       :    0.84

-----------------------------------------------
CPU time used                    :  00:01:16.25

Generator state:




***********************************************************
HOST = node36.local.isima.fr, Linux

MersenneTwiter


smarsa_MatrixRank test:
-----------------------------------------------
   N =  1,  n = 80,  r =  0,    s = 30,    L = 5000,    k = 5000


-----------------------------------------------
Number of degrees of freedom          :    2
Chi-square statistic                  :    2.42
p-value of test                       :    0.30

-----------------------------------------------
CPU time used                    :  00:01:22.97

Generator state:




***********************************************************
HOST = node36.local.isima.fr, Linux

MersenneTwiter


smarsa_Savir2 test:
-----------------------------------------------
   N = 10,  n = 10000000,  r = 10,    m = 1048576,    t = 30


-----------------------------------------------

Kolmogorov-Smirnov+ statistic = D+    :    0.31
p-value of test                       :    0.12

Kolmogorov-Smirnov- statistic = D-    :   0.086
p-value of test                       :    0.82

Anderson-Darling statistic = A2       :    1.00
p-value of test                       :    0.36

Test on the sum of all N observations
Number of degrees of freedom          :  130
Chi-square statistic                  :  112.65
p-value of test                       :    0.86

-----------------------------------------------
CPU time used                    :  00:00:24.40

Generator state:




***********************************************************
HOST = node36.local.isima.fr, Linux

MersenneTwiter


smarsa_GCD test:
-----------------------------------------------
   N = 10,  n = 50000000,  r =  0,   s = 30


-----------------------------------------------
Test results for GCD values:

Kolmogorov-Smirnov+ statistic = D+    :   0.078
p-value of test                       :    0.85

Kolmogorov-Smirnov- statistic = D-    :    0.25
p-value of test                       :    0.24

Anderson-Darling statistic = A2       :    0.60
p-value of test                       :    0.64

Test on the sum of all N observations
Number of degrees of freedom          : 17430
Chi-square statistic                  :17568.01
p-value of test                       :    0.23



-----------------------------------------------
CPU time used                    :  00:00:49.90

Generator state:




***********************************************************
HOST = node36.local.isima.fr, Linux

MersenneTwiter


swalk_RandomWalk1 test:
-----------------------------------------------
   N =  1,  n = 100000000,  r =  0,   s = 5,   L0 =   50,   L1 =   50



-----------------------------------------------
Test on the values of the Statistic H

Number of degrees of freedom          :   36
ChiSquare statistic                   :   33.71
p-value of test                       :    0.58


-----------------------------------------------
Test on the values of the Statistic M

Number of degrees of freedom          :   35
ChiSquare statistic                   :   29.19
p-value of test                       :    0.74


-----------------------------------------------
Test on the values of the Statistic J

Number of degrees of freedom          :   25
ChiSquare statistic                   :   31.44
p-value of test                       :    0.17


-----------------------------------------------
Test on the values of the Statistic R

Number of degrees of freedom          :   24
ChiSquare statistic                   :   21.57
p-value of test                       :    0.61


-----------------------------------------------
Test on the values of the Statistic C

Number of degrees of freedom          :   17
ChiSquare statistic                   :   23.72
p-value of test                       :    0.13


-----------------------------------------------
CPU time used                    :  00:00:35.22

Generator state:




***********************************************************
HOST = node36.local.isima.fr, Linux

MersenneTwiter


swalk_RandomWalk1 test:
-----------------------------------------------
   N =  1,  n = 100000000,  r = 25,   s = 5,   L0 =   50,   L1 =   50



-----------------------------------------------
Test on the values of the Statistic H

Number of degrees of freedom          :   36
ChiSquare statistic                   :   37.15
p-value of test                       :    0.42


-----------------------------------------------
Test on the values of the Statistic M

Number of degrees of freedom          :   35
ChiSquare statistic                   :   31.81
p-value of test                       :    0.62


-----------------------------------------------
Test on the values of the Statistic J

Number of degrees of freedom          :   25
ChiSquare statistic                   :   19.41
p-value of test                       :    0.78


-----------------------------------------------
Test on the values of the Statistic R

Number of degrees of freedom          :   24
ChiSquare statistic                   :   20.74
p-value of test                       :    0.65


-----------------------------------------------
Test on the values of the Statistic C

Number of degrees of freedom          :   17
ChiSquare statistic                   :    7.52
p-value of test                       :    0.98


-----------------------------------------------
CPU time used                    :  00:00:35.77

Generator state:




***********************************************************
HOST = node36.local.isima.fr, Linux

MersenneTwiter


swalk_RandomWalk1 test:
-----------------------------------------------
   N =  1,  n = 10000000,  r =  0,   s = 10,   L0 = 1000,   L1 = 1000



-----------------------------------------------
Test on the values of the Statistic H

Number of degrees of freedom          :  146
ChiSquare statistic                   :  136.89
p-value of test                       :    0.69


-----------------------------------------------
Test on the values of the Statistic M

Number of degrees of freedom          :  146
ChiSquare statistic                   :  142.30
p-value of test                       :    0.57


-----------------------------------------------
Test on the values of the Statistic J

Number of degrees of freedom          :  500
ChiSquare statistic                   :  470.10
p-value of test                       :    0.83


-----------------------------------------------
Test on the values of the Statistic R

Number of degrees of freedom          :  136
ChiSquare statistic                   :  114.31
p-value of test                       :    0.91


-----------------------------------------------
Test on the values of the Statistic C

Number of degrees of freedom          :   74
ChiSquare statistic                   :   95.78
p-value of test                       :    0.05


-----------------------------------------------
CPU time used                    :  00:00:42.70

Generator state:




***********************************************************
HOST = node36.local.isima.fr, Linux

MersenneTwiter


swalk_RandomWalk1 test:
-----------------------------------------------
   N =  1,  n = 10000000,  r = 20,   s = 10,   L0 = 1000,   L1 = 1000



-----------------------------------------------
Test on the values of the Statistic H

Number of degrees of freedom          :  146
ChiSquare statistic                   :  182.25
p-value of test                       :    0.02


-----------------------------------------------
Test on the values of the Statistic M

Number of degrees of freedom          :  146
ChiSquare statistic                   :  160.89
p-value of test                       :    0.19


-----------------------------------------------
Test on the values of the Statistic J

Number of degrees of freedom          :  500
ChiSquare statistic                   :  487.68
p-value of test                       :    0.64


-----------------------------------------------
Test on the values of the Statistic R

Number of degrees of freedom          :  136
ChiSquare statistic                   :  102.36
p-value of test                       :    0.99


-----------------------------------------------
Test on the values of the Statistic C

Number of degrees of freedom          :   74
ChiSquare statistic                   :   71.03
p-value of test                       :    0.58


-----------------------------------------------
CPU time used                    :  00:00:42.92

Generator state:




***********************************************************
HOST = node36.local.isima.fr, Linux

MersenneTwiter


swalk_RandomWalk1 test:
-----------------------------------------------
   N =  1,  n = 1000000,  r =  0,   s = 15,   L0 = 10000,   L1 = 10000



-----------------------------------------------
Test on the values of the Statistic H

Number of degrees of freedom          :  384
ChiSquare statistic                   :  384.06
p-value of test                       :    0.49


-----------------------------------------------
Test on the values of the Statistic M

Number of degrees of freedom          :  384
ChiSquare statistic                   :  450.21
p-value of test                       :    0.01


-----------------------------------------------
Test on the values of the Statistic J

Number of degrees of freedom          : 5000
ChiSquare statistic                   : 4829.97
p-value of test                       :    0.96


-----------------------------------------------
Test on the values of the Statistic R

Number of degrees of freedom          :  378
ChiSquare statistic                   :  364.61
p-value of test                       :    0.68


-----------------------------------------------
Test on the values of the Statistic C

Number of degrees of freedom          :  200
ChiSquare statistic                   :  197.13
p-value of test                       :    0.54


-----------------------------------------------
CPU time used                    :  00:00:35.86

Generator state:




***********************************************************
HOST = node36.local.isima.fr, Linux

MersenneTwiter


swalk_RandomWalk1 test:
-----------------------------------------------
   N =  1,  n = 1000000,  r = 15,   s = 15,   L0 = 10000,   L1 = 10000



-----------------------------------------------
Test on the values of the Statistic H

Number of degrees of freedom          :  384
ChiSquare statistic                   :  357.84
p-value of test                       :    0.83


-----------------------------------------------
Test on the values of the Statistic M

Number of degrees of freedom          :  384
ChiSquare statistic                   :  371.68
p-value of test                       :    0.66


-----------------------------------------------
Test on the values of the Statistic J

Number of degrees of freedom          : 5000
ChiSquare statistic                   : 5074.00
p-value of test                       :    0.23


-----------------------------------------------
Test on the values of the Statistic R

Number of degrees of freedom          :  378
ChiSquare statistic                   :  349.59
p-value of test                       :    0.85


-----------------------------------------------
Test on the values of the Statistic C

Number of degrees of freedom          :  200
ChiSquare statistic                   :  218.25
p-value of test                       :    0.18


-----------------------------------------------
CPU time used                    :  00:00:35.93

Generator state:




***********************************************************
HOST = node36.local.isima.fr, Linux

MersenneTwiter


scomp_LinearComp test:
-----------------------------------------------
   N =  1,  n = 400020,  r =  0,    s = 1



-----------------------------------------------
Number of degrees of freedom          :   12
Chi2 statistic for size of jumps      :   12.31
p-value of test                       :    0.42


-----------------------------------------------
Normal statistic for number of jumps  : -402.60
p-value of test                       : 1 - eps1    *****



-----------------------------------------------
CPU time used                    :  00:00:06.07

Generator state:




***********************************************************
HOST = node36.local.isima.fr, Linux

MersenneTwiter


scomp_LinearComp test:
-----------------------------------------------
   N =  1,  n = 400020,  r = 29,    s = 1



-----------------------------------------------
Number of degrees of freedom          :   12
Chi2 statistic for size of jumps      :    9.56
p-value of test                       :    0.65


-----------------------------------------------
Normal statistic for number of jumps  : -402.81
p-value of test                       : 1 - eps1    *****



-----------------------------------------------
CPU time used                    :  00:00:06.07

Generator state:




***********************************************************
HOST = node36.local.isima.fr, Linux

MersenneTwiter


scomp_LempelZiv test:
-----------------------------------------------
   N = 10,  n = 134217728,  r =  0,   s =   30,   k =   27


-----------------------------------------------

Kolmogorov-Smirnov+ statistic = D+    :    0.48
p-value of test                       :  6.8e-3

Kolmogorov-Smirnov- statistic = D-    :    0.12
p-value of test                       :    0.68

Anderson-Darling statistic = A2       :    2.81
p-value of test                       :    0.04

Tests on the sum of all N observations
Standardized normal statistic         :   -1.71
p-value of test                       :    0.96

Sample variance                       :    0.37
p-value of test                       :    0.95

-----------------------------------------------
CPU time used                    :  00:01:29.97

Generator state:




***********************************************************
HOST = node36.local.isima.fr, Linux

MersenneTwiter


scomp_LempelZiv test:
-----------------------------------------------
   N = 10,  n = 134217728,  r = 15,   s =   15,   k =   27


-----------------------------------------------

Kolmogorov-Smirnov+ statistic = D+    :   0.084
p-value of test                       :    0.83

Kolmogorov-Smirnov- statistic = D-    :    0.53
p-value of test                       :  1.8e-3

Anderson-Darling statistic = A2       :    4.07
p-value of test                       :  8.5e-3

Tests on the sum of all N observations
Standardized normal statistic         :    2.10
p-value of test                       :    0.02

Sample variance                       :    1.29
p-value of test                       :    0.24

-----------------------------------------------
CPU time used                    :  00:01:39.61

Generator state:




***********************************************************
HOST = node36.local.isima.fr, Linux

MersenneTwiter


sspectral_Fourier3 test:
-----------------------------------------------
   N = 100000,  n = 16384,  r =  0,   s =    3,   k =   14


-----------------------------------------------

Kolmogorov-Smirnov+ statistic = D+    : 8.65e-3
p-value of test                       :    0.54

Kolmogorov-Smirnov- statistic = D-    : 7.83e-3
p-value of test                       :    0.60

Anderson-Darling statistic = A2       :    0.31
p-value of test                       :    0.93

-----------------------------------------------
CPU time used                    :  00:00:47.04

Generator state:




***********************************************************
HOST = node36.local.isima.fr, Linux

MersenneTwiter


sspectral_Fourier3 test:
-----------------------------------------------
   N = 100000,  n = 16384,  r = 27,   s =    3,   k =   14


-----------------------------------------------

Kolmogorov-Smirnov+ statistic = D+    :   0.014
p-value of test                       :    0.21

Kolmogorov-Smirnov- statistic = D-    : 9.72e-3
p-value of test                       :    0.46

Anderson-Darling statistic = A2       :    1.16
p-value of test                       :    0.28

-----------------------------------------------
CPU time used                    :  00:00:48.20

Generator state:




***********************************************************
HOST = node36.local.isima.fr, Linux

MersenneTwiter


sstring_LongestHeadRun test:
-----------------------------------------------
   N =  1,  n = 1000,  r =  0,   s = 3,   L = 10000020


-----------------------------------------------
Number of degrees of freedom          :    8
Chi-square statistic                  :    3.59
p-value of test                       :    0.89

-----------------------------------------------
Global longest run of 1               :   35.00
p-value of test                       :    0.14



-----------------------------------------------
CPU time used                    :  00:01:16.19

Generator state:




***********************************************************
HOST = node36.local.isima.fr, Linux

MersenneTwiter


sstring_LongestHeadRun test:
-----------------------------------------------
   N =  1,  n = 1000,  r = 27,   s = 3,   L = 10000020


-----------------------------------------------
Number of degrees of freedom          :    8
Chi-square statistic                  :    8.25
p-value of test                       :    0.41

-----------------------------------------------
Global longest run of 1               :   31.00
p-value of test                       :    0.69



-----------------------------------------------
CPU time used                    :  00:01:16.81

Generator state:




***********************************************************
HOST = node36.local.isima.fr, Linux

MersenneTwiter


sstring_PeriodsInStrings test:
-----------------------------------------------
   N = 10,  n = 500000000,  r =  0,   s =   10


-----------------------------------------------

Kolmogorov-Smirnov+ statistic = D+    :    0.25
p-value of test                       :    0.24

Kolmogorov-Smirnov- statistic = D-    :    0.12
p-value of test                       :    0.69

Anderson-Darling statistic = A2       :    1.11
p-value of test                       :    0.30

Test on the sum of all N observations
Number of degrees of freedom          :  200
Chi-square statistic                  :  184.66
p-value of test                       :    0.77

-----------------------------------------------
CPU time used                    :  00:01:59.06

Generator state:




***********************************************************
HOST = node36.local.isima.fr, Linux

MersenneTwiter


sstring_PeriodsInStrings test:
-----------------------------------------------
   N = 10,  n = 500000000,  r = 20,   s =   10


-----------------------------------------------

Kolmogorov-Smirnov+ statistic = D+    :    0.17
p-value of test                       :    0.50

Kolmogorov-Smirnov- statistic = D-    :    0.11
p-value of test                       :    0.71

Anderson-Darling statistic = A2       :    0.37
p-value of test                       :    0.88

Test on the sum of all N observations
Number of degrees of freedom          :  200
Chi-square statistic                  :  199.32
p-value of test                       :    0.50

-----------------------------------------------
CPU time used                    :  00:02:03.01

Generator state:




***********************************************************
HOST = node36.local.isima.fr, Linux

MersenneTwiter


sstring_HammingWeight2 test:
-----------------------------------------------
   N = 10,  n = 1000000000,  r =  0,   s = 3,   L = 1000000


-----------------------------------------------

Kolmogorov-Smirnov+ statistic = D+    :    0.15
p-value of test                       :    0.59

Kolmogorov-Smirnov- statistic = D-    :    0.21
p-value of test                       :    0.38

Anderson-Darling statistic = A2       :    0.62
p-value of test                       :    0.63

Test on the sum of all N observations
Number of degrees of freedom          : 10000
Chi-square statistic                  :10027.52
p-value of test                       :    0.42

-----------------------------------------------
CPU time used                    :  00:00:46.68

Generator state:




***********************************************************
HOST = node36.local.isima.fr, Linux

MersenneTwiter


sstring_HammingWeight2 test:
-----------------------------------------------
   N = 10,  n = 1000000000,  r = 27,   s = 3,   L = 1000000


-----------------------------------------------

Kolmogorov-Smirnov+ statistic = D+    :    0.31
p-value of test                       :    0.12

Kolmogorov-Smirnov- statistic = D-    : 8.93e-3
p-value of test                       :    0.9903

Anderson-Darling statistic = A2       :    2.35
p-value of test                       :    0.06

Test on the sum of all N observations
Number of degrees of freedom          : 10000
Chi-square statistic                  : 9698.40
p-value of test                       :    0.98

-----------------------------------------------
CPU time used                    :  00:00:48.30

Generator state:




***********************************************************
HOST = node36.local.isima.fr, Linux

MersenneTwiter


sstring_HammingCorr test:
-----------------------------------------------
   N =  1,  n = 1000000000,  r = 10,   s = 10,   L = 30



-----------------------------------------------
Normal statistic                      :   -0.56
p-value of test                       :    0.71

-----------------------------------------------
CPU time used                    :  00:00:59.52

Generator state:




***********************************************************
HOST = node36.local.isima.fr, Linux

MersenneTwiter


sstring_HammingCorr test:
-----------------------------------------------
   N =  1,  n = 100000000,  r = 10,   s = 10,   L = 300



-----------------------------------------------
Normal statistic                      :   -0.96
p-value of test                       :    0.83

-----------------------------------------------
CPU time used                    :  00:00:56.77

Generator state:




***********************************************************
HOST = node36.local.isima.fr, Linux

MersenneTwiter


sstring_HammingCorr test:
-----------------------------------------------
   N =  1,  n = 100000000,  r = 10,   s = 10,   L = 1200



-----------------------------------------------
Normal statistic                      :   -1.05
p-value of test                       :    0.85

-----------------------------------------------
CPU time used                    :  00:03:46.27

Generator state:




***********************************************************
HOST = node36.local.isima.fr, Linux

MersenneTwiter


sstring_HammingIndep test:
-----------------------------------------------
   N = 10,  n = 30000000,  r =  0,   s = 3,   L = 30,   d = 0



Counters with expected numbers >= 10
-----------------------------------------------

Kolmogorov-Smirnov+ statistic = D+    :    0.33
p-value of test                       :    0.09

Kolmogorov-Smirnov- statistic = D-    :    0.11
p-value of test                       :    0.71

Anderson-Darling statistic = A2       :    1.85
p-value of test                       :    0.11

Test on the sum of all N observations
Number of degrees of freedom          : 4890
Chi-square statistic                  : 4751.26
p-value of test                       :    0.92

-----------------------------------------------
CPU time used                    :  00:01:31.44

Generator state:




***********************************************************
HOST = node36.local.isima.fr, Linux

MersenneTwiter


sstring_HammingIndep test:
-----------------------------------------------
   N = 10,  n = 30000000,  r = 27,   s = 3,   L = 30,   d = 0



Counters with expected numbers >= 10
-----------------------------------------------

Kolmogorov-Smirnov+ statistic = D+    :    0.30
p-value of test                       :    0.14

Kolmogorov-Smirnov- statistic = D-    :   0.085
p-value of test                       :    0.82

Anderson-Darling statistic = A2       :    1.46
p-value of test                       :    0.19

Test on the sum of all N observations
Number of degrees of freedom          : 4890
Chi-square statistic                  : 4741.04
p-value of test                       :    0.94

-----------------------------------------------
CPU time used                    :  00:01:34.88

Generator state:




***********************************************************
HOST = node36.local.isima.fr, Linux

MersenneTwiter


sstring_HammingIndep test:
-----------------------------------------------
   N =  1,  n = 30000000,  r =  0,   s = 4,   L = 300,   d = 0



Counters with expected numbers >= 10
-----------------------------------------------
Number of degrees of freedom          : 4117
Chi-square statistic                  : 4124.16
p-value of test                       :    0.47

-----------------------------------------------
CPU time used                    :  00:01:08.72

Generator state:




***********************************************************
HOST = node36.local.isima.fr, Linux

MersenneTwiter


sstring_HammingIndep test:
-----------------------------------------------
   N =  1,  n = 30000000,  r = 26,   s = 4,   L = 300,   d = 0



Counters with expected numbers >= 10
-----------------------------------------------
Number of degrees of freedom          : 4117
Chi-square statistic                  : 4042.98
p-value of test                       :    0.79

-----------------------------------------------
CPU time used                    :  00:01:10.30

Generator state:




***********************************************************
HOST = node36.local.isima.fr, Linux

MersenneTwiter


sstring_HammingIndep test:
-----------------------------------------------
   N =  1,  n = 10000000,  r =  0,   s = 5,   L = 1200,   d = 0



Counters with expected numbers >= 10
-----------------------------------------------
Number of degrees of freedom          : 11825
Chi-square statistic                  :11311.98
p-value of test                       :    0.9996    *****

-----------------------------------------------
CPU time used                    :  00:01:16.28

Generator state:




***********************************************************
HOST = node36.local.isima.fr, Linux

MersenneTwiter


sstring_HammingIndep test:
-----------------------------------------------
   N =  1,  n = 10000000,  r = 25,   s = 5,   L = 1200,   d = 0



Counters with expected numbers >= 10
-----------------------------------------------
Number of degrees of freedom          : 11825
Chi-square statistic                  :12158.03
p-value of test                       :    0.02

-----------------------------------------------
CPU time used                    :  00:01:18.30

Generator state:




***********************************************************
HOST = node36.local.isima.fr, Linux

MersenneTwiter


sstring_Run test:
-----------------------------------------------
   N =  1,  n = 2000000000,  r =  0,   s =    3


-----------------------------------------------
Total number of 1 runs:  2000000000

Number of degrees of freedom          :   54
Chi2 statistic for number of runs     :   74.57
p-value of test                       :    0.03


-----------------------------------------------
Total number of bits:  7999934388

Normal statistic for number of bits   :   -0.52
p-value of test                       :    0.70



-----------------------------------------------
CPU time used                    :  00:01:03.11

Generator state:




***********************************************************
HOST = node36.local.isima.fr, Linux

MersenneTwiter


sstring_Run test:
-----------------------------------------------
   N =  1,  n = 2000000000,  r = 27,   s =    3


-----------------------------------------------
Total number of 1 runs:  2000000000

Number of degrees of freedom          :   54
Chi2 statistic for number of runs     :   61.48
p-value of test                       :    0.23


-----------------------------------------------
Total number of bits:  8000012211

Normal statistic for number of bits   :   0.097
p-value of test                       :    0.46



-----------------------------------------------
CPU time used                    :  00:01:05.95

Generator state:




***********************************************************
HOST = node36.local.isima.fr, Linux

MersenneTwiter


sstring_AutoCor test:
-----------------------------------------------
   N = 10,  n = 1000000030,  r =  0,   s = 3,   d = 1


-----------------------------------------------

Kolmogorov-Smirnov+ statistic = D+    :    0.41
p-value of test                       :    0.02

Kolmogorov-Smirnov- statistic = D-    :   0.092
p-value of test                       :    0.80

Anderson-Darling statistic = A2       :    1.99
p-value of test                       :    0.09

Tests on the sum of all N observations
Standardized normal statistic         :   -1.20
p-value of test                       :    0.88

Sample variance                       :    1.26
p-value of test                       :    0.25

-----------------------------------------------
CPU time used                    :  00:01:16.54

Generator state:




***********************************************************
HOST = node36.local.isima.fr, Linux

MersenneTwiter


sstring_AutoCor test:
-----------------------------------------------
   N = 10,  n = 1000000029,  r =  0,   s = 3,   d = 3


-----------------------------------------------

Kolmogorov-Smirnov+ statistic = D+    :    0.23
p-value of test                       :    0.31

Kolmogorov-Smirnov- statistic = D-    :   0.083
p-value of test                       :    0.83

Anderson-Darling statistic = A2       :    0.44
p-value of test                       :    0.80

Tests on the sum of all N observations
Standardized normal statistic         :   -0.30
p-value of test                       :    0.62

Sample variance                       :    1.31
p-value of test                       :    0.22

-----------------------------------------------
CPU time used                    :  00:01:00.71

Generator state:




***********************************************************
HOST = node36.local.isima.fr, Linux

MersenneTwiter


sstring_AutoCor test:
-----------------------------------------------
   N = 10,  n = 1000000030,  r = 27,   s = 3,   d = 1


-----------------------------------------------

Kolmogorov-Smirnov+ statistic = D+    :    0.15
p-value of test                       :    0.57

Kolmogorov-Smirnov- statistic = D-    :    0.22
p-value of test                       :    0.33

Anderson-Darling statistic = A2       :    0.61
p-value of test                       :    0.63

Tests on the sum of all N observations
Standardized normal statistic         :    0.38
p-value of test                       :    0.35

Sample variance                       :    0.46
p-value of test                       :    0.90

-----------------------------------------------
CPU time used                    :  00:01:24.50

Generator state:




***********************************************************
HOST = node36.local.isima.fr, Linux

MersenneTwiter


sstring_AutoCor test:
-----------------------------------------------
   N = 10,  n = 1000000029,  r = 27,   s = 3,   d = 3


-----------------------------------------------

Kolmogorov-Smirnov+ statistic = D+    :    0.23
p-value of test                       :    0.31

Kolmogorov-Smirnov- statistic = D-    :   0.021
p-value of test                       :    0.98

Anderson-Darling statistic = A2       :    0.72
p-value of test                       :    0.54

Tests on the sum of all N observations
Standardized normal statistic         :   -1.11
p-value of test                       :    0.87

Sample variance                       :    0.96
p-value of test                       :    0.47

-----------------------------------------------
CPU time used                    :  00:01:07.86

Generator state:





========= Summary results of BigCrush =========

 Version:          TestU01 1.2.3
 Generator:        MersenneTwiter
 Number of statistics:  160
 Total CPU time:   02:56:37.72
 The following tests gave p-values outside [0.001, 0.9990]:
 (eps  means a value < 1.0e-300):
 (eps1 means a value < 1.0e-15):

       Test                          p-value
 ----------------------------------------------
 59  WeightDistrib, r = 0            0.9993 
 80  LinearComp, r = 0              1 - eps1
 81  LinearComp, r = 29             1 - eps1
 99  HammingIndep, L=1200, r=0       0.9996 
 ----------------------------------------------
 All other tests were passed



