xxxxxxxxxxxxxxxxxxxxxxxxxxxxxxxxxxxxxxxxxxxxxxxxxxxxxxxxxxx
                 Starting BigCrush
                 Version: TestU01 1.2.3
xxxxxxxxxxxxxxxxxxxxxxxxxxxxxxxxxxxxxxxxxxxxxxxxxxxxxxxxxxx


***********************************************************
Test smarsa_SerialOver calling smultin_MultinomialOver

***********************************************************
HOST = ru01, Linux

MersenneTwiter


smultin_MultinomialOver test:
-----------------------------------------------
   N =  1,  n = 1000000000,  r =  0,   d =  256,   t =  3,
       Sparse =  FALSE

       GenerCell = smultin_GenerCellSerial
       Number of cells = d^t =           16777216
       Expected number per cell =   59.604645
       Hashing =  FALSE

   For Delta > -1, we use the ChiSquare approximation
   Correction factor of the ChiSquare: 
       Delta =     1,    Mu =   0.0083558402,    Sigma =          1

-----------------------------------------------
Test Results for Delta =   1.0000

Number of degrees of freedom          : 16711680
Value of the statistic                : 1.67e+7
p-value of test                       :    0.27


-----------------------------------------------
CPU time used                    :  00:01:48.96

Generator state:




***********************************************************
Test smarsa_SerialOver calling smultin_MultinomialOver

***********************************************************
HOST = ru01, Linux

MersenneTwiter


smultin_MultinomialOver test:
-----------------------------------------------
   N =  1,  n = 1000000000,  r = 22,   d =  256,   t =  3,
       Sparse =  FALSE

       GenerCell = smultin_GenerCellSerial
       Number of cells = d^t =           16777216
       Expected number per cell =   59.604645
       Hashing =  FALSE

   For Delta > -1, we use the ChiSquare approximation
   Correction factor of the ChiSquare: 
       Delta =     1,    Mu =   0.0083558402,    Sigma =          1

-----------------------------------------------
Test Results for Delta =   1.0000

Number of degrees of freedom          : 16711680
Value of the statistic                : 1.67e+7
p-value of test                       :    0.90


-----------------------------------------------
CPU time used                    :  00:01:51.96

Generator state:




***********************************************************
Test smarsa_CollisionOver calling smultin_MultinomialOver

***********************************************************
HOST = ru01, Linux

MersenneTwiter


smultin_MultinomialOver test:
-----------------------------------------------
   N = 30,  n = 20000000,  r =  0,   d = 2097152,   t =  2,
       Sparse =   TRUE

       GenerCell = smultin_GenerCellSerial
       Number of cells = d^t =      4398046511104
       Expected number per cell =  1 /  219902.33
       EColl = n^2 / (2k) =  45.47473509
       Hashing =   TRUE

       Collision test

       CollisionOver:   density = n / k =  1 /  219902.33
       Expected number of collisions = Mu =      45.47


-----------------------------------------------
Results of CollisionOver test:

POISSON approximation                 :
Expected number of collisions = N*Mu  :     1364.24
Observed number of collisions         :     1286
p-value of test                       :    0.98

-----------------------------
Total number of cells containing j balls

  j =  0                              :  131940795334406
  j =  1                              :        599997428
  j =  2                              :             1286
  j =  3                              :                0
  j =  4                              :                0
  j =  5                              :                0

-----------------------------------------------
CPU time used                    :  00:05:47.41

Generator state:




***********************************************************
Test smarsa_CollisionOver calling smultin_MultinomialOver

***********************************************************
HOST = ru01, Linux

MersenneTwiter


smultin_MultinomialOver test:
-----------------------------------------------
   N = 30,  n = 20000000,  r =  9,   d = 2097152,   t =  2,
       Sparse =   TRUE

       GenerCell = smultin_GenerCellSerial
       Number of cells = d^t =      4398046511104
       Expected number per cell =  1 /  219902.33
       EColl = n^2 / (2k) =  45.47473509
       Hashing =   TRUE

       Collision test

       CollisionOver:   density = n / k =  1 /  219902.33
       Expected number of collisions = Mu =      45.47


-----------------------------------------------
Results of CollisionOver test:

POISSON approximation                 :
Expected number of collisions = N*Mu  :     1364.24
Observed number of collisions         :     1367
p-value of test                       :    0.47

-----------------------------
Total number of cells containing j balls

  j =  0                              :  131940795334487
  j =  1                              :        599997266
  j =  2                              :             1367
  j =  3                              :                0
  j =  4                              :                0
  j =  5                              :                0

-----------------------------------------------
CPU time used                    :  00:06:48.97

Generator state:




***********************************************************
Test smarsa_CollisionOver calling smultin_MultinomialOver

***********************************************************
HOST = ru01, Linux

MersenneTwiter


smultin_MultinomialOver test:
-----------------------------------------------
   N = 30,  n = 20000000,  r =  0,   d = 16384,   t =  3,
       Sparse =   TRUE

       GenerCell = smultin_GenerCellSerial
       Number of cells = d^t =      4398046511104
       Expected number per cell =  1 /  219902.33
       EColl = n^2 / (2k) =  45.47473509
       Hashing =   TRUE

       Collision test

       CollisionOver:   density = n / k =  1 /  219902.33
       Expected number of collisions = Mu =      45.47


-----------------------------------------------
Results of CollisionOver test:

POISSON approximation                 :
Expected number of collisions = N*Mu  :     1364.24
Observed number of collisions         :     1335
p-value of test                       :    0.78

-----------------------------
Total number of cells containing j balls

  j =  0                              :  131940795334455
  j =  1                              :        599997330
  j =  2                              :             1335
  j =  3                              :                0
  j =  4                              :                0
  j =  5                              :                0

-----------------------------------------------
CPU time used                    :  00:07:07.50

Generator state:




***********************************************************
Test smarsa_CollisionOver calling smultin_MultinomialOver

***********************************************************
HOST = ru01, Linux

MersenneTwiter


smultin_MultinomialOver test:
-----------------------------------------------
   N = 30,  n = 20000000,  r = 16,   d = 16384,   t =  3,
       Sparse =   TRUE

       GenerCell = smultin_GenerCellSerial
       Number of cells = d^t =      4398046511104
       Expected number per cell =  1 /  219902.33
       EColl = n^2 / (2k) =  45.47473509
       Hashing =   TRUE

       Collision test

       CollisionOver:   density = n / k =  1 /  219902.33
       Expected number of collisions = Mu =      45.47


-----------------------------------------------
Results of CollisionOver test:

POISSON approximation                 :
Expected number of collisions = N*Mu  :     1364.24
Observed number of collisions         :     1308
p-value of test                       :    0.94

-----------------------------
Total number of cells containing j balls

  j =  0                              :  131940795334428
  j =  1                              :        599997384
  j =  2                              :             1308
  j =  3                              :                0
  j =  4                              :                0
  j =  5                              :                0

-----------------------------------------------
CPU time used                    :  00:08:05.69

Generator state:




***********************************************************
Test smarsa_CollisionOver calling smultin_MultinomialOver

***********************************************************
HOST = ru01, Linux

MersenneTwiter


smultin_MultinomialOver test:
-----------------------------------------------
   N = 30,  n = 20000000,  r =  0,   d =   64,   t =  7,
       Sparse =   TRUE

       GenerCell = smultin_GenerCellSerial
       Number of cells = d^t =      4398046511104
       Expected number per cell =  1 /  219902.33
       EColl = n^2 / (2k) =  45.47473509
       Hashing =   TRUE

       Collision test

       CollisionOver:   density = n / k =  1 /  219902.33
       Expected number of collisions = Mu =      45.47


-----------------------------------------------
Results of CollisionOver test:

POISSON approximation                 :
Expected number of collisions = N*Mu  :     1364.24
Observed number of collisions         :     1366
p-value of test                       :    0.48

-----------------------------
Total number of cells containing j balls

  j =  0                              :  131940795334486
  j =  1                              :        599997268
  j =  2                              :             1366
  j =  3                              :                0
  j =  4                              :                0
  j =  5                              :                0

-----------------------------------------------
CPU time used                    :  00:07:36.96

Generator state:




***********************************************************
Test smarsa_CollisionOver calling smultin_MultinomialOver

***********************************************************
HOST = ru01, Linux

MersenneTwiter


smultin_MultinomialOver test:
-----------------------------------------------
   N = 30,  n = 20000000,  r = 24,   d =   64,   t =  7,
       Sparse =   TRUE

       GenerCell = smultin_GenerCellSerial
       Number of cells = d^t =      4398046511104
       Expected number per cell =  1 /  219902.33
       EColl = n^2 / (2k) =  45.47473509
       Hashing =   TRUE

       Collision test

       CollisionOver:   density = n / k =  1 /  219902.33
       Expected number of collisions = Mu =      45.47


-----------------------------------------------
Results of CollisionOver test:

POISSON approximation                 :
Expected number of collisions = N*Mu  :     1364.24
Observed number of collisions         :     1378
p-value of test                       :    0.36

-----------------------------
Total number of cells containing j balls

  j =  0                              :  131940795334498
  j =  1                              :        599997244
  j =  2                              :             1378
  j =  3                              :                0
  j =  4                              :                0
  j =  5                              :                0

-----------------------------------------------
CPU time used                    :  00:09:58.11

Generator state:




***********************************************************
Test smarsa_CollisionOver calling smultin_MultinomialOver

***********************************************************
HOST = ru01, Linux

MersenneTwiter


smultin_MultinomialOver test:
-----------------------------------------------
   N = 30,  n = 20000000,  r =  0,   d =    8,   t = 14,
       Sparse =   TRUE

       GenerCell = smultin_GenerCellSerial
       Number of cells = d^t =      4398046511104
       Expected number per cell =  1 /  219902.33
       EColl = n^2 / (2k) =  45.47473509
       Hashing =   TRUE

       Collision test

       CollisionOver:   density = n / k =  1 /  219902.33
       Expected number of collisions = Mu =      45.47


-----------------------------------------------
Results of CollisionOver test:

POISSON approximation                 :
Expected number of collisions = N*Mu  :     1364.24
Observed number of collisions         :     1397
p-value of test                       :    0.19

-----------------------------
Total number of cells containing j balls

  j =  0                              :  131940795334517
  j =  1                              :        599997206
  j =  2                              :             1397
  j =  3                              :                0
  j =  4                              :                0
  j =  5                              :                0

-----------------------------------------------
CPU time used                    :  00:10:50.98

Generator state:




***********************************************************
Test smarsa_CollisionOver calling smultin_MultinomialOver

***********************************************************
HOST = ru01, Linux

MersenneTwiter


smultin_MultinomialOver test:
-----------------------------------------------
   N = 30,  n = 20000000,  r = 27,   d =    8,   t = 14,
       Sparse =   TRUE

       GenerCell = smultin_GenerCellSerial
       Number of cells = d^t =      4398046511104
       Expected number per cell =  1 /  219902.33
       EColl = n^2 / (2k) =  45.47473509
       Hashing =   TRUE

       Collision test

       CollisionOver:   density = n / k =  1 /  219902.33
       Expected number of collisions = Mu =      45.47


-----------------------------------------------
Results of CollisionOver test:

POISSON approximation                 :
Expected number of collisions = N*Mu  :     1364.24
Observed number of collisions         :     1431
p-value of test                       :    0.04

-----------------------------
Total number of cells containing j balls

  j =  0                              :  131940795334551
  j =  1                              :        599997138
  j =  2                              :             1431
  j =  3                              :                0
  j =  4                              :                0
  j =  5                              :                0

-----------------------------------------------
CPU time used                    :  00:10:57.94

Generator state:




***********************************************************
Test smarsa_CollisionOver calling smultin_MultinomialOver

***********************************************************
HOST = ru01, Linux

MersenneTwiter


smultin_MultinomialOver test:
-----------------------------------------------
   N = 30,  n = 20000000,  r =  0,   d =    4,   t = 21,
       Sparse =   TRUE

       GenerCell = smultin_GenerCellSerial
       Number of cells = d^t =      4398046511104
       Expected number per cell =  1 /  219902.33
       EColl = n^2 / (2k) =  45.47473509
       Hashing =   TRUE

       Collision test

       CollisionOver:   density = n / k =  1 /  219902.33
       Expected number of collisions = Mu =      45.47


-----------------------------------------------
Results of CollisionOver test:

POISSON approximation                 :
Expected number of collisions = N*Mu  :     1364.24
Observed number of collisions         :     1335
p-value of test                       :    0.78

-----------------------------
Total number of cells containing j balls

  j =  0                              :  131940795334455
  j =  1                              :        599997330
  j =  2                              :             1335
  j =  3                              :                0
  j =  4                              :                0
  j =  5                              :                0

-----------------------------------------------
CPU time used                    :  00:10:43.27

Generator state:




***********************************************************
Test smarsa_CollisionOver calling smultin_MultinomialOver

***********************************************************
HOST = ru01, Linux

MersenneTwiter


smultin_MultinomialOver test:
-----------------------------------------------
   N = 30,  n = 20000000,  r = 28,   d =    4,   t = 21,
       Sparse =   TRUE

       GenerCell = smultin_GenerCellSerial
       Number of cells = d^t =      4398046511104
       Expected number per cell =  1 /  219902.33
       EColl = n^2 / (2k) =  45.47473509
       Hashing =   TRUE

       Collision test

       CollisionOver:   density = n / k =  1 /  219902.33
       Expected number of collisions = Mu =      45.47


-----------------------------------------------
Results of CollisionOver test:

POISSON approximation                 :
Expected number of collisions = N*Mu  :     1364.24
Observed number of collisions         :     1371
p-value of test                       :    0.43

-----------------------------
Total number of cells containing j balls

  j =  0                              :  131940795334491
  j =  1                              :        599997258
  j =  2                              :             1371
  j =  3                              :                0
  j =  4                              :                0
  j =  5                              :                0

-----------------------------------------------
CPU time used                    :  00:10:50.31

Generator state:




***********************************************************
HOST = ru01, Linux

MersenneTwiter


smarsa_BirthdaySpacings test:
-----------------------------------------------
   N = 100,  n = 10000000,  r =  0,    d = 2147483648,    t = 2,    p = 1


      Number of cells = d^t = 4611686018427387904
      Lambda = Poisson mean =      54.2101


----------------------------------------------------
Total expected number = N*Lambda      :    5421.01
Total observed number                 :    5402
p-value of test                       :    0.60


-----------------------------------------------
CPU time used                    :  00:03:39.59

Generator state:




***********************************************************
HOST = ru01, Linux

MersenneTwiter


smarsa_BirthdaySpacings test:
-----------------------------------------------
   N = 20,  n = 20000000,  r =  0,    d = 2097152,    t = 3,    p = 1


      Number of cells = d^t = 9223372036854775808
      Lambda = Poisson mean =     216.8404


----------------------------------------------------
Total expected number = N*Lambda      :    4336.81
Total observed number                 :    4350
p-value of test                       :    0.42


-----------------------------------------------
CPU time used                    :  00:01:34.84

Generator state:




***********************************************************
HOST = ru01, Linux

MersenneTwiter


smarsa_BirthdaySpacings test:
-----------------------------------------------
   N = 20,  n = 30000000,  r = 14,    d = 65536,    t = 4,    p = 1


      Number of cells = d^t = 18446744073709551616
      Lambda = Poisson mean =     365.9182


----------------------------------------------------
Total expected number = N*Lambda      :    7318.36
Total observed number                 :    7251
p-value of test                       :    0.78


-----------------------------------------------
CPU time used                    :  00:02:38.00

Generator state:




***********************************************************
HOST = ru01, Linux

MersenneTwiter


smarsa_BirthdaySpacings test:
-----------------------------------------------
   N = 20,  n = 20000000,  r =  0,    d = 512,    t = 7,    p = 1


      Number of cells = d^t = 9223372036854775808
      Lambda = Poisson mean =     216.8404


----------------------------------------------------
Total expected number = N*Lambda      :    4336.81
Total observed number                 :    4301
p-value of test                       :    0.70


-----------------------------------------------
CPU time used                    :  00:01:49.76

Generator state:




***********************************************************
HOST = ru01, Linux

MersenneTwiter


smarsa_BirthdaySpacings test:
-----------------------------------------------
   N = 20,  n = 20000000,  r =  7,    d = 512,    t = 7,    p = 1


      Number of cells = d^t = 9223372036854775808
      Lambda = Poisson mean =     216.8404


----------------------------------------------------
Total expected number = N*Lambda      :    4336.81
Total observed number                 :    4306
p-value of test                       :    0.68


-----------------------------------------------
CPU time used                    :  00:01:58.31

Generator state:




***********************************************************
HOST = ru01, Linux

MersenneTwiter


smarsa_BirthdaySpacings test:
-----------------------------------------------
   N = 20,  n = 30000000,  r = 14,    d = 256,    t = 8,    p = 1


      Number of cells = d^t = 18446744073709551616
      Lambda = Poisson mean =     365.9182


----------------------------------------------------
Total expected number = N*Lambda      :    7318.36
Total observed number                 :    7380
p-value of test                       :    0.24


-----------------------------------------------
CPU time used                    :  00:03:10.56

Generator state:




***********************************************************
HOST = ru01, Linux

MersenneTwiter


smarsa_BirthdaySpacings test:
-----------------------------------------------
   N = 20,  n = 30000000,  r = 22,    d = 256,    t = 8,    p = 1


      Number of cells = d^t = 18446744073709551616
      Lambda = Poisson mean =     365.9182


----------------------------------------------------
Total expected number = N*Lambda      :    7318.36
Total observed number                 :    7265
p-value of test                       :    0.73


-----------------------------------------------
CPU time used                    :  00:03:37.78

Generator state:




***********************************************************
HOST = ru01, Linux

MersenneTwiter


smarsa_BirthdaySpacings test:
-----------------------------------------------
   N = 20,  n = 30000000,  r =  0,    d = 16,    t = 16,    p = 1


      Number of cells = d^t = 18446744073709551616
      Lambda = Poisson mean =     365.9182


----------------------------------------------------
Total expected number = N*Lambda      :    7318.36
Total observed number                 :    7385
p-value of test                       :    0.22


-----------------------------------------------
CPU time used                    :  00:04:35.55

Generator state:




***********************************************************
HOST = ru01, Linux

MersenneTwiter


smarsa_BirthdaySpacings test:
-----------------------------------------------
   N = 20,  n = 30000000,  r = 26,    d = 16,    t = 16,    p = 1


      Number of cells = d^t = 18446744073709551616
      Lambda = Poisson mean =     365.9182


----------------------------------------------------
Total expected number = N*Lambda      :    7318.36
Total observed number                 :    7309
p-value of test                       :    0.54


-----------------------------------------------
CPU time used                    :  00:04:55.17

Generator state:




***********************************************************
HOST = ru01, Linux

MersenneTwiter


snpair_ClosePairs test:
-----------------------------------------------
   N = 30,  n = 6000000,  r =  0,  t = 3,  p = 0,  m = 30,  Torus =  TRUE


---------------------------------------
Test based on the 2 nearest points (NP):

Stat. AD on the N values (NP)         :    0.37
p-value of test                       :    0.87


A2 test based on the spacings between the
   successive jump times of process Y_n(t):

A2 test on the values of A2 (m-NP)    :    1.70
p-value of test                       :    0.14

Test on the Nm values of W_{n,i}(mNP1):    0.61
p-value of test                       :    0.64

Test on the jump times of Y
   (superposition of Yn):

Expected number of jumps of Y = mN    :     900
Number of jumps of Y                  :     927
p-value of test                       :    0.19

Stat. AD (mNP2)                       :    2.46
p-value of test                       :    0.05

Stat. AD after spacings (mNP2-S)      :    1.05
p-value of test                       :    0.33

-----------------------------------------------
CPU time used                    :  00:02:26.28

Generator state:




***********************************************************
HOST = ru01, Linux

MersenneTwiter


snpair_ClosePairs test:
-----------------------------------------------
   N = 20,  n = 4000000,  r =  0,  t = 5,  p = 0,  m = 30,  Torus =  TRUE


---------------------------------------
Test based on the 2 nearest points (NP):

Stat. AD on the N values (NP)         :    0.84
p-value of test                       :    0.45


A2 test based on the spacings between the
   successive jump times of process Y_n(t):

A2 test on the values of A2 (m-NP)    :    0.95
p-value of test                       :    0.38

Test on the Nm values of W_{n,i}(mNP1):    0.51
p-value of test                       :    0.74

Test on the jump times of Y
   (superposition of Yn):

Expected number of jumps of Y = mN    :     600
Number of jumps of Y                  :     614
p-value of test                       :    0.29

Stat. AD (mNP2)                       :    3.57
p-value of test                       :    0.01

Stat. AD after spacings (mNP2-S)      :    0.35
p-value of test                       :    0.89

-----------------------------------------------
CPU time used                    :  00:01:37.23

Generator state:




***********************************************************
HOST = ru01, Linux

MersenneTwiter


snpair_ClosePairs test:
-----------------------------------------------
   N = 10,  n = 3000000,  r =  0,  t = 9,  p = 0,  m = 30,  Torus =  TRUE


---------------------------------------
Test based on the 2 nearest points (NP):

Stat. AD on the N values (NP)         :    0.90
p-value of test                       :    0.41


A2 test based on the spacings between the
   successive jump times of process Y_n(t):

A2 test on the values of A2 (m-NP)    :    0.59
p-value of test                       :    0.65

Test on the Nm values of W_{n,i}(mNP1):    0.39
p-value of test                       :    0.86

Test on the jump times of Y
   (superposition of Yn):

Expected number of jumps of Y = mN    :     300
Number of jumps of Y                  :     307
p-value of test                       :    0.35

Stat. AD (mNP2)                       :    0.86
p-value of test                       :    0.44

Stat. AD after spacings (mNP2-S)      :    0.35
p-value of test                       :    0.89

-----------------------------------------------
CPU time used                    :  00:02:51.86

Generator state:




***********************************************************
HOST = ru01, Linux

MersenneTwiter


snpair_ClosePairs test:
-----------------------------------------------
   N =  5,  n = 2000000,  r =  0,  t = 16,  p = 0,  m = 30,  Torus =  TRUE


---------------------------------------
Test based on the 2 nearest points (NP):

Stat. AD on the N values (NP)         :    0.42
p-value of test                       :    0.82


A2 test based on the spacings between the
   successive jump times of process Y_n(t):

A2 test on the values of A2 (m-NP)    :    0.24
p-value of test                       :    0.97

Test on the Nm values of W_{n,i}(mNP1):    1.41
p-value of test                       :    0.20

Test on the jump times of Y
   (superposition of Yn):

Expected number of jumps of Y = mN    :     150
Number of jumps of Y                  :     161
p-value of test                       :    0.19

Stat. AD (mNP2)                       :    0.36
p-value of test                       :    0.89

Stat. AD after spacings (mNP2-S)      :    0.49
p-value of test                       :    0.75

-----------------------------------------------
CPU time used                    :  00:03:24.92

Generator state:




***********************************************************
HOST = ru01, Linux

MersenneTwiter


sknuth_SimpPoker test:
-----------------------------------------------
   N =  1,  n = 400000000,  r =  0,   d =    8,   k =    8


-----------------------------------------------
Number of degrees of freedom          :    7
Chi-square statistic                  :    2.67
p-value of test                       :    0.91

-----------------------------------------------
CPU time used                    :  00:01:00.88

Generator state:




***********************************************************
HOST = ru01, Linux

MersenneTwiter


sknuth_SimpPoker test:
-----------------------------------------------
   N =  1,  n = 400000000,  r = 27,   d =    8,   k =    8


-----------------------------------------------
Number of degrees of freedom          :    7
Chi-square statistic                  :   12.32
p-value of test                       :    0.09

-----------------------------------------------
CPU time used                    :  00:01:14.30

Generator state:




***********************************************************
HOST = ru01, Linux

MersenneTwiter


sknuth_SimpPoker test:
-----------------------------------------------
   N =  1,  n = 100000000,  r =  0,   d =   32,   k =   32


-----------------------------------------------
Number of degrees of freedom          :   18
Chi-square statistic                  :   13.45
p-value of test                       :    0.76

-----------------------------------------------
CPU time used                    :  00:01:04.19

Generator state:




***********************************************************
HOST = ru01, Linux

MersenneTwiter


sknuth_SimpPoker test:
-----------------------------------------------
   N =  1,  n = 100000000,  r = 25,   d =   32,   k =   32


-----------------------------------------------
Number of degrees of freedom          :   18
Chi-square statistic                  :   12.09
p-value of test                       :    0.84

-----------------------------------------------
CPU time used                    :  00:01:17.85

Generator state:




***********************************************************
HOST = ru01, Linux

MersenneTwiter


sknuth_CouponCollector test:
-----------------------------------------------
   N =  1,  n = 200000000,  r =  0,   d =    8


-----------------------------------------------
Number of degrees of freedom          :   54
Chi-square statistic                  :   46.60
p-value of test                       :    0.75

-----------------------------------------------
CPU time used                    :  00:01:18.62

Generator state:




***********************************************************
HOST = ru01, Linux

MersenneTwiter


sknuth_CouponCollector test:
-----------------------------------------------
   N =  1,  n = 200000000,  r = 10,   d =    8


-----------------------------------------------
Number of degrees of freedom          :   54
Chi-square statistic                  :   59.59
p-value of test                       :    0.28

-----------------------------------------------
CPU time used                    :  00:01:36.20

Generator state:




***********************************************************
HOST = ru01, Linux

MersenneTwiter


sknuth_CouponCollector test:
-----------------------------------------------
   N =  1,  n = 200000000,  r = 20,   d =    8


-----------------------------------------------
Number of degrees of freedom          :   54
Chi-square statistic                  :   49.01
p-value of test                       :    0.67

-----------------------------------------------
CPU time used                    :  00:01:35.79

Generator state:




***********************************************************
HOST = ru01, Linux

MersenneTwiter


sknuth_CouponCollector test:
-----------------------------------------------
   N =  1,  n = 200000000,  r = 27,   d =    8


-----------------------------------------------
Number of degrees of freedom          :   54
Chi-square statistic                  :   37.73
p-value of test                       :    0.95

-----------------------------------------------
CPU time used                    :  00:01:32.27

Generator state:




***********************************************************
HOST = ru01, Linux

MersenneTwiter


sknuth_Gap test:
-----------------------------------------------
   N =  1,  n = 500000000,  r =  0,   Alpha =        0,   Beta  =   0.0625


-----------------------------------------------
Number of degrees of freedom          :  232
Chi-square statistic                  :  193.44
p-value of test                       :    0.97

-----------------------------------------------
CPU time used                    :  00:01:32.48

Generator state:




***********************************************************
HOST = ru01, Linux

MersenneTwiter


sknuth_Gap test:
-----------------------------------------------
   N =  1,  n = 300000000,  r = 25,   Alpha =        0,   Beta  =  0.03125


-----------------------------------------------
Number of degrees of freedom          :  434
Chi-square statistic                  :  423.24
p-value of test                       :    0.64

-----------------------------------------------
CPU time used                    :  00:02:17.29

Generator state:




***********************************************************
HOST = ru01, Linux

MersenneTwiter


sknuth_Gap test:
-----------------------------------------------
   N =  1,  n = 100000000,  r =  0,   Alpha =        0,   Beta  = 0.0078125


-----------------------------------------------
Number of degrees of freedom          : 1437
Chi-square statistic                  : 1425.73
p-value of test                       :    0.58

-----------------------------------------------
CPU time used                    :  00:02:22.87

Generator state:




***********************************************************
HOST = ru01, Linux

MersenneTwiter


sknuth_Gap test:
-----------------------------------------------
   N =  1,  n = 10000000,  r = 20,   Alpha =        0,   Beta  = 0.000976562


-----------------------------------------------
Number of degrees of freedom          : 7046
Chi-square statistic                  : 6986.16
p-value of test                       :    0.69

-----------------------------------------------
CPU time used                    :  00:02:17.94

Generator state:




***********************************************************
HOST = ru01, Linux

MersenneTwiter


sknuth_Run test:
-----------------------------------------------
   N =  5,  n = 1000000000,  r =  0,   Up = FALSE


-----------------------------------------------

Kolmogorov-Smirnov+ statistic = D+    :    0.33
p-value of test                       :    0.27

Kolmogorov-Smirnov- statistic = D-    :    0.16
p-value of test                       :    0.70

Anderson-Darling statistic = A2       :    0.84
p-value of test                       :    0.45

Test on the sum of all N observations
Number of degrees of freedom          :   30
Chi-square statistic                  :   26.52
p-value of test                       :    0.65

-----------------------------------------------
CPU time used                    :  00:01:22.69

Generator state:




***********************************************************
HOST = ru01, Linux

MersenneTwiter


sknuth_Run test:
-----------------------------------------------
   N = 10,  n = 1000000000,  r = 15,   Up =  TRUE


-----------------------------------------------

Kolmogorov-Smirnov+ statistic = D+    :    0.24
p-value of test                       :    0.27

Kolmogorov-Smirnov- statistic = D-    :    0.17
p-value of test                       :    0.51

Anderson-Darling statistic = A2       :    0.67
p-value of test                       :    0.58

Test on the sum of all N observations
Number of degrees of freedom          :   60
Chi-square statistic                  :   53.80
p-value of test                       :    0.70

-----------------------------------------------
CPU time used                    :  00:03:29.69

Generator state:




***********************************************************
Test sknuth_Permutation calling smultin_Multinomial

***********************************************************
HOST = ru01, Linux

MersenneTwiter


smultin_Multinomial test:
-----------------------------------------------
   N =  1,  n = 1000000000,  r =  5,   t =  3,
       Sparse =  FALSE

       GenerCell = smultin_GenerCellPermut
       Number of cells = t! =                  6
       Expected number per cell =  1.6666667e+08
       Hashing =  FALSE

   For Delta > -1, we use the ChiSquare approximation
   Correction factor of the ChiSquare: 
       Delta =     1,    Mu =  2.5000002e-09,    Sigma =          1

-----------------------------------------------
Test Results for Delta =   1.0000

Number of degrees of freedom          :    5
Value of the statistic                :    3.62
p-value of test                       :    0.61


-----------------------------------------------
CPU time used                    :  00:01:07.59

Generator state:




***********************************************************
Test sknuth_Permutation calling smultin_Multinomial

***********************************************************
HOST = ru01, Linux

MersenneTwiter


smultin_Multinomial test:
-----------------------------------------------
   N =  1,  n = 1000000000,  r =  5,   t =  5,
       Sparse =  FALSE

       GenerCell = smultin_GenerCellPermut
       Number of cells = t! =                120
       Expected number per cell =   8333333.3
       Hashing =  FALSE

   For Delta > -1, we use the ChiSquare approximation
   Correction factor of the ChiSquare: 
       Delta =     1,    Mu =  5.9500005e-08,    Sigma =          1

-----------------------------------------------
Test Results for Delta =   1.0000

Number of degrees of freedom          :  119
Value of the statistic                :  121.63
p-value of test                       :    0.42


-----------------------------------------------
CPU time used                    :  00:01:58.26

Generator state:




***********************************************************
Test sknuth_Permutation calling smultin_Multinomial

***********************************************************
HOST = ru01, Linux

MersenneTwiter


smultin_Multinomial test:
-----------------------------------------------
   N =  1,  n = 500000000,  r =  5,   t =  7,
       Sparse =  FALSE

       GenerCell = smultin_GenerCellPermut
       Number of cells = t! =               5040
       Expected number per cell =   99206.349
       Hashing =  FALSE

   For Delta > -1, we use the ChiSquare approximation
   Correction factor of the ChiSquare: 
       Delta =     1,    Mu =  5.0390004e-06,    Sigma =          1

-----------------------------------------------
Test Results for Delta =   1.0000

Number of degrees of freedom          : 5039
Value of the statistic                : 5095.97
p-value of test                       :    0.28


-----------------------------------------------
CPU time used                    :  00:01:30.09

Generator state:




***********************************************************
Test sknuth_Permutation calling smultin_Multinomial

***********************************************************
HOST = ru01, Linux

MersenneTwiter


smultin_Multinomial test:
-----------------------------------------------
   N =  1,  n = 500000000,  r = 10,   t = 10,
       Sparse =  FALSE

       GenerCell = smultin_GenerCellPermut
       Number of cells = t! =            3628800
       Expected number per cell =    137.7866
       Hashing =  FALSE

   For Delta > -1, we use the ChiSquare approximation
   Correction factor of the ChiSquare: 
       Delta =     1,    Mu =   0.0036287993,    Sigma =          1

-----------------------------------------------
Test Results for Delta =   1.0000

Number of degrees of freedom          : 3628799
Value of the statistic                : 3.63e+6
p-value of test                       :    0.48


-----------------------------------------------
CPU time used                    :  00:02:49.02

Generator state:




***********************************************************
Test sknuth_CollisionPermut calling smultin_Multinomial

***********************************************************
HOST = ru01, Linux

MersenneTwiter


smultin_Multinomial test:
-----------------------------------------------
   N = 20,  n = 20000000,  r =  0,   t = 14,
       Sparse =   TRUE

       GenerCell = smultin_GenerCellPermut
       Number of cells = t! =        87178291200
       Expected number per cell =  1 /  4358.9146
       EColl = n^2 / (2k) =   2294.14912
       Hashing =   TRUE

       Collision test,    Mu =      2293.9736,    Sigma =    47.8841

-----------------------------------------------
Test Results for Collisions

For the total number of collisions, we use
      the Poisson approximation:
Expected number of collisions = N*Mu  :    45879.47
Observed number of collisions         :    45886
p-value of test                       :    0.49


-----------------------------
Total number of cells containing j balls

  j =  0                              :    1743165869886
  j =  1                              :        399908233
  j =  2                              :            45876
  j =  3                              :                5
  j =  4                              :                0
  j =  5                              :                0

-----------------------------------------------
CPU time used                    :  00:05:34.79

Generator state:




***********************************************************
Test sknuth_CollisionPermut calling smultin_Multinomial

***********************************************************
HOST = ru01, Linux

MersenneTwiter


smultin_Multinomial test:
-----------------------------------------------
   N = 20,  n = 20000000,  r = 10,   t = 14,
       Sparse =   TRUE

       GenerCell = smultin_GenerCellPermut
       Number of cells = t! =        87178291200
       Expected number per cell =  1 /  4358.9146
       EColl = n^2 / (2k) =   2294.14912
       Hashing =   TRUE

       Collision test,    Mu =      2293.9736,    Sigma =    47.8841

-----------------------------------------------
Test Results for Collisions

For the total number of collisions, we use
      the Poisson approximation:
Expected number of collisions = N*Mu  :    45879.47
Observed number of collisions         :    46008
p-value of test                       :    0.27


-----------------------------
Total number of cells containing j balls

  j =  0                              :    1743165870008
  j =  1                              :        399907990
  j =  2                              :            45996
  j =  3                              :                6
  j =  4                              :                0
  j =  5                              :                0

-----------------------------------------------
CPU time used                    :  00:05:47.47

Generator state:




***********************************************************
HOST = ru01, Linux

MersenneTwiter


sknuth_MaxOft test:
-----------------------------------------------
   N = 40,  n = 10000000,  r =  0,   d = 100000,   t =  8

      Number of categories = 100000
      Expected number per category  = 100.00


-----------------------------------------------
Test results for chi2 with 99999 degrees of freedom:

Kolmogorov-Smirnov+ statistic = D+    :    0.18
p-value of test                       :    0.07

Kolmogorov-Smirnov- statistic = D-    :   0.042
p-value of test                       :    0.85

Anderson-Darling statistic = A2       :    1.57
p-value of test                       :    0.16

Test on the sum of all N observations
Number of degrees of freedom          : 3999960
Chi-square statistic                  : 4.00e+6
p-value of test                       :    0.91


-----------------------------------------------
Test results for Anderson-Darling:

Kolmogorov-Smirnov+ statistic = D+    :    0.13
p-value of test                       :    0.23

Kolmogorov-Smirnov- statistic = D-    :   0.025
p-value of test                       :    0.93

Anderson-Darling statistic = A2       :    1.45
p-value of test                       :    0.19


-----------------------------------------------
CPU time used                    :  00:02:08.27

Generator state:




***********************************************************
HOST = ru01, Linux

MersenneTwiter


sknuth_MaxOft test:
-----------------------------------------------
   N = 30,  n = 10000000,  r =  0,   d = 100000,   t = 16

      Number of categories = 100000
      Expected number per category  = 100.00


-----------------------------------------------
Test results for chi2 with 99999 degrees of freedom:

Kolmogorov-Smirnov+ statistic = D+    :    0.12
p-value of test                       :    0.41

Kolmogorov-Smirnov- statistic = D-    :    0.12
p-value of test                       :    0.40

Anderson-Darling statistic = A2       :    0.43
p-value of test                       :    0.82

Test on the sum of all N observations
Number of degrees of freedom          : 2999970
Chi-square statistic                  : 3.00e+6
p-value of test                       :    0.58


-----------------------------------------------
Test results for Anderson-Darling:

Kolmogorov-Smirnov+ statistic = D+    :   0.065
p-value of test                       :    0.74

Kolmogorov-Smirnov- statistic = D-    :   0.091
p-value of test                       :    0.58

Anderson-Darling statistic = A2       :    0.39
p-value of test                       :    0.86


-----------------------------------------------
CPU time used                    :  00:02:01.62

Generator state:




***********************************************************
HOST = ru01, Linux

MersenneTwiter


sknuth_MaxOft test:
-----------------------------------------------
   N = 20,  n = 10000000,  r =  0,   d = 100000,   t = 24

      Number of categories = 100000
      Expected number per category  = 100.00


-----------------------------------------------
Test results for chi2 with 99999 degrees of freedom:

Kolmogorov-Smirnov+ statistic = D+    :    0.24
p-value of test                       :    0.08

Kolmogorov-Smirnov- statistic = D-    :   0.064
p-value of test                       :    0.82

Anderson-Darling statistic = A2       :    1.05
p-value of test                       :    0.33

Test on the sum of all N observations
Number of degrees of freedom          : 1999980
Chi-square statistic                  : 2.00e+6
p-value of test                       :    0.86


-----------------------------------------------
Test results for Anderson-Darling:

Kolmogorov-Smirnov+ statistic = D+    :    0.14
p-value of test                       :    0.40

Kolmogorov-Smirnov- statistic = D-    :    0.17
p-value of test                       :    0.29

Anderson-Darling statistic = A2       :    0.69
p-value of test                       :    0.56


-----------------------------------------------
CPU time used                    :  00:01:35.73

Generator state:




***********************************************************
HOST = ru01, Linux

MersenneTwiter


sknuth_MaxOft test:
-----------------------------------------------
   N = 20,  n = 10000000,  r =  0,   d = 100000,   t = 32

      Number of categories = 100000
      Expected number per category  = 100.00


-----------------------------------------------
Test results for chi2 with 99999 degrees of freedom:

Kolmogorov-Smirnov+ statistic = D+    :   0.065
p-value of test                       :    0.81

Kolmogorov-Smirnov- statistic = D-    :    0.30
p-value of test                       :    0.02

Anderson-Darling statistic = A2       :    1.79
p-value of test                       :    0.12

Test on the sum of all N observations
Number of degrees of freedom          : 1999980
Chi-square statistic                  : 2.00e+6
p-value of test                       :    0.08


-----------------------------------------------
Test results for Anderson-Darling:

Kolmogorov-Smirnov+ statistic = D+    :    0.14
p-value of test                       :    0.40

Kolmogorov-Smirnov- statistic = D-    :   0.072
p-value of test                       :    0.78

Anderson-Darling statistic = A2       :    0.56
p-value of test                       :    0.68


-----------------------------------------------
CPU time used                    :  00:01:48.59

Generator state:




***********************************************************
HOST = ru01, Linux

MersenneTwiter


svaria_SampleProd test:
-----------------------------------------------
   N = 40,  n = 10000000,  r =  0,   t = 8


-----------------------------------------------

Kolmogorov-Smirnov+ statistic = D+    :   0.068
p-value of test                       :    0.66

Kolmogorov-Smirnov- statistic = D-    :   0.093
p-value of test                       :    0.47

Anderson-Darling statistic = A2       :    0.33
p-value of test                       :    0.91

-----------------------------------------------
CPU time used                    :  00:01:41.88

Generator state:




***********************************************************
HOST = ru01, Linux

MersenneTwiter


svaria_SampleProd test:
-----------------------------------------------
   N = 20,  n = 10000000,  r =  0,   t = 16


-----------------------------------------------

Kolmogorov-Smirnov+ statistic = D+    :   0.087
p-value of test                       :    0.70

Kolmogorov-Smirnov- statistic = D-    :    0.13
p-value of test                       :    0.47

Anderson-Darling statistic = A2       :    0.31
p-value of test                       :    0.93

-----------------------------------------------
CPU time used                    :  00:01:11.45

Generator state:




***********************************************************
HOST = ru01, Linux

MersenneTwiter


svaria_SampleProd test:
-----------------------------------------------
   N = 20,  n = 10000000,  r =  0,   t = 24


-----------------------------------------------

Kolmogorov-Smirnov+ statistic = D+    :    0.12
p-value of test                       :    0.50

Kolmogorov-Smirnov- statistic = D-    :   0.092
p-value of test                       :    0.67

Anderson-Darling statistic = A2       :    0.36
p-value of test                       :    0.89

-----------------------------------------------
CPU time used                    :  00:01:30.75

Generator state:




***********************************************************
HOST = ru01, Linux

MersenneTwiter


svaria_SampleMean test:
-----------------------------------------------
   N = 20000000,  n = 30,  r =  0


-----------------------------------------------

Kolmogorov-Smirnov+ statistic = D+    : 1.21e-4
p-value of test                       :    0.56

Kolmogorov-Smirnov- statistic = D-    : 5.41e-5
p-value of test                       :    0.89

Anderson-Darling statistic = A2       :    0.48
p-value of test                       :    0.77

-----------------------------------------------
CPU time used                    :  00:00:16.84

Generator state:




***********************************************************
HOST = ru01, Linux

MersenneTwiter


svaria_SampleMean test:
-----------------------------------------------
   N = 20000000,  n = 30,  r = 10


-----------------------------------------------

Kolmogorov-Smirnov+ statistic = D+    : 3.69e-4
p-value of test                       :  4.3e-3

Kolmogorov-Smirnov- statistic = D-    : 8.85e-5
p-value of test                       :    0.73

Anderson-Darling statistic = A2       :    2.94
p-value of test                       :    0.03

-----------------------------------------------
CPU time used                    :  00:00:17.85

Generator state:




***********************************************************
HOST = ru01, Linux

MersenneTwiter


svaria_SampleCorr test:
-----------------------------------------------
   N =  1,  n = 2000000000,  r =  0,   k = 1


-----------------------------------------------
Normal statistic                      :    0.22
p-value of test                       :    0.41

-----------------------------------------------
CPU time used                    :  00:00:21.45

Generator state:




***********************************************************
HOST = ru01, Linux

MersenneTwiter


svaria_SampleCorr test:
-----------------------------------------------
   N =  1,  n = 2000000000,  r =  0,   k = 2


-----------------------------------------------
Normal statistic                      :   -2.17
p-value of test                       :    0.98

-----------------------------------------------
CPU time used                    :  00:00:21.45

Generator state:




***********************************************************
HOST = ru01, Linux

MersenneTwiter


svaria_AppearanceSpacings test:
-----------------------------------------------
   N =  1,   Q = 10000000,   K = 1000000000,   r = 0,   s = 3,   L = 15

   Sequences of n = (K + Q)L =  15150000000 bits
   Q = 10000000 initialization blocks
   K = 1000000000 blocks for the test
   the blocks have L = 15 bits



-----------------------------------------------
Normal statistic                      :   -1.30
p-value of test                       :    0.90

-----------------------------------------------
CPU time used                    :  00:01:14.15

Generator state:




***********************************************************
HOST = ru01, Linux

MersenneTwiter


svaria_AppearanceSpacings test:
-----------------------------------------------
   N =  1,   Q = 10000000,   K = 1000000000,   r = 27,   s = 3,   L = 15

   Sequences of n = (K + Q)L =  15150000000 bits
   Q = 10000000 initialization blocks
   K = 1000000000 blocks for the test
   the blocks have L = 15 bits



-----------------------------------------------
Normal statistic                      :   0.024
p-value of test                       :    0.49

-----------------------------------------------
CPU time used                    :  00:01:16.51

Generator state:




***********************************************************
HOST = ru01, Linux

MersenneTwiter


svaria_WeightDistrib test:
-----------------------------------------------
   N =  1,  n = 20000000,  r =  0,  k = 256,  Alpha =      0,  Beta =   0.25


-----------------------------------------------
Number of degrees of freedom          :   67
Chi-square statistic                  :   66.40
p-value of test                       :    0.50

-----------------------------------------------
CPU time used                    :  00:00:54.20

Generator state:




***********************************************************
HOST = ru01, Linux

MersenneTwiter


svaria_WeightDistrib test:
-----------------------------------------------
   N =  1,  n = 20000000,  r = 20,  k = 256,  Alpha =      0,  Beta =   0.25


-----------------------------------------------
Number of degrees of freedom          :   67
Chi-square statistic                  :   52.98
p-value of test                       :    0.89

-----------------------------------------------
CPU time used                    :  00:01:07.07

Generator state:




***********************************************************
HOST = ru01, Linux

MersenneTwiter


svaria_WeightDistrib test:
-----------------------------------------------
   N =  1,  n = 20000000,  r = 28,  k = 256,  Alpha =      0,  Beta =   0.25


-----------------------------------------------
Number of degrees of freedom          :   67
Chi-square statistic                  :   61.59
p-value of test                       :    0.66

-----------------------------------------------
CPU time used                    :  00:01:07.28

Generator state:




***********************************************************
HOST = ru01, Linux

MersenneTwiter


svaria_WeightDistrib test:
-----------------------------------------------
   N =  1,  n = 20000000,  r =  0,  k = 256,  Alpha =      0,  Beta = 0.0625


-----------------------------------------------
Number of degrees of freedom          :   37
Chi-square statistic                  :   28.31
p-value of test                       :    0.85

-----------------------------------------------
CPU time used                    :  00:00:53.70

Generator state:




***********************************************************
HOST = ru01, Linux

MersenneTwiter


svaria_WeightDistrib test:
-----------------------------------------------
   N =  1,  n = 20000000,  r = 10,  k = 256,  Alpha =      0,  Beta = 0.0625


-----------------------------------------------
Number of degrees of freedom          :   37
Chi-square statistic                  :   33.32
p-value of test                       :    0.64

-----------------------------------------------
CPU time used                    :  00:01:08.03

Generator state:




***********************************************************
HOST = ru01, Linux

MersenneTwiter


svaria_WeightDistrib test:
-----------------------------------------------
   N =  1,  n = 20000000,  r = 26,  k = 256,  Alpha =      0,  Beta = 0.0625


-----------------------------------------------
Number of degrees of freedom          :   37
Chi-square statistic                  :   42.76
p-value of test                       :    0.24

-----------------------------------------------
CPU time used                    :  00:01:10.21

Generator state:




***********************************************************
HOST = ru01, Linux

MersenneTwiter


svaria_SumCollector test:
-----------------------------------------------
   N =  1,  n = 500000000,  r =  0,   g = 10


-----------------------------------------------
Number of degrees of freedom          :   29
Chi-square statistic                  :   27.59
p-value of test                       :    0.54

-----------------------------------------------
CPU time used                    :  00:02:03.94

Generator state:




***********************************************************
HOST = ru01, Linux

MersenneTwiter


smarsa_MatrixRank test:
-----------------------------------------------
   N = 10,  n = 1000000,  r =  0,    s = 5,    L = 30,    k = 30


-----------------------------------------------

Kolmogorov-Smirnov+ statistic = D+    :    0.38
p-value of test                       :    0.04

Kolmogorov-Smirnov- statistic = D-    :   0.019
p-value of test                       :    0.98

Anderson-Darling statistic = A2       :    1.93
p-value of test                       :    0.10

Test on the sum of all N observations
Number of degrees of freedom          :   40
Chi-square statistic                  :   24.91
p-value of test                       :    0.97

-----------------------------------------------
CPU time used                    :  00:01:23.67

Generator state:




***********************************************************
HOST = ru01, Linux

MersenneTwiter


smarsa_MatrixRank test:
-----------------------------------------------
   N = 10,  n = 1000000,  r = 25,    s = 5,    L = 30,    k = 30


-----------------------------------------------

Kolmogorov-Smirnov+ statistic = D+    :    0.43
p-value of test                       :    0.02

Kolmogorov-Smirnov- statistic = D-    :   0.016
p-value of test                       :    0.98

Anderson-Darling statistic = A2       :    2.28
p-value of test                       :    0.07

Test on the sum of all N observations
Number of degrees of freedom          :   40
Chi-square statistic                  :   24.57
p-value of test                       :    0.97

-----------------------------------------------
CPU time used                    :  00:01:23.67

Generator state:




***********************************************************
HOST = ru01, Linux

MersenneTwiter


smarsa_MatrixRank test:
-----------------------------------------------
   N =  1,  n = 5000,  r =  0,    s = 4,    L = 1000,    k = 1000


-----------------------------------------------
Number of degrees of freedom          :    3
Chi-square statistic                  :    2.70
p-value of test                       :    0.44

-----------------------------------------------
CPU time used                    :  00:02:15.75

Generator state:




***********************************************************
HOST = ru01, Linux

MersenneTwiter


smarsa_MatrixRank test:
-----------------------------------------------
   N =  1,  n = 5000,  r = 26,    s = 4,    L = 1000,    k = 1000


-----------------------------------------------
Number of degrees of freedom          :    3
Chi-square statistic                  :    3.89
p-value of test                       :    0.27

-----------------------------------------------
CPU time used                    :  00:02:17.04

Generator state:




***********************************************************
HOST = ru01, Linux

MersenneTwiter


smarsa_MatrixRank test:
-----------------------------------------------
   N =  1,  n = 80,  r = 15,    s = 15,    L = 5000,    k = 5000


-----------------------------------------------
Number of degrees of freedom          :    2
Chi-square statistic                  :    0.59
p-value of test                       :    0.74

-----------------------------------------------
CPU time used                    :  00:01:59.01

Generator state:




***********************************************************
HOST = ru01, Linux

MersenneTwiter


smarsa_MatrixRank test:
-----------------------------------------------
   N =  1,  n = 80,  r =  0,    s = 30,    L = 5000,    k = 5000


-----------------------------------------------
Number of degrees of freedom          :    2
Chi-square statistic                  :    0.27
p-value of test                       :    0.87

-----------------------------------------------
CPU time used                    :  00:01:43.38

Generator state:




***********************************************************
HOST = ru01, Linux

MersenneTwiter


smarsa_Savir2 test:
-----------------------------------------------
   N = 10,  n = 10000000,  r = 10,    m = 1048576,    t = 30


-----------------------------------------------

Kolmogorov-Smirnov+ statistic = D+    :    0.27
p-value of test                       :    0.20

Kolmogorov-Smirnov- statistic = D-    :   0.098
p-value of test                       :    0.77

Anderson-Darling statistic = A2       :    0.81
p-value of test                       :    0.47

Test on the sum of all N observations
Number of degrees of freedom          :  130
Chi-square statistic                  :  131.74
p-value of test                       :    0.44

-----------------------------------------------
CPU time used                    :  00:00:42.71

Generator state:




***********************************************************
HOST = ru01, Linux

MersenneTwiter


smarsa_GCD test:
-----------------------------------------------
   N = 10,  n = 50000000,  r =  0,   s = 30


-----------------------------------------------
Test results for GCD values:

Kolmogorov-Smirnov+ statistic = D+    :    0.20
p-value of test                       :    0.40

Kolmogorov-Smirnov- statistic = D-    :    0.17
p-value of test                       :    0.50

Anderson-Darling statistic = A2       :    0.55
p-value of test                       :    0.70

Test on the sum of all N observations
Number of degrees of freedom          : 17430
Chi-square statistic                  :17411.96
p-value of test                       :    0.54



-----------------------------------------------
CPU time used                    :  00:00:48.71

Generator state:




***********************************************************
HOST = ru01, Linux

MersenneTwiter


swalk_RandomWalk1 test:
-----------------------------------------------
   N =  1,  n = 100000000,  r =  0,   s = 5,   L0 =   50,   L1 =   50



-----------------------------------------------
Test on the values of the Statistic H

Number of degrees of freedom          :   36
ChiSquare statistic                   :   49.21
p-value of test                       :    0.07


-----------------------------------------------
Test on the values of the Statistic M

Number of degrees of freedom          :   35
ChiSquare statistic                   :   39.99
p-value of test                       :    0.26


-----------------------------------------------
Test on the values of the Statistic J

Number of degrees of freedom          :   25
ChiSquare statistic                   :   22.39
p-value of test                       :    0.61


-----------------------------------------------
Test on the values of the Statistic R

Number of degrees of freedom          :   24
ChiSquare statistic                   :   33.50
p-value of test                       :    0.09


-----------------------------------------------
Test on the values of the Statistic C

Number of degrees of freedom          :   17
ChiSquare statistic                   :   22.06
p-value of test                       :    0.18


-----------------------------------------------
CPU time used                    :  00:01:00.44

Generator state:




***********************************************************
HOST = ru01, Linux

MersenneTwiter


swalk_RandomWalk1 test:
-----------------------------------------------
   N =  1,  n = 100000000,  r = 25,   s = 5,   L0 =   50,   L1 =   50



-----------------------------------------------
Test on the values of the Statistic H

Number of degrees of freedom          :   36
ChiSquare statistic                   :   40.92
p-value of test                       :    0.26


-----------------------------------------------
Test on the values of the Statistic M

Number of degrees of freedom          :   35
ChiSquare statistic                   :   44.25
p-value of test                       :    0.14


-----------------------------------------------
Test on the values of the Statistic J

Number of degrees of freedom          :   25
ChiSquare statistic                   :   20.29
p-value of test                       :    0.73


-----------------------------------------------
Test on the values of the Statistic R

Number of degrees of freedom          :   24
ChiSquare statistic                   :   21.55
p-value of test                       :    0.61


-----------------------------------------------
Test on the values of the Statistic C

Number of degrees of freedom          :   17
ChiSquare statistic                   :   20.38
p-value of test                       :    0.26


-----------------------------------------------
CPU time used                    :  00:01:01.95

Generator state:




***********************************************************
HOST = ru01, Linux

MersenneTwiter


swalk_RandomWalk1 test:
-----------------------------------------------
   N =  1,  n = 10000000,  r =  0,   s = 10,   L0 = 1000,   L1 = 1000



-----------------------------------------------
Test on the values of the Statistic H

Number of degrees of freedom          :  146
ChiSquare statistic                   :  145.79
p-value of test                       :    0.49


-----------------------------------------------
Test on the values of the Statistic M

Number of degrees of freedom          :  146
ChiSquare statistic                   :  137.76
p-value of test                       :    0.67


-----------------------------------------------
Test on the values of the Statistic J

Number of degrees of freedom          :  500
ChiSquare statistic                   :  512.93
p-value of test                       :    0.33


-----------------------------------------------
Test on the values of the Statistic R

Number of degrees of freedom          :  136
ChiSquare statistic                   :  145.06
p-value of test                       :    0.28


-----------------------------------------------
Test on the values of the Statistic C

Number of degrees of freedom          :   74
ChiSquare statistic                   :   73.85
p-value of test                       :    0.48


-----------------------------------------------
CPU time used                    :  00:01:26.78

Generator state:




***********************************************************
HOST = ru01, Linux

MersenneTwiter


swalk_RandomWalk1 test:
-----------------------------------------------
   N =  1,  n = 10000000,  r = 20,   s = 10,   L0 = 1000,   L1 = 1000



-----------------------------------------------
Test on the values of the Statistic H

Number of degrees of freedom          :  146
ChiSquare statistic                   :  130.36
p-value of test                       :    0.82


-----------------------------------------------
Test on the values of the Statistic M

Number of degrees of freedom          :  146
ChiSquare statistic                   :  123.56
p-value of test                       :    0.91


-----------------------------------------------
Test on the values of the Statistic J

Number of degrees of freedom          :  500
ChiSquare statistic                   :  508.49
p-value of test                       :    0.39


-----------------------------------------------
Test on the values of the Statistic R

Number of degrees of freedom          :  136
ChiSquare statistic                   :  143.60
p-value of test                       :    0.31


-----------------------------------------------
Test on the values of the Statistic C

Number of degrees of freedom          :   74
ChiSquare statistic                   :   82.81
p-value of test                       :    0.23


-----------------------------------------------
CPU time used                    :  00:01:28.39

Generator state:




***********************************************************
HOST = ru01, Linux

MersenneTwiter


swalk_RandomWalk1 test:
-----------------------------------------------
   N =  1,  n = 1000000,  r =  0,   s = 15,   L0 = 10000,   L1 = 10000



-----------------------------------------------
Test on the values of the Statistic H

Number of degrees of freedom          :  384
ChiSquare statistic                   :  346.30
p-value of test                       :    0.92


-----------------------------------------------
Test on the values of the Statistic M

Number of degrees of freedom          :  384
ChiSquare statistic                   :  346.81
p-value of test                       :    0.91


-----------------------------------------------
Test on the values of the Statistic J

Number of degrees of freedom          : 5000
ChiSquare statistic                   : 5002.97
p-value of test                       :    0.49


-----------------------------------------------
Test on the values of the Statistic R

Number of degrees of freedom          :  378
ChiSquare statistic                   :  357.83
p-value of test                       :    0.77


-----------------------------------------------
Test on the values of the Statistic C

Number of degrees of freedom          :  200
ChiSquare statistic                   :  191.72
p-value of test                       :    0.65


-----------------------------------------------
CPU time used                    :  00:01:17.26

Generator state:




***********************************************************
HOST = ru01, Linux

MersenneTwiter


swalk_RandomWalk1 test:
-----------------------------------------------
   N =  1,  n = 1000000,  r = 15,   s = 15,   L0 = 10000,   L1 = 10000



-----------------------------------------------
Test on the values of the Statistic H

Number of degrees of freedom          :  384
ChiSquare statistic                   :  419.72
p-value of test                       :    0.10


-----------------------------------------------
Test on the values of the Statistic M

Number of degrees of freedom          :  384
ChiSquare statistic                   :  370.69
p-value of test                       :    0.68


-----------------------------------------------
Test on the values of the Statistic J

Number of degrees of freedom          : 5000
ChiSquare statistic                   : 5028.12
p-value of test                       :    0.39


-----------------------------------------------
Test on the values of the Statistic R

Number of degrees of freedom          :  378
ChiSquare statistic                   :  416.68
p-value of test                       :    0.08


-----------------------------------------------
Test on the values of the Statistic C

Number of degrees of freedom          :  200
ChiSquare statistic                   :  192.93
p-value of test                       :    0.63


-----------------------------------------------
CPU time used                    :  00:01:18.12

Generator state:




***********************************************************
HOST = ru01, Linux

MersenneTwiter


scomp_LinearComp test:
-----------------------------------------------
   N =  1,  n = 400020,  r =  0,    s = 1



-----------------------------------------------
Number of degrees of freedom          :   12
Chi2 statistic for size of jumps      :   15.48
p-value of test                       :    0.22


-----------------------------------------------
Normal statistic for number of jumps  : -403.04
p-value of test                       : 1 - eps1    *****



-----------------------------------------------
CPU time used                    :  00:00:13.98

Generator state:




***********************************************************
HOST = ru01, Linux

MersenneTwiter


scomp_LinearComp test:
-----------------------------------------------
   N =  1,  n = 400020,  r = 29,    s = 1



-----------------------------------------------
Number of degrees of freedom          :   12
Chi2 statistic for size of jumps      :   11.43
p-value of test                       :    0.49


-----------------------------------------------
Normal statistic for number of jumps  : -402.52
p-value of test                       : 1 - eps1    *****



-----------------------------------------------
CPU time used                    :  00:00:13.94

Generator state:




***********************************************************
HOST = ru01, Linux

MersenneTwiter


scomp_LempelZiv test:
-----------------------------------------------
   N = 10,  n = 134217728,  r =  0,   s =   30,   k =   27


-----------------------------------------------

Kolmogorov-Smirnov+ statistic = D+    :    0.22
p-value of test                       :    0.33

Kolmogorov-Smirnov- statistic = D-    :   0.075
p-value of test                       :    0.86

Anderson-Darling statistic = A2       :    0.71
p-value of test                       :    0.55

Tests on the sum of all N observations
Standardized normal statistic         :   -0.85
p-value of test                       :    0.80

Sample variance                       :    1.00
p-value of test                       :    0.44

-----------------------------------------------
CPU time used                    :  00:01:22.64

Generator state:




***********************************************************
HOST = ru01, Linux

MersenneTwiter


scomp_LempelZiv test:
-----------------------------------------------
   N = 10,  n = 134217728,  r = 15,   s =   15,   k =   27


-----------------------------------------------

Kolmogorov-Smirnov+ statistic = D+    :    0.54
p-value of test                       :  1.4e-3

Kolmogorov-Smirnov- statistic = D-    :   0.050
p-value of test                       :    0.92

Anderson-Darling statistic = A2       :    5.91
p-value of test                       :  1.1e-3

Tests on the sum of all N observations
Standardized normal statistic         :   -3.09
p-value of test                       :    0.9990    *****

Sample variance                       :    1.27
p-value of test                       :    0.25

-----------------------------------------------
CPU time used                    :  00:01:27.67

Generator state:




***********************************************************
HOST = ru01, Linux

MersenneTwiter


sspectral_Fourier3 test:
-----------------------------------------------
   N = 100000,  n = 16384,  r =  0,   s =    3,   k =   14


-----------------------------------------------

Kolmogorov-Smirnov+ statistic = D+    : 9.38e-3
p-value of test                       :    0.48

Kolmogorov-Smirnov- statistic = D-    : 5.80e-3
p-value of test                       :    0.76

Anderson-Darling statistic = A2       :    0.27
p-value of test                       :    0.96

-----------------------------------------------
CPU time used                    :  00:00:48.14

Generator state:




***********************************************************
HOST = ru01, Linux

MersenneTwiter


sspectral_Fourier3 test:
-----------------------------------------------
   N = 100000,  n = 16384,  r = 27,   s =    3,   k =   14


-----------------------------------------------

Kolmogorov-Smirnov+ statistic = D+    : 5.79e-3
p-value of test                       :    0.76

Kolmogorov-Smirnov- statistic = D-    : 8.89e-3
p-value of test                       :    0.52

Anderson-Darling statistic = A2       :    0.35
p-value of test                       :    0.89

-----------------------------------------------
CPU time used                    :  00:00:46.72

Generator state:




***********************************************************
HOST = ru01, Linux

MersenneTwiter


sstring_LongestHeadRun test:
-----------------------------------------------
   N =  1,  n = 1000,  r =  0,   s = 3,   L = 10000020


-----------------------------------------------
Number of degrees of freedom          :    8
Chi-square statistic                  :    8.14
p-value of test                       :    0.42

-----------------------------------------------
Global longest run of 1               :   32.00
p-value of test                       :    0.50



-----------------------------------------------
CPU time used                    :  00:01:41.02

Generator state:




***********************************************************
HOST = ru01, Linux

MersenneTwiter


sstring_LongestHeadRun test:
-----------------------------------------------
   N =  1,  n = 1000,  r = 27,   s = 3,   L = 10000020


-----------------------------------------------
Number of degrees of freedom          :    8
Chi-square statistic                  :    6.96
p-value of test                       :    0.54

-----------------------------------------------
Global longest run of 1               :   31.00
p-value of test                       :    0.69



-----------------------------------------------
CPU time used                    :  00:01:42.87

Generator state:




***********************************************************
HOST = ru01, Linux

MersenneTwiter


sstring_PeriodsInStrings test:
-----------------------------------------------
   N = 10,  n = 500000000,  r =  0,   s =   10


-----------------------------------------------

Kolmogorov-Smirnov+ statistic = D+    :    0.16
p-value of test                       :    0.53

Kolmogorov-Smirnov- statistic = D-    :    0.17
p-value of test                       :    0.49

Anderson-Darling statistic = A2       :    0.50
p-value of test                       :    0.74

Test on the sum of all N observations
Number of degrees of freedom          :  200
Chi-square statistic                  :  211.08
p-value of test                       :    0.28

-----------------------------------------------
CPU time used                    :  00:02:58.38

Generator state:




***********************************************************
HOST = ru01, Linux

MersenneTwiter


sstring_PeriodsInStrings test:
-----------------------------------------------
   N = 10,  n = 500000000,  r = 20,   s =   10


-----------------------------------------------

Kolmogorov-Smirnov+ statistic = D+    :    0.29
p-value of test                       :    0.15

Kolmogorov-Smirnov- statistic = D-    :    0.15
p-value of test                       :    0.59

Anderson-Darling statistic = A2       :    0.84
p-value of test                       :    0.45

Test on the sum of all N observations
Number of degrees of freedom          :  200
Chi-square statistic                  :  183.24
p-value of test                       :    0.80

-----------------------------------------------
CPU time used                    :  00:02:55.02

Generator state:




***********************************************************
HOST = ru01, Linux

MersenneTwiter


sstring_HammingWeight2 test:
-----------------------------------------------
   N = 10,  n = 1000000000,  r =  0,   s = 3,   L = 1000000


-----------------------------------------------

Kolmogorov-Smirnov+ statistic = D+    :    0.16
p-value of test                       :    0.56

Kolmogorov-Smirnov- statistic = D-    :    0.11
p-value of test                       :    0.72

Anderson-Darling statistic = A2       :    0.33
p-value of test                       :    0.91

Test on the sum of all N observations
Number of degrees of freedom          : 10000
Chi-square statistic                  :10001.46
p-value of test                       :    0.49

-----------------------------------------------
CPU time used                    :  00:00:55.87

Generator state:




***********************************************************
HOST = ru01, Linux

MersenneTwiter


sstring_HammingWeight2 test:
-----------------------------------------------
   N = 10,  n = 1000000000,  r = 27,   s = 3,   L = 1000000


-----------------------------------------------

Kolmogorov-Smirnov+ statistic = D+    :    0.23
p-value of test                       :    0.32

Kolmogorov-Smirnov- statistic = D-    :    0.14
p-value of test                       :    0.64

Anderson-Darling statistic = A2       :    0.50
p-value of test                       :    0.74

Test on the sum of all N observations
Number of degrees of freedom          : 10000
Chi-square statistic                  : 9969.17
p-value of test                       :    0.58

-----------------------------------------------
CPU time used                    :  00:00:58.50

Generator state:




***********************************************************
HOST = ru01, Linux

MersenneTwiter


sstring_HammingCorr test:
-----------------------------------------------
   N =  1,  n = 1000000000,  r = 10,   s = 10,   L = 30



-----------------------------------------------
Normal statistic                      :   -0.27
p-value of test                       :    0.61

-----------------------------------------------
CPU time used                    :  00:01:09.67

Generator state:




***********************************************************
HOST = ru01, Linux

MersenneTwiter


sstring_HammingCorr test:
-----------------------------------------------
   N =  1,  n = 100000000,  r = 10,   s = 10,   L = 300



-----------------------------------------------
Normal statistic                      :   -0.13
p-value of test                       :    0.55

-----------------------------------------------
CPU time used                    :  00:01:07.94

Generator state:




***********************************************************
HOST = ru01, Linux

MersenneTwiter


sstring_HammingCorr test:
-----------------------------------------------
   N =  1,  n = 100000000,  r = 10,   s = 10,   L = 1200



-----------------------------------------------
Normal statistic                      :   -2.14
p-value of test                       :    0.98

-----------------------------------------------
CPU time used                    :  00:04:15.98

Generator state:




***********************************************************
HOST = ru01, Linux

MersenneTwiter


sstring_HammingIndep test:
-----------------------------------------------
   N = 10,  n = 30000000,  r =  0,   s = 3,   L = 30,   d = 0



Counters with expected numbers >= 10
-----------------------------------------------

Kolmogorov-Smirnov+ statistic = D+    :    0.25
p-value of test                       :    0.25

Kolmogorov-Smirnov- statistic = D-    :    0.13
p-value of test                       :    0.65

Anderson-Darling statistic = A2       :    0.62
p-value of test                       :    0.63

Test on the sum of all N observations
Number of degrees of freedom          : 4890
Chi-square statistic                  : 4816.70
p-value of test                       :    0.77

-----------------------------------------------
CPU time used                    :  00:01:33.36

Generator state:




***********************************************************
HOST = ru01, Linux

MersenneTwiter


sstring_HammingIndep test:
-----------------------------------------------
   N = 10,  n = 30000000,  r = 27,   s = 3,   L = 30,   d = 0



Counters with expected numbers >= 10
-----------------------------------------------

Kolmogorov-Smirnov+ statistic = D+    :    0.38
p-value of test                       :    0.04

Kolmogorov-Smirnov- statistic = D-    :   0.069
p-value of test                       :    0.87

Anderson-Darling statistic = A2       :    1.41
p-value of test                       :    0.20

Test on the sum of all N observations
Number of degrees of freedom          : 4890
Chi-square statistic                  : 4766.16
p-value of test                       :    0.90

-----------------------------------------------
CPU time used                    :  00:01:38.47

Generator state:




***********************************************************
HOST = ru01, Linux

MersenneTwiter


sstring_HammingIndep test:
-----------------------------------------------
   N =  1,  n = 30000000,  r =  0,   s = 4,   L = 300,   d = 0



Counters with expected numbers >= 10
-----------------------------------------------
Number of degrees of freedom          : 4117
Chi-square statistic                  : 4108.17
p-value of test                       :    0.54

-----------------------------------------------
CPU time used                    :  00:01:22.39

Generator state:




***********************************************************
HOST = ru01, Linux

MersenneTwiter


sstring_HammingIndep test:
-----------------------------------------------
   N =  1,  n = 30000000,  r = 26,   s = 4,   L = 300,   d = 0



Counters with expected numbers >= 10
-----------------------------------------------
Number of degrees of freedom          : 4117
Chi-square statistic                  : 4094.06
p-value of test                       :    0.60

-----------------------------------------------
CPU time used                    :  00:01:29.29

Generator state:




***********************************************************
HOST = ru01, Linux

MersenneTwiter


sstring_HammingIndep test:
-----------------------------------------------
   N =  1,  n = 10000000,  r =  0,   s = 5,   L = 1200,   d = 0



Counters with expected numbers >= 10
-----------------------------------------------
Number of degrees of freedom          : 11825
Chi-square statistic                  :11664.68
p-value of test                       :    0.85

-----------------------------------------------
CPU time used                    :  00:01:32.84

Generator state:




***********************************************************
HOST = ru01, Linux

MersenneTwiter


sstring_HammingIndep test:
-----------------------------------------------
   N =  1,  n = 10000000,  r = 25,   s = 5,   L = 1200,   d = 0



Counters with expected numbers >= 10
-----------------------------------------------
Number of degrees of freedom          : 11825
Chi-square statistic                  :11697.71
p-value of test                       :    0.80

-----------------------------------------------
CPU time used                    :  00:01:36.21

Generator state:




***********************************************************
HOST = ru01, Linux

MersenneTwiter


sstring_Run test:
-----------------------------------------------
   N =  1,  n = 2000000000,  r =  0,   s =    3


-----------------------------------------------
Total number of 1 runs:  2000000000

Number of degrees of freedom          :   54
Chi2 statistic for number of runs     :   31.66
p-value of test                       :    0.9935


-----------------------------------------------
Total number of bits:  7999930839

Normal statistic for number of bits   :   -0.55
p-value of test                       :    0.71



-----------------------------------------------
CPU time used                    :  00:01:19.19

Generator state:




***********************************************************
HOST = ru01, Linux

MersenneTwiter


sstring_Run test:
-----------------------------------------------
   N =  1,  n = 2000000000,  r = 27,   s =    3


-----------------------------------------------
Total number of 1 runs:  2000000000

Number of degrees of freedom          :   54
Chi2 statistic for number of runs     :   65.86
p-value of test                       :    0.13


-----------------------------------------------
Total number of bits:  8000170719

Normal statistic for number of bits   :    1.35
p-value of test                       :    0.09



-----------------------------------------------
CPU time used                    :  00:01:22.84

Generator state:




***********************************************************
HOST = ru01, Linux

MersenneTwiter


sstring_AutoCor test:
-----------------------------------------------
   N = 10,  n = 1000000030,  r =  0,   s = 3,   d = 1


-----------------------------------------------

Kolmogorov-Smirnov+ statistic = D+    : 6.14e-3
p-value of test                       :    0.9935

Kolmogorov-Smirnov- statistic = D-    :    0.26
p-value of test                       :    0.22

Anderson-Darling statistic = A2       :    1.20
p-value of test                       :    0.26

Tests on the sum of all N observations
Standardized normal statistic         :    1.53
p-value of test                       :    0.06

Sample variance                       :    1.24
p-value of test                       :    0.26

-----------------------------------------------
CPU time used                    :  00:01:36.63

Generator state:




***********************************************************
HOST = ru01, Linux

MersenneTwiter


sstring_AutoCor test:
-----------------------------------------------
   N = 10,  n = 1000000029,  r =  0,   s = 3,   d = 3


-----------------------------------------------

Kolmogorov-Smirnov+ statistic = D+    :   0.096
p-value of test                       :    0.78

Kolmogorov-Smirnov- statistic = D-    :    0.31
p-value of test                       :    0.11

Anderson-Darling statistic = A2       :    1.09
p-value of test                       :    0.31

Tests on the sum of all N observations
Standardized normal statistic         :    1.18
p-value of test                       :    0.12

Sample variance                       :    1.36
p-value of test                       :    0.20

-----------------------------------------------
CPU time used                    :  00:01:20.12

Generator state:




***********************************************************
HOST = ru01, Linux

MersenneTwiter


sstring_AutoCor test:
-----------------------------------------------
   N = 10,  n = 1000000030,  r = 27,   s = 3,   d = 1


-----------------------------------------------

Kolmogorov-Smirnov+ statistic = D+    :    0.18
p-value of test                       :    0.48

Kolmogorov-Smirnov- statistic = D-    :    0.16
p-value of test                       :    0.54

Anderson-Darling statistic = A2       :    0.42
p-value of test                       :    0.82

Tests on the sum of all N observations
Standardized normal statistic         :   -0.25
p-value of test                       :    0.60

Sample variance                       :    1.20
p-value of test                       :    0.29

-----------------------------------------------
CPU time used                    :  00:01:38.31

Generator state:




***********************************************************
HOST = ru01, Linux

MersenneTwiter


sstring_AutoCor test:
-----------------------------------------------
   N = 10,  n = 1000000029,  r = 27,   s = 3,   d = 3


-----------------------------------------------

Kolmogorov-Smirnov+ statistic = D+    :    0.21
p-value of test                       :    0.37

Kolmogorov-Smirnov- statistic = D-    :    0.12
p-value of test                       :    0.69

Anderson-Darling statistic = A2       :    0.55
p-value of test                       :    0.70

Tests on the sum of all N observations
Standardized normal statistic         :   -0.60
p-value of test                       :    0.73

Sample variance                       :    0.56
p-value of test                       :    0.83

-----------------------------------------------
CPU time used                    :  00:01:20.79

Generator state:





========= Summary results of BigCrush =========

 Version:          TestU01 1.2.3
 Generator:        MersenneTwiter
 Number of statistics:  160
 Total CPU time:   04:18:27.14
 The following tests gave p-values outside [0.001, 0.9990]:
 (eps  means a value < 1.0e-300):
 (eps1 means a value < 1.0e-15):

       Test                          p-value
 ----------------------------------------------
 80  LinearComp, r = 0              1 - eps1
 81  LinearComp, r = 29             1 - eps1
 83  LempelZiv, r = 15               0.9990 
 ----------------------------------------------
 All other tests were passed



