xxxxxxxxxxxxxxxxxxxxxxxxxxxxxxxxxxxxxxxxxxxxxxxxxxxxxxxxxxx
                 Starting BigCrush
                 Version: TestU01 1.2.3
xxxxxxxxxxxxxxxxxxxxxxxxxxxxxxxxxxxxxxxxxxxxxxxxxxxxxxxxxxx


***********************************************************
Test smarsa_SerialOver calling smultin_MultinomialOver

***********************************************************
HOST = ru01, Linux

MersenneTwiter


smultin_MultinomialOver test:
-----------------------------------------------
   N =  1,  n = 1000000000,  r =  0,   d =  256,   t =  3,
       Sparse =  FALSE

       GenerCell = smultin_GenerCellSerial
       Number of cells = d^t =           16777216
       Expected number per cell =   59.604645
       Hashing =  FALSE

   For Delta > -1, we use the ChiSquare approximation
   Correction factor of the ChiSquare: 
       Delta =     1,    Mu =   0.0083558402,    Sigma =          1

-----------------------------------------------
Test Results for Delta =   1.0000

Number of degrees of freedom          : 16711680
Value of the statistic                : 1.67e+7
p-value of test                       :    0.45


-----------------------------------------------
CPU time used                    :  00:02:42.33

Generator state:




***********************************************************
Test smarsa_SerialOver calling smultin_MultinomialOver

***********************************************************
HOST = ru01, Linux

MersenneTwiter


smultin_MultinomialOver test:
-----------------------------------------------
   N =  1,  n = 1000000000,  r = 22,   d =  256,   t =  3,
       Sparse =  FALSE

       GenerCell = smultin_GenerCellSerial
       Number of cells = d^t =           16777216
       Expected number per cell =   59.604645
       Hashing =  FALSE

   For Delta > -1, we use the ChiSquare approximation
   Correction factor of the ChiSquare: 
       Delta =     1,    Mu =   0.0083558402,    Sigma =          1

-----------------------------------------------
Test Results for Delta =   1.0000

Number of degrees of freedom          : 16711680
Value of the statistic                : 1.67e+7
p-value of test                       :    0.22


-----------------------------------------------
CPU time used                    :  00:02:43.30

Generator state:




***********************************************************
Test smarsa_CollisionOver calling smultin_MultinomialOver

***********************************************************
HOST = ru01, Linux

MersenneTwiter


smultin_MultinomialOver test:
-----------------------------------------------
   N = 30,  n = 20000000,  r =  0,   d = 2097152,   t =  2,
       Sparse =   TRUE

       GenerCell = smultin_GenerCellSerial
       Number of cells = d^t =      4398046511104
       Expected number per cell =  1 /  219902.33
       EColl = n^2 / (2k) =  45.47473509
       Hashing =   TRUE

       Collision test

       CollisionOver:   density = n / k =  1 /  219902.33
       Expected number of collisions = Mu =      45.47


-----------------------------------------------
Results of CollisionOver test:

POISSON approximation                 :
Expected number of collisions = N*Mu  :     1364.24
Observed number of collisions         :     1337
p-value of test                       :    0.76

-----------------------------
Total number of cells containing j balls

  j =  0                              :  131940795334457
  j =  1                              :        599997326
  j =  2                              :             1337
  j =  3                              :                0
  j =  4                              :                0
  j =  5                              :                0

-----------------------------------------------
CPU time used                    :  00:07:52.94

Generator state:




***********************************************************
Test smarsa_CollisionOver calling smultin_MultinomialOver

***********************************************************
HOST = ru01, Linux

MersenneTwiter


smultin_MultinomialOver test:
-----------------------------------------------
   N = 30,  n = 20000000,  r =  9,   d = 2097152,   t =  2,
       Sparse =   TRUE

       GenerCell = smultin_GenerCellSerial
       Number of cells = d^t =      4398046511104
       Expected number per cell =  1 /  219902.33
       EColl = n^2 / (2k) =  45.47473509
       Hashing =   TRUE

       Collision test

       CollisionOver:   density = n / k =  1 /  219902.33
       Expected number of collisions = Mu =      45.47


-----------------------------------------------
Results of CollisionOver test:

POISSON approximation                 :
Expected number of collisions = N*Mu  :     1364.24
Observed number of collisions         :     1366
p-value of test                       :    0.48

-----------------------------
Total number of cells containing j balls

  j =  0                              :  131940795334486
  j =  1                              :        599997268
  j =  2                              :             1366
  j =  3                              :                0
  j =  4                              :                0
  j =  5                              :                0

-----------------------------------------------
CPU time used                    :  00:07:49.42

Generator state:




***********************************************************
Test smarsa_CollisionOver calling smultin_MultinomialOver

***********************************************************
HOST = ru01, Linux

MersenneTwiter


smultin_MultinomialOver test:
-----------------------------------------------
   N = 30,  n = 20000000,  r =  0,   d = 16384,   t =  3,
       Sparse =   TRUE

       GenerCell = smultin_GenerCellSerial
       Number of cells = d^t =      4398046511104
       Expected number per cell =  1 /  219902.33
       EColl = n^2 / (2k) =  45.47473509
       Hashing =   TRUE

       Collision test

       CollisionOver:   density = n / k =  1 /  219902.33
       Expected number of collisions = Mu =      45.47


-----------------------------------------------
Results of CollisionOver test:

POISSON approximation                 :
Expected number of collisions = N*Mu  :     1364.24
Observed number of collisions         :     1385
p-value of test                       :    0.29

-----------------------------
Total number of cells containing j balls

  j =  0                              :  131940795334505
  j =  1                              :        599997230
  j =  2                              :             1385
  j =  3                              :                0
  j =  4                              :                0
  j =  5                              :                0

-----------------------------------------------
CPU time used                    :  00:10:52.45

Generator state:




***********************************************************
Test smarsa_CollisionOver calling smultin_MultinomialOver

***********************************************************
HOST = ru01, Linux

MersenneTwiter


smultin_MultinomialOver test:
-----------------------------------------------
   N = 30,  n = 20000000,  r = 16,   d = 16384,   t =  3,
       Sparse =   TRUE

       GenerCell = smultin_GenerCellSerial
       Number of cells = d^t =      4398046511104
       Expected number per cell =  1 /  219902.33
       EColl = n^2 / (2k) =  45.47473509
       Hashing =   TRUE

       Collision test

       CollisionOver:   density = n / k =  1 /  219902.33
       Expected number of collisions = Mu =      45.47


-----------------------------------------------
Results of CollisionOver test:

POISSON approximation                 :
Expected number of collisions = N*Mu  :     1364.24
Observed number of collisions         :     1326
p-value of test                       :    0.85

-----------------------------
Total number of cells containing j balls

  j =  0                              :  131940795334446
  j =  1                              :        599997348
  j =  2                              :             1326
  j =  3                              :                0
  j =  4                              :                0
  j =  5                              :                0

-----------------------------------------------
CPU time used                    :  00:10:09.78

Generator state:




***********************************************************
Test smarsa_CollisionOver calling smultin_MultinomialOver

***********************************************************
HOST = ru01, Linux

MersenneTwiter


smultin_MultinomialOver test:
-----------------------------------------------
   N = 30,  n = 20000000,  r =  0,   d =   64,   t =  7,
       Sparse =   TRUE

       GenerCell = smultin_GenerCellSerial
       Number of cells = d^t =      4398046511104
       Expected number per cell =  1 /  219902.33
       EColl = n^2 / (2k) =  45.47473509
       Hashing =   TRUE

       Collision test

       CollisionOver:   density = n / k =  1 /  219902.33
       Expected number of collisions = Mu =      45.47


-----------------------------------------------
Results of CollisionOver test:

POISSON approximation                 :
Expected number of collisions = N*Mu  :     1364.24
Observed number of collisions         :     1311
p-value of test                       :    0.92

-----------------------------
Total number of cells containing j balls

  j =  0                              :  131940795334431
  j =  1                              :        599997378
  j =  2                              :             1311
  j =  3                              :                0
  j =  4                              :                0
  j =  5                              :                0

-----------------------------------------------
CPU time used                    :  00:11:01.42

Generator state:




***********************************************************
Test smarsa_CollisionOver calling smultin_MultinomialOver

***********************************************************
HOST = ru01, Linux

MersenneTwiter


smultin_MultinomialOver test:
-----------------------------------------------
   N = 30,  n = 20000000,  r = 24,   d =   64,   t =  7,
       Sparse =   TRUE

       GenerCell = smultin_GenerCellSerial
       Number of cells = d^t =      4398046511104
       Expected number per cell =  1 /  219902.33
       EColl = n^2 / (2k) =  45.47473509
       Hashing =   TRUE

       Collision test

       CollisionOver:   density = n / k =  1 /  219902.33
       Expected number of collisions = Mu =      45.47


-----------------------------------------------
Results of CollisionOver test:

POISSON approximation                 :
Expected number of collisions = N*Mu  :     1364.24
Observed number of collisions         :     1360
p-value of test                       :    0.54

-----------------------------
Total number of cells containing j balls

  j =  0                              :  131940795334480
  j =  1                              :        599997280
  j =  2                              :             1360
  j =  3                              :                0
  j =  4                              :                0
  j =  5                              :                0

-----------------------------------------------
CPU time used                    :  00:10:53.32

Generator state:




***********************************************************
Test smarsa_CollisionOver calling smultin_MultinomialOver

***********************************************************
HOST = ru01, Linux

MersenneTwiter


smultin_MultinomialOver test:
-----------------------------------------------
   N = 30,  n = 20000000,  r =  0,   d =    8,   t = 14,
       Sparse =   TRUE

       GenerCell = smultin_GenerCellSerial
       Number of cells = d^t =      4398046511104
       Expected number per cell =  1 /  219902.33
       EColl = n^2 / (2k) =  45.47473509
       Hashing =   TRUE

       Collision test

       CollisionOver:   density = n / k =  1 /  219902.33
       Expected number of collisions = Mu =      45.47


-----------------------------------------------
Results of CollisionOver test:

POISSON approximation                 :
Expected number of collisions = N*Mu  :     1364.24
Observed number of collisions         :     1368
p-value of test                       :    0.46

-----------------------------
Total number of cells containing j balls

  j =  0                              :  131940795334488
  j =  1                              :        599997264
  j =  2                              :             1368
  j =  3                              :                0
  j =  4                              :                0
  j =  5                              :                0

-----------------------------------------------
CPU time used                    :  00:10:55.01

Generator state:




***********************************************************
Test smarsa_CollisionOver calling smultin_MultinomialOver

***********************************************************
HOST = ru01, Linux

MersenneTwiter


smultin_MultinomialOver test:
-----------------------------------------------
   N = 30,  n = 20000000,  r = 27,   d =    8,   t = 14,
       Sparse =   TRUE

       GenerCell = smultin_GenerCellSerial
       Number of cells = d^t =      4398046511104
       Expected number per cell =  1 /  219902.33
       EColl = n^2 / (2k) =  45.47473509
       Hashing =   TRUE

       Collision test

       CollisionOver:   density = n / k =  1 /  219902.33
       Expected number of collisions = Mu =      45.47


-----------------------------------------------
Results of CollisionOver test:

POISSON approximation                 :
Expected number of collisions = N*Mu  :     1364.24
Observed number of collisions         :     1358
p-value of test                       :    0.56

-----------------------------
Total number of cells containing j balls

  j =  0                              :  131940795334478
  j =  1                              :        599997284
  j =  2                              :             1358
  j =  3                              :                0
  j =  4                              :                0
  j =  5                              :                0

-----------------------------------------------
CPU time used                    :  00:10:55.81

Generator state:




***********************************************************
Test smarsa_CollisionOver calling smultin_MultinomialOver

***********************************************************
HOST = ru01, Linux

MersenneTwiter


smultin_MultinomialOver test:
-----------------------------------------------
   N = 30,  n = 20000000,  r =  0,   d =    4,   t = 21,
       Sparse =   TRUE

       GenerCell = smultin_GenerCellSerial
       Number of cells = d^t =      4398046511104
       Expected number per cell =  1 /  219902.33
       EColl = n^2 / (2k) =  45.47473509
       Hashing =   TRUE

       Collision test

       CollisionOver:   density = n / k =  1 /  219902.33
       Expected number of collisions = Mu =      45.47


-----------------------------------------------
Results of CollisionOver test:

POISSON approximation                 :
Expected number of collisions = N*Mu  :     1364.24
Observed number of collisions         :     1254
p-value of test                       :    0.9987

-----------------------------
Total number of cells containing j balls

  j =  0                              :  131940795334374
  j =  1                              :        599997492
  j =  2                              :             1254
  j =  3                              :                0
  j =  4                              :                0
  j =  5                              :                0

-----------------------------------------------
CPU time used                    :  00:10:53.42

Generator state:




***********************************************************
Test smarsa_CollisionOver calling smultin_MultinomialOver

***********************************************************
HOST = ru01, Linux

MersenneTwiter


smultin_MultinomialOver test:
-----------------------------------------------
   N = 30,  n = 20000000,  r = 28,   d =    4,   t = 21,
       Sparse =   TRUE

       GenerCell = smultin_GenerCellSerial
       Number of cells = d^t =      4398046511104
       Expected number per cell =  1 /  219902.33
       EColl = n^2 / (2k) =  45.47473509
       Hashing =   TRUE

       Collision test

       CollisionOver:   density = n / k =  1 /  219902.33
       Expected number of collisions = Mu =      45.47


-----------------------------------------------
Results of CollisionOver test:

POISSON approximation                 :
Expected number of collisions = N*Mu  :     1364.24
Observed number of collisions         :     1310
p-value of test                       :    0.93

-----------------------------
Total number of cells containing j balls

  j =  0                              :  131940795334430
  j =  1                              :        599997380
  j =  2                              :             1310
  j =  3                              :                0
  j =  4                              :                0
  j =  5                              :                0

-----------------------------------------------
CPU time used                    :  00:12:52.10

Generator state:




***********************************************************
HOST = ru01, Linux

MersenneTwiter


smarsa_BirthdaySpacings test:
-----------------------------------------------
   N = 100,  n = 10000000,  r =  0,    d = 2147483648,    t = 2,    p = 1


      Number of cells = d^t = 4611686018427387904
      Lambda = Poisson mean =      54.2101


----------------------------------------------------
Total expected number = N*Lambda      :    5421.01
Total observed number                 :    5612
p-value of test                       :  5.0e-3


-----------------------------------------------
CPU time used                    :  00:04:35.89

Generator state:




***********************************************************
HOST = ru01, Linux

MersenneTwiter


smarsa_BirthdaySpacings test:
-----------------------------------------------
   N = 20,  n = 20000000,  r =  0,    d = 2097152,    t = 3,    p = 1


      Number of cells = d^t = 9223372036854775808
      Lambda = Poisson mean =     216.8404


----------------------------------------------------
Total expected number = N*Lambda      :    4336.81
Total observed number                 :    4352
p-value of test                       :    0.41


-----------------------------------------------
CPU time used                    :  00:01:59.39

Generator state:




***********************************************************
HOST = ru01, Linux

MersenneTwiter


smarsa_BirthdaySpacings test:
-----------------------------------------------
   N = 20,  n = 30000000,  r = 14,    d = 65536,    t = 4,    p = 1


      Number of cells = d^t = 18446744073709551616
      Lambda = Poisson mean =     365.9182


----------------------------------------------------
Total expected number = N*Lambda      :    7318.36
Total observed number                 :    7374
p-value of test                       :    0.26


-----------------------------------------------
CPU time used                    :  00:03:14.63

Generator state:




***********************************************************
HOST = ru01, Linux

MersenneTwiter


smarsa_BirthdaySpacings test:
-----------------------------------------------
   N = 20,  n = 20000000,  r =  0,    d = 512,    t = 7,    p = 1


      Number of cells = d^t = 9223372036854775808
      Lambda = Poisson mean =     216.8404


----------------------------------------------------
Total expected number = N*Lambda      :    4336.81
Total observed number                 :    4461
p-value of test                       :    0.03


-----------------------------------------------
CPU time used                    :  00:02:17.92

Generator state:




***********************************************************
HOST = ru01, Linux

MersenneTwiter


smarsa_BirthdaySpacings test:
-----------------------------------------------
   N = 20,  n = 20000000,  r =  7,    d = 512,    t = 7,    p = 1


      Number of cells = d^t = 9223372036854775808
      Lambda = Poisson mean =     216.8404


----------------------------------------------------
Total expected number = N*Lambda      :    4336.81
Total observed number                 :    4242
p-value of test                       :    0.92


-----------------------------------------------
CPU time used                    :  00:02:24.38

Generator state:




***********************************************************
HOST = ru01, Linux

MersenneTwiter


smarsa_BirthdaySpacings test:
-----------------------------------------------
   N = 20,  n = 30000000,  r = 14,    d = 256,    t = 8,    p = 1


      Number of cells = d^t = 18446744073709551616
      Lambda = Poisson mean =     365.9182


----------------------------------------------------
Total expected number = N*Lambda      :    7318.36
Total observed number                 :    7405
p-value of test                       :    0.16


-----------------------------------------------
CPU time used                    :  00:03:50.13

Generator state:




***********************************************************
HOST = ru01, Linux

MersenneTwiter


smarsa_BirthdaySpacings test:
-----------------------------------------------
   N = 20,  n = 30000000,  r = 22,    d = 256,    t = 8,    p = 1


      Number of cells = d^t = 18446744073709551616
      Lambda = Poisson mean =     365.9182


----------------------------------------------------
Total expected number = N*Lambda      :    7318.36
Total observed number                 :    7260
p-value of test                       :    0.75


-----------------------------------------------
CPU time used                    :  00:03:50.94

Generator state:




***********************************************************
HOST = ru01, Linux

MersenneTwiter


smarsa_BirthdaySpacings test:
-----------------------------------------------
   N = 20,  n = 30000000,  r =  0,    d = 16,    t = 16,    p = 1


      Number of cells = d^t = 18446744073709551616
      Lambda = Poisson mean =     365.9182


----------------------------------------------------
Total expected number = N*Lambda      :    7318.36
Total observed number                 :    7363
p-value of test                       :    0.30


-----------------------------------------------
CPU time used                    :  00:04:40.19

Generator state:




***********************************************************
HOST = ru01, Linux

MersenneTwiter


smarsa_BirthdaySpacings test:
-----------------------------------------------
   N = 20,  n = 30000000,  r = 26,    d = 16,    t = 16,    p = 1


      Number of cells = d^t = 18446744073709551616
      Lambda = Poisson mean =     365.9182


----------------------------------------------------
Total expected number = N*Lambda      :    7318.36
Total observed number                 :    7229
p-value of test                       :    0.85


-----------------------------------------------
CPU time used                    :  00:04:53.03

Generator state:




***********************************************************
HOST = ru01, Linux

MersenneTwiter


snpair_ClosePairs test:
-----------------------------------------------
   N = 30,  n = 6000000,  r =  0,  t = 3,  p = 0,  m = 30,  Torus =  TRUE


---------------------------------------
Test based on the 2 nearest points (NP):

Stat. AD on the N values (NP)         :    0.47
p-value of test                       :    0.78


A2 test based on the spacings between the
   successive jump times of process Y_n(t):

A2 test on the values of A2 (m-NP)    :    0.32
p-value of test                       :    0.92

Test on the Nm values of W_{n,i}(mNP1):    2.08
p-value of test                       :    0.08

Test on the jump times of Y
   (superposition of Yn):

Expected number of jumps of Y = mN    :     900
Number of jumps of Y                  :     945
p-value of test                       :    0.07

Stat. AD (mNP2)                       :    1.26
p-value of test                       :    0.24

Stat. AD after spacings (mNP2-S)      :    2.87
p-value of test                       :    0.03

-----------------------------------------------
CPU time used                    :  00:02:59.48

Generator state:




***********************************************************
HOST = ru01, Linux

MersenneTwiter


snpair_ClosePairs test:
-----------------------------------------------
   N = 20,  n = 4000000,  r =  0,  t = 5,  p = 0,  m = 30,  Torus =  TRUE


---------------------------------------
Test based on the 2 nearest points (NP):

Stat. AD on the N values (NP)         :    0.55
p-value of test                       :    0.69


A2 test based on the spacings between the
   successive jump times of process Y_n(t):

A2 test on the values of A2 (m-NP)    :    0.40
p-value of test                       :    0.85

Test on the Nm values of W_{n,i}(mNP1):    0.60
p-value of test                       :    0.65

Test on the jump times of Y
   (superposition of Yn):

Expected number of jumps of Y = mN    :     600
Number of jumps of Y                  :     610
p-value of test                       :    0.35

Stat. AD (mNP2)                       :    0.58
p-value of test                       :    0.67

Stat. AD after spacings (mNP2-S)      :    1.16
p-value of test                       :    0.28

-----------------------------------------------
CPU time used                    :  00:01:42.53

Generator state:




***********************************************************
HOST = ru01, Linux

MersenneTwiter


snpair_ClosePairs test:
-----------------------------------------------
   N = 10,  n = 3000000,  r =  0,  t = 9,  p = 0,  m = 30,  Torus =  TRUE


---------------------------------------
Test based on the 2 nearest points (NP):

Stat. AD on the N values (NP)         :    0.58
p-value of test                       :    0.66


A2 test based on the spacings between the
   successive jump times of process Y_n(t):

A2 test on the values of A2 (m-NP)    :    2.34
p-value of test                       :    0.06

Test on the Nm values of W_{n,i}(mNP1):    0.90
p-value of test                       :    0.41

Test on the jump times of Y
   (superposition of Yn):

Expected number of jumps of Y = mN    :     300
Number of jumps of Y                  :     283
p-value of test                       :    0.83

Stat. AD (mNP2)                       :    1.51
p-value of test                       :    0.17

Stat. AD after spacings (mNP2-S)      :    1.29
p-value of test                       :    0.24

-----------------------------------------------
CPU time used                    :  00:02:47.63

Generator state:




***********************************************************
HOST = ru01, Linux

MersenneTwiter


snpair_ClosePairs test:
-----------------------------------------------
   N =  5,  n = 2000000,  r =  0,  t = 16,  p = 0,  m = 30,  Torus =  TRUE


---------------------------------------
Test based on the 2 nearest points (NP):

Stat. AD on the N values (NP)         :    1.22
p-value of test                       :    0.26


A2 test based on the spacings between the
   successive jump times of process Y_n(t):

A2 test on the values of A2 (m-NP)    :    0.38
p-value of test                       :    0.86

Test on the Nm values of W_{n,i}(mNP1):    0.77
p-value of test                       :    0.50

Test on the jump times of Y
   (superposition of Yn):

Expected number of jumps of Y = mN    :     150
Number of jumps of Y                  :     155
p-value of test                       :    0.35

Stat. AD (mNP2)                       :    0.40
p-value of test                       :    0.85

Stat. AD after spacings (mNP2-S)      :    0.24
p-value of test                       :    0.97

-----------------------------------------------
CPU time used                    :  00:03:11.32

Generator state:




***********************************************************
HOST = ru01, Linux

MersenneTwiter


sknuth_SimpPoker test:
-----------------------------------------------
   N =  1,  n = 400000000,  r =  0,   d =    8,   k =    8


-----------------------------------------------
Number of degrees of freedom          :    7
Chi-square statistic                  :    5.78
p-value of test                       :    0.57

-----------------------------------------------
CPU time used                    :  00:01:01.56

Generator state:




***********************************************************
HOST = ru01, Linux

MersenneTwiter


sknuth_SimpPoker test:
-----------------------------------------------
   N =  1,  n = 400000000,  r = 27,   d =    8,   k =    8


-----------------------------------------------
Number of degrees of freedom          :    7
Chi-square statistic                  :    1.58
p-value of test                       :    0.98

-----------------------------------------------
CPU time used                    :  00:01:15.13

Generator state:




***********************************************************
HOST = ru01, Linux

MersenneTwiter


sknuth_SimpPoker test:
-----------------------------------------------
   N =  1,  n = 100000000,  r =  0,   d =   32,   k =   32


-----------------------------------------------
Number of degrees of freedom          :   18
Chi-square statistic                  :    4.73
p-value of test                       :    0.9992    *****

-----------------------------------------------
CPU time used                    :  00:01:04.95

Generator state:




***********************************************************
HOST = ru01, Linux

MersenneTwiter


sknuth_SimpPoker test:
-----------------------------------------------
   N =  1,  n = 100000000,  r = 25,   d =   32,   k =   32


-----------------------------------------------
Number of degrees of freedom          :   18
Chi-square statistic                  :   24.01
p-value of test                       :    0.15

-----------------------------------------------
CPU time used                    :  00:01:18.95

Generator state:




***********************************************************
HOST = ru01, Linux

MersenneTwiter


sknuth_CouponCollector test:
-----------------------------------------------
   N =  1,  n = 200000000,  r =  0,   d =    8


-----------------------------------------------
Number of degrees of freedom          :   54
Chi-square statistic                  :   64.21
p-value of test                       :    0.16

-----------------------------------------------
CPU time used                    :  00:01:18.67

Generator state:




***********************************************************
HOST = ru01, Linux

MersenneTwiter


sknuth_CouponCollector test:
-----------------------------------------------
   N =  1,  n = 200000000,  r = 10,   d =    8


-----------------------------------------------
Number of degrees of freedom          :   54
Chi-square statistic                  :   57.97
p-value of test                       :    0.33

-----------------------------------------------
CPU time used                    :  00:01:35.95

Generator state:




***********************************************************
HOST = ru01, Linux

MersenneTwiter


sknuth_CouponCollector test:
-----------------------------------------------
   N =  1,  n = 200000000,  r = 20,   d =    8


-----------------------------------------------
Number of degrees of freedom          :   54
Chi-square statistic                  :   47.96
p-value of test                       :    0.71

-----------------------------------------------
CPU time used                    :  00:01:36.51

Generator state:




***********************************************************
HOST = ru01, Linux

MersenneTwiter


sknuth_CouponCollector test:
-----------------------------------------------
   N =  1,  n = 200000000,  r = 27,   d =    8


-----------------------------------------------
Number of degrees of freedom          :   54
Chi-square statistic                  :   39.25
p-value of test                       :    0.93

-----------------------------------------------
CPU time used                    :  00:01:37.48

Generator state:




***********************************************************
HOST = ru01, Linux

MersenneTwiter


sknuth_Gap test:
-----------------------------------------------
   N =  1,  n = 500000000,  r =  0,   Alpha =        0,   Beta  =   0.0625


-----------------------------------------------
Number of degrees of freedom          :  232
Chi-square statistic                  :  253.32
p-value of test                       :    0.16

-----------------------------------------------
CPU time used                    :  00:01:39.23

Generator state:




***********************************************************
HOST = ru01, Linux

MersenneTwiter


sknuth_Gap test:
-----------------------------------------------
   N =  1,  n = 300000000,  r = 25,   Alpha =        0,   Beta  =  0.03125


-----------------------------------------------
Number of degrees of freedom          :  434
Chi-square statistic                  :  499.34
p-value of test                       :    0.02

-----------------------------------------------
CPU time used                    :  00:02:21.97

Generator state:




***********************************************************
HOST = ru01, Linux

MersenneTwiter


sknuth_Gap test:
-----------------------------------------------
   N =  1,  n = 100000000,  r =  0,   Alpha =        0,   Beta  = 0.0078125


-----------------------------------------------
Number of degrees of freedom          : 1437
Chi-square statistic                  : 1434.87
p-value of test                       :    0.51

-----------------------------------------------
CPU time used                    :  00:02:23.61

Generator state:




***********************************************************
HOST = ru01, Linux

MersenneTwiter


sknuth_Gap test:
-----------------------------------------------
   N =  1,  n = 10000000,  r = 20,   Alpha =        0,   Beta  = 0.000976562


-----------------------------------------------
Number of degrees of freedom          : 7046
Chi-square statistic                  : 7152.81
p-value of test                       :    0.18

-----------------------------------------------
CPU time used                    :  00:02:21.37

Generator state:




***********************************************************
HOST = ru01, Linux

MersenneTwiter


sknuth_Run test:
-----------------------------------------------
   N =  5,  n = 1000000000,  r =  0,   Up = FALSE


-----------------------------------------------

Kolmogorov-Smirnov+ statistic = D+    :    0.15
p-value of test                       :    0.73

Kolmogorov-Smirnov- statistic = D-    :    0.23
p-value of test                       :    0.51

Anderson-Darling statistic = A2       :    0.27
p-value of test                       :    0.96

Test on the sum of all N observations
Number of degrees of freedom          :   30
Chi-square statistic                  :   30.02
p-value of test                       :    0.46

-----------------------------------------------
CPU time used                    :  00:01:22.84

Generator state:




***********************************************************
HOST = ru01, Linux

MersenneTwiter


sknuth_Run test:
-----------------------------------------------
   N = 10,  n = 1000000000,  r = 15,   Up =  TRUE


-----------------------------------------------

Kolmogorov-Smirnov+ statistic = D+    :    0.25
p-value of test                       :    0.25

Kolmogorov-Smirnov- statistic = D-    :    0.18
p-value of test                       :    0.48

Anderson-Darling statistic = A2       :    0.91
p-value of test                       :    0.40

Test on the sum of all N observations
Number of degrees of freedom          :   60
Chi-square statistic                  :   66.66
p-value of test                       :    0.26

-----------------------------------------------
CPU time used                    :  00:03:24.53

Generator state:




***********************************************************
Test sknuth_Permutation calling smultin_Multinomial

***********************************************************
HOST = ru01, Linux

MersenneTwiter


smultin_Multinomial test:
-----------------------------------------------
   N =  1,  n = 1000000000,  r =  5,   t =  3,
       Sparse =  FALSE

       GenerCell = smultin_GenerCellPermut
       Number of cells = t! =                  6
       Expected number per cell =  1.6666667e+08
       Hashing =  FALSE

   For Delta > -1, we use the ChiSquare approximation
   Correction factor of the ChiSquare: 
       Delta =     1,    Mu =  2.5000002e-09,    Sigma =          1

-----------------------------------------------
Test Results for Delta =   1.0000

Number of degrees of freedom          :    5
Value of the statistic                :    1.48
p-value of test                       :    0.92


-----------------------------------------------
CPU time used                    :  00:01:04.00

Generator state:




***********************************************************
Test sknuth_Permutation calling smultin_Multinomial

***********************************************************
HOST = ru01, Linux

MersenneTwiter


smultin_Multinomial test:
-----------------------------------------------
   N =  1,  n = 1000000000,  r =  5,   t =  5,
       Sparse =  FALSE

       GenerCell = smultin_GenerCellPermut
       Number of cells = t! =                120
       Expected number per cell =   8333333.3
       Hashing =  FALSE

   For Delta > -1, we use the ChiSquare approximation
   Correction factor of the ChiSquare: 
       Delta =     1,    Mu =  5.9500005e-08,    Sigma =          1

-----------------------------------------------
Test Results for Delta =   1.0000

Number of degrees of freedom          :  119
Value of the statistic                :  108.74
p-value of test                       :    0.74


-----------------------------------------------
CPU time used                    :  00:01:48.51

Generator state:




***********************************************************
Test sknuth_Permutation calling smultin_Multinomial

***********************************************************
HOST = ru01, Linux

MersenneTwiter


smultin_Multinomial test:
-----------------------------------------------
   N =  1,  n = 500000000,  r =  5,   t =  7,
       Sparse =  FALSE

       GenerCell = smultin_GenerCellPermut
       Number of cells = t! =               5040
       Expected number per cell =   99206.349
       Hashing =  FALSE

   For Delta > -1, we use the ChiSquare approximation
   Correction factor of the ChiSquare: 
       Delta =     1,    Mu =  5.0390004e-06,    Sigma =          1

-----------------------------------------------
Test Results for Delta =   1.0000

Number of degrees of freedom          : 5039
Value of the statistic                : 4951.89
p-value of test                       :    0.81


-----------------------------------------------
CPU time used                    :  00:01:20.25

Generator state:




***********************************************************
Test sknuth_Permutation calling smultin_Multinomial

***********************************************************
HOST = ru01, Linux

MersenneTwiter


smultin_Multinomial test:
-----------------------------------------------
   N =  1,  n = 500000000,  r = 10,   t = 10,
       Sparse =  FALSE

       GenerCell = smultin_GenerCellPermut
       Number of cells = t! =            3628800
       Expected number per cell =    137.7866
       Hashing =  FALSE

   For Delta > -1, we use the ChiSquare approximation
   Correction factor of the ChiSquare: 
       Delta =     1,    Mu =   0.0036287993,    Sigma =          1

-----------------------------------------------
Test Results for Delta =   1.0000

Number of degrees of freedom          : 3628799
Value of the statistic                : 3.63e+6
p-value of test                       :    0.72


-----------------------------------------------
CPU time used                    :  00:03:42.22

Generator state:




***********************************************************
Test sknuth_CollisionPermut calling smultin_Multinomial

***********************************************************
HOST = ru01, Linux

MersenneTwiter


smultin_Multinomial test:
-----------------------------------------------
   N = 20,  n = 20000000,  r =  0,   t = 14,
       Sparse =   TRUE

       GenerCell = smultin_GenerCellPermut
       Number of cells = t! =        87178291200
       Expected number per cell =  1 /  4358.9146
       EColl = n^2 / (2k) =   2294.14912
       Hashing =   TRUE

       Collision test,    Mu =      2293.9736,    Sigma =    47.8841

-----------------------------------------------
Test Results for Collisions

For the total number of collisions, we use
      the Poisson approximation:
Expected number of collisions = N*Mu  :    45879.47
Observed number of collisions         :    45879
p-value of test                       :    0.50


-----------------------------
Total number of cells containing j balls

  j =  0                              :    1743165869879
  j =  1                              :        399908246
  j =  2                              :            45871
  j =  3                              :                4
  j =  4                              :                0
  j =  5                              :                0

-----------------------------------------------
CPU time used                    :  00:05:32.70

Generator state:




***********************************************************
Test sknuth_CollisionPermut calling smultin_Multinomial

***********************************************************
HOST = ru01, Linux

MersenneTwiter


smultin_Multinomial test:
-----------------------------------------------
   N = 20,  n = 20000000,  r = 10,   t = 14,
       Sparse =   TRUE

       GenerCell = smultin_GenerCellPermut
       Number of cells = t! =        87178291200
       Expected number per cell =  1 /  4358.9146
       EColl = n^2 / (2k) =   2294.14912
       Hashing =   TRUE

       Collision test,    Mu =      2293.9736,    Sigma =    47.8841

-----------------------------------------------
Test Results for Collisions

For the total number of collisions, we use
      the Poisson approximation:
Expected number of collisions = N*Mu  :    45879.47
Observed number of collisions         :    46056
p-value of test                       :    0.21


-----------------------------
Total number of cells containing j balls

  j =  0                              :    1743165870056
  j =  1                              :        399907890
  j =  2                              :            46052
  j =  3                              :                2
  j =  4                              :                0
  j =  5                              :                0

-----------------------------------------------
CPU time used                    :  00:05:47.05

Generator state:




***********************************************************
HOST = ru01, Linux

MersenneTwiter


sknuth_MaxOft test:
-----------------------------------------------
   N = 40,  n = 10000000,  r =  0,   d = 100000,   t =  8

      Number of categories = 100000
      Expected number per category  = 100.00


-----------------------------------------------
Test results for chi2 with 99999 degrees of freedom:

Kolmogorov-Smirnov+ statistic = D+    :   0.050
p-value of test                       :    0.79

Kolmogorov-Smirnov- statistic = D-    :   0.094
p-value of test                       :    0.47

Anderson-Darling statistic = A2       :    0.46
p-value of test                       :    0.78

Test on the sum of all N observations
Number of degrees of freedom          : 3999960
Chi-square statistic                  : 4.00e+6
p-value of test                       :    0.30


-----------------------------------------------
Test results for Anderson-Darling:

Kolmogorov-Smirnov+ statistic = D+    :   0.036
p-value of test                       :    0.88

Kolmogorov-Smirnov- statistic = D-    :    0.16
p-value of test                       :    0.13

Anderson-Darling statistic = A2       :    1.15
p-value of test                       :    0.29


-----------------------------------------------
CPU time used                    :  00:02:12.27

Generator state:




***********************************************************
HOST = ru01, Linux

MersenneTwiter


sknuth_MaxOft test:
-----------------------------------------------
   N = 30,  n = 10000000,  r =  0,   d = 100000,   t = 16

      Number of categories = 100000
      Expected number per category  = 100.00


-----------------------------------------------
Test results for chi2 with 99999 degrees of freedom:

Kolmogorov-Smirnov+ statistic = D+    :    0.23
p-value of test                       :    0.03

Kolmogorov-Smirnov- statistic = D-    :   0.045
p-value of test                       :    0.86

Anderson-Darling statistic = A2       :    1.79
p-value of test                       :    0.12

Test on the sum of all N observations
Number of degrees of freedom          : 2999970
Chi-square statistic                  : 3.00e+6
p-value of test                       :    0.95


-----------------------------------------------
Test results for Anderson-Darling:

Kolmogorov-Smirnov+ statistic = D+    :    0.13
p-value of test                       :    0.36

Kolmogorov-Smirnov- statistic = D-    :    0.17
p-value of test                       :    0.17

Anderson-Darling statistic = A2       :    1.25
p-value of test                       :    0.25


-----------------------------------------------
CPU time used                    :  00:02:06.10

Generator state:




***********************************************************
HOST = ru01, Linux

MersenneTwiter


sknuth_MaxOft test:
-----------------------------------------------
   N = 20,  n = 10000000,  r =  0,   d = 100000,   t = 24

      Number of categories = 100000
      Expected number per category  = 100.00


-----------------------------------------------
Test results for chi2 with 99999 degrees of freedom:

Kolmogorov-Smirnov+ statistic = D+    :    0.16
p-value of test                       :    0.33

Kolmogorov-Smirnov- statistic = D-    :   0.037
p-value of test                       :    0.93

Anderson-Darling statistic = A2       :    0.73
p-value of test                       :    0.53

Test on the sum of all N observations
Number of degrees of freedom          : 1999980
Chi-square statistic                  : 2.00e+6
p-value of test                       :    0.85


-----------------------------------------------
Test results for Anderson-Darling:

Kolmogorov-Smirnov+ statistic = D+    :    0.24
p-value of test                       :    0.08

Kolmogorov-Smirnov- statistic = D-    :   0.019
p-value of test                       :    0.97

Anderson-Darling statistic = A2       :    1.69
p-value of test                       :    0.14


-----------------------------------------------
CPU time used                    :  00:01:42.40

Generator state:




***********************************************************
HOST = ru01, Linux

MersenneTwiter


sknuth_MaxOft test:
-----------------------------------------------
   N = 20,  n = 10000000,  r =  0,   d = 100000,   t = 32

      Number of categories = 100000
      Expected number per category  = 100.00


-----------------------------------------------
Test results for chi2 with 99999 degrees of freedom:

Kolmogorov-Smirnov+ statistic = D+    :    0.15
p-value of test                       :    0.35

Kolmogorov-Smirnov- statistic = D-    :   0.100
p-value of test                       :    0.63

Anderson-Darling statistic = A2       :    0.40
p-value of test                       :    0.85

Test on the sum of all N observations
Number of degrees of freedom          : 1999980
Chi-square statistic                  : 2.00e+6
p-value of test                       :    0.53


-----------------------------------------------
Test results for Anderson-Darling:

Kolmogorov-Smirnov+ statistic = D+    :    0.21
p-value of test                       :    0.16

Kolmogorov-Smirnov- statistic = D-    :   0.017
p-value of test                       :    0.98

Anderson-Darling statistic = A2       :    1.07
p-value of test                       :    0.32


-----------------------------------------------
CPU time used                    :  00:02:01.13

Generator state:




***********************************************************
HOST = ru01, Linux

MersenneTwiter


svaria_SampleProd test:
-----------------------------------------------
   N = 40,  n = 10000000,  r =  0,   t = 8


-----------------------------------------------

Kolmogorov-Smirnov+ statistic = D+    :    0.16
p-value of test                       :    0.12

Kolmogorov-Smirnov- statistic = D-    :   0.015
p-value of test                       :    0.97

Anderson-Darling statistic = A2       :    1.72
p-value of test                       :    0.13

-----------------------------------------------
CPU time used                    :  00:01:55.67

Generator state:




***********************************************************
HOST = ru01, Linux

MersenneTwiter


svaria_SampleProd test:
-----------------------------------------------
   N = 20,  n = 10000000,  r =  0,   t = 16


-----------------------------------------------

Kolmogorov-Smirnov+ statistic = D+    :   0.034
p-value of test                       :    0.94

Kolmogorov-Smirnov- statistic = D-    :    0.13
p-value of test                       :    0.45

Anderson-Darling statistic = A2       :    0.80
p-value of test                       :    0.48

-----------------------------------------------
CPU time used                    :  00:01:18.89

Generator state:




***********************************************************
HOST = ru01, Linux

MersenneTwiter


svaria_SampleProd test:
-----------------------------------------------
   N = 20,  n = 10000000,  r =  0,   t = 24


-----------------------------------------------

Kolmogorov-Smirnov+ statistic = D+    :    0.27
p-value of test                       :    0.04

Kolmogorov-Smirnov- statistic = D-    :   0.048
p-value of test                       :    0.88

Anderson-Darling statistic = A2       :    1.92
p-value of test                       :    0.10

-----------------------------------------------
CPU time used                    :  00:01:38.50

Generator state:




***********************************************************
HOST = ru01, Linux

MersenneTwiter


svaria_SampleMean test:
-----------------------------------------------
   N = 20000000,  n = 30,  r =  0


-----------------------------------------------

Kolmogorov-Smirnov+ statistic = D+    : 1.78e-4
p-value of test                       :    0.28

Kolmogorov-Smirnov- statistic = D-    : 1.51e-4
p-value of test                       :    0.40

Anderson-Darling statistic = A2       :    0.46
p-value of test                       :    0.78

-----------------------------------------------
CPU time used                    :  00:00:18.19

Generator state:




***********************************************************
HOST = ru01, Linux

MersenneTwiter


svaria_SampleMean test:
-----------------------------------------------
   N = 20000000,  n = 30,  r = 10


-----------------------------------------------

Kolmogorov-Smirnov+ statistic = D+    : 1.36e-4
p-value of test                       :    0.48

Kolmogorov-Smirnov- statistic = D-    : 1.55e-4
p-value of test                       :    0.38

Anderson-Darling statistic = A2       :    0.73
p-value of test                       :    0.53

-----------------------------------------------
CPU time used                    :  00:00:19.11

Generator state:




***********************************************************
HOST = ru01, Linux

MersenneTwiter


svaria_SampleCorr test:
-----------------------------------------------
   N =  1,  n = 2000000000,  r =  0,   k = 1


-----------------------------------------------
Normal statistic                      :    0.39
p-value of test                       :    0.35

-----------------------------------------------
CPU time used                    :  00:00:24.45

Generator state:




***********************************************************
HOST = ru01, Linux

MersenneTwiter


svaria_SampleCorr test:
-----------------------------------------------
   N =  1,  n = 2000000000,  r =  0,   k = 2


-----------------------------------------------
Normal statistic                      :    1.00
p-value of test                       :    0.16

-----------------------------------------------
CPU time used                    :  00:00:24.37

Generator state:




***********************************************************
HOST = ru01, Linux

MersenneTwiter


svaria_AppearanceSpacings test:
-----------------------------------------------
   N =  1,   Q = 10000000,   K = 1000000000,   r = 0,   s = 3,   L = 15

   Sequences of n = (K + Q)L =  15150000000 bits
   Q = 10000000 initialization blocks
   K = 1000000000 blocks for the test
   the blocks have L = 15 bits



-----------------------------------------------
Normal statistic                      :   -0.84
p-value of test                       :    0.80

-----------------------------------------------
CPU time used                    :  00:01:18.51

Generator state:




***********************************************************
HOST = ru01, Linux

MersenneTwiter


svaria_AppearanceSpacings test:
-----------------------------------------------
   N =  1,   Q = 10000000,   K = 1000000000,   r = 27,   s = 3,   L = 15

   Sequences of n = (K + Q)L =  15150000000 bits
   Q = 10000000 initialization blocks
   K = 1000000000 blocks for the test
   the blocks have L = 15 bits



-----------------------------------------------
Normal statistic                      :   -0.55
p-value of test                       :    0.71

-----------------------------------------------
CPU time used                    :  00:01:18.87

Generator state:




***********************************************************
HOST = ru01, Linux

MersenneTwiter


svaria_WeightDistrib test:
-----------------------------------------------
   N =  1,  n = 20000000,  r =  0,  k = 256,  Alpha =      0,  Beta =   0.25


-----------------------------------------------
Number of degrees of freedom          :   67
Chi-square statistic                  :   77.85
p-value of test                       :    0.17

-----------------------------------------------
CPU time used                    :  00:00:58.78

Generator state:




***********************************************************
HOST = ru01, Linux

MersenneTwiter


svaria_WeightDistrib test:
-----------------------------------------------
   N =  1,  n = 20000000,  r = 20,  k = 256,  Alpha =      0,  Beta =   0.25


-----------------------------------------------
Number of degrees of freedom          :   67
Chi-square statistic                  :   87.50
p-value of test                       :    0.05

-----------------------------------------------
CPU time used                    :  00:01:12.73

Generator state:




***********************************************************
HOST = ru01, Linux

MersenneTwiter


svaria_WeightDistrib test:
-----------------------------------------------
   N =  1,  n = 20000000,  r = 28,  k = 256,  Alpha =      0,  Beta =   0.25


-----------------------------------------------
Number of degrees of freedom          :   67
Chi-square statistic                  :   73.49
p-value of test                       :    0.27

-----------------------------------------------
CPU time used                    :  00:01:13.12

Generator state:




***********************************************************
HOST = ru01, Linux

MersenneTwiter


svaria_WeightDistrib test:
-----------------------------------------------
   N =  1,  n = 20000000,  r =  0,  k = 256,  Alpha =      0,  Beta = 0.0625


-----------------------------------------------
Number of degrees of freedom          :   37
Chi-square statistic                  :   33.06
p-value of test                       :    0.65

-----------------------------------------------
CPU time used                    :  00:00:59.73

Generator state:




***********************************************************
HOST = ru01, Linux

MersenneTwiter


svaria_WeightDistrib test:
-----------------------------------------------
   N =  1,  n = 20000000,  r = 10,  k = 256,  Alpha =      0,  Beta = 0.0625


-----------------------------------------------
Number of degrees of freedom          :   37
Chi-square statistic                  :   47.27
p-value of test                       :    0.12

-----------------------------------------------
CPU time used                    :  00:01:13.64

Generator state:




***********************************************************
HOST = ru01, Linux

MersenneTwiter


svaria_WeightDistrib test:
-----------------------------------------------
   N =  1,  n = 20000000,  r = 26,  k = 256,  Alpha =      0,  Beta = 0.0625


-----------------------------------------------
Number of degrees of freedom          :   37
Chi-square statistic                  :   33.39
p-value of test                       :    0.64

-----------------------------------------------
CPU time used                    :  00:01:13.54

Generator state:




***********************************************************
HOST = ru01, Linux

MersenneTwiter


svaria_SumCollector test:
-----------------------------------------------
   N =  1,  n = 500000000,  r =  0,   g = 10


-----------------------------------------------
Number of degrees of freedom          :   29
Chi-square statistic                  :   32.51
p-value of test                       :    0.30

-----------------------------------------------
CPU time used                    :  00:02:09.52

Generator state:




***********************************************************
HOST = ru01, Linux

MersenneTwiter


smarsa_MatrixRank test:
-----------------------------------------------
   N = 10,  n = 1000000,  r =  0,    s = 5,    L = 30,    k = 30


-----------------------------------------------

Kolmogorov-Smirnov+ statistic = D+    :    0.36
p-value of test                       :    0.06

Kolmogorov-Smirnov- statistic = D-    :    0.16
p-value of test                       :    0.55

Anderson-Darling statistic = A2       :    1.18
p-value of test                       :    0.27

Test on the sum of all N observations
Number of degrees of freedom          :   40
Chi-square statistic                  :   30.46
p-value of test                       :    0.86

-----------------------------------------------
CPU time used                    :  00:01:28.07

Generator state:




***********************************************************
HOST = ru01, Linux

MersenneTwiter


smarsa_MatrixRank test:
-----------------------------------------------
   N = 10,  n = 1000000,  r = 25,    s = 5,    L = 30,    k = 30


-----------------------------------------------

Kolmogorov-Smirnov+ statistic = D+    :    0.15
p-value of test                       :    0.57

Kolmogorov-Smirnov- statistic = D-    :    0.12
p-value of test                       :    0.71

Anderson-Darling statistic = A2       :    0.34
p-value of test                       :    0.91

Test on the sum of all N observations
Number of degrees of freedom          :   40
Chi-square statistic                  :   37.31
p-value of test                       :    0.59

-----------------------------------------------
CPU time used                    :  00:01:29.43

Generator state:




***********************************************************
HOST = ru01, Linux

MersenneTwiter


smarsa_MatrixRank test:
-----------------------------------------------
   N =  1,  n = 5000,  r =  0,    s = 4,    L = 1000,    k = 1000


-----------------------------------------------
Number of degrees of freedom          :    3
Chi-square statistic                  :    3.22
p-value of test                       :    0.36

-----------------------------------------------
CPU time used                    :  00:02:24.77

Generator state:




***********************************************************
HOST = ru01, Linux

MersenneTwiter


smarsa_MatrixRank test:
-----------------------------------------------
   N =  1,  n = 5000,  r = 26,    s = 4,    L = 1000,    k = 1000


-----------------------------------------------
Number of degrees of freedom          :    3
Chi-square statistic                  :    7.52
p-value of test                       :    0.06

-----------------------------------------------
CPU time used                    :  00:02:26.12

Generator state:




***********************************************************
HOST = ru01, Linux

MersenneTwiter


smarsa_MatrixRank test:
-----------------------------------------------
   N =  1,  n = 80,  r = 15,    s = 15,    L = 5000,    k = 5000


-----------------------------------------------
Number of degrees of freedom          :    2
Chi-square statistic                  :    3.05
p-value of test                       :    0.22

-----------------------------------------------
CPU time used                    :  00:02:00.82

Generator state:




***********************************************************
HOST = ru01, Linux

MersenneTwiter


smarsa_MatrixRank test:
-----------------------------------------------
   N =  1,  n = 80,  r =  0,    s = 30,    L = 5000,    k = 5000


-----------------------------------------------
Number of degrees of freedom          :    2
Chi-square statistic                  :    1.82
p-value of test                       :    0.40

-----------------------------------------------
CPU time used                    :  00:01:34.70

Generator state:




***********************************************************
HOST = ru01, Linux

MersenneTwiter


smarsa_Savir2 test:
-----------------------------------------------
   N = 10,  n = 10000000,  r = 10,    m = 1048576,    t = 30


-----------------------------------------------

Kolmogorov-Smirnov+ statistic = D+    :    0.14
p-value of test                       :    0.61

Kolmogorov-Smirnov- statistic = D-    :    0.29
p-value of test                       :    0.15

Anderson-Darling statistic = A2       :    0.98
p-value of test                       :    0.37

Test on the sum of all N observations
Number of degrees of freedom          :  130
Chi-square statistic                  :  133.49
p-value of test                       :    0.40

-----------------------------------------------
CPU time used                    :  00:00:39.79

Generator state:




***********************************************************
HOST = ru01, Linux

MersenneTwiter


smarsa_GCD test:
-----------------------------------------------
   N = 10,  n = 50000000,  r =  0,   s = 30


-----------------------------------------------
Test results for GCD values:

Kolmogorov-Smirnov+ statistic = D+    :    0.18
p-value of test                       :    0.47

Kolmogorov-Smirnov- statistic = D-    :    0.31
p-value of test                       :    0.12

Anderson-Darling statistic = A2       :    1.95
p-value of test                       :    0.10

Test on the sum of all N observations
Number of degrees of freedom          : 17430
Chi-square statistic                  :17616.56
p-value of test                       :    0.16



-----------------------------------------------
CPU time used                    :  00:00:44.06

Generator state:




***********************************************************
HOST = ru01, Linux

MersenneTwiter


swalk_RandomWalk1 test:
-----------------------------------------------
   N =  1,  n = 100000000,  r =  0,   s = 5,   L0 =   50,   L1 =   50



-----------------------------------------------
Test on the values of the Statistic H

Number of degrees of freedom          :   36
ChiSquare statistic                   :   23.94
p-value of test                       :    0.94


-----------------------------------------------
Test on the values of the Statistic M

Number of degrees of freedom          :   35
ChiSquare statistic                   :   36.14
p-value of test                       :    0.42


-----------------------------------------------
Test on the values of the Statistic J

Number of degrees of freedom          :   25
ChiSquare statistic                   :   30.13
p-value of test                       :    0.22


-----------------------------------------------
Test on the values of the Statistic R

Number of degrees of freedom          :   24
ChiSquare statistic                   :   22.50
p-value of test                       :    0.55


-----------------------------------------------
Test on the values of the Statistic C

Number of degrees of freedom          :   17
ChiSquare statistic                   :   12.87
p-value of test                       :    0.75


-----------------------------------------------
CPU time used                    :  00:00:55.06

Generator state:




***********************************************************
HOST = ru01, Linux

MersenneTwiter


swalk_RandomWalk1 test:
-----------------------------------------------
   N =  1,  n = 100000000,  r = 25,   s = 5,   L0 =   50,   L1 =   50



-----------------------------------------------
Test on the values of the Statistic H

Number of degrees of freedom          :   36
ChiSquare statistic                   :   37.21
p-value of test                       :    0.41


-----------------------------------------------
Test on the values of the Statistic M

Number of degrees of freedom          :   35
ChiSquare statistic                   :   38.37
p-value of test                       :    0.32


-----------------------------------------------
Test on the values of the Statistic J

Number of degrees of freedom          :   25
ChiSquare statistic                   :   19.95
p-value of test                       :    0.75


-----------------------------------------------
Test on the values of the Statistic R

Number of degrees of freedom          :   24
ChiSquare statistic                   :   19.40
p-value of test                       :    0.73


-----------------------------------------------
Test on the values of the Statistic C

Number of degrees of freedom          :   17
ChiSquare statistic                   :   25.66
p-value of test                       :    0.08


-----------------------------------------------
CPU time used                    :  00:00:56.55

Generator state:




***********************************************************
HOST = ru01, Linux

MersenneTwiter


swalk_RandomWalk1 test:
-----------------------------------------------
   N =  1,  n = 10000000,  r =  0,   s = 10,   L0 = 1000,   L1 = 1000



-----------------------------------------------
Test on the values of the Statistic H

Number of degrees of freedom          :  146
ChiSquare statistic                   :  154.94
p-value of test                       :    0.29


-----------------------------------------------
Test on the values of the Statistic M

Number of degrees of freedom          :  146
ChiSquare statistic                   :  174.99
p-value of test                       :    0.05


-----------------------------------------------
Test on the values of the Statistic J

Number of degrees of freedom          :  500
ChiSquare statistic                   :  487.95
p-value of test                       :    0.64


-----------------------------------------------
Test on the values of the Statistic R

Number of degrees of freedom          :  136
ChiSquare statistic                   :  106.49
p-value of test                       :    0.97


-----------------------------------------------
Test on the values of the Statistic C

Number of degrees of freedom          :   74
ChiSquare statistic                   :   58.63
p-value of test                       :    0.90


-----------------------------------------------
CPU time used                    :  00:01:02.85

Generator state:




***********************************************************
HOST = ru01, Linux

MersenneTwiter


swalk_RandomWalk1 test:
-----------------------------------------------
   N =  1,  n = 10000000,  r = 20,   s = 10,   L0 = 1000,   L1 = 1000



-----------------------------------------------
Test on the values of the Statistic H

Number of degrees of freedom          :  146
ChiSquare statistic                   :  164.99
p-value of test                       :    0.13


-----------------------------------------------
Test on the values of the Statistic M

Number of degrees of freedom          :  146
ChiSquare statistic                   :  142.52
p-value of test                       :    0.57


-----------------------------------------------
Test on the values of the Statistic J

Number of degrees of freedom          :  500
ChiSquare statistic                   :  463.37
p-value of test                       :    0.88


-----------------------------------------------
Test on the values of the Statistic R

Number of degrees of freedom          :  136
ChiSquare statistic                   :  130.54
p-value of test                       :    0.62


-----------------------------------------------
Test on the values of the Statistic C

Number of degrees of freedom          :   74
ChiSquare statistic                   :   84.12
p-value of test                       :    0.20


-----------------------------------------------
CPU time used                    :  00:00:48.11

Generator state:




***********************************************************
HOST = ru01, Linux

MersenneTwiter


swalk_RandomWalk1 test:
-----------------------------------------------
   N =  1,  n = 1000000,  r =  0,   s = 15,   L0 = 10000,   L1 = 10000



-----------------------------------------------
Test on the values of the Statistic H

Number of degrees of freedom          :  384
ChiSquare statistic                   :  435.13
p-value of test                       :    0.04


-----------------------------------------------
Test on the values of the Statistic M

Number of degrees of freedom          :  384
ChiSquare statistic                   :  397.41
p-value of test                       :    0.31


-----------------------------------------------
Test on the values of the Statistic J

Number of degrees of freedom          : 5000
ChiSquare statistic                   : 5070.27
p-value of test                       :    0.24


-----------------------------------------------
Test on the values of the Statistic R

Number of degrees of freedom          :  378
ChiSquare statistic                   :  332.19
p-value of test                       :    0.96


-----------------------------------------------
Test on the values of the Statistic C

Number of degrees of freedom          :  200
ChiSquare statistic                   :  176.44
p-value of test                       :    0.88


-----------------------------------------------
CPU time used                    :  00:00:37.09

Generator state:




***********************************************************
HOST = ru01, Linux

MersenneTwiter


swalk_RandomWalk1 test:
-----------------------------------------------
   N =  1,  n = 1000000,  r = 15,   s = 15,   L0 = 10000,   L1 = 10000



-----------------------------------------------
Test on the values of the Statistic H

Number of degrees of freedom          :  384
ChiSquare statistic                   :  373.09
p-value of test                       :    0.65


-----------------------------------------------
Test on the values of the Statistic M

Number of degrees of freedom          :  384
ChiSquare statistic                   :  407.95
p-value of test                       :    0.19


-----------------------------------------------
Test on the values of the Statistic J

Number of degrees of freedom          : 5000
ChiSquare statistic                   : 4823.29
p-value of test                       :    0.96


-----------------------------------------------
Test on the values of the Statistic R

Number of degrees of freedom          :  378
ChiSquare statistic                   :  373.29
p-value of test                       :    0.56


-----------------------------------------------
Test on the values of the Statistic C

Number of degrees of freedom          :  200
ChiSquare statistic                   :  210.55
p-value of test                       :    0.29


-----------------------------------------------
CPU time used                    :  00:00:37.15

Generator state:




***********************************************************
HOST = ru01, Linux

MersenneTwiter


scomp_LinearComp test:
-----------------------------------------------
   N =  1,  n = 400020,  r =  0,    s = 1



-----------------------------------------------
Number of degrees of freedom          :   12
Chi2 statistic for size of jumps      :    4.98
p-value of test                       :    0.96


-----------------------------------------------
Normal statistic for number of jumps  : -402.55
p-value of test                       : 1 - eps1    *****



-----------------------------------------------
CPU time used                    :  00:00:06.96

Generator state:




***********************************************************
HOST = ru01, Linux

MersenneTwiter


scomp_LinearComp test:
-----------------------------------------------
   N =  1,  n = 400020,  r = 29,    s = 1



-----------------------------------------------
Number of degrees of freedom          :   12
Chi2 statistic for size of jumps      :    8.07
p-value of test                       :    0.78


-----------------------------------------------
Normal statistic for number of jumps  : -402.10
p-value of test                       : 1 - eps1    *****



-----------------------------------------------
CPU time used                    :  00:00:07.22

Generator state:




***********************************************************
HOST = ru01, Linux

MersenneTwiter


scomp_LempelZiv test:
-----------------------------------------------
   N = 10,  n = 134217728,  r =  0,   s =   30,   k =   27


-----------------------------------------------

Kolmogorov-Smirnov+ statistic = D+    :   0.095
p-value of test                       :    0.79

Kolmogorov-Smirnov- statistic = D-    :    0.28
p-value of test                       :    0.16

Anderson-Darling statistic = A2       :    1.33
p-value of test                       :    0.22

Tests on the sum of all N observations
Standardized normal statistic         :    1.11
p-value of test                       :    0.13

Sample variance                       :    1.92
p-value of test                       :    0.04

-----------------------------------------------
CPU time used                    :  00:01:44.46

Generator state:




***********************************************************
HOST = ru01, Linux

MersenneTwiter


scomp_LempelZiv test:
-----------------------------------------------
   N = 10,  n = 134217728,  r = 15,   s =   15,   k =   27


-----------------------------------------------

Kolmogorov-Smirnov+ statistic = D+    :    0.17
p-value of test                       :    0.51

Kolmogorov-Smirnov- statistic = D-    :    0.24
p-value of test                       :    0.27

Anderson-Darling statistic = A2       :    0.55
p-value of test                       :    0.69

Tests on the sum of all N observations
Standardized normal statistic         :  -0.065
p-value of test                       :    0.53

Sample variance                       :    0.53
p-value of test                       :    0.86

-----------------------------------------------
CPU time used                    :  00:02:05.44

Generator state:




***********************************************************
HOST = ru01, Linux

MersenneTwiter


sspectral_Fourier3 test:
-----------------------------------------------
   N = 100000,  n = 16384,  r =  0,   s =    3,   k =   14


-----------------------------------------------

Kolmogorov-Smirnov+ statistic = D+    : 7.73e-3
p-value of test                       :    0.61

Kolmogorov-Smirnov- statistic = D-    :   0.012
p-value of test                       :    0.32

Anderson-Darling statistic = A2       :    0.53
p-value of test                       :    0.71

-----------------------------------------------
CPU time used                    :  00:00:41.39

Generator state:




***********************************************************
HOST = ru01, Linux

MersenneTwiter


sspectral_Fourier3 test:
-----------------------------------------------
   N = 100000,  n = 16384,  r = 27,   s =    3,   k =   14


-----------------------------------------------

Kolmogorov-Smirnov+ statistic = D+    : 8.00e-3
p-value of test                       :    0.59

Kolmogorov-Smirnov- statistic = D-    : 7.10e-3
p-value of test                       :    0.66

Anderson-Darling statistic = A2       :    0.36
p-value of test                       :    0.89

-----------------------------------------------
CPU time used                    :  00:00:41.68

Generator state:




***********************************************************
HOST = ru01, Linux

MersenneTwiter


sstring_LongestHeadRun test:
-----------------------------------------------
   N =  1,  n = 1000,  r =  0,   s = 3,   L = 10000020


-----------------------------------------------
Number of degrees of freedom          :    8
Chi-square statistic                  :    5.08
p-value of test                       :    0.75

-----------------------------------------------
Global longest run of 1               :   36.00
p-value of test                       :    0.07



-----------------------------------------------
CPU time used                    :  00:01:34.11

Generator state:




***********************************************************
HOST = ru01, Linux

MersenneTwiter


sstring_LongestHeadRun test:
-----------------------------------------------
   N =  1,  n = 1000,  r = 27,   s = 3,   L = 10000020


-----------------------------------------------
Number of degrees of freedom          :    8
Chi-square statistic                  :    8.38
p-value of test                       :    0.40

-----------------------------------------------
Global longest run of 1               :   32.00
p-value of test                       :    0.50



-----------------------------------------------
CPU time used                    :  00:01:34.22

Generator state:




***********************************************************
HOST = ru01, Linux

MersenneTwiter


sstring_PeriodsInStrings test:
-----------------------------------------------
   N = 10,  n = 500000000,  r =  0,   s =   10


-----------------------------------------------

Kolmogorov-Smirnov+ statistic = D+    :   0.079
p-value of test                       :    0.84

Kolmogorov-Smirnov- statistic = D-    :    0.20
p-value of test                       :    0.40

Anderson-Darling statistic = A2       :    0.44
p-value of test                       :    0.80

Test on the sum of all N observations
Number of degrees of freedom          :  200
Chi-square statistic                  :  215.06
p-value of test                       :    0.22

-----------------------------------------------
CPU time used                    :  00:02:48.20

Generator state:




***********************************************************
HOST = ru01, Linux

MersenneTwiter


sstring_PeriodsInStrings test:
-----------------------------------------------
   N = 10,  n = 500000000,  r = 20,   s =   10


-----------------------------------------------

Kolmogorov-Smirnov+ statistic = D+    : 8.79e-3
p-value of test                       :    0.9905

Kolmogorov-Smirnov- statistic = D-    :    0.33
p-value of test                       :    0.09

Anderson-Darling statistic = A2       :    2.61
p-value of test                       :    0.04

Test on the sum of all N observations
Number of degrees of freedom          :  200
Chi-square statistic                  :  250.23
p-value of test                       :  9.1e-3

-----------------------------------------------
CPU time used                    :  00:02:53.86

Generator state:




***********************************************************
HOST = ru01, Linux

MersenneTwiter


sstring_HammingWeight2 test:
-----------------------------------------------
   N = 10,  n = 1000000000,  r =  0,   s = 3,   L = 1000000


-----------------------------------------------

Kolmogorov-Smirnov+ statistic = D+    :    0.32
p-value of test                       :    0.10

Kolmogorov-Smirnov- statistic = D-    :    0.10
p-value of test                       :    0.76

Anderson-Darling statistic = A2       :    0.69
p-value of test                       :    0.56

Test on the sum of all N observations
Number of degrees of freedom          : 10000
Chi-square statistic                  : 9924.11
p-value of test                       :    0.70

-----------------------------------------------
CPU time used                    :  00:00:57.81

Generator state:




***********************************************************
HOST = ru01, Linux

MersenneTwiter


sstring_HammingWeight2 test:
-----------------------------------------------
   N = 10,  n = 1000000000,  r = 27,   s = 3,   L = 1000000


-----------------------------------------------

Kolmogorov-Smirnov+ statistic = D+    :    0.30
p-value of test                       :    0.13

Kolmogorov-Smirnov- statistic = D-    :   0.091
p-value of test                       :    0.80

Anderson-Darling statistic = A2       :    0.68
p-value of test                       :    0.57

Test on the sum of all N observations
Number of degrees of freedom          : 10000
Chi-square statistic                  : 9912.42
p-value of test                       :    0.73

-----------------------------------------------
CPU time used                    :  00:01:00.54

Generator state:




***********************************************************
HOST = ru01, Linux

MersenneTwiter


sstring_HammingCorr test:
-----------------------------------------------
   N =  1,  n = 1000000000,  r = 10,   s = 10,   L = 30



-----------------------------------------------
Normal statistic                      :    1.90
p-value of test                       :    0.03

-----------------------------------------------
CPU time used                    :  00:01:11.12

Generator state:




***********************************************************
HOST = ru01, Linux

MersenneTwiter


sstring_HammingCorr test:
-----------------------------------------------
   N =  1,  n = 100000000,  r = 10,   s = 10,   L = 300



-----------------------------------------------
Normal statistic                      :  -0.049
p-value of test                       :    0.52

-----------------------------------------------
CPU time used                    :  00:01:08.31

Generator state:




***********************************************************
HOST = ru01, Linux

MersenneTwiter


sstring_HammingCorr test:
-----------------------------------------------
   N =  1,  n = 100000000,  r = 10,   s = 10,   L = 1200



-----------------------------------------------
Normal statistic                      :   -0.17
p-value of test                       :    0.57

-----------------------------------------------
CPU time used                    :  00:04:27.59

Generator state:




***********************************************************
HOST = ru01, Linux

MersenneTwiter


sstring_HammingIndep test:
-----------------------------------------------
   N = 10,  n = 30000000,  r =  0,   s = 3,   L = 30,   d = 0



Counters with expected numbers >= 10
-----------------------------------------------

Kolmogorov-Smirnov+ statistic = D+    :    0.27
p-value of test                       :    0.20

Kolmogorov-Smirnov- statistic = D-    :    0.13
p-value of test                       :    0.64

Anderson-Darling statistic = A2       :    1.39
p-value of test                       :    0.20

Test on the sum of all N observations
Number of degrees of freedom          : 4890
Chi-square statistic                  : 4768.04
p-value of test                       :    0.89

-----------------------------------------------
CPU time used                    :  00:01:53.02

Generator state:




***********************************************************
HOST = ru01, Linux

MersenneTwiter


sstring_HammingIndep test:
-----------------------------------------------
   N = 10,  n = 30000000,  r = 27,   s = 3,   L = 30,   d = 0



Counters with expected numbers >= 10
-----------------------------------------------

Kolmogorov-Smirnov+ statistic = D+    :    0.42
p-value of test                       :    0.02

Kolmogorov-Smirnov- statistic = D-    :   0.090
p-value of test                       :    0.81

Anderson-Darling statistic = A2       :    2.71
p-value of test                       :    0.04

Test on the sum of all N observations
Number of degrees of freedom          : 4890
Chi-square statistic                  : 4702.70
p-value of test                       :    0.97

-----------------------------------------------
CPU time used                    :  00:01:57.55

Generator state:




***********************************************************
HOST = ru01, Linux

MersenneTwiter


sstring_HammingIndep test:
-----------------------------------------------
   N =  1,  n = 30000000,  r =  0,   s = 4,   L = 300,   d = 0



Counters with expected numbers >= 10
-----------------------------------------------
Number of degrees of freedom          : 4117
Chi-square statistic                  : 4196.95
p-value of test                       :    0.19

-----------------------------------------------
CPU time used                    :  00:01:22.73

Generator state:




***********************************************************
HOST = ru01, Linux

MersenneTwiter


sstring_HammingIndep test:
-----------------------------------------------
   N =  1,  n = 30000000,  r = 26,   s = 4,   L = 300,   d = 0



Counters with expected numbers >= 10
-----------------------------------------------
Number of degrees of freedom          : 4117
Chi-square statistic                  : 4062.19
p-value of test                       :    0.73

-----------------------------------------------
CPU time used                    :  00:01:25.65

Generator state:




***********************************************************
HOST = ru01, Linux

MersenneTwiter


sstring_HammingIndep test:
-----------------------------------------------
   N =  1,  n = 10000000,  r =  0,   s = 5,   L = 1200,   d = 0



Counters with expected numbers >= 10
-----------------------------------------------
Number of degrees of freedom          : 11825
Chi-square statistic                  :11677.42
p-value of test                       :    0.83

-----------------------------------------------
CPU time used                    :  00:01:30.32

Generator state:




***********************************************************
HOST = ru01, Linux

MersenneTwiter


sstring_HammingIndep test:
-----------------------------------------------
   N =  1,  n = 10000000,  r = 25,   s = 5,   L = 1200,   d = 0



Counters with expected numbers >= 10
-----------------------------------------------
Number of degrees of freedom          : 11825
Chi-square statistic                  :11906.49
p-value of test                       :    0.30

-----------------------------------------------
CPU time used                    :  00:01:27.50

Generator state:




***********************************************************
HOST = ru01, Linux

MersenneTwiter


sstring_Run test:
-----------------------------------------------
   N =  1,  n = 2000000000,  r =  0,   s =    3


-----------------------------------------------
Total number of 1 runs:  2000000000

Number of degrees of freedom          :   54
Chi2 statistic for number of runs     :   69.96
p-value of test                       :    0.07


-----------------------------------------------
Total number of bits:  7999978839

Normal statistic for number of bits   :   -0.17
p-value of test                       :    0.57



-----------------------------------------------
CPU time used                    :  00:00:59.56

Generator state:




***********************************************************
HOST = ru01, Linux

MersenneTwiter


sstring_Run test:
-----------------------------------------------
   N =  1,  n = 2000000000,  r = 27,   s =    3


-----------------------------------------------
Total number of 1 runs:  2000000000

Number of degrees of freedom          :   54
Chi2 statistic for number of runs     :   56.64
p-value of test                       :    0.38


-----------------------------------------------
Total number of bits:  7999949844

Normal statistic for number of bits   :   -0.40
p-value of test                       :    0.65



-----------------------------------------------
CPU time used                    :  00:01:01.20

Generator state:




***********************************************************
HOST = ru01, Linux

MersenneTwiter


sstring_AutoCor test:
-----------------------------------------------
   N = 10,  n = 1000000030,  r =  0,   s = 3,   d = 1


-----------------------------------------------

Kolmogorov-Smirnov+ statistic = D+    :   0.058
p-value of test                       :    0.90

Kolmogorov-Smirnov- statistic = D-    :    0.24
p-value of test                       :    0.27

Anderson-Darling statistic = A2       :    0.92
p-value of test                       :    0.40

Tests on the sum of all N observations
Standardized normal statistic         :    1.15
p-value of test                       :    0.13

Sample variance                       :    0.90
p-value of test                       :    0.52

-----------------------------------------------
CPU time used                    :  00:01:07.90

Generator state:




***********************************************************
HOST = ru01, Linux

MersenneTwiter


sstring_AutoCor test:
-----------------------------------------------
   N = 10,  n = 1000000029,  r =  0,   s = 3,   d = 3


-----------------------------------------------

Kolmogorov-Smirnov+ statistic = D+    :   0.082
p-value of test                       :    0.83

Kolmogorov-Smirnov- statistic = D-    :    0.19
p-value of test                       :    0.44

Anderson-Darling statistic = A2       :    0.47
p-value of test                       :    0.78

Tests on the sum of all N observations
Standardized normal statistic         :    0.62
p-value of test                       :    0.27

Sample variance                       :    0.70
p-value of test                       :    0.71

-----------------------------------------------
CPU time used                    :  00:00:53.88

Generator state:




***********************************************************
HOST = ru01, Linux

MersenneTwiter


sstring_AutoCor test:
-----------------------------------------------
   N = 10,  n = 1000000030,  r = 27,   s = 3,   d = 1


-----------------------------------------------

Kolmogorov-Smirnov+ statistic = D+    :   0.085
p-value of test                       :    0.82

Kolmogorov-Smirnov- statistic = D-    :    0.17
p-value of test                       :    0.52

Anderson-Darling statistic = A2       :    0.55
p-value of test                       :    0.69

Tests on the sum of all N observations
Standardized normal statistic         :    0.72
p-value of test                       :    0.24

Sample variance                       :    1.84
p-value of test                       :    0.06

-----------------------------------------------
CPU time used                    :  00:01:08.20

Generator state:




***********************************************************
HOST = ru01, Linux

MersenneTwiter


sstring_AutoCor test:
-----------------------------------------------
   N = 10,  n = 1000000029,  r = 27,   s = 3,   d = 3


-----------------------------------------------

Kolmogorov-Smirnov+ statistic = D+    :   0.073
p-value of test                       :    0.86

Kolmogorov-Smirnov- statistic = D-    :    0.29
p-value of test                       :    0.16

Anderson-Darling statistic = A2       :    0.85
p-value of test                       :    0.44

Tests on the sum of all N observations
Standardized normal statistic         :    0.91
p-value of test                       :    0.18

Sample variance                       :    0.53
p-value of test                       :    0.85

-----------------------------------------------
CPU time used                    :  00:00:54.11

Generator state:





========= Summary results of BigCrush =========

 Version:          TestU01 1.2.3
 Generator:        MersenneTwiter
 Number of statistics:  160
 Total CPU time:   04:38:17.54
 The following tests gave p-values outside [0.001, 0.9990]:
 (eps  means a value < 1.0e-300):
 (eps1 means a value < 1.0e-15):

       Test                          p-value
 ----------------------------------------------
 28  SimpPoker, r = 0                0.9992 
 80  LinearComp, r = 0              1 - eps1
 81  LinearComp, r = 29             1 - eps1
 ----------------------------------------------
 All other tests were passed



